episode,reward,step,sensitive
0,-1285,330,0
1,-1185,330,1
2,-1555,330,0
3,-1140,330,1
4,-1655,330,0
5,-825,330,2
6,-1655,330,0
7,-935,330,1
8,-765,330,2
9,-1280,330,0
10,-1400,330,0
11,-880,330,2
12,-885,330,2
13,-890,330,1
14,-1125,330,1
15,-1050,330,0
16,-880,330,1
17,-670,330,3
18,-950,330,2
19,-1490,330,0
20,-765,330,3
21,-1385,330,0
22,-1160,330,1
23,-930,330,2
24,-965,330,1
25,-1245,330,0
26,-655,330,3
27,-1035,330,0
28,-810,330,1
29,-945,330,2
30,-760,330,2
31,-855,330,2
32,-1045,330,1
33,-820,330,2
34,-760,330,3
35,-825,330,2
36,-890,330,1
37,-750,330,3
38,-745,330,2
39,-835,330,2
40,-620,330,3
41,-850,330,2
42,-755,330,2
43,-1580,330,0
44,-810,330,2
45,-775,330,3
46,-855,330,2
47,-900,330,1
48,-995,330,0
49,-940,330,2
50,-730,330,2
51,-1655,330,0
52,-1310,330,0
53,-820,330,2
54,-645,330,3
55,-920,330,2
56,-975,330,2
57,-800,330,3
58,-690,330,3
59,-845,330,2
60,-645,330,3
61,-1120,330,1
62,-850,330,2
63,-830,330,2
64,-645,330,3
65,-995,330,1
66,-820,330,2
67,-1060,330,1
68,-1000,330,1
69,-890,330,3
70,-625,330,3
71,-710,330,2
72,-605,330,3
73,-770,330,3
74,-775,330,2
75,-845,330,2
76,-280,267,4
77,-1045,330,0
78,-800,330,2
79,-815,330,2
80,-835,330,1
81,-895,330,1
82,-1185,330,0
83,-960,330,1
84,-685,330,3
85,-770,330,2
86,-70,226,4
87,-540,330,4
88,-435,302,4
89,-725,330,3
90,-695,330,3
91,-875,330,1
92,-900,330,1
93,-1045,330,1
94,-580,330,3
95,-695,330,3
96,-750,330,2
97,-620,330,3
98,-1000,330,0
99,-645,330,3
100,-885,330,1
101,-1115,330,1
102,-665,330,3
103,-920,330,2
104,-765,330,3
105,-790,330,2
106,-770,330,3
107,-740,330,3
108,-1070,330,0
109,-770,330,2
110,-705,330,3
111,-965,330,1
112,-895,330,1
113,-755,330,2
114,-795,330,2
115,-685,330,3
116,-635,330,3
117,-875,330,1
118,-785,330,3
119,-540,330,3
120,-880,330,1
121,-690,330,3
122,-750,330,2
123,-130,226,4
124,-625,330,3
125,-905,330,2
126,-650,330,3
127,-570,330,3
128,-770,330,2
129,-740,330,3
130,-970,330,1
131,-685,330,3
132,-890,330,1
133,-960,330,1
134,-925,330,2
135,-1245,330,1
136,-635,330,3
137,-730,330,3
138,-680,330,3
139,-620,330,3
140,-770,330,2
141,-920,330,1
142,-720,330,3
143,-710,330,3
144,-110,208,4
145,-820,330,2
146,-620,330,3
147,-670,330,3
148,-670,330,3
149,-600,330,3
150,-940,330,1
151,-835,330,2
152,-785,330,2
153,-985,330,1
154,-790,330,3
155,-895,330,1
156,-730,330,2
157,-725,330,3
158,-765,330,2
159,-1000,330,1
160,-635,330,3
161,-745,330,3
162,-765,330,2
163,-725,330,2
164,-835,330,2
165,-675,330,3
166,-630,330,3
167,-835,330,2
168,-255,267,4
169,-560,323,4
170,-855,330,1
171,-435,284,4
172,-295,278,4
173,-645,330,3
174,-650,330,3
175,-160,238,4
176,-670,330,3
177,-865,330,2
178,-675,330,3
179,-905,330,1
180,-825,330,1
181,-645,330,3
182,-860,330,2
183,-590,330,3
184,-645,330,3
185,-610,330,3
186,-660,330,3
187,-810,330,1
188,-855,330,1
189,-680,330,3
190,-1010,330,0
191,-730,330,2
192,-755,330,3
193,-660,330,3
194,-860,330,2
195,-875,330,1
196,-1005,330,0
197,65,191,4
198,-420,322,4
199,-990,330,1
200,-665,330,3
201,-705,330,3
202,-525,318,4
203,-895,330,1
204,-780,330,2
205,-830,330,2
206,-385,283,4
207,-845,330,2
208,-505,306,4
209,-760,330,3
210,-760,330,2
211,-715,330,3
212,-630,330,3
213,-655,330,3
214,-240,248,4
215,-1035,330,0
216,-645,330,3
217,-865,330,2
218,-775,330,2
219,-490,315,4
220,-780,330,2
221,-1045,330,1
222,-635,330,3
223,-1065,330,0
224,-635,330,3
225,-805,330,2
226,-25,186,4
227,-720,330,3
228,-705,330,3
229,-330,264,4
230,-655,330,3
231,-755,330,2
232,-785,330,2
233,-710,330,3
234,-635,330,3
235,-645,330,3
236,-755,330,3
237,60,177,4
238,-1070,330,1
239,-775,330,3
240,-695,330,2
241,-850,330,2
242,-900,330,1
243,-630,330,3
244,-635,330,3
245,-665,330,3
246,-640,330,3
247,-835,330,1
248,-725,330,2
249,-670,330,3
250,-680,330,3
251,-75,208,4
252,-700,330,2
253,-705,330,3
254,-875,330,1
255,-970,330,2
256,-710,330,3
257,-615,330,3
258,-965,330,1
259,-805,330,2
260,-855,330,2
261,-765,330,2
262,-890,330,1
263,-725,330,3
264,110,177,4
265,-915,330,1
266,-885,330,2
267,-635,330,3
268,-295,266,4
269,-585,330,3
270,-830,330,2
271,-635,330,3
272,-670,330,3
273,-1005,330,1
274,-655,330,3
275,-890,330,1
276,-1075,330,1
277,-815,330,2
278,-655,330,3
279,-910,330,1
280,-925,330,1
281,-220,236,4
282,-875,330,1
283,-785,330,2
284,-1000,330,0
285,-810,330,2
286,-475,282,4
287,-715,330,3
288,-855,330,2
289,-690,330,3
290,-200,250,4
291,-1135,330,0
292,-705,330,3
293,-575,330,3
294,-690,330,3
295,-690,330,3
296,-650,330,3
297,-680,330,3
298,-740,330,3
299,-835,330,2
300,-940,330,1
301,-670,330,3
302,-410,290,4
303,-805,330,2
304,-185,225,4
305,-675,330,3
306,-730,330,3
307,-835,330,2
308,-810,330,2
309,-95,198,4
310,-545,323,4
311,-760,330,2
312,-990,330,1
313,-870,330,2
314,-320,263,4
315,-910,330,1
316,-225,255,4
317,-860,330,2
318,-785,330,2
319,-840,330,2
320,-625,330,3
321,-860,330,2
322,-655,330,3
323,-705,330,3
324,-770,330,3
325,-745,330,2
326,-735,330,2
327,-925,330,1
328,-845,330,2
329,-760,330,3
330,-825,330,2
331,-830,330,2
332,-720,330,2
333,-835,330,2
334,-545,323,4
335,-640,314,4
336,-960,330,1
337,-715,330,3
338,-385,264,4
339,-865,330,2
340,-800,330,2
341,-820,330,2
342,-970,330,0
343,-695,330,3
344,-685,330,3
345,-840,330,2
346,-1000,330,1
347,-655,330,3
348,-800,330,2
349,-730,330,3
350,-350,265,4
351,-705,330,3
352,-905,330,2
353,-675,330,3
354,-420,296,4
355,-710,330,3
356,-860,330,2
357,-690,330,3
358,-795,330,2
359,-685,330,3
360,-655,330,3
361,-590,321,4
362,-610,327,4
363,-850,330,1
364,-860,330,2
365,-650,330,3
366,-810,330,2
367,-835,330,2
368,-735,330,2
369,-850,330,1
370,-695,330,2
371,-340,297,4
372,-795,330,2
373,-300,267,4
374,-745,330,2
375,-830,330,2
376,255,165,4
377,-650,330,3
378,-645,330,3
379,-895,330,2
380,-665,330,3
381,-685,330,3
382,-790,330,2
383,-785,330,2
384,-395,301,4
385,-840,330,2
386,-565,327,4
387,-75,224,4
388,-900,330,1
389,-690,330,3
390,-395,282,4
391,-700,330,3
392,10,197,4
393,-610,330,3
394,-640,330,3
395,-620,330,3
396,-690,330,2
397,-810,330,2
398,-790,330,2
399,-765,330,2
400,-735,330,3
401,-920,330,2
402,-1050,330,1
403,-1260,330,0
404,-1075,330,1
405,-1185,330,1
406,-1235,330,0
407,-750,330,2
408,-805,330,3
409,-1150,330,1
410,-1015,330,1
411,-1180,330,1
412,-1220,330,1
413,-810,330,2
414,-785,330,3
415,-850,330,2
416,-910,330,1
417,-1205,330,1
418,-1200,330,0
419,-935,330,2
420,-695,330,3
421,-1125,330,1
422,-1245,330,1
423,-815,330,2
424,-1105,330,0
425,-1250,330,0
426,-960,330,2
427,-1090,330,1
428,-1145,330,1
429,-1205,330,1
430,-1200,330,1
431,-635,330,3
432,-1210,330,1
433,-690,330,3
434,-1045,330,2
435,-750,330,3
436,-1230,330,1
437,-785,330,2
438,-965,330,2
439,-840,330,2
440,-860,330,2
441,-925,330,2
442,-895,330,1
443,-1125,330,1
444,-730,330,3
445,-355,260,4
446,-850,330,2
447,-995,330,1
448,-1110,330,1
449,-875,330,2
450,-860,330,2
451,-850,330,2
452,-1155,330,1
453,-1015,330,1
454,-980,330,1
455,-765,330,3
456,-1285,330,0
457,-1195,330,1
458,-940,330,2
459,-1120,330,1
460,-840,330,2
461,-970,330,2
462,-1150,330,1
463,-1160,330,1
464,-770,330,3
465,-1075,330,2
466,-940,330,1
467,-1030,330,1
468,-780,330,2
469,-870,330,2
470,-1090,330,2
471,-1395,330,1
472,-780,330,2
473,-1490,330,0
474,-1235,330,1
475,-870,330,2
476,-1220,330,1
477,-1565,330,0
478,-1255,330,0
479,-1490,330,0
480,-1480,330,0
481,-1000,330,1
482,-1505,330,0
483,-1310,330,0
484,-915,330,1
485,-1155,330,1
486,-750,330,2
487,-1170,330,1
488,-1015,330,1
489,-1060,330,1
490,-825,330,2
491,-910,330,2
492,-1050,330,2
493,-535,321,4
494,-1025,330,2
495,-920,330,1
496,-1030,330,1
497,-1185,330,1
498,-1115,330,1
499,-1135,330,1
500,-1055,330,2
501,-1180,330,1
502,-680,330,3
503,-1165,330,1
504,-1110,330,1
505,-995,330,2
506,-1140,330,1
507,-1145,330,1
508,-1190,330,1
509,-1250,330,1
510,-1145,330,1
511,-1500,330,0
512,-1445,330,0
513,-1190,330,0
514,-1385,330,0
515,-1005,330,2
516,-1285,330,0
517,-1145,330,1
518,-1165,330,1
519,-1045,330,1
520,-1160,330,1
521,-865,330,2
522,-1255,330,1
523,-875,330,2
524,-1095,330,1
525,-1355,330,0
526,-1120,330,1
527,-1135,330,1
528,-790,330,3
529,-1280,330,0
530,-1250,330,1
531,-1190,330,1
532,-1045,330,2
533,-1080,330,1
534,-985,330,1
535,-835,330,2
536,-1525,330,0
537,-965,330,2
538,-1160,330,1
539,-870,330,2
540,-1520,330,0
541,-990,330,1
542,-1345,330,0
543,-1140,330,1
544,-1170,330,1
545,-1480,330,0
546,-1135,330,0
547,-1005,330,2
548,-1040,330,2
549,-1135,330,1
550,-1165,330,1
551,-1160,330,1
552,-900,330,2
553,-1095,330,1
554,-995,330,2
555,-1145,330,1
556,-820,330,3
557,-1265,330,0
558,-1040,330,2
559,-1055,330,1
560,-1005,330,1
561,-1150,330,1
562,-990,330,2
563,-1025,330,1
564,-1045,330,1
565,-865,330,2
566,-970,330,2
567,-1310,330,0
568,-1250,330,0
569,-1095,330,1
570,-1025,330,1
571,-990,330,1
572,-1125,330,1
573,-900,330,2
574,-1080,330,1
575,-1115,330,1
576,-1080,330,1
577,-720,330,3
578,-985,330,1
579,-825,330,3
580,-930,330,1
581,-1155,330,1
582,-1060,330,2
583,-1105,330,1
584,-1095,330,1
585,-890,330,2
586,-1165,330,1
587,-990,330,1
588,-1005,330,2
589,-1090,330,1
590,-880,330,2
591,-1180,330,1
592,-410,277,4
593,-1025,330,2
594,-875,330,2
595,-945,330,2
596,-1125,330,1
597,-910,330,2
598,-1085,330,1
599,-1045,330,2
600,-1005,330,2
601,-1145,330,1
602,-1100,330,1
603,-1115,330,1
604,-1030,330,2
605,-1300,330,0
606,-1045,330,1
607,-1105,330,1
608,-890,330,2
609,-1025,330,1
610,-1175,330,1
611,-765,330,3
612,-1115,330,1
613,-995,330,2
614,-1110,330,1
615,-920,330,2
616,-740,330,3
617,-880,330,2
618,-800,330,2
619,-1015,330,1
620,-1170,330,1
621,-1155,330,1
622,-995,330,2
623,-930,330,2
624,-1195,330,1
625,-1065,330,1
626,-1135,330,1
627,-855,330,2
628,-840,330,2
629,-1130,330,1
630,-1075,330,1
631,-1290,330,0
632,-755,330,3
633,-950,330,2
634,-1175,330,0
635,-1005,330,1
636,-1130,330,1
637,-985,330,2
638,-1125,330,1
639,-1125,330,1
640,-1115,330,1
641,-1155,330,1
642,-1070,330,1
643,-1140,330,1
644,-1090,330,1
645,-1030,330,2
646,-1010,330,2
647,-945,330,2
648,-1080,330,1
649,-830,330,2
650,-1050,330,1
651,-1070,330,1
652,-1060,330,1
653,-445,276,4
654,-750,330,3
655,-935,330,2
656,-905,330,1
657,-1005,330,2
658,-1095,330,1
659,-1030,330,1
660,-900,330,2
661,-1000,330,1
662,-960,330,2
663,-860,330,2
664,-890,330,2
665,-775,330,3
666,-855,330,2
667,-1080,330,1
668,-965,330,1
669,-970,330,1
670,-1090,330,1
671,-790,330,3
672,-815,330,3
673,-930,330,1
674,-780,330,3
675,-785,330,3
676,-825,330,2
677,-870,330,2
678,-990,330,1
679,-895,330,3
680,-1010,330,1
681,-1065,330,1
682,-860,330,2
683,-1045,330,1
684,-930,330,1
685,-875,330,2
686,-815,330,2
687,-675,316,4
688,-1030,330,1
689,-1060,330,1
690,-835,330,2
691,-1000,330,1
692,-875,330,2
693,-1000,330,2
694,-1005,330,1
695,-975,330,1
696,-690,325,4
697,-830,330,2
698,-1055,330,1
699,-850,330,2
700,-735,330,3
701,-740,330,3
702,-815,330,2
703,-885,330,2
704,-690,330,3
705,-990,330,1
706,-695,330,3
707,-910,330,2
708,-950,330,2
709,-845,330,3
710,-915,330,2
711,-1025,330,1
712,-965,330,2
713,-925,330,2
714,-1090,330,0
715,-1100,330,1
716,-980,330,1
717,-875,330,2
718,-1060,330,0
719,-1265,330,0
720,-895,330,2
721,-765,330,3
722,-860,330,2
723,-1015,330,2
724,-1090,330,1
725,-930,330,2
726,-950,330,1
727,-915,330,2
728,-1045,330,1
729,-875,330,2
730,-880,330,3
731,-950,330,2
732,-1010,330,1
733,-1005,330,1
734,-980,330,1
735,-780,330,3
736,-840,330,2
737,-880,330,2
738,-965,330,2
739,-955,330,1
740,-815,330,2
741,-1040,330,2
742,-675,330,3
743,-925,330,2
744,-940,330,2
745,-1015,330,1
746,-950,330,2
747,-990,330,1
748,-1010,330,2
749,-980,330,2
750,-785,330,3
751,-980,330,1
752,-1135,330,1
753,-1100,330,1
754,-800,330,2
755,-925,330,2
756,-1240,330,0
757,-1050,330,2
758,-1090,330,1
759,-1085,330,1
760,-920,330,2
761,-1085,330,1
762,-960,330,2
763,-1015,330,1
764,-865,330,3
765,-895,330,2
766,-1090,330,1
767,-910,330,2
768,-885,330,2
769,-985,330,2
770,-1105,330,1
771,-1215,330,0
772,-1015,330,1
773,-1030,330,2
774,-1205,330,0
775,-1080,330,1
776,-930,330,2
777,-930,330,2
778,-1135,330,1
779,-910,330,2
780,-865,330,3
781,-995,330,1
782,-1150,330,1
783,-1200,330,0
784,-1305,330,0
785,-1035,330,2
786,-1010,330,2
787,-1170,330,1
788,-1040,330,1
789,-825,330,3
790,-920,330,2
791,-935,330,2
792,-1250,330,0
793,-985,330,2
794,-1210,330,1
795,-890,330,2
796,-875,330,2
797,-1250,330,0
798,-1125,330,0
799,-1110,330,0
800,-885,330,2
801,-930,330,3
802,-1050,330,1
803,-915,330,1
804,-920,330,2
805,-1005,330,1
806,-900,330,2
807,-930,330,3
808,-1160,330,0
809,-920,330,2
810,-1025,330,1
811,-1095,330,1
812,-895,330,2
813,-1055,330,1
814,-935,330,2
815,-1125,330,0
816,-790,330,3
817,-1155,330,0
818,-1060,330,1
819,-790,330,3
820,-1120,330,1
821,-925,330,1
822,-960,330,1
823,-1040,330,2
824,-950,330,1
825,-825,330,3
826,-990,330,2
827,-1030,330,1
828,-1035,330,1
829,-810,330,2
830,-920,330,1
831,-1165,330,1
832,-790,330,3
833,-925,330,2
834,-890,330,2
835,-1040,330,1
836,-910,330,2
837,-1085,330,1
838,-1070,330,1
839,-975,330,2
840,-1050,330,1
841,-1120,330,1
842,-1140,330,1
843,-840,330,3
844,-995,330,2
845,-850,330,2
846,-1125,330,1
847,-1005,330,1
848,-800,330,3
849,-815,330,2
850,-980,330,2
851,-1125,330,1
852,-1145,330,1
853,-805,330,3
854,-890,330,2
855,-785,330,3
856,-890,330,2
857,-755,330,3
858,-1070,330,1
859,-1135,330,1
860,-1080,330,1
861,-930,330,2
862,-1050,330,1
863,-805,330,3
864,-900,330,2
865,-1020,330,1
866,-1245,330,0
867,-915,330,1
868,-1135,330,0
869,-1080,330,1
870,-1015,330,1
871,-1085,330,1
872,-945,330,2
873,-1085,330,1
874,-1030,330,1
875,-1110,330,0
876,-945,330,2
877,-1145,330,0
878,-1080,330,1
879,-830,330,3
880,-940,330,2
881,-1075,330,1
882,-1030,330,1
883,-925,330,2
884,-930,330,2
885,-950,330,2
886,-1180,330,0
887,-1095,330,0
888,-895,330,2
889,-1135,330,0
890,-1045,330,1
891,-1175,330,0
892,-1025,330,1
893,-905,330,2
894,-1080,330,1
895,-805,330,3
896,-1125,330,1
897,-935,330,1
898,-950,330,2
899,-1030,330,1
900,-970,330,2
901,-1150,330,0
902,-1205,330,1
903,-1020,330,1
904,-1010,330,1
905,-1055,330,1
906,-1145,330,1
907,-1130,330,1
908,-960,330,2
909,-845,330,3
910,-975,330,1
911,-1020,330,2
912,-925,330,2
913,-1175,330,1
914,-1260,330,0
915,-1055,330,1
916,-1110,330,0
917,-925,330,2
918,-785,330,3
919,-955,330,2
920,-1095,330,1
921,-1125,330,1
922,-905,330,2
923,-1175,330,1
924,-820,330,3
925,-1080,330,1
926,-1035,330,1
927,-1025,330,1
928,-1145,330,1
929,-1080,330,1
930,-1145,330,1
931,-1230,330,1
932,-835,330,3
933,-1115,330,0
934,-1180,330,1
935,-1025,330,2
936,-1120,330,1
937,-1160,330,1
938,-955,330,2
939,-1000,330,2
940,-1135,330,1
941,-845,330,2
942,-1200,330,1
943,-915,330,2
944,-1055,330,1
945,-1275,330,1
946,-930,330,2
947,-1055,330,1
948,-1235,330,1
949,-1025,330,1
950,-720,330,3
951,-865,330,3
952,-985,330,2
953,-1050,330,1
954,-1140,330,1
955,-1150,330,0
956,-1085,330,1
957,-965,330,2
958,-1110,330,1
959,-1015,330,1
960,-1030,330,2
961,-935,330,2
962,-1110,330,1
963,-1115,330,1
964,-1060,330,1
965,-1065,330,1
966,-915,330,2
967,-960,330,2
968,-930,330,2
969,-925,330,1
970,-955,330,2
971,-1085,330,1
972,-945,330,2
973,-985,330,2
974,-1040,330,1
975,-1055,330,1
976,-890,330,3
977,-1065,330,1
978,-1175,330,1
979,-1005,330,1
980,-1165,330,1
981,-1100,330,1
982,-1010,330,1
983,-1045,330,1
984,-920,330,2
985,-930,330,2
986,-990,330,2
987,-1025,330,2
988,-1015,330,2
989,-930,330,2
990,-1040,330,2
991,-1015,330,1
992,-965,330,2
993,-855,330,3
994,-1060,330,1
995,-1080,330,1
996,-1005,330,2
997,-1100,330,1
998,-1025,330,2
999,-870,330,2
