episode,reward,step,sensitive
0,1075,484,15
1,-4700,1509,10
2,-125,798,15
3,-5060,1509,10
4,1755,159,15
5,45,653,15
6,1725,222,15
7,2320,240,15
8,805,557,15
9,460,536,15
10,2500,232,15
11,2190,206,15
12,1730,314,15
13,1860,263,15
14,1945,231,15
15,1015,577,15
16,2300,208,15
17,2030,231,15
18,2540,196,15
19,2070,270,15
20,1920,141,15
21,1875,105,15
22,2130,203,15
23,2140,159,15
24,2285,168,15
25,2105,101,15
26,2135,128,15
27,2210,124,15
28,2250,119,15
29,2190,113,15
30,2050,112,15
31,2105,98,15
32,2505,170,15
33,2575,219,15
34,2075,107,15
35,1805,77,15
36,2250,176,15
37,1760,122,15
38,2105,145,15
39,1955,310,15
40,1135,324,15
41,2145,304,15
42,1765,103,15
43,1905,173,15
44,1405,453,15
45,2160,212,15
46,1980,172,15
47,2095,270,15
48,1940,320,15
49,1945,266,15
50,1805,289,15
51,-85,699,15
52,-480,792,15
53,1710,330,15
54,1935,334,15
55,2200,240,15
56,1700,310,15
57,2235,194,15
58,1645,260,15
59,2240,164,15
60,1565,401,15
61,1980,248,15
62,1580,295,15
63,2030,94,15
64,2150,170,15
65,1760,261,15
66,2020,102,15
67,1725,247,15
68,2145,135,15
69,2245,159,15
70,1870,150,15
71,2035,149,15
72,1860,238,15
73,1830,208,15
74,2250,192,15
75,2055,190,15
76,2165,174,15
77,2185,169,15
78,1905,184,15
79,2360,185,15
80,1970,89,15
81,1905,176,15
82,1840,302,15
83,1880,190,15
84,1950,90,15
85,2000,189,15
86,1775,79,15
87,2185,295,15
88,1895,74,15
89,2010,348,15
90,1855,81,15
91,2235,131,15
92,1975,126,15
93,2155,189,15
94,1965,113,15
95,1890,155,15
96,1750,82,15
97,1930,195,15
98,1835,107,15
99,1750,159,15
100,2030,148,15
101,1625,152,15
102,2300,124,15
103,2035,197,15
104,1640,74,15
105,2025,304,15
106,1660,118,15
107,1645,63,15
108,2245,153,15
109,1995,93,15
110,1865,83,15
111,1845,117,15
112,1955,98,15
113,2355,159,15
114,1895,68,15
115,1970,109,15
116,2180,113,15
117,2060,136,15
118,1835,86,15
119,2240,240,15
120,2055,96,15
121,2110,134,15
122,1910,73,15
123,2365,146,15
124,2000,89,15
125,1985,85,15
126,2210,149,15
127,2330,188,15
128,1695,51,15
129,2105,131,15
130,2120,113,15
131,1765,49,15
132,1905,86,15
133,1815,78,15
134,1825,64,15
135,2265,174,15
136,1865,152,15
137,2325,201,15
138,1820,86,15
139,1895,112,15
140,2335,176,15
141,1715,56,15
142,1670,65,15
143,2125,130,15
144,2035,116,15
145,1950,110,15
146,1880,92,15
147,1790,53,15
148,1885,72,15
149,1960,91,15
150,2005,102,15
151,1975,102,15
152,1840,64,15
153,2035,106,15
154,1885,94,15
155,1985,169,15
156,1795,137,15
157,1990,106,15
158,1815,125,15
159,2110,190,15
160,1790,71,15
161,2060,101,15
162,2090,119,15
163,1945,99,15
164,1930,168,15
165,1955,170,15
166,2245,173,15
167,2025,93,15
168,1910,66,15
169,1870,82,15
170,1915,84,15
171,2055,102,15
172,1845,75,15
173,1700,224,15
174,1935,87,15
175,1740,66,15
176,1815,89,15
177,1815,118,15
178,1975,106,15
179,1885,154,15
180,1845,80,15
181,2260,189,15
182,1850,143,15
183,2050,144,15
184,1830,60,15
185,1720,46,15
186,1950,95,15
187,1100,448,15
188,2000,166,15
189,1750,96,15
190,1845,102,15
191,2105,158,15
192,2085,134,15
193,2025,93,15
194,1565,137,15
195,1780,109,15
196,1745,89,15
197,1815,237,15
198,1815,134,15
199,1830,203,15
200,1605,113,15
201,1575,83,15
202,720,324,15
203,1230,164,15
204,1495,184,15
205,585,420,15
206,1255,248,15
207,990,342,15
208,1265,254,15
209,-35,469,15
210,-195,552,15
211,1155,174,15
212,830,365,15
213,1210,142,15
214,-1510,789,15
215,-1875,901,15
216,925,280,15
217,1170,272,15
218,1655,96,15
219,1560,198,15
220,1485,173,15
221,-1740,1019,15
222,1760,179,15
223,1860,178,15
224,1800,117,15
225,1775,200,15
226,1935,174,15
227,1730,117,15
228,2005,170,15
229,1855,175,15
230,1690,67,15
231,1780,127,15
232,1530,132,15
233,2160,128,15
234,1670,86,15
235,1750,102,15
236,1610,119,15
237,1695,75,15
238,1785,108,15
239,2095,135,15
240,1925,152,15
241,1675,88,15
242,1810,94,15
243,1885,97,15
244,1730,136,15
245,2020,299,15
246,2065,182,15
247,1905,135,15
248,1750,119,15
249,1865,97,15
250,1875,153,15
251,1725,72,15
252,1815,102,15
253,2055,119,15
254,2115,130,15
255,1875,117,15
256,1870,109,15
257,1800,81,15
258,2105,143,15
259,1950,102,15
260,1895,111,15
261,1940,98,15
262,1795,148,15
263,1755,80,15
264,1780,79,15
265,1705,64,15
266,1790,62,15
267,1765,76,15
268,2115,190,15
269,1900,76,15
270,2160,199,15
271,2095,220,15
272,1650,42,15
273,1885,82,15
274,2015,244,15
275,1810,76,15
276,1810,182,15
277,1885,79,15
278,1840,76,15
279,1985,119,15
280,1990,139,15
281,1820,59,15
282,2110,156,15
283,1700,53,15
284,1845,81,15
285,1890,96,15
286,1805,97,15
287,2060,164,15
288,1945,117,15
289,2010,281,15
290,2095,193,15
291,2055,128,15
292,1985,101,15
293,1945,279,15
294,1705,75,15
295,1965,101,15
296,1955,103,15
297,1955,92,15
298,1865,85,15
299,2050,133,15
300,1775,82,15
301,1960,100,15
302,1910,149,15
303,1945,121,15
304,1875,83,15
305,1905,83,15
306,1630,351,15
307,1780,88,15
308,1795,61,15
309,1900,94,15
310,1725,69,15
311,1930,109,15
312,1870,91,15
313,1925,124,15
314,1670,38,15
315,1945,212,15
316,1690,85,15
317,1740,63,15
318,1695,48,15
319,1940,134,15
320,1810,70,15
321,1785,114,15
322,1900,206,15
323,1760,76,15
324,1685,95,15
325,1820,122,15
326,1730,62,15
327,1900,87,15
328,1915,148,15
329,1965,197,15
330,1740,92,15
331,1980,297,15
332,1735,106,15
333,1915,136,15
334,1820,97,15
335,1795,106,15
336,1710,60,15
337,2065,150,15
338,1830,93,15
339,2055,143,15
340,1895,192,15
341,1790,85,15
342,1800,165,15
343,1900,127,15
344,1770,152,15
345,2070,168,15
346,2020,152,15
347,1660,48,15
348,1930,106,15
349,1700,105,15
350,1930,155,15
351,1855,103,15
352,2040,263,15
353,1960,131,15
354,1880,121,15
355,1880,83,15
356,2110,163,15
357,1770,302,15
358,1945,115,15
359,1970,194,15
360,1795,251,15
361,1765,73,15
362,1845,200,15
363,1810,99,15
364,1825,119,15
365,1765,115,15
366,1845,114,15
367,1680,63,15
368,1845,104,15
369,2005,166,15
370,1890,108,15
371,1795,124,15
372,1840,118,15
373,1865,290,15
374,1955,229,15
375,1925,158,15
376,1735,109,15
377,1795,73,15
378,1790,113,15
379,1715,86,15
380,1825,91,15
381,1700,326,15
382,1580,146,15
383,1895,130,15
384,1755,83,15
385,1785,114,15
386,1700,73,15
387,1735,121,15
388,1870,96,15
389,1765,93,15
390,1850,143,15
391,1920,167,15
392,1690,55,15
393,1695,174,15
394,1905,200,15
395,1780,97,15
396,1800,108,15
397,1945,118,15
398,1755,230,15
399,1850,116,15
400,1665,96,15
401,1775,107,15
402,1830,319,15
403,1665,99,15
404,1645,88,15
405,1835,307,15
406,1680,75,15
407,1830,213,15
408,1845,278,15
409,1700,190,15
410,1785,87,15
411,1570,280,15
412,1595,346,15
413,1745,86,15
414,1825,129,15
415,1960,166,15
416,1875,81,15
417,1800,84,15
418,1835,113,15
419,1855,124,15
420,1975,125,15
421,1875,144,15
422,1705,61,15
423,1790,89,15
424,1840,105,15
425,1895,148,15
426,1925,162,15
427,1720,91,15
428,1835,144,15
429,1850,129,15
430,1665,66,15
431,1865,92,15
432,1780,106,15
433,1755,60,15
434,1725,90,15
435,1730,80,15
436,1690,91,15
437,1610,89,15
438,1795,124,15
439,1735,93,15
440,1635,72,15
441,1810,160,15
442,1700,55,15
443,1715,113,15
444,1800,98,15
445,1705,81,15
446,1700,113,15
447,1730,77,15
448,1710,66,15
449,1625,62,15
450,1670,71,15
451,1665,96,15
452,1720,79,15
453,1700,194,15
454,1665,54,15
455,1705,85,15
456,1705,159,15
457,1495,76,15
458,1595,101,15
459,1540,127,15
460,1630,94,15
461,1420,223,15
462,1445,95,15
463,1580,128,15
464,1630,210,15
465,1430,167,15
466,1530,122,15
467,800,341,15
468,1445,144,15
469,1475,130,15
470,1210,208,15
471,1600,139,15
472,1510,129,15
473,1505,137,15
474,1625,136,15
475,1465,202,15
476,1215,280,15
477,1450,130,15
478,1325,382,15
479,1370,242,15
480,1625,65,15
481,1520,134,15
482,1545,114,15
483,1655,142,15
484,1595,71,15
485,1535,194,15
486,1640,80,15
487,1600,82,15
488,1590,162,15
489,1545,247,15
490,1490,170,15
491,1375,303,15
492,1605,221,15
493,1510,112,15
494,1555,180,15
495,1615,67,15
496,1495,196,15
497,1595,157,15
498,1495,216,15
499,1580,116,15
500,1500,178,15
501,1690,109,15
502,1690,103,15
503,1655,95,15
504,1635,108,15
505,1500,218,15
506,1595,104,15
507,1610,161,15
508,1480,257,15
509,1595,131,15
510,1630,171,15
511,1385,205,15
512,1675,84,15
513,1545,134,15
514,1730,131,15
515,1680,96,15
516,1490,167,15
517,1600,103,15
518,1670,107,15
519,1430,176,15
520,1595,148,15
521,1520,119,15
522,1670,80,15
523,1705,123,15
524,1545,224,15
525,1535,139,15
526,1480,169,15
527,1680,143,15
528,1465,151,15
529,1550,258,15
530,1780,108,15
531,1665,110,15
532,1630,214,15
533,1430,305,15
534,1570,151,15
535,1455,290,15
536,1655,115,15
537,1615,112,15
538,1665,172,15
539,1545,90,15
540,1700,110,15
541,1665,160,15
542,1655,92,15
543,1705,105,15
544,1630,162,15
545,1675,155,15
546,1545,158,15
547,1475,107,15
548,1570,168,15
549,1395,222,15
550,1575,135,15
551,1525,261,15
552,1650,150,15
553,1605,133,15
554,1655,113,15
555,1600,114,15
556,1230,279,15
557,1695,104,15
558,1520,220,15
559,1580,105,15
560,1525,117,15
561,1665,119,15
562,1645,88,15
563,1540,151,15
564,1575,120,15
565,1605,90,15
566,650,584,15
567,1580,62,15
568,1550,164,15
569,1615,110,15
570,1480,242,15
571,1495,114,15
572,1580,135,15
573,1375,275,15
574,1575,158,15
575,1670,136,15
576,1645,85,15
577,1270,321,15
578,1565,128,15
579,1585,102,15
580,1700,103,15
581,1625,107,15
582,1445,134,15
583,1460,128,15
584,1330,225,15
585,1725,165,15
586,1510,176,15
587,1545,148,15
588,1590,156,15
589,1510,227,15
590,1560,257,15
591,1455,227,15
592,1525,151,15
593,1530,215,15
594,1605,150,15
595,1490,215,15
596,1510,180,15
597,1495,240,15
598,1605,63,15
599,1595,158,15
600,975,272,15
601,1425,152,15
602,1200,226,15
603,1395,243,15
604,1485,114,15
605,1500,188,15
606,1470,254,15
607,1525,97,15
608,1630,123,15
609,1515,66,15
610,1385,262,15
611,1550,143,15
612,1600,160,15
613,1560,153,15
614,1465,205,15
615,1560,241,15
616,1560,206,15
617,1575,99,15
618,1560,136,15
619,1100,340,15
620,1415,175,15
621,1480,122,15
622,1335,120,15
623,1400,262,15
624,1300,171,15
625,1535,155,15
626,1390,245,15
627,1280,307,15
628,1440,233,15
629,1405,233,15
630,1490,172,15
631,1670,146,15
632,1605,242,15
633,1535,89,15
634,1255,262,15
635,1535,157,15
636,1385,238,15
637,1660,177,15
638,1565,182,15
639,1005,339,15
640,1630,164,15
641,1535,216,15
642,1650,203,15
643,1890,138,15
644,1655,135,15
645,1580,311,15
646,1190,314,15
647,1445,111,15
648,1595,157,15
649,1760,137,15
650,1795,167,15
651,1775,137,15
652,1535,158,15
653,1710,182,15
654,1675,157,15
655,1515,118,15
656,1810,131,15
657,1740,176,15
658,1755,233,15
659,160,724,15
660,1560,202,15
661,1640,202,15
662,1730,131,15
663,1840,151,15
664,1605,208,15
665,1670,193,15
666,1600,203,15
667,1680,104,15
668,1685,166,15
669,1660,112,15
670,1820,114,15
671,1765,209,15
672,1665,228,15
673,1315,371,15
674,1605,83,15
675,1580,176,15
676,1565,202,15
677,1770,69,15
678,1610,227,15
679,1555,179,15
680,1600,115,15
681,1520,129,15
682,1400,163,15
683,1615,129,15
684,1825,157,15
685,1670,144,15
686,1625,130,15
687,1705,167,15
688,1680,86,15
689,1555,106,15
690,1615,114,15
691,1570,239,15
692,1650,234,15
693,1585,135,15
694,1610,104,15
695,1475,136,15
696,1610,97,15
697,1610,101,15
698,1480,348,15
699,1675,117,15
700,1400,271,15
701,1645,114,15
702,1500,104,15
703,1130,342,15
704,1460,147,15
705,1435,145,15
706,1630,126,15
707,1615,142,15
708,1495,169,15
709,1525,134,15
710,1470,224,15
711,1460,171,15
712,1355,214,15
713,1480,102,15
714,1415,124,15
715,1450,96,15
716,1360,157,15
717,1480,306,15
718,1630,138,15
719,1630,219,15
720,1610,237,15
721,1450,163,15
722,1545,218,15
723,1560,141,15
724,1475,153,15
725,1550,84,15
726,1560,87,15
727,1665,75,15
728,1460,110,15
729,1475,116,15
730,1555,111,15
731,1265,307,15
732,1590,81,15
733,1745,119,15
734,1455,286,15
735,1540,148,15
736,1480,237,15
737,1550,114,15
738,1555,61,15
739,1445,263,15
740,1600,134,15
741,1255,368,15
742,1635,208,15
743,1625,186,15
744,1575,252,15
745,1415,146,15
746,1580,49,15
747,1620,74,15
748,1535,107,15
749,1400,292,15
750,1640,83,15
751,1500,178,15
752,1595,136,15
753,1435,204,15
754,1515,81,15
755,1315,308,15
756,1080,349,15
757,1410,201,15
758,1485,101,15
759,1420,206,15
760,1365,204,15
761,1490,109,15
762,1545,191,15
763,1340,248,15
764,1530,98,15
765,1510,70,15
766,1490,250,15
767,1525,94,15
768,1565,124,15
769,1550,114,15
770,1440,170,15
771,1510,105,15
772,1585,107,15
773,1470,180,15
774,1570,168,15
775,1590,125,15
776,1615,64,15
777,1585,167,15
778,1500,72,15
779,1625,140,15
780,1710,127,15
781,1640,162,15
782,1655,93,15
783,1655,211,15
784,1730,142,15
785,1575,95,15
786,1575,249,15
787,1435,134,15
788,1650,84,15
789,1635,159,15
790,1705,121,15
791,1640,180,15
792,1575,85,15
793,1740,110,15
794,1680,80,15
795,1745,95,15
796,1665,266,15
797,1650,137,15
798,1650,86,15
799,1660,119,15
800,1735,69,15
801,1730,198,15
802,1780,110,15
803,1735,89,15
804,1660,90,15
805,1455,400,15
806,1795,260,15
807,1735,151,15
808,1725,205,15
809,1820,201,15
810,1725,196,15
811,1615,162,15
812,1705,113,15
813,1810,153,15
814,1785,157,15
815,1320,391,15
816,1255,391,15
817,1740,130,15
818,1415,374,15
819,1490,307,15
820,1305,411,15
821,1715,145,15
822,1735,85,15
823,1735,99,15
824,1910,154,15
825,1825,212,15
826,1470,162,15
827,1590,137,15
828,1655,160,15
829,1580,115,15
830,1665,103,15
831,1600,235,15
832,1750,166,15
833,1450,206,15
834,1550,132,15
835,1640,79,15
836,1595,97,15
837,1660,129,15
838,1570,76,15
839,1655,91,15
840,1680,127,15
841,1540,133,15
842,1605,77,15
843,1580,85,15
844,1540,251,15
845,1455,105,15
846,1615,202,15
847,1470,179,15
848,1570,84,15
849,1615,147,15
850,1520,118,15
851,1545,96,15
852,1540,150,15
853,1455,212,15
854,1610,125,15
855,1360,252,15
856,1530,108,15
857,1475,117,15
858,1450,147,15
859,1515,247,15
860,1540,109,15
861,1570,130,15
862,1365,183,15
863,1330,126,15
864,1575,147,15
865,1205,224,15
866,1650,130,15
867,1420,190,15
868,1680,192,15
869,1490,169,15
870,1565,169,15
871,1580,103,15
872,1535,136,15
873,1500,84,15
874,1285,265,15
875,1605,187,15
876,1540,103,15
877,1715,136,15
878,1550,110,15
879,1530,165,15
880,1655,106,15
881,1645,197,15
882,1465,321,15
883,1480,142,15
884,1475,143,15
885,1535,156,15
886,1715,197,15
887,1720,147,15
888,1535,87,15
889,1195,434,15
890,1635,105,15
891,1345,211,15
892,1420,171,15
893,1655,104,15
894,1695,173,15
895,1550,104,15
896,1505,141,15
897,1565,194,15
898,1585,85,15
899,1710,182,15
900,1370,187,15
901,1555,70,15
902,1600,109,15
903,1770,176,15
904,1615,61,15
905,1520,122,15
906,1700,187,15
907,1595,100,15
908,1565,116,15
909,1555,148,15
910,1525,130,15
911,1355,143,15
912,1570,73,15
913,1645,75,15
914,1620,106,15
915,1705,166,15
916,1620,72,15
917,1545,116,15
918,1590,135,15
919,1595,137,15
920,1450,174,15
921,1560,144,15
922,1740,128,15
923,1755,143,15
924,1600,155,15
925,1670,183,15
926,1665,77,15
927,1645,161,15
928,1655,145,15
929,1545,119,15
930,1485,177,15
931,1565,160,15
932,1560,65,15
933,1565,200,15
934,1675,109,15
935,1125,464,15
936,1500,294,15
937,1760,150,15
938,1605,99,15
939,1530,179,15
940,1665,202,15
941,1550,200,15
942,1525,250,15
943,1205,454,15
944,1775,130,15
945,1815,105,15
946,1690,165,15
947,1570,108,15
948,1635,107,15
949,1575,240,15
950,1630,197,15
951,1730,105,15
952,1785,102,15
953,1690,151,15
954,1500,123,15
955,1595,92,15
956,1645,90,15
957,1555,190,15
958,1485,117,15
959,1560,157,15
960,1565,110,15
961,1550,254,15
962,1520,130,15
963,1485,128,15
964,1460,140,15
965,1665,166,15
966,1625,150,15
967,1275,299,15
968,1650,87,15
969,1805,136,15
970,1700,82,15
971,1640,277,15
972,1635,69,15
973,1765,149,15
974,1615,96,15
975,1660,147,15
976,1725,104,15
977,1705,87,15
978,1720,121,15
979,1635,81,15
980,1675,114,15
981,1700,91,15
982,1720,66,15
983,1670,100,15
984,1545,156,15
985,1600,98,15
986,1665,114,15
987,1700,151,15
988,1555,127,15
989,1660,105,15
990,1765,130,15
991,1445,169,15
992,1620,182,15
993,1480,217,15
994,1485,156,15
995,1380,242,15
996,1555,133,15
997,1395,287,15
998,1475,246,15
999,1575,98,15
