{
    "subnets": [
        {
            "code": "External",
            "subnet_mark": 24
        },
        {
            "code": "S0",
            "subnet_mark": 24
        },
        {
            "code": "S1",
            "subnet_mark": 24
        },
        {
            "code": "S2",
            "subnet_mark": 24
        },
        {
            "code": "S3",
            "subnet_mark": 24
        },
        {
            "code": "S4",
            "subnet_mark": 24
        }
    ],
    "connections": [
        [
            "External",
            "S0"
        ],
        [
            "S0",
            "S1"
        ],
        [
            "S0",
            "S2"
        ],
        [
            "S1",
            "S2"
        ],
        [
            "S2",
            "S3"
        ],
        [
            "S2",
            "S4"
        ],
        [
            "S3",
            "S4"
        ]
    ],
    "hosts": [
        {
            "code": "Attacker",
            "subnet": "External",
            "compromised": true,
            "attacker": true
        },
        {
            "code": "M00",
            "subnet": "S0",
            "techniques": [
                [
                    "T1569"
                ]
            ],
            "required": [
                0
            ]
        },
        {
            "code": "M01",
            "subnet": "S0",
            "techniques": [
                [
                    "T1548.004"
                ],
                [
                    "T1070.006"
                ],
                [
                    "T1113"
                ]
            ],
            "required": [
                0,
                1,
                2
            ],
            "sensitive": true
        },
        {
            "code": "M02",
            "subnet": "S0",
            "techniques": [
                [
                    "T1548.004"
                ],
                [
                    "T1070.006"
                ]
            ],
            "required": [
                0,
                1
            ],
            "sensitive": true
        },
        {
            "code": "M03",
            "subnet": "S0",
            "techniques": [
                [
                    "T1569"
                ]
            ],
            "required": [
                0
            ]
        },
        {
            "code": "M04",
            "subnet": "S0",
            "techniques": [
                [
                    "T1070.006"
                ]
            ],
            "required": [
                0
            ],
            "sensitive": true
        },
        {
            "code": "M05",
            "subnet": "S0",
            "techniques": [
                [
                    "T1569"
                ],
                [
                    "T1548.004"
                ]
            ],
            "required": [
                0,
                1
            ]
        },
        {
            "code": "M06",
            "subnet": "S0",
            "techniques": [
                [
                    "T1548.004"
                ],
                [
                    "T1119"
                ]
            ],
            "required": [
                0
            ]
        },
        {
            "code": "M07",
            "subnet": "S0",
            "techniques": [
                [
                    "T1548.004"
                ]
            ],
            "required": [
                0
            ]
        },
        {
            "code": "M08",
            "subnet": "S0",
            "techniques": [
                [
                    "T1113"
                ],
                [
                    "T1070.006"
                ],
                [
                    "T1113"
                ],
                [
                    "T1119"
                ]
            ],
            "required": [
                0,
                1,
                2
            ]
        },
        {
            "code": "M09",
            "subnet": "S0",
            "techniques": [
                [
                    "T1070.006"
                ],
                [
                    "T1070.006"
                ]
            ],
            "required": [
                1
            ]
        },
        {
            "code": "M010",
            "subnet": "S0",
            "techniques": [
                [
                    "T1070.006"
                ],
                [
                    "T1070.006"
                ],
                [
                    "T1569"
                ],
                [
                    "T1569"
                ]
            ],
            "required": [
                3,
                1,
                0
            ]
        },
        {
            "code": "M011",
            "subnet": "S0",
            "techniques": [
                [
                    "T1548.004"
                ],
                [
                    "T1548.004"
                ]
            ],
            "required": [
                1,
                0
            ]
        },
        {
            "code": "M012",
            "subnet": "S0",
            "techniques": [
                [
                    "T1119"
                ]
            ],
            "required": [
                0
            ],
            "sensitive": true
        },
        {
            "code": "M013",
            "subnet": "S0",
            "techniques": [
                [
                    "T1119"
                ],
                [
                    "T1113"
                ]
            ],
            "required": [
                0,
                1
            ]
        },
        {
            "code": "M014",
            "subnet": "S0",
            "techniques": [
                [
                    "T1548.004"
                ],
                [
                    "T1070.006"
                ],
                [
                    "T1569"
                ],
                [
                    "T1569"
                ]
            ],
            "required": [
                1,
                3,
                2
            ]
        },
        {
            "code": "M015",
            "subnet": "S0",
            "techniques": [
                [
                    "T1119"
                ],
                [
                    "T1569"
                ],
                [
                    "T1569"
                ]
            ],
            "required": [
                0,
                2
            ]
        },
        {
            "code": "M016",
            "subnet": "S0",
            "techniques": [
                [
                    "T1070.006"
                ],
                [
                    "T1548.004"
                ],
                [
                    "T1569"
                ]
            ],
            "required": [
                0,
                2
            ]
        },
        {
            "code": "M017",
            "subnet": "S0",
            "techniques": [
                [
                    "T1070.006"
                ],
                [
                    "T1070.006"
                ],
                [
                    "T1548.004"
                ],
                [
                    "T1569"
                ]
            ],
            "required": [
                3,
                1,
                2,
                0
            ]
        },
        {
            "code": "M018",
            "subnet": "S0",
            "techniques": [
                [
                    "T1569"
                ],
                [
                    "T1569"
                ],
                [
                    "T1119"
                ]
            ],
            "required": [
                2,
                1,
                0
            ]
        },
        {
            "code": "M019",
            "subnet": "S0",
            "techniques": [
                [
                    "T1569"
                ],
                [
                    "T1548.004"
                ]
            ],
            "required": [
                0
            ]
        },
        {
            "code": "M10",
            "subnet": "S1",
            "techniques": [
                [
                    "T1119"
                ],
                [
                    "T1569"
                ],
                [
                    "T1070.006"
                ],
                [
                    "T1569"
                ]
            ],
            "required": [
                3,
                2
            ]
        },
        {
            "code": "M11",
            "subnet": "S1",
            "techniques": [
                [
                    "T1119"
                ]
            ],
            "required": [
                0
            ],
            "sensitive": true
        },
        {
            "code": "M12",
            "subnet": "S1",
            "techniques": [
                [
                    "T1070.006"
                ]
            ],
            "required": [
                0
            ]
        },
        {
            "code": "M13",
            "subnet": "S1",
            "techniques": [
                [
                    "T1119"
                ],
                [
                    "T1070.006"
                ],
                [
                    "T1119"
                ],
                [
                    "T1548.004"
                ]
            ],
            "required": [
                1,
                3
            ]
        },
        {
            "code": "M14",
            "subnet": "S1",
            "techniques": [
                [
                    "T1548.004"
                ],
                [
                    "T1070.006"
                ],
                [
                    "T1569"
                ],
                [
                    "T1569"
                ]
            ],
            "required": [
                3,
                2,
                1
            ]
        },
        {
            "code": "M15",
            "subnet": "S1",
            "techniques": [
                [
                    "T1119"
                ]
            ],
            "required": [
                0
            ]
        },
        {
            "code": "M16",
            "subnet": "S1",
            "techniques": [
                [
                    "T1548.004"
                ],
                [
                    "T1119"
                ]
            ],
            "required": [
                1
            ]
        },
        {
            "code": "M17",
            "subnet": "S1",
            "techniques": [
                [
                    "T1569"
                ]
            ],
            "required": [
                0
            ]
        },
        {
            "code": "M18",
            "subnet": "S1",
            "techniques": [
                [
                    "T1569"
                ],
                [
                    "T1119"
                ],
                [
                    "T1548.004"
                ],
                [
                    "T1113"
                ]
            ],
            "required": [
                1,
                0,
                2
            ]
        },
        {
            "code": "M19",
            "subnet": "S1",
            "techniques": [
                [
                    "T1119"
                ]
            ],
            "required": [
                0
            ]
        },
        {
            "code": "M110",
            "subnet": "S1",
            "techniques": [
                [
                    "T1548.004"
                ],
                [
                    "T1113"
                ],
                [
                    "T1070.006"
                ],
                [
                    "T1569"
                ]
            ],
            "required": [
                0,
                1
            ],
            "sensitive": true
        },
        {
            "code": "M111",
            "subnet": "S1",
            "techniques": [
                [
                    "T1569"
                ],
                [
                    "T1548.004"
                ]
            ],
            "required": [
                1,
                0
            ]
        },
        {
            "code": "M112",
            "subnet": "S1",
            "techniques": [
                [
                    "T1070.006"
                ],
                [
                    "T1070.006"
                ],
                [
                    "T1569"
                ],
                [
                    "T1119"
                ]
            ],
            "required": [
                2,
                0,
                3
            ],
            "sensitive": true
        },
        {
            "code": "M113",
            "subnet": "S1",
            "techniques": [
                [
                    "T1119"
                ],
                [
                    "T1070.006"
                ],
                [
                    "T1113"
                ],
                [
                    "T1113"
                ]
            ],
            "required": [
                1,
                0,
                2
            ]
        },
        {
            "code": "M114",
            "subnet": "S1",
            "techniques": [
                [
                    "T1113"
                ]
            ],
            "required": [
                0
            ]
        },
        {
            "code": "M115",
            "subnet": "S1",
            "techniques": [
                [
                    "T1119"
                ],
                [
                    "T1113"
                ],
                [
                    "T1548.004"
                ],
                [
                    "T1548.004"
                ]
            ],
            "required": [
                3,
                1
            ]
        },
        {
            "code": "M116",
            "subnet": "S1",
            "techniques": [
                [
                    "T1548.004"
                ],
                [
                    "T1548.004"
                ],
                [
                    "T1070.006"
                ],
                [
                    "T1569"
                ]
            ],
            "required": [
                0,
                2,
                1
            ]
        },
        {
            "code": "M117",
            "subnet": "S1",
            "techniques": [
                [
                    "T1548.004"
                ],
                [
                    "T1569"
                ],
                [
                    "T1070.006"
                ]
            ],
            "required": [
                0
            ]
        },
        {
            "code": "M118",
            "subnet": "S1",
            "techniques": [
                [
                    "T1070.006"
                ]
            ],
            "required": [
                0
            ],
            "sensitive": true
        },
        {
            "code": "M119",
            "subnet": "S1",
            "techniques": [
                [
                    "T1548.004"
                ]
            ],
            "required": [
                0
            ]
        },
        {
            "code": "M120",
            "subnet": "S1",
            "techniques": [
                [
                    "T1070.006"
                ]
            ],
            "required": [
                0
            ]
        },
        {
            "code": "M121",
            "subnet": "S1",
            "techniques": [
                [
                    "T1070.006"
                ],
                [
                    "T1113"
                ],
                [
                    "T1113"
                ]
            ],
            "required": [
                2,
                0
            ]
        },
        {
            "code": "M122",
            "subnet": "S1",
            "techniques": [
                [
                    "T1070.006"
                ],
                [
                    "T1113"
                ],
                [
                    "T1569"
                ]
            ],
            "required": [
                0,
                1,
                2
            ]
        },
        {
            "code": "M123",
            "subnet": "S1",
            "techniques": [
                [
                    "T1569"
                ],
                [
                    "T1569"
                ]
            ],
            "required": [
                0
            ]
        },
        {
            "code": "M124",
            "subnet": "S1",
            "techniques": [
                [
                    "T1119"
                ],
                [
                    "T1569"
                ],
                [
                    "T1070.006"
                ],
                [
                    "T1070.006"
                ]
            ],
            "required": [
                0,
                2,
                1,
                3
            ]
        },
        {
            "code": "M125",
            "subnet": "S1",
            "techniques": [
                [
                    "T1548.004"
                ]
            ],
            "required": [
                0
            ]
        },
        {
            "code": "M126",
            "subnet": "S1",
            "techniques": [
                [
                    "T1070.006"
                ]
            ],
            "required": [
                0
            ]
        },
        {
            "code": "M127",
            "subnet": "S1",
            "techniques": [
                [
                    "T1569"
                ],
                [
                    "T1569"
                ],
                [
                    "T1119"
                ]
            ],
            "required": [
                0,
                1
            ]
        },
        {
            "code": "M128",
            "subnet": "S1",
            "techniques": [
                [
                    "T1070.006"
                ],
                [
                    "T1070.006"
                ],
                [
                    "T1113"
                ]
            ],
            "required": [
                0,
                2,
                1
            ]
        },
        {
            "code": "M129",
            "subnet": "S1",
            "techniques": [
                [
                    "T1070.006"
                ]
            ],
            "required": [
                0
            ]
        },
        {
            "code": "M130",
            "subnet": "S1",
            "techniques": [
                [
                    "T1070.006"
                ],
                [
                    "T1569"
                ],
                [
                    "T1119"
                ]
            ],
            "required": [
                1,
                0,
                2
            ]
        },
        {
            "code": "M131",
            "subnet": "S1",
            "techniques": [
                [
                    "T1569"
                ],
                [
                    "T1569"
                ],
                [
                    "T1569"
                ],
                [
                    "T1569"
                ]
            ],
            "required": [
                2,
                1,
                3
            ]
        },
        {
            "code": "M132",
            "subnet": "S1",
            "techniques": [
                [
                    "T1070.006"
                ],
                [
                    "T1548.004"
                ],
                [
                    "T1548.004"
                ]
            ],
            "required": [
                2,
                1,
                0
            ]
        },
        {
            "code": "M133",
            "subnet": "S1",
            "techniques": [
                [
                    "T1569"
                ],
                [
                    "T1569"
                ],
                [
                    "T1119"
                ],
                [
                    "T1119"
                ]
            ],
            "required": [
                1,
                0,
                2
            ]
        },
        {
            "code": "M134",
            "subnet": "S1",
            "techniques": [
                [
                    "T1548.004"
                ],
                [
                    "T1548.004"
                ],
                [
                    "T1569"
                ],
                [
                    "T1119"
                ]
            ],
            "required": [
                0,
                1
            ]
        },
        {
            "code": "M135",
            "subnet": "S1",
            "techniques": [
                [
                    "T1113"
                ],
                [
                    "T1548.004"
                ],
                [
                    "T1119"
                ]
            ],
            "required": [
                1,
                2,
                0
            ]
        },
        {
            "code": "M136",
            "subnet": "S1",
            "techniques": [
                [
                    "T1569"
                ],
                [
                    "T1113"
                ],
                [
                    "T1070.006"
                ],
                [
                    "T1119"
                ]
            ],
            "required": [
                0,
                3,
                1
            ]
        },
        {
            "code": "M137",
            "subnet": "S1",
            "techniques": [
                [
                    "T1569"
                ]
            ],
            "required": [
                0
            ]
        },
        {
            "code": "M138",
            "subnet": "S1",
            "techniques": [
                [
                    "T1548.004"
                ]
            ],
            "required": [
                0
            ]
        },
        {
            "code": "M139",
            "subnet": "S1",
            "techniques": [
                [
                    "T1548.004"
                ],
                [
                    "T1119"
                ],
                [
                    "T1548.004"
                ],
                [
                    "T1070.006"
                ]
            ],
            "required": [
                2,
                0,
                3,
                1
            ]
        },
        {
            "code": "M140",
            "subnet": "S1",
            "techniques": [
                [
                    "T1548.004"
                ],
                [
                    "T1548.004"
                ]
            ],
            "required": [
                0,
                1
            ]
        },
        {
            "code": "M141",
            "subnet": "S1",
            "techniques": [
                [
                    "T1548.004"
                ],
                [
                    "T1070.006"
                ],
                [
                    "T1569"
                ]
            ],
            "required": [
                1
            ]
        },
        {
            "code": "M142",
            "subnet": "S1",
            "techniques": [
                [
                    "T1569"
                ],
                [
                    "T1119"
                ]
            ],
            "required": [
                0,
                1
            ]
        },
        {
            "code": "M143",
            "subnet": "S1",
            "techniques": [
                [
                    "T1070.006"
                ]
            ],
            "required": [
                0
            ]
        },
        {
            "code": "M144",
            "subnet": "S1",
            "techniques": [
                [
                    "T1113"
                ],
                [
                    "T1119"
                ],
                [
                    "T1569"
                ]
            ],
            "required": [
                0,
                1
            ]
        },
        {
            "code": "M145",
            "subnet": "S1",
            "techniques": [
                [
                    "T1070.006"
                ],
                [
                    "T1569"
                ],
                [
                    "T1569"
                ]
            ],
            "required": [
                1
            ]
        },
        {
            "code": "M146",
            "subnet": "S1",
            "techniques": [
                [
                    "T1070.006"
                ],
                [
                    "T1119"
                ],
                [
                    "T1113"
                ]
            ],
            "required": [
                1,
                2,
                0
            ]
        },
        {
            "code": "M147",
            "subnet": "S1",
            "techniques": [
                [
                    "T1119"
                ],
                [
                    "T1548.004"
                ],
                [
                    "T1119"
                ],
                [
                    "T1569"
                ]
            ],
            "required": [
                0,
                1,
                2,
                3
            ],
            "sensitive": true
        },
        {
            "code": "M148",
            "subnet": "S1",
            "techniques": [
                [
                    "T1119"
                ],
                [
                    "T1113"
                ],
                [
                    "T1119"
                ],
                [
                    "T1070.006"
                ]
            ],
            "required": [
                2,
                3,
                0
            ],
            "sensitive": true
        },
        {
            "code": "M149",
            "subnet": "S1",
            "techniques": [
                [
                    "T1113"
                ],
                [
                    "T1113"
                ],
                [
                    "T1113"
                ],
                [
                    "T1119"
                ]
            ],
            "required": [
                3,
                1,
                0,
                2
            ]
        },
        {
            "code": "M20",
            "subnet": "S2",
            "techniques": [
                [
                    "T1548.004"
                ],
                [
                    "T1569"
                ]
            ],
            "required": [
                0,
                1
            ]
        },
        {
            "code": "M21",
            "subnet": "S2",
            "techniques": [
                [
                    "T1113"
                ],
                [
                    "T1113"
                ]
            ],
            "required": [
                0
            ]
        },
        {
            "code": "M22",
            "subnet": "S2",
            "techniques": [
                [
                    "T1569"
                ],
                [
                    "T1113"
                ],
                [
                    "T1070.006"
                ],
                [
                    "T1070.006"
                ]
            ],
            "required": [
                0,
                1
            ]
        },
        {
            "code": "M23",
            "subnet": "S2",
            "techniques": [
                [
                    "T1070.006"
                ],
                [
                    "T1070.006"
                ],
                [
                    "T1548.004"
                ],
                [
                    "T1113"
                ]
            ],
            "required": [
                2,
                1,
                3,
                0
            ]
        },
        {
            "code": "M24",
            "subnet": "S2",
            "techniques": [
                [
                    "T1569"
                ]
            ],
            "required": [
                0
            ]
        },
        {
            "code": "M25",
            "subnet": "S2",
            "techniques": [
                [
                    "T1548.004"
                ]
            ],
            "required": [
                0
            ]
        },
        {
            "code": "M26",
            "subnet": "S2",
            "techniques": [
                [
                    "T1569"
                ],
                [
                    "T1569"
                ]
            ],
            "required": [
                0,
                1
            ]
        },
        {
            "code": "M27",
            "subnet": "S2",
            "techniques": [
                [
                    "T1548.004"
                ]
            ],
            "required": [
                0
            ],
            "sensitive": true
        },
        {
            "code": "M28",
            "subnet": "S2",
            "techniques": [
                [
                    "T1569"
                ],
                [
                    "T1119"
                ]
            ],
            "required": [
                0
            ]
        },
        {
            "code": "M29",
            "subnet": "S2",
            "techniques": [
                [
                    "T1070.006"
                ],
                [
                    "T1119"
                ]
            ],
            "required": [
                1
            ]
        },
        {
            "code": "M210",
            "subnet": "S2",
            "techniques": [
                [
                    "T1070.006"
                ],
                [
                    "T1569"
                ],
                [
                    "T1119"
                ],
                [
                    "T1569"
                ]
            ],
            "required": [
                0,
                1,
                3
            ]
        },
        {
            "code": "M211",
            "subnet": "S2",
            "techniques": [
                [
                    "T1548.004"
                ],
                [
                    "T1070.006"
                ],
                [
                    "T1548.004"
                ]
            ],
            "required": [
                2,
                0
            ]
        },
        {
            "code": "M212",
            "subnet": "S2",
            "techniques": [
                [
                    "T1569"
                ],
                [
                    "T1070.006"
                ]
            ],
            "required": [
                1,
                0
            ]
        },
        {
            "code": "M213",
            "subnet": "S2",
            "techniques": [
                [
                    "T1113"
                ]
            ],
            "required": [
                0
            ]
        },
        {
            "code": "M214",
            "subnet": "S2",
            "techniques": [
                [
                    "T1070.006"
                ],
                [
                    "T1119"
                ]
            ],
            "required": [
                0
            ]
        },
        {
            "code": "M215",
            "subnet": "S2",
            "techniques": [
                [
                    "T1113"
                ],
                [
                    "T1113"
                ]
            ],
            "required": [
                0,
                1
            ]
        },
        {
            "code": "M30",
            "subnet": "S3",
            "techniques": [
                [
                    "T1070.006"
                ],
                [
                    "T1569"
                ],
                [
                    "T1569"
                ],
                [
                    "T1070.006"
                ]
            ],
            "required": [
                1,
                3,
                2
            ]
        },
        {
            "code": "M31",
            "subnet": "S3",
            "techniques": [
                [
                    "T1113"
                ]
            ],
            "required": [
                0
            ]
        },
        {
            "code": "M32",
            "subnet": "S3",
            "techniques": [
                [
                    "T1070.006"
                ],
                [
                    "T1119"
                ]
            ],
            "required": [
                0
            ]
        },
        {
            "code": "M33",
            "subnet": "S3",
            "techniques": [
                [
                    "T1119"
                ],
                [
                    "T1070.006"
                ],
                [
                    "T1548.004"
                ],
                [
                    "T1113"
                ]
            ],
            "required": [
                2,
                1,
                3
            ]
        },
        {
            "code": "M34",
            "subnet": "S3",
            "techniques": [
                [
                    "T1548.004"
                ],
                [
                    "T1569"
                ],
                [
                    "T1113"
                ],
                [
                    "T1569"
                ]
            ],
            "required": [
                3
            ],
            "sensitive": true
        },
        {
            "code": "M35",
            "subnet": "S3",
            "techniques": [
                [
                    "T1569"
                ],
                [
                    "T1070.006"
                ]
            ],
            "required": [
                0
            ]
        },
        {
            "code": "M36",
            "subnet": "S3",
            "techniques": [
                [
                    "T1113"
                ],
                [
                    "T1548.004"
                ],
                [
                    "T1569"
                ],
                [
                    "T1119"
                ]
            ],
            "required": [
                2,
                3,
                1
            ]
        },
        {
            "code": "M37",
            "subnet": "S3",
            "techniques": [
                [
                    "T1070.006"
                ],
                [
                    "T1119"
                ],
                [
                    "T1548.004"
                ]
            ],
            "required": [
                0
            ]
        },
        {
            "code": "M38",
            "subnet": "S3",
            "techniques": [
                [
                    "T1548.004"
                ],
                [
                    "T1548.004"
                ],
                [
                    "T1119"
                ],
                [
                    "T1113"
                ]
            ],
            "required": [
                0,
                1,
                2,
                3
            ]
        },
        {
            "code": "M39",
            "subnet": "S3",
            "techniques": [
                [
                    "T1569"
                ],
                [
                    "T1070.006"
                ],
                [
                    "T1119"
                ]
            ],
            "required": [
                1,
                0
            ]
        },
        {
            "code": "M310",
            "subnet": "S3",
            "techniques": [
                [
                    "T1070.006"
                ],
                [
                    "T1119"
                ],
                [
                    "T1569"
                ],
                [
                    "T1119"
                ]
            ],
            "required": [
                2,
                0
            ]
        },
        {
            "code": "M311",
            "subnet": "S3",
            "techniques": [
                [
                    "T1070.006"
                ],
                [
                    "T1070.006"
                ],
                [
                    "T1113"
                ]
            ],
            "required": [
                2,
                0,
                1
            ]
        },
        {
            "code": "M312",
            "subnet": "S3",
            "techniques": [
                [
                    "T1070.006"
                ],
                [
                    "T1113"
                ]
            ],
            "required": [
                0,
                1
            ]
        },
        {
            "code": "M40",
            "subnet": "S4",
            "techniques": [
                [
                    "T1569"
                ],
                [
                    "T1113"
                ]
            ],
            "required": [
                0,
                1
            ]
        },
        {
            "code": "M41",
            "subnet": "S4",
            "techniques": [
                [
                    "T1113"
                ],
                [
                    "T1569"
                ],
                [
                    "T1569"
                ],
                [
                    "T1119"
                ]
            ],
            "required": [
                3,
                2,
                1
            ]
        },
        {
            "code": "M42",
            "subnet": "S4",
            "techniques": [
                [
                    "T1548.004"
                ]
            ],
            "required": [
                0
            ]
        },
        {
            "code": "M43",
            "subnet": "S4",
            "techniques": [
                [
                    "T1119"
                ]
            ],
            "required": [
                0
            ],
            "sensitive": true
        },
        {
            "code": "M44",
            "subnet": "S4",
            "techniques": [
                [
                    "T1548.004"
                ],
                [
                    "T1569"
                ],
                [
                    "T1569"
                ]
            ],
            "required": [
                2,
                1
            ]
        },
        {
            "code": "M45",
            "subnet": "S4",
            "techniques": [
                [
                    "T1569"
                ]
            ],
            "required": [
                0
            ]
        },
        {
            "code": "M46",
            "subnet": "S4",
            "techniques": [
                [
                    "T1070.006"
                ],
                [
                    "T1548.004"
                ],
                [
                    "T1070.006"
                ]
            ],
            "required": [
                2,
                0
            ]
        },
        {
            "code": "M47",
            "subnet": "S4",
            "techniques": [
                [
                    "T1070.006"
                ],
                [
                    "T1548.004"
                ],
                [
                    "T1548.004"
                ],
                [
                    "T1113"
                ]
            ],
            "required": [
                2,
                0
            ]
        },
        {
            "code": "M48",
            "subnet": "S4",
            "techniques": [
                [
                    "T1569"
                ],
                [
                    "T1569"
                ],
                [
                    "T1119"
                ]
            ],
            "required": [
                1
            ]
        },
        {
            "code": "M49",
            "subnet": "S4",
            "techniques": [
                [
                    "T1119"
                ]
            ],
            "required": [
                0
            ]
        },
        {
            "code": "M410",
            "subnet": "S4",
            "techniques": [
                [
                    "T1548.004"
                ]
            ],
            "required": [
                0
            ]
        },
        {
            "code": "M411",
            "subnet": "S4",
            "techniques": [
                [
                    "T1119"
                ],
                [
                    "T1119"
                ]
            ],
            "required": [
                0,
                1
            ],
            "sensitive": true
        },
        {
            "code": "M412",
            "subnet": "S4",
            "techniques": [
                [
                    "T1569"
                ],
                [
                    "T1070.006"
                ],
                [
                    "T1070.006"
                ]
            ],
            "required": [
                2,
                1
            ]
        },
        {
            "code": "M413",
            "subnet": "S4",
            "techniques": [
                [
                    "T1113"
                ],
                [
                    "T1119"
                ]
            ],
            "required": [
                0,
                1
            ]
        },
        {
            "code": "M414",
            "subnet": "S4",
            "techniques": [
                [
                    "T1070.006"
                ],
                [
                    "T1548.004"
                ]
            ],
            "required": [
                0,
                1
            ],
            "sensitive": true
        },
        {
            "code": "M415",
            "subnet": "S4",
            "techniques": [
                [
                    "T1119"
                ],
                [
                    "T1569"
                ],
                [
                    "T1569"
                ]
            ],
            "required": [
                0,
                1
            ]
        },
        {
            "code": "M416",
            "subnet": "S4",
            "techniques": [
                [
                    "T1569"
                ],
                [
                    "T1113"
                ],
                [
                    "T1548.004"
                ],
                [
                    "T1070.006"
                ]
            ],
            "required": [
                0,
                1,
                3
            ]
        },
        {
            "code": "M417",
            "subnet": "S4",
            "techniques": [
                [
                    "T1070.006"
                ],
                [
                    "T1113"
                ]
            ],
            "required": [
                1
            ]
        },
        {
            "code": "M418",
            "subnet": "S4",
            "techniques": [
                [
                    "T1113"
                ],
                [
                    "T1569"
                ]
            ],
            "required": [
                0,
                1
            ]
        },
        {
            "code": "M419",
            "subnet": "S4",
            "techniques": [
                [
                    "T1113"
                ],
                [
                    "T1070.006"
                ],
                [
                    "T1569"
                ],
                [
                    "T1569"
                ]
            ],
            "required": [
                1
            ]
        },
        {
            "code": "M420",
            "subnet": "S4",
            "techniques": [
                [
                    "T1569"
                ],
                [
                    "T1119"
                ],
                [
                    "T1113"
                ]
            ],
            "required": [
                2
            ]
        },
        {
            "code": "M421",
            "subnet": "S4",
            "techniques": [
                [
                    "T1548.004"
                ]
            ],
            "required": [
                0
            ]
        },
        {
            "code": "M422",
            "subnet": "S4",
            "techniques": [
                [
                    "T1548.004"
                ],
                [
                    "T1569"
                ]
            ],
            "required": [
                1,
                0
            ],
            "sensitive": true
        },
        {
            "code": "M423",
            "subnet": "S4",
            "techniques": [
                [
                    "T1070.006"
                ]
            ],
            "required": [
                0
            ]
        },
        {
            "code": "M424",
            "subnet": "S4",
            "techniques": [
                [
                    "T1119"
                ],
                [
                    "T1070.006"
                ],
                [
                    "T1113"
                ]
            ],
            "required": [
                0,
                2
            ]
        },
        {
            "code": "M425",
            "subnet": "S4",
            "techniques": [
                [
                    "T1569"
                ],
                [
                    "T1113"
                ]
            ],
            "required": [
                0,
                1
            ]
        },
        {
            "code": "M426",
            "subnet": "S4",
            "techniques": [
                [
                    "T1548.004"
                ],
                [
                    "T1113"
                ],
                [
                    "T1119"
                ]
            ],
            "required": [
                0,
                1
            ]
        },
        {
            "code": "M427",
            "subnet": "S4",
            "techniques": [
                [
                    "T1070.006"
                ],
                [
                    "T1569"
                ]
            ],
            "required": [
                0
            ]
        },
        {
            "code": "M428",
            "subnet": "S4",
            "techniques": [
                [
                    "T1548.004"
                ],
                [
                    "T1548.004"
                ]
            ],
            "required": [
                1,
                0
            ]
        }
    ],
    "additional_techniques": [],
    "mitigations": [
        "M1036",
        "M1015",
        "M1049",
        "M1013",
        "M1048",
        "M1047",
        "M1040",
        "M1046",
        "M1045",
        "M1043",
        "M1053",
        "M1057",
        "M1042",
        "M1055",
        "M1041",
        "M1039",
        "M1038",
        "M1050",
        "M1037",
        "M1035",
        "M1034",
        "M1033",
        "M1032",
        "M1031",
        "M1030",
        "M1028",
        "M1027",
        "M1056",
        "M1026",
        "M1025",
        "M1029",
        "M1022",
        "M1044",
        "M1024",
        "M1021",
        "M1020",
        "M1054",
        "M1019",
        "M1051",
        "M1052",
        "M1018",
        "M1017",
        "M1016"
    ]
}