{
    "subnets": [
        {
            "code": "External",
            "subnet_mark": 24
        },
        {
            "code": "S0",
            "subnet_mark": 24
        },
        {
            "code": "S1",
            "subnet_mark": 24
        },
        {
            "code": "S2",
            "subnet_mark": 24
        },
        {
            "code": "S3",
            "subnet_mark": 24
        },
        {
            "code": "S4",
            "subnet_mark": 24
        }
    ],
    "connections": [
        [
            "External",
            "S0"
        ],
        [
            "S0",
            "S1"
        ],
        [
            "S0",
            "S2"
        ],
        [
            "S1",
            "S2"
        ],
        [
            "S2",
            "S3"
        ],
        [
            "S2",
            "S4"
        ],
        [
            "S3",
            "S4"
        ]
    ],
    "hosts": [
        {
            "code": "Attacker",
            "subnet": "External",
            "compromised": true,
            "attacker": true
        },
        {
            "code": "M00",
            "subnet": "S0",
            "techniques": [
                [
                    "T1092"
                ]
            ],
            "required": [
                0
            ]
        },
        {
            "code": "M01",
            "subnet": "S0",
            "techniques": [
                [
                    "T1090.002"
                ]
            ],
            "required": [
                0
            ]
        },
        {
            "code": "M02",
            "subnet": "S0",
            "techniques": [
                [
                    "T1092",
                    "T1200"
                ],
                [
                    "T1200"
                ],
                [
                    "T1562"
                ]
            ],
            "required": [
                2,
                0,
                1
            ]
        },
        {
            "code": "M03",
            "subnet": "S0",
            "techniques": [
                [
                    "T1596.002"
                ],
                [
                    "T1587",
                    "T1090.002"
                ],
                [
                    "T1562"
                ]
            ],
            "required": [
                1
            ]
        },
        {
            "code": "M10",
            "subnet": "S1",
            "techniques": [
                [
                    "T1137.004",
                    "T1562"
                ],
                [
                    "T1056.004"
                ],
                [
                    "T1602",
                    "T1056.004"
                ]
            ],
            "required": [
                0,
                2
            ]
        },
        {
            "code": "M20",
            "subnet": "S2",
            "techniques": [
                [
                    "T1137.004",
                    "T1092"
                ],
                [
                    "T1200",
                    "T1137.004"
                ],
                [
                    "T1090.002"
                ]
            ],
            "required": [
                0
            ]
        },
        {
            "code": "M21",
            "subnet": "S2",
            "techniques": [
                [
                    "T1587"
                ],
                [
                    "T1090.002"
                ],
                [
                    "T1092",
                    "T1596.002"
                ],
                [
                    "T1200",
                    "T1602"
                ]
            ],
            "required": [
                1,
                2,
                0,
                3
            ]
        },
        {
            "code": "M22",
            "subnet": "S2",
            "techniques": [
                [
                    "T1092",
                    "T1596.002"
                ],
                [
                    "T1200",
                    "T1602"
                ],
                [
                    "T1602"
                ],
                [
                    "T1021.004"
                ]
            ],
            "required": [
                2,
                0
            ]
        },
        {
            "code": "M23",
            "subnet": "S2",
            "techniques": [
                [
                    "T1021.004",
                    "T1092"
                ]
            ],
            "required": [
                0
            ]
        },
        {
            "code": "M24",
            "subnet": "S2",
            "techniques": [
                [
                    "T1562",
                    "T1092"
                ]
            ],
            "required": [
                0
            ]
        },
        {
            "code": "M25",
            "subnet": "S2",
            "techniques": [
                [
                    "T1587"
                ],
                [
                    "T1137.004",
                    "T1092"
                ]
            ],
            "required": [
                0
            ]
        },
        {
            "code": "M30",
            "subnet": "S3",
            "techniques": [
                [
                    "T1602"
                ],
                [
                    "T1090.002",
                    "T1596.002"
                ],
                [
                    "T1587"
                ]
            ],
            "required": [
                0,
                2,
                1
            ],
            "sensitive": true
        },
        {
            "code": "M31",
            "subnet": "S3",
            "techniques": [
                [
                    "T1137.004",
                    "T1090.002"
                ]
            ],
            "required": [
                0
            ]
        },
        {
            "code": "M32",
            "subnet": "S3",
            "techniques": [
                [
                    "T1596.002"
                ],
                [
                    "T1200"
                ],
                [
                    "T1021.004",
                    "T1587"
                ],
                [
                    "T1090.002",
                    "T1596.002"
                ]
            ],
            "required": [
                1,
                3
            ]
        },
        {
            "code": "M40",
            "subnet": "S4",
            "techniques": [
                [
                    "T1587",
                    "T1090.002"
                ]
            ],
            "required": [
                0
            ],
            "sensitive": true
        },
        {
            "code": "M41",
            "subnet": "S4",
            "techniques": [
                [
                    "T1092"
                ],
                [
                    "T1021.004"
                ]
            ],
            "required": [
                1,
                0
            ]
        }
    ],
    "additional_techniques": [],
    "mitigations": [
        "M1036",
        "M1015",
        "M1049",
        "M1013",
        "M1048",
        "M1047",
        "M1040",
        "M1046",
        "M1045",
        "M1043",
        "M1053",
        "M1057",
        "M1042",
        "M1055",
        "M1041",
        "M1039",
        "M1038",
        "M1050",
        "M1037",
        "M1035",
        "M1034",
        "M1033",
        "M1032",
        "M1031",
        "M1030",
        "M1028",
        "M1027",
        "M1056",
        "M1026",
        "M1025",
        "M1029",
        "M1022",
        "M1044",
        "M1024",
        "M1021",
        "M1020",
        "M1054",
        "M1019",
        "M1051",
        "M1052",
        "M1018",
        "M1017",
        "M1016"
    ]
}