{
    "subnets": [
        {
            "code": "External",
            "subnet_mark": 24
        },
        {
            "code": "S0",
            "subnet_mark": 24
        },
        {
            "code": "S1",
            "subnet_mark": 24
        },
        {
            "code": "S2",
            "subnet_mark": 24
        },
        {
            "code": "S3",
            "subnet_mark": 24
        },
        {
            "code": "S4",
            "subnet_mark": 24
        }
    ],
    "connections": [
        [
            "External",
            "S0"
        ],
        [
            "S0",
            "S1"
        ],
        [
            "S0",
            "S2"
        ],
        [
            "S1",
            "S2"
        ],
        [
            "S2",
            "S3"
        ],
        [
            "S2",
            "S4"
        ],
        [
            "S3",
            "S4"
        ]
    ],
    "hosts": [
        {
            "code": "Attacker",
            "subnet": "External",
            "compromised": true,
            "attacker": true
        },
        {
            "code": "M00",
            "subnet": "S0",
            "techniques": [
                [
                    "T1559",
                    "T1552",
                    "T1505"
                ],
                [
                    "T1546.012",
                    "T1589.003",
                    "T1591.001",
                    "T1505"
                ],
                [
                    "T1546.012",
                    "T1587.002",
                    "T1608.003"
                ],
                [
                    "T1497",
                    "T1134.003",
                    "T1204.002"
                ]
            ],
            "required": [
                0
            ]
        },
        {
            "code": "M10",
            "subnet": "S1",
            "techniques": [
                [
                    "T1589.003",
                    "T1552",
                    "T1559"
                ],
                [
                    "T1590.003",
                    "T1021.004"
                ]
            ],
            "required": [
                1,
                0
            ]
        },
        {
            "code": "M11",
            "subnet": "S1",
            "techniques": [
                [
                    "T1552",
                    "T1047",
                    "T1505"
                ],
                [
                    "T1021.005",
                    "T1047",
                    "T1559"
                ],
                [
                    "T1011.001",
                    "T1133",
                    "T1047"
                ],
                [
                    "T1133",
                    "T1134.003",
                    "T1047",
                    "T1011.001"
                ]
            ],
            "required": [
                2
            ]
        },
        {
            "code": "M12",
            "subnet": "S1",
            "techniques": [
                [
                    "T1552",
                    "T1559",
                    "T1048.001",
                    "T1589.003"
                ],
                [
                    "T1608.003",
                    "T1505"
                ],
                [
                    "T1021.005",
                    "T1587.002",
                    "T1021.004"
                ],
                [
                    "T1133",
                    "T1505"
                ]
            ],
            "required": [
                2,
                3
            ]
        },
        {
            "code": "M20",
            "subnet": "S2",
            "techniques": [
                [
                    "T1048.001",
                    "T1589.003",
                    "T1559",
                    "T1047"
                ],
                [
                    "T1587.002",
                    "T1021.004",
                    "T1497"
                ],
                [
                    "T1497",
                    "T1021.004",
                    "T1204.002",
                    "T1133",
                    "T1552"
                ],
                [
                    "T1021.004",
                    "T1047",
                    "T1134.003"
                ]
            ],
            "required": [
                0
            ]
        },
        {
            "code": "M21",
            "subnet": "S2",
            "techniques": [
                [
                    "T1559",
                    "T1552",
                    "T1505",
                    "T1048.001",
                    "T1589.003"
                ],
                [
                    "T1204.002",
                    "T1021.004",
                    "T1587.002",
                    "T1134.003"
                ],
                [
                    "T1587.002",
                    "T1021.005"
                ],
                [
                    "T1590.003",
                    "T1546.012",
                    "T1552"
                ]
            ],
            "required": [
                1,
                2
            ]
        },
        {
            "code": "M22",
            "subnet": "S2",
            "techniques": [
                [
                    "T1047",
                    "T1587.002"
                ]
            ],
            "required": [
                0
            ]
        },
        {
            "code": "M23",
            "subnet": "S2",
            "techniques": [
                [
                    "T1591.001",
                    "T1021.005",
                    "T1021.004"
                ]
            ],
            "required": [
                0
            ]
        },
        {
            "code": "M24",
            "subnet": "S2",
            "techniques": [
                [
                    "T1505",
                    "T1559",
                    "T1589.003"
                ],
                [
                    "T1591.001",
                    "T1047",
                    "T1546.012",
                    "T1505"
                ],
                [
                    "T1542.005",
                    "T1559",
                    "T1497"
                ],
                [
                    "T1011.001",
                    "T1021.005"
                ]
            ],
            "required": [
                2
            ]
        },
        {
            "code": "M30",
            "subnet": "S3",
            "techniques": [
                [
                    "T1021.004",
                    "T1133",
                    "T1546.012"
                ],
                [
                    "T1587.002",
                    "T1133",
                    "T1546.012"
                ],
                [
                    "T1552",
                    "T1047",
                    "T1546.012"
                ]
            ],
            "required": [
                0,
                1,
                2
            ]
        },
        {
            "code": "M31",
            "subnet": "S3",
            "techniques": [
                [
                    "T1021.004",
                    "T1574.010",
                    "T1134.003",
                    "T1546.012"
                ],
                [
                    "T1134.003",
                    "T1011.001",
                    "T1574.010",
                    "T1552",
                    "T1021.004"
                ]
            ],
            "required": [
                0,
                1
            ]
        },
        {
            "code": "M40",
            "subnet": "S4",
            "techniques": [
                [
                    "T1505",
                    "T1552",
                    "T1542.005"
                ]
            ],
            "required": [
                0
            ]
        },
        {
            "code": "M41",
            "subnet": "S4",
            "techniques": [
                [
                    "T1591.001",
                    "T1497",
                    "T1505",
                    "T1048.001"
                ],
                [
                    "T1546.012",
                    "T1133",
                    "T1021.005"
                ],
                [
                    "T1505",
                    "T1552"
                ],
                [
                    "T1021.005",
                    "T1552",
                    "T1587.002",
                    "T1133",
                    "T1589.003"
                ]
            ],
            "required": [
                2,
                3,
                1,
                0
            ],
            "sensitive": true
        },
        {
            "code": "M42",
            "subnet": "S4",
            "techniques": [
                [
                    "T1134.003",
                    "T1047",
                    "T1133",
                    "T1608.003"
                ],
                [
                    "T1021.005",
                    "T1591.001",
                    "T1021.004"
                ],
                [
                    "T1047",
                    "T1546.012"
                ]
            ],
            "required": [
                2,
                1
            ]
        },
        {
            "code": "M43",
            "subnet": "S4",
            "techniques": [
                [
                    "T1021.005",
                    "T1047",
                    "T1552"
                ],
                [
                    "T1048.001",
                    "T1047",
                    "T1021.005"
                ]
            ],
            "required": [
                0,
                1
            ]
        },
        {
            "code": "M44",
            "subnet": "S4",
            "techniques": [
                [
                    "T1047",
                    "T1134.003",
                    "T1505",
                    "T1589.003",
                    "T1559"
                ]
            ],
            "required": [
                0
            ],
            "sensitive": true
        }
    ],
    "additional_techniques": [],
    "mitigations": [
        "M1036",
        "M1015",
        "M1049",
        "M1013",
        "M1048",
        "M1047",
        "M1040",
        "M1046",
        "M1045",
        "M1043",
        "M1053",
        "M1057",
        "M1042",
        "M1055",
        "M1041",
        "M1039",
        "M1038",
        "M1050",
        "M1037",
        "M1035",
        "M1034",
        "M1033",
        "M1032",
        "M1031",
        "M1030",
        "M1028",
        "M1027",
        "M1056",
        "M1026",
        "M1025",
        "M1029",
        "M1022",
        "M1044",
        "M1024",
        "M1021",
        "M1020",
        "M1054",
        "M1019",
        "M1051",
        "M1052",
        "M1018",
        "M1017",
        "M1016"
    ]
}