{
    "subnets": [
        {
            "code": "External",
            "subnet_mark": 24
        },
        {
            "code": "S0",
            "subnet_mark": 24
        },
        {
            "code": "S1",
            "subnet_mark": 24
        },
        {
            "code": "S2",
            "subnet_mark": 24
        },
        {
            "code": "S3",
            "subnet_mark": 24
        },
        {
            "code": "S4",
            "subnet_mark": 24
        }
    ],
    "connections": [
        [
            "External",
            "S0"
        ],
        [
            "S0",
            "S1"
        ],
        [
            "S0",
            "S2"
        ],
        [
            "S1",
            "S2"
        ],
        [
            "S2",
            "S3"
        ],
        [
            "S2",
            "S4"
        ],
        [
            "S3",
            "S4"
        ]
    ],
    "hosts": [
        {
            "code": "Attacker",
            "subnet": "External",
            "compromised": true,
            "attacker": true
        },
        {
            "code": "M00",
            "subnet": "S0",
            "techniques": [
                [
                    "T1557.001",
                    "T1563.001",
                    "T1529",
                    "T1601.001"
                ]
            ],
            "required": [
                0
            ]
        },
        {
            "code": "M01",
            "subnet": "S0",
            "techniques": [
                [
                    "T1547.004",
                    "T1557.001",
                    "T1601.001",
                    "T1563.001"
                ],
                [
                    "T1601.001",
                    "T1529",
                    "T1547.004",
                    "T1563.001",
                    "T1557.001"
                ]
            ],
            "required": [
                1,
                0
            ]
        },
        {
            "code": "M02",
            "subnet": "S0",
            "techniques": [
                [
                    "T1547.004",
                    "T1601.001",
                    "T1529"
                ],
                [
                    "T1563.001",
                    "T1601.001",
                    "T1557.001",
                    "T1547.004"
                ],
                [
                    "T1601.001",
                    "T1563.001",
                    "T1557.001",
                    "T1529",
                    "T1547.004"
                ]
            ],
            "required": [
                2,
                1,
                0
            ]
        },
        {
            "code": "M03",
            "subnet": "S0",
            "techniques": [
                [
                    "T1563.001",
                    "T1557.001",
                    "T1601.001",
                    "T1529",
                    "T1547.004"
                ],
                [
                    "T1529",
                    "T1601.001",
                    "T1547.004"
                ]
            ],
            "required": [
                0,
                1
            ]
        },
        {
            "code": "M04",
            "subnet": "S0",
            "techniques": [
                [
                    "T1547.004",
                    "T1563.001"
                ]
            ],
            "required": [
                0
            ]
        },
        {
            "code": "M05",
            "subnet": "S0",
            "techniques": [
                [
                    "T1563.001",
                    "T1557.001"
                ],
                [
                    "T1557.001",
                    "T1529",
                    "T1547.004",
                    "T1601.001",
                    "T1563.001"
                ],
                [
                    "T1529",
                    "T1601.001",
                    "T1547.004"
                ],
                [
                    "T1529",
                    "T1601.001",
                    "T1557.001",
                    "T1563.001"
                ]
            ],
            "required": [
                3
            ]
        },
        {
            "code": "M06",
            "subnet": "S0",
            "techniques": [
                [
                    "T1547.004",
                    "T1557.001",
                    "T1529"
                ]
            ],
            "required": [
                0
            ]
        },
        {
            "code": "M07",
            "subnet": "S0",
            "techniques": [
                [
                    "T1563.001",
                    "T1529",
                    "T1557.001"
                ],
                [
                    "T1601.001",
                    "T1547.004",
                    "T1557.001"
                ],
                [
                    "T1601.001",
                    "T1529",
                    "T1557.001",
                    "T1563.001",
                    "T1547.004"
                ]
            ],
            "required": [
                1,
                2,
                0
            ]
        },
        {
            "code": "M10",
            "subnet": "S1",
            "techniques": [
                [
                    "T1557.001",
                    "T1547.004",
                    "T1563.001"
                ],
                [
                    "T1557.001",
                    "T1601.001"
                ]
            ],
            "required": [
                0
            ]
        },
        {
            "code": "M11",
            "subnet": "S1",
            "techniques": [
                [
                    "T1563.001",
                    "T1529",
                    "T1557.001"
                ]
            ],
            "required": [
                0
            ]
        },
        {
            "code": "M12",
            "subnet": "S1",
            "techniques": [
                [
                    "T1563.001",
                    "T1547.004",
                    "T1529"
                ],
                [
                    "T1557.001",
                    "T1601.001"
                ]
            ],
            "required": [
                0
            ]
        },
        {
            "code": "M13",
            "subnet": "S1",
            "techniques": [
                [
                    "T1563.001",
                    "T1529",
                    "T1557.001"
                ],
                [
                    "T1601.001",
                    "T1529"
                ]
            ],
            "required": [
                1
            ]
        },
        {
            "code": "M14",
            "subnet": "S1",
            "techniques": [
                [
                    "T1547.004",
                    "T1529",
                    "T1563.001"
                ],
                [
                    "T1601.001",
                    "T1547.004",
                    "T1529"
                ]
            ],
            "required": [
                1
            ]
        },
        {
            "code": "M15",
            "subnet": "S1",
            "techniques": [
                [
                    "T1529",
                    "T1557.001",
                    "T1601.001",
                    "T1563.001",
                    "T1547.004"
                ]
            ],
            "required": [
                0
            ]
        },
        {
            "code": "M16",
            "subnet": "S1",
            "techniques": [
                [
                    "T1557.001",
                    "T1529",
                    "T1563.001"
                ],
                [
                    "T1601.001",
                    "T1547.004",
                    "T1557.001",
                    "T1529"
                ]
            ],
            "required": [
                0,
                1
            ]
        },
        {
            "code": "M17",
            "subnet": "S1",
            "techniques": [
                [
                    "T1601.001",
                    "T1557.001",
                    "T1547.004",
                    "T1529"
                ],
                [
                    "T1529",
                    "T1601.001",
                    "T1547.004"
                ],
                [
                    "T1563.001",
                    "T1557.001",
                    "T1601.001",
                    "T1529"
                ]
            ],
            "required": [
                0,
                1,
                2
            ]
        },
        {
            "code": "M18",
            "subnet": "S1",
            "techniques": [
                [
                    "T1601.001",
                    "T1557.001"
                ],
                [
                    "T1557.001",
                    "T1529"
                ],
                [
                    "T1563.001",
                    "T1557.001",
                    "T1529",
                    "T1547.004",
                    "T1601.001"
                ],
                [
                    "T1601.001",
                    "T1557.001",
                    "T1563.001"
                ]
            ],
            "required": [
                1,
                3,
                0,
                2
            ]
        },
        {
            "code": "M19",
            "subnet": "S1",
            "techniques": [
                [
                    "T1601.001",
                    "T1529",
                    "T1563.001"
                ],
                [
                    "T1563.001",
                    "T1557.001"
                ],
                [
                    "T1547.004",
                    "T1601.001",
                    "T1557.001"
                ]
            ],
            "required": [
                2,
                1
            ]
        },
        {
            "code": "M110",
            "subnet": "S1",
            "techniques": [
                [
                    "T1557.001",
                    "T1601.001",
                    "T1547.004"
                ],
                [
                    "T1557.001",
                    "T1601.001",
                    "T1547.004",
                    "T1529"
                ],
                [
                    "T1547.004",
                    "T1601.001",
                    "T1557.001",
                    "T1563.001",
                    "T1529"
                ],
                [
                    "T1601.001",
                    "T1529",
                    "T1563.001"
                ]
            ],
            "required": [
                0,
                1,
                3
            ]
        },
        {
            "code": "M111",
            "subnet": "S1",
            "techniques": [
                [
                    "T1529",
                    "T1601.001",
                    "T1557.001",
                    "T1547.004"
                ],
                [
                    "T1529",
                    "T1563.001"
                ]
            ],
            "required": [
                0
            ]
        },
        {
            "code": "M112",
            "subnet": "S1",
            "techniques": [
                [
                    "T1601.001",
                    "T1529",
                    "T1557.001"
                ],
                [
                    "T1557.001",
                    "T1547.004",
                    "T1563.001",
                    "T1529"
                ]
            ],
            "required": [
                1
            ]
        },
        {
            "code": "M20",
            "subnet": "S2",
            "techniques": [
                [
                    "T1557.001",
                    "T1547.004",
                    "T1529"
                ],
                [
                    "T1557.001",
                    "T1563.001",
                    "T1547.004"
                ],
                [
                    "T1557.001",
                    "T1563.001",
                    "T1601.001",
                    "T1547.004",
                    "T1529"
                ],
                [
                    "T1563.001",
                    "T1547.004",
                    "T1601.001"
                ]
            ],
            "required": [
                3
            ]
        },
        {
            "code": "M21",
            "subnet": "S2",
            "techniques": [
                [
                    "T1601.001",
                    "T1557.001",
                    "T1529",
                    "T1547.004"
                ],
                [
                    "T1529",
                    "T1601.001",
                    "T1557.001"
                ],
                [
                    "T1547.004",
                    "T1557.001"
                ],
                [
                    "T1547.004",
                    "T1529",
                    "T1557.001"
                ]
            ],
            "required": [
                3
            ]
        },
        {
            "code": "M30",
            "subnet": "S3",
            "techniques": [
                [
                    "T1557.001",
                    "T1563.001"
                ]
            ],
            "required": [
                0
            ]
        },
        {
            "code": "M31",
            "subnet": "S3",
            "techniques": [
                [
                    "T1529",
                    "T1601.001"
                ],
                [
                    "T1601.001",
                    "T1529",
                    "T1557.001"
                ],
                [
                    "T1601.001",
                    "T1547.004",
                    "T1563.001",
                    "T1529",
                    "T1557.001"
                ]
            ],
            "required": [
                1,
                2,
                0
            ]
        },
        {
            "code": "M32",
            "subnet": "S3",
            "techniques": [
                [
                    "T1563.001",
                    "T1601.001",
                    "T1529"
                ],
                [
                    "T1601.001",
                    "T1529",
                    "T1557.001",
                    "T1547.004"
                ],
                [
                    "T1547.004",
                    "T1529",
                    "T1563.001"
                ]
            ],
            "required": [
                0
            ]
        },
        {
            "code": "M33",
            "subnet": "S3",
            "techniques": [
                [
                    "T1557.001",
                    "T1529"
                ],
                [
                    "T1557.001",
                    "T1601.001",
                    "T1547.004"
                ],
                [
                    "T1601.001",
                    "T1557.001",
                    "T1563.001"
                ]
            ],
            "required": [
                1,
                0
            ]
        },
        {
            "code": "M34",
            "subnet": "S3",
            "techniques": [
                [
                    "T1601.001",
                    "T1529"
                ],
                [
                    "T1547.004",
                    "T1557.001",
                    "T1601.001"
                ]
            ],
            "required": [
                0,
                1
            ]
        },
        {
            "code": "M35",
            "subnet": "S3",
            "techniques": [
                [
                    "T1547.004",
                    "T1601.001",
                    "T1529"
                ],
                [
                    "T1563.001",
                    "T1529",
                    "T1601.001",
                    "T1547.004"
                ],
                [
                    "T1529",
                    "T1557.001",
                    "T1547.004"
                ]
            ],
            "required": [
                2,
                0
            ],
            "sensitive": true
        },
        {
            "code": "M40",
            "subnet": "S4",
            "techniques": [
                [
                    "T1563.001",
                    "T1557.001",
                    "T1547.004",
                    "T1601.001",
                    "T1529"
                ],
                [
                    "T1557.001",
                    "T1563.001"
                ],
                [
                    "T1601.001",
                    "T1547.004",
                    "T1529"
                ],
                [
                    "T1557.001",
                    "T1529",
                    "T1547.004"
                ]
            ],
            "required": [
                0,
                1
            ]
        },
        {
            "code": "M41",
            "subnet": "S4",
            "techniques": [
                [
                    "T1557.001",
                    "T1563.001",
                    "T1601.001"
                ],
                [
                    "T1601.001",
                    "T1563.001",
                    "T1529"
                ]
            ],
            "required": [
                0
            ],
            "sensitive": true
        },
        {
            "code": "M42",
            "subnet": "S4",
            "techniques": [
                [
                    "T1601.001",
                    "T1529",
                    "T1563.001"
                ],
                [
                    "T1563.001",
                    "T1529",
                    "T1601.001"
                ],
                [
                    "T1601.001",
                    "T1557.001",
                    "T1563.001",
                    "T1547.004"
                ],
                [
                    "T1557.001",
                    "T1601.001",
                    "T1529"
                ]
            ],
            "required": [
                0
            ]
        },
        {
            "code": "M43",
            "subnet": "S4",
            "techniques": [
                [
                    "T1601.001",
                    "T1547.004",
                    "T1557.001"
                ],
                [
                    "T1601.001",
                    "T1547.004",
                    "T1563.001",
                    "T1529"
                ]
            ],
            "required": [
                0
            ]
        },
        {
            "code": "M44",
            "subnet": "S4",
            "techniques": [
                [
                    "T1557.001",
                    "T1547.004"
                ]
            ],
            "required": [
                0
            ],
            "sensitive": true
        },
        {
            "code": "M45",
            "subnet": "S4",
            "techniques": [
                [
                    "T1547.004",
                    "T1601.001",
                    "T1557.001",
                    "T1529"
                ],
                [
                    "T1529",
                    "T1547.004",
                    "T1563.001"
                ],
                [
                    "T1547.004",
                    "T1557.001"
                ],
                [
                    "T1601.001",
                    "T1563.001",
                    "T1547.004"
                ]
            ],
            "required": [
                3,
                1,
                2
            ]
        },
        {
            "code": "M46",
            "subnet": "S4",
            "techniques": [
                [
                    "T1563.001",
                    "T1529",
                    "T1601.001"
                ],
                [
                    "T1529",
                    "T1557.001",
                    "T1601.001",
                    "T1547.004"
                ],
                [
                    "T1547.004",
                    "T1601.001",
                    "T1529"
                ]
            ],
            "required": [
                2,
                1,
                0
            ]
        },
        {
            "code": "M47",
            "subnet": "S4",
            "techniques": [
                [
                    "T1601.001",
                    "T1529",
                    "T1557.001"
                ],
                [
                    "T1557.001",
                    "T1563.001"
                ]
            ],
            "required": [
                0
            ],
            "sensitive": true
        },
        {
            "code": "M48",
            "subnet": "S4",
            "techniques": [
                [
                    "T1557.001",
                    "T1547.004",
                    "T1529",
                    "T1601.001"
                ]
            ],
            "required": [
                0
            ]
        },
        {
            "code": "M49",
            "subnet": "S4",
            "techniques": [
                [
                    "T1563.001",
                    "T1529",
                    "T1557.001",
                    "T1601.001"
                ]
            ],
            "required": [
                0
            ]
        },
        {
            "code": "M410",
            "subnet": "S4",
            "techniques": [
                [
                    "T1529",
                    "T1601.001",
                    "T1547.004"
                ]
            ],
            "required": [
                0
            ]
        },
        {
            "code": "M411",
            "subnet": "S4",
            "techniques": [
                [
                    "T1547.004",
                    "T1529"
                ],
                [
                    "T1601.001",
                    "T1557.001",
                    "T1563.001"
                ],
                [
                    "T1529",
                    "T1547.004",
                    "T1563.001"
                ]
            ],
            "required": [
                2,
                0
            ]
        },
        {
            "code": "M412",
            "subnet": "S4",
            "techniques": [
                [
                    "T1557.001",
                    "T1529",
                    "T1601.001"
                ],
                [
                    "T1601.001",
                    "T1563.001"
                ],
                [
                    "T1557.001",
                    "T1529",
                    "T1547.004",
                    "T1601.001"
                ]
            ],
            "required": [
                1
            ]
        },
        {
            "code": "M413",
            "subnet": "S4",
            "techniques": [
                [
                    "T1547.004",
                    "T1601.001",
                    "T1529",
                    "T1557.001",
                    "T1563.001"
                ],
                [
                    "T1601.001",
                    "T1557.001",
                    "T1547.004"
                ]
            ],
            "required": [
                0,
                1
            ]
        },
        {
            "code": "M414",
            "subnet": "S4",
            "techniques": [
                [
                    "T1601.001",
                    "T1547.004",
                    "T1563.001"
                ],
                [
                    "T1557.001",
                    "T1547.004"
                ],
                [
                    "T1529",
                    "T1557.001",
                    "T1547.004"
                ],
                [
                    "T1529",
                    "T1563.001",
                    "T1547.004",
                    "T1557.001"
                ]
            ],
            "required": [
                1,
                2,
                0
            ]
        },
        {
            "code": "M415",
            "subnet": "S4",
            "techniques": [
                [
                    "T1601.001",
                    "T1547.004",
                    "T1557.001"
                ],
                [
                    "T1563.001",
                    "T1557.001",
                    "T1547.004",
                    "T1529",
                    "T1601.001"
                ],
                [
                    "T1601.001",
                    "T1557.001",
                    "T1563.001"
                ]
            ],
            "required": [
                0,
                1
            ]
        },
        {
            "code": "M416",
            "subnet": "S4",
            "techniques": [
                [
                    "T1557.001",
                    "T1547.004"
                ],
                [
                    "T1557.001",
                    "T1547.004",
                    "T1601.001"
                ]
            ],
            "required": [
                0,
                1
            ]
        },
        {
            "code": "M417",
            "subnet": "S4",
            "techniques": [
                [
                    "T1563.001",
                    "T1557.001",
                    "T1601.001"
                ],
                [
                    "T1601.001",
                    "T1529",
                    "T1563.001"
                ],
                [
                    "T1547.004",
                    "T1601.001",
                    "T1563.001",
                    "T1557.001"
                ]
            ],
            "required": [
                0,
                2,
                1
            ]
        },
        {
            "code": "M418",
            "subnet": "S4",
            "techniques": [
                [
                    "T1557.001",
                    "T1563.001",
                    "T1547.004",
                    "T1601.001",
                    "T1529"
                ],
                [
                    "T1557.001",
                    "T1547.004"
                ],
                [
                    "T1601.001",
                    "T1547.004",
                    "T1529"
                ]
            ],
            "required": [
                1,
                2,
                0
            ]
        },
        {
            "code": "M419",
            "subnet": "S4",
            "techniques": [
                [
                    "T1601.001",
                    "T1563.001",
                    "T1547.004",
                    "T1557.001"
                ],
                [
                    "T1529",
                    "T1563.001"
                ],
                [
                    "T1563.001",
                    "T1529",
                    "T1601.001"
                ]
            ],
            "required": [
                0,
                2,
                1
            ],
            "sensitive": true
        },
        {
            "code": "M420",
            "subnet": "S4",
            "techniques": [
                [
                    "T1529",
                    "T1601.001",
                    "T1547.004"
                ]
            ],
            "required": [
                0
            ]
        }
    ],
    "additional_techniques": [],
    "mitigations": [
        "M1036",
        "M1015",
        "M1049",
        "M1013",
        "M1048",
        "M1047",
        "M1040",
        "M1046",
        "M1045",
        "M1043",
        "M1053",
        "M1057",
        "M1042",
        "M1055",
        "M1041",
        "M1039",
        "M1038",
        "M1050",
        "M1037",
        "M1035",
        "M1034",
        "M1033",
        "M1032",
        "M1031",
        "M1030",
        "M1028",
        "M1027",
        "M1056",
        "M1026",
        "M1025",
        "M1029",
        "M1022",
        "M1044",
        "M1024",
        "M1021",
        "M1020",
        "M1054",
        "M1019",
        "M1051",
        "M1052",
        "M1018",
        "M1017",
        "M1016"
    ]
}