episode,reward,step,sensitive
0,-1650,329,0
1,-1590,329,0
2,-1585,329,0
3,-1625,329,0
4,-1395,329,0
5,-1235,329,1
6,-1295,329,1
7,-1545,329,0
8,-1525,329,0
9,-1110,329,1
10,-1550,329,0
11,-1650,329,0
12,-1425,329,0
13,-1380,329,0
14,-1625,329,0
15,-1230,329,1
16,-1165,329,1
17,-1345,329,0
18,-1110,329,1
19,-1130,329,1
20,-1215,329,1
21,-945,297,2
22,-1340,329,0
23,-1175,329,1
24,-1215,329,1
25,-1205,329,1
26,-1030,329,1
27,-1530,329,0
28,-1125,329,1
29,-1120,329,1
30,-1445,329,0
31,-1120,329,1
32,-1390,329,0
33,-1520,329,0
34,-1225,329,1
35,-640,227,2
36,-1340,329,0
37,-910,303,2
38,-1275,329,0
39,-1335,329,1
40,-980,307,2
41,-625,251,2
42,-790,283,2
43,-1155,329,1
44,-585,238,2
45,-1180,329,1
46,-1235,329,1
47,-1105,329,1
48,-750,281,2
49,-1205,329,1
50,-1155,329,1
51,-1325,329,0
52,-1240,329,1
53,-670,256,2
54,-1125,329,1
55,-700,266,2
56,-625,230,2
57,-780,280,2
58,-1425,329,0
59,-575,230,2
60,-415,189,2
61,-675,262,2
62,-1160,329,1
63,-880,296,2
64,-1175,329,1
65,-495,214,2
66,-825,290,2
67,-325,182,2
68,-1580,329,0
69,-345,173,2
70,-595,232,2
71,-1160,329,1
72,-760,267,2
73,-470,206,2
74,-1095,329,1
75,-255,164,2
76,-1160,329,1
77,-715,260,2
78,-570,222,2
79,-1175,329,1
80,-235,139,2
81,-660,240,2
82,-190,138,2
83,-390,185,2
84,-780,266,2
85,-1520,329,0
86,-30,102,2
87,-695,247,2
88,-725,256,2
89,-945,283,2
90,25,67,2
91,40,86,2
92,-125,119,2
93,-490,196,2
94,-810,272,2
95,-220,143,2
96,-210,144,2
97,-85,106,2
98,-125,117,2
99,-590,235,2
100,-935,287,2
101,-175,125,2
102,130,67,2
103,30,97,2
104,170,49,2
105,90,68,2
106,-510,200,2
107,90,65,2
108,-45,105,2
109,-115,118,2
110,-70,104,2
111,220,38,2
112,10,89,2
113,30,88,2
114,-95,108,2
115,-45,102,2
116,20,87,2
117,-120,121,2
118,190,54,2
119,95,65,2
120,160,66,2
121,85,62,2
122,-55,108,2
123,115,51,2
124,-15,87,2
125,10,89,2
126,0,95,2
127,-10,95,2
128,85,76,2
129,-5,81,2
130,-135,118,2
131,185,40,2
132,25,96,2
133,-110,124,2
134,-125,123,2
135,-65,93,2
136,-160,128,2
137,-270,139,2
138,-120,122,2
139,40,75,2
140,210,42,2
141,-305,159,2
142,-145,115,2
143,90,75,2
144,75,72,2
145,55,72,2
146,165,45,2
147,-80,106,2
148,145,48,2
149,10,88,2
150,-230,142,2
151,-35,91,2
152,115,60,2
153,130,66,2
154,35,70,2
155,115,65,2
156,95,71,2
157,-80,104,2
158,60,69,2
159,135,52,2
160,65,64,2
161,-20,90,2
162,-75,101,2
163,105,70,2
164,210,55,2
165,20,91,2
166,50,81,2
167,230,44,2
168,140,54,2
169,60,63,2
170,50,70,2
171,-160,114,2
172,210,38,2
173,110,63,2
174,5,83,2
175,100,65,2
176,235,29,2
177,160,45,2
178,-155,123,2
179,210,34,2
180,65,64,2
181,115,55,2
182,70,77,2
183,80,63,2
184,185,40,2
185,225,40,2
186,185,39,2
187,175,38,2
188,195,40,2
189,195,32,2
190,125,57,2
191,225,28,2
192,185,47,2
193,255,16,2
194,210,39,2
195,80,70,2
196,260,24,2
197,225,20,2
198,185,39,2
199,195,38,2
200,180,37,2
201,190,40,2
202,270,17,2
203,280,22,2
204,190,27,2
205,175,32,2
206,235,21,2
207,235,32,2
208,250,20,2
209,175,39,2
210,250,28,2
211,230,26,2
212,255,30,2
213,260,11,2
214,195,37,2
215,195,36,2
216,205,31,2
217,290,12,2
218,165,41,2
219,235,30,2
220,210,30,2
221,205,30,2
222,245,24,2
223,215,25,2
224,250,20,2
225,205,29,2
226,170,35,2
227,240,37,2
228,140,40,2
229,230,17,2
230,225,29,2
231,280,19,2
232,245,23,2
233,185,26,2
234,275,32,2
235,200,28,2
236,280,17,2
237,255,15,2
238,235,23,2
239,255,21,2
240,275,17,2
241,260,26,2
242,315,11,2
243,170,44,2
244,180,47,2
245,230,22,2
246,285,19,2
247,290,23,2
248,220,29,2
249,255,15,2
250,265,24,2
251,240,30,2
252,255,19,2
253,215,32,2
254,235,20,2
255,235,24,2
256,235,21,2
257,300,8,2
258,270,23,2
259,195,36,2
260,250,18,2
261,285,13,2
262,260,21,2
263,220,23,2
264,290,12,2
265,270,18,2
266,255,17,2
267,245,14,2
268,260,21,2
269,225,23,2
270,265,15,2
271,275,16,2
272,300,16,2
273,280,14,2
274,260,16,2
275,270,14,2
276,270,16,2
277,215,28,2
278,250,18,2
279,255,22,2
280,265,13,2
281,280,12,2
282,270,14,2
283,270,12,2
284,215,34,2
285,255,17,2
286,265,20,2
287,265,20,2
288,205,24,2
289,280,7,2
290,265,15,2
291,265,23,2
292,210,33,2
293,260,15,2
294,295,13,2
295,280,15,2
296,290,11,2
297,250,15,2
298,270,11,2
299,260,16,2
300,240,15,2
301,295,15,2
302,225,25,2
303,280,21,2
304,275,8,2
305,285,11,2
306,270,14,2
307,260,13,2
308,235,19,2
309,265,10,2
310,260,19,2
311,285,11,2
312,255,20,2
313,290,12,2
314,240,26,2
315,290,13,2
316,250,20,2
317,245,14,2
318,270,16,2
319,280,14,2
320,265,15,2
321,250,13,2
322,280,10,2
323,265,13,2
324,245,19,2
325,245,19,2
326,220,21,2
327,230,24,2
328,260,14,2
329,255,14,2
330,140,37,2
331,230,24,2
332,265,10,2
333,235,19,2
334,150,33,2
335,275,8,2
336,240,22,2
337,200,28,2
338,270,9,2
339,270,11,2
340,265,10,2
341,280,10,2
342,245,17,2
343,255,17,2
344,280,7,2
345,275,13,2
346,275,8,2
347,205,27,2
348,270,9,2
349,245,17,2
350,295,9,2
351,280,12,2
352,260,13,2
353,265,10,2
354,270,11,2
355,285,11,2
356,250,13,2
357,250,13,2
358,255,12,2
359,285,14,2
360,275,8,2
361,225,18,2
362,240,17,2
363,265,10,2
364,280,7,2
365,230,17,2
366,245,16,2
367,260,16,2
368,265,10,2
369,275,8,2
370,245,14,2
371,250,13,2
372,275,8,2
373,270,9,2
374,265,10,2
375,270,9,2
376,280,10,2
377,280,7,2
378,275,10,2
379,270,11,2
380,250,15,2
381,260,14,2
382,270,9,2
383,235,18,2
384,260,11,2
385,305,7,2
386,290,10,2
387,280,9,2
388,220,21,2
389,210,21,2
390,280,7,2
391,240,20,2
392,235,21,2
393,200,28,2
394,260,11,2
395,270,15,2
396,255,14,2
397,245,16,2
398,260,11,2
399,235,21,2
400,275,8,2
401,245,16,2
402,285,6,2
403,255,14,2
404,230,23,2
405,265,10,2
406,260,13,2
407,255,12,2
408,270,9,2
409,290,7,2
410,280,14,2
411,245,14,2
412,225,18,2
413,205,24,2
414,285,6,2
415,265,15,2
416,270,11,2
417,285,9,2
418,275,11,2
419,270,11,2
420,235,16,2
421,255,14,2
422,225,18,2
423,210,23,2
424,225,18,2
425,270,9,2
426,235,16,2
427,285,6,2
428,255,12,2
429,255,12,2
430,260,11,2
431,250,13,2
432,250,13,2
433,275,8,2
434,255,12,2
435,235,16,2
436,285,6,2
437,260,13,2
438,270,9,2
439,255,12,2
440,265,10,2
441,255,12,2
442,260,13,2
443,265,10,2
444,280,7,2
445,265,10,2
446,280,10,2
447,245,14,2
448,260,11,2
449,290,7,2
450,265,10,2
451,185,28,2
452,190,25,2
453,245,14,2
454,280,7,2
455,205,22,2
456,215,22,2
457,260,11,2
458,280,7,2
459,240,15,2
460,265,10,2
461,280,7,2
462,275,8,2
463,230,17,2
464,235,16,2
465,245,14,2
466,245,14,2
467,270,9,2
468,250,13,2
469,250,13,2
470,250,13,2
471,190,25,2
472,265,10,2
473,270,9,2
474,260,11,2
475,270,9,2
476,275,8,2
477,280,7,2
478,260,11,2
479,265,10,2
480,245,14,2
481,245,16,2
482,275,8,2
483,275,8,2
484,275,8,2
485,265,10,2
486,265,10,2
487,275,8,2
488,285,8,2
489,285,6,2
490,285,6,2
491,270,9,2
492,270,9,2
493,280,7,2
494,255,12,2
495,250,13,2
496,265,10,2
497,240,15,2
498,275,10,2
499,270,9,2
500,270,9,2
501,265,10,2
502,245,14,2
503,270,9,2
504,255,12,2
505,275,8,2
506,270,9,2
507,275,8,2
508,255,12,2
509,255,12,2
510,275,8,2
511,285,6,2
512,215,20,2
513,230,17,2
514,245,14,2
515,265,10,2
516,255,12,2
517,245,14,2
518,260,11,2
519,275,8,2
520,215,22,2
521,225,20,2
522,265,10,2
523,240,15,2
524,270,9,2
525,270,9,2
526,280,7,2
527,265,10,2
528,230,19,2
529,270,9,2
530,215,20,2
531,200,25,2
532,270,9,2
533,270,9,2
534,260,11,2
535,245,16,2
536,250,13,2
537,270,9,2
538,225,18,2
539,265,10,2
540,215,20,2
541,280,7,2
542,190,27,2
543,215,20,2
544,240,15,2
545,235,16,2
546,235,16,2
547,255,12,2
548,260,11,2
549,265,12,2
550,230,19,2
551,265,10,2
552,280,7,2
553,250,13,2
554,290,7,2
555,260,11,2
556,275,8,2
557,270,9,2
558,280,7,2
559,275,8,2
560,285,6,2
561,250,13,2
562,270,11,2
563,250,13,2
564,285,6,2
565,270,9,2
566,275,8,2
567,250,13,2
568,260,11,2
569,235,16,2
570,210,23,2
571,275,8,2
572,265,10,2
573,275,11,2
574,240,17,2
575,195,24,2
576,280,9,2
577,265,10,2
578,270,9,2
579,225,20,2
580,270,11,2
581,230,17,2
582,245,14,2
583,205,22,2
584,165,32,2
585,160,33,2
586,265,10,2
587,245,16,2
588,255,14,2
589,185,28,2
590,280,9,2
591,280,7,2
592,255,12,2
593,275,8,2
594,265,12,2
595,260,11,2
596,290,7,2
597,270,9,2
598,245,14,2
599,285,8,2
600,265,10,2
601,280,7,2
602,240,15,2
603,255,14,2
604,235,16,2
605,265,10,2
606,240,15,2
607,275,10,2
608,235,16,2
609,280,7,2
610,235,16,2
611,235,16,2
612,200,23,2
613,275,8,2
614,275,8,2
615,245,14,2
616,285,6,2
617,275,8,2
618,245,14,2
619,220,19,2
620,270,11,2
621,235,18,2
622,265,10,2
623,285,8,2
624,255,12,2
625,230,17,2
626,290,7,2
627,275,8,2
628,280,10,2
629,275,8,2
630,240,15,2
631,255,12,2
632,235,18,2
633,275,8,2
634,205,22,2
635,280,7,2
636,275,8,2
637,240,15,2
638,280,7,2
639,215,20,2
640,270,11,2
641,245,14,2
642,230,19,2
643,295,9,2
644,255,12,2
645,255,12,2
646,185,26,2
647,255,12,2
648,250,15,2
649,235,20,2
650,280,7,2
651,240,15,2
652,225,18,2
653,265,10,2
654,265,10,2
655,250,13,2
656,260,11,2
657,270,9,2
658,275,8,2
659,280,7,2
660,270,9,2
661,215,24,2
662,285,6,2
663,165,30,2
664,265,10,2
665,280,9,2
666,280,9,2
667,245,14,2
668,265,10,2
669,270,14,2
670,280,7,2
671,280,7,2
672,265,12,2
673,285,6,2
674,275,8,2
675,290,7,2
676,255,14,2
677,285,6,2
678,240,15,2
679,290,8,2
680,250,16,2
681,280,7,2
682,250,13,2
683,280,9,2
684,270,12,2
685,245,16,2
686,290,7,2
687,280,7,2
688,245,14,2
689,270,9,2
690,280,7,2
691,275,8,2
692,225,18,2
693,270,9,2
694,260,11,2
695,275,8,2
696,260,11,2
697,255,14,2
698,275,8,2
699,280,7,2
700,235,18,2
701,250,13,2
702,275,8,2
703,275,8,2
704,280,7,2
705,225,20,2
706,280,10,2
707,235,16,2
708,275,8,2
709,280,7,2
710,280,7,2
711,265,10,2
712,275,8,2
713,275,8,2
714,270,9,2
715,280,7,2
716,270,9,2
717,265,10,2
718,255,12,2
719,255,14,2
720,270,9,2
721,280,7,2
722,280,7,2
723,250,18,2
724,270,9,2
725,160,31,2
726,285,6,2
727,255,12,2
728,280,7,2
729,275,8,2
730,265,10,2
731,255,12,2
732,255,14,2
733,280,7,2
734,280,7,2
735,275,8,2
736,265,10,2
737,265,10,2
738,180,27,2
739,270,11,2
740,280,7,2
741,270,9,2
742,255,14,2
743,265,10,2
744,240,17,2
745,255,12,2
746,270,9,2
747,235,16,2
748,280,9,2
749,255,14,2
750,275,10,2
751,275,8,2
752,285,6,2
753,260,11,2
754,260,13,2
755,285,6,2
756,275,8,2
757,275,8,2
758,250,13,2
759,280,7,2
760,300,8,2
761,265,10,2
762,285,6,2
763,285,6,2
764,275,8,2
765,255,14,2
766,280,7,2
767,260,11,2
768,255,12,2
769,285,11,2
770,260,16,2
771,280,7,2
772,245,14,2
773,270,9,2
774,250,13,2
775,260,16,2
776,260,13,2
777,225,20,2
778,280,9,2
779,280,7,2
780,250,16,2
781,245,14,2
782,240,20,2
783,265,10,2
784,280,7,2
785,260,11,2
786,265,12,2
787,235,18,2
788,255,12,2
789,225,21,2
790,255,14,2
791,285,6,2
792,265,12,2
793,260,13,2
794,265,12,2
795,290,7,2
796,290,9,2
797,280,7,2
798,285,8,2
799,275,8,2
800,290,7,2
801,280,9,2
802,275,10,2
803,255,12,2
804,270,9,2
805,280,7,2
806,280,9,2
807,285,9,2
808,280,7,2
809,270,11,2
810,295,9,2
811,265,10,2
812,235,18,2
813,225,20,2
814,255,12,2
815,260,11,2
816,280,7,2
817,265,10,2
818,240,17,2
819,285,9,2
820,250,15,2
821,220,19,2
822,305,7,2
823,270,9,2
824,280,7,2
825,260,11,2
826,265,10,2
827,260,13,2
828,285,8,2
829,285,6,2
830,285,8,2
831,275,8,2
832,265,12,2
833,285,6,2
834,285,10,2
835,280,9,2
836,280,9,2
837,270,9,2
838,265,10,2
839,270,9,2
840,215,22,2
841,275,8,2
842,275,8,2
843,275,12,2
844,270,9,2
845,285,8,2
846,260,11,2
847,265,12,2
848,240,15,2
849,255,12,2
850,265,10,2
851,275,8,2
852,240,15,2
853,250,15,2
854,255,12,2
855,285,6,2
856,245,16,2
857,275,8,2
858,245,16,2
859,250,13,2
860,260,13,2
861,280,9,2
862,260,11,2
863,255,14,2
864,210,21,2
865,270,9,2
866,270,9,2
867,240,15,2
868,280,7,2
869,280,9,2
870,270,9,2
871,265,14,2
872,265,10,2
873,260,11,2
874,265,10,2
875,255,14,2
876,210,21,2
877,250,13,2
878,250,13,2
879,220,19,2
880,280,9,2
881,265,10,2
882,265,12,2
883,210,21,2
884,240,15,2
885,265,10,2
886,275,8,2
887,255,14,2
888,270,9,2
889,260,11,2
890,240,15,2
891,260,13,2
892,270,11,2
893,280,9,2
894,275,8,2
895,270,11,2
896,280,7,2
897,275,10,2
898,245,16,2
899,285,6,2
900,285,6,2
901,265,10,2
902,280,7,2
903,265,12,2
904,285,6,2
905,285,6,2
906,265,10,2
907,255,12,2
908,255,14,2
909,265,10,2
910,260,11,2
911,285,6,2
912,280,7,2
913,280,7,2
914,280,9,2
915,265,10,2
916,255,12,2
917,260,11,2
918,280,7,2
919,270,11,2
920,250,13,2
921,260,11,2
922,275,10,2
923,265,12,2
924,260,11,2
925,265,10,2
926,250,15,2
927,270,9,2
928,275,8,2
929,270,9,2
930,270,11,2
931,275,8,2
932,285,6,2
933,270,9,2
934,290,7,2
935,280,7,2
936,275,10,2
937,275,8,2
938,280,9,2
939,280,7,2
940,280,9,2
941,285,6,2
942,275,8,2
943,285,6,2
944,275,8,2
945,285,8,2
946,275,10,2
947,280,9,2
948,285,8,2
949,280,9,2
950,275,8,2
951,280,7,2
952,280,9,2
953,285,6,2
954,270,9,2
955,265,10,2
956,250,15,2
957,275,8,2
958,280,7,2
959,280,7,2
960,280,7,2
961,275,8,2
962,290,7,2
963,240,17,2
964,265,10,2
965,270,11,2
966,280,9,2
967,270,9,2
968,265,10,2
969,265,10,2
970,275,8,2
971,280,7,2
972,275,10,2
973,275,10,2
974,275,8,2
975,275,8,2
976,280,9,2
977,275,8,2
978,275,8,2
979,260,11,2
980,285,8,2
981,260,11,2
982,255,12,2
983,265,10,2
984,255,12,2
985,275,10,2
986,270,9,2
987,265,10,2
988,280,7,2
989,270,9,2
990,245,14,2
991,275,8,2
992,255,14,2
993,280,7,2
994,280,7,2
995,285,8,2
996,240,15,2
997,265,10,2
998,280,7,2
999,260,11,2
