episode,reward,step,sensitive
0,-3045,618,0
1,-2920,618,0
2,-2965,618,0
3,-2925,618,0
4,-2700,618,1
5,-2815,618,1
6,-2910,618,0
7,-2955,618,0
8,-2735,618,0
9,-2720,618,0
10,-2950,618,0
11,-2905,618,0
12,-2700,618,0
13,-3045,618,0
14,-3060,618,0
15,-2975,618,0
16,-2725,618,0
17,-2830,618,0
18,-2870,618,0
19,-2625,618,1
20,-3095,618,0
21,-2925,618,0
22,-2640,618,1
23,-2935,618,0
24,-2640,618,1
25,-2740,618,1
26,-3095,618,0
27,-2315,582,2
28,-2690,618,1
29,-2625,618,1
30,-2790,618,1
31,-2775,618,0
32,-2680,618,1
33,-2605,618,1
34,-2030,498,2
35,-2950,618,0
36,-2925,618,0
37,-2650,618,1
38,-2215,554,2
39,-2685,618,1
40,-2675,618,1
41,-2565,618,1
42,-2645,618,1
43,-2715,618,1
44,-2705,618,1
45,-2685,618,1
46,-2420,598,2
47,-2605,618,1
48,-2805,618,1
49,-2875,618,0
50,-2610,618,1
51,-2595,618,1
52,-2680,618,1
53,-2610,618,1
54,-2840,618,0
55,-2665,618,1
56,-2595,618,1
57,-2680,618,1
58,-2655,618,1
59,-2430,598,2
60,-2655,618,1
61,-2185,538,2
62,-1770,469,2
63,-2615,618,1
64,-2325,583,2
65,-2805,618,0
66,-2945,618,0
67,-2630,618,1
68,-2915,618,0
69,-2940,618,0
70,-2955,618,0
71,-2725,618,1
72,-1935,498,2
73,-2640,618,1
74,-2675,618,1
75,-2685,618,1
76,-2700,618,1
77,-2970,618,0
78,-2900,618,0
79,-2800,618,0
80,-2625,618,1
81,-2630,618,1
82,-2840,618,0
83,-2975,618,0
84,-2700,618,1
85,-2590,618,1
86,-1000,283,2
87,-610,214,2
88,-2665,618,1
89,-2610,618,1
90,-1420,386,2
91,-1905,475,2
92,-2465,612,2
93,-2700,618,1
94,-2625,618,1
95,-2395,603,2
96,-1560,421,2
97,-2525,611,2
98,-2685,618,1
99,-1365,386,2
100,-1900,496,2
101,-2705,618,1
102,-2610,618,1
103,-2590,618,1
104,-2545,618,1
105,-2790,618,0
106,-2655,618,1
107,-2590,618,1
108,-775,249,2
109,-2625,618,1
110,-2825,618,0
111,-2075,529,2
112,-2590,618,1
113,-2925,618,0
114,-2590,618,1
115,-2645,618,1
116,-3015,618,0
117,-2645,618,1
118,-2795,618,0
119,-2880,618,0
120,-2750,618,1
121,-1235,340,2
122,-1615,440,2
123,-2690,618,1
124,-2640,618,1
125,-2605,618,1
126,-2540,600,2
127,-3030,618,0
128,-3005,618,0
129,-2640,618,1
130,-2645,618,1
131,-2935,618,0
132,-2635,618,1
133,-2650,618,1
134,-2720,618,1
135,-2600,618,1
136,-1540,422,2
137,-2755,618,1
138,-2780,618,1
139,-2625,618,1
140,-1875,488,2
141,-2360,587,2
142,-2660,618,1
143,-2540,617,2
144,-2605,618,1
145,-2610,618,1
146,-1945,493,2
147,-2630,618,1
148,-2950,618,0
149,-2910,618,0
150,-1315,368,2
151,-2320,579,2
152,-2640,618,1
153,-2655,618,1
154,-2440,598,2
155,-1980,493,2
156,-1300,361,2
157,-2625,618,1
158,-2190,555,2
159,-2665,618,1
160,-1075,309,2
161,-2630,618,1
162,-2995,618,0
163,-2900,618,0
164,-2615,618,1
165,-2630,618,1
166,-2760,618,0
167,-2625,618,1
168,-2685,618,1
169,-2665,618,1
170,-985,301,2
171,-2060,529,2
172,-2635,618,1
173,-2830,618,0
174,-2610,618,1
175,-2630,618,1
176,-2635,618,1
177,-1790,467,2
178,-2325,562,2
179,-1775,473,2
180,-2635,618,1
181,-1915,492,2
182,-2580,618,1
183,-2600,618,1
184,-2850,618,0
185,-1940,500,2
186,-2080,527,2
187,-2025,505,2
188,-1855,470,2
189,-1360,372,2
190,-2615,618,1
191,-1285,358,2
192,-2625,618,1
193,-2220,558,2
194,-665,225,2
195,-2850,618,0
196,-2680,618,1
197,-790,256,2
198,-2220,559,2
199,-2020,527,2
200,-2635,618,1
201,-2645,618,1
202,-2660,618,1
203,-2610,618,1
204,-2685,618,1
205,-1520,412,2
206,-2655,618,1
207,-2630,618,1
208,-2605,618,1
209,-2680,618,1
210,-1340,372,2
211,-2240,556,2
212,-2730,618,0
213,-1285,353,2
214,-2480,601,2
215,-2615,618,1
216,-2730,618,0
217,-2140,539,2
218,-1055,304,2
219,-2635,618,1
220,-1890,491,2
221,-2440,601,2
222,-1880,491,2
223,-2635,618,1
224,-1450,384,2
225,-2405,590,2
226,-2130,540,2
227,-2610,618,1
228,-1380,366,2
229,-685,237,2
230,-2665,618,1
231,-2600,618,1
232,-2275,577,2
233,-1775,463,2
234,-2640,618,1
235,-2040,505,2
236,-2915,618,0
237,-2590,618,1
238,-1075,313,2
239,-1865,472,2
240,-2640,618,1
241,-2570,618,1
242,-1980,513,2
243,-2015,517,2
244,-1825,474,2
245,-2605,618,1
246,-1310,359,2
247,-1870,486,2
248,-2615,618,1
249,-2030,513,2
250,-2605,618,1
251,-2655,618,1
252,-2760,618,1
253,-1855,485,2
254,-1430,401,2
255,-1225,335,2
256,-2725,618,1
257,-2630,618,1
258,-935,263,2
259,-2585,618,1
260,-2840,618,0
261,-1550,405,2
262,-1020,290,2
263,-1965,499,2
264,-2610,618,1
265,-2580,618,1
266,-1585,432,2
267,-2650,618,1
268,-2710,618,1
269,-2195,559,2
270,-2645,618,1
271,-1375,378,2
272,-2790,618,1
273,-1890,489,2
274,-3005,618,0
275,-1730,443,2
276,-2685,618,1
277,-2600,618,1
278,-1590,430,2
279,-2405,587,2
280,-2860,618,0
281,-1245,342,2
282,-2775,618,0
283,-2700,618,1
284,-2105,524,2
285,-2315,577,2
286,-2260,556,2
287,-1935,500,2
288,-2805,618,1
289,-2635,618,1
290,-2405,599,2
291,-555,200,2
292,-2625,618,1
293,-2645,618,1
294,-2745,618,1
295,-2595,618,1
296,-2600,618,1
297,-2835,618,0
298,-2590,618,1
299,-2655,618,1
300,-2650,618,1
301,-2605,618,1
302,-2760,618,1
303,-2350,574,2
304,-1650,445,2
305,-2645,618,1
306,-2645,618,1
307,-1865,461,2
308,-2355,581,2
309,-2265,557,2
310,-2655,618,1
311,-2155,525,2
312,-2655,618,1
313,-2690,618,1
314,-2645,618,1
315,-2815,618,0
316,-2745,618,0
317,-1185,336,2
318,-2615,618,1
319,-2745,618,0
320,-2820,618,0
321,-2600,618,1
322,-1900,481,2
323,-2765,618,0
324,-2320,584,2
325,-2690,618,1
326,-2610,618,1
327,-2835,618,1
328,-2780,618,0
329,-495,185,2
330,-2660,618,1
331,-2620,618,1
332,-2615,618,1
333,-2940,618,0
334,-1520,408,2
335,-1725,443,2
336,-2620,618,1
337,-2765,618,0
338,-780,233,2
339,-2045,534,2
340,-2860,618,0
341,-2610,618,1
342,-2430,602,2
343,-2655,618,1
344,-805,250,2
345,-2610,618,1
346,-2710,618,1
347,-2120,539,2
348,-2635,618,1
349,-765,242,2
350,-2605,618,1
351,-1750,451,2
352,-755,225,2
353,-2665,618,1
354,-2605,618,1
355,-2640,618,1
356,-2425,580,2
357,-2320,586,2
358,-2630,618,1
359,-2730,618,0
360,-2070,533,2
361,-1540,409,2
362,-2705,618,1
363,-1425,393,2
364,-2665,618,1
365,-2625,618,1
366,-2650,618,1
367,-2015,518,2
368,-2675,618,1
369,-2635,618,1
370,-2695,618,1
371,-2655,618,1
372,-1850,455,2
373,-2350,571,2
374,-2775,618,0
375,-2660,618,1
376,-1680,438,2
377,-2620,618,1
378,-2860,618,0
379,-2640,618,1
380,-2125,547,2
381,-2770,618,0
382,-2660,618,1
383,-2645,618,1
384,-1825,456,2
385,-2775,618,0
386,-2330,568,2
387,-2640,618,1
388,-2140,541,2
389,-2635,618,1
390,-1880,470,2
391,-820,272,2
392,-2585,618,1
393,-1835,456,2
394,-1735,455,2
395,-895,284,2
396,-2630,618,1
397,-2900,618,0
398,-2740,618,0
399,-2645,618,1
400,-1820,472,2
401,-2565,618,1
402,-1070,310,2
403,-2620,618,1
404,-2610,618,1
405,-2270,566,2
406,-1435,393,2
407,-1060,307,2
408,-2770,618,0
409,-2795,618,0
410,-2600,618,1
411,-760,250,2
412,-2645,618,1
413,-2840,618,0
414,-2380,591,2
415,-2750,618,0
416,-2670,618,1
417,-1820,456,2
418,-1025,297,2
419,-2030,515,2
420,-2785,618,0
421,-2620,618,1
422,-970,297,2
423,-1545,429,2
424,-2825,618,0
425,-2715,618,1
426,-2580,618,1
427,-2115,534,2
428,-2695,618,1
429,-2605,618,1
430,-2385,594,2
431,-1030,316,2
432,-2705,618,1
433,-1975,493,2
434,-1785,463,2
435,-2700,618,1
436,-1785,466,2
437,-2585,618,1
438,-555,215,2
439,-2650,618,1
440,-1890,488,2
441,-1025,314,2
442,-1620,419,2
443,-1280,363,2
444,-2675,618,1
445,-2270,575,2
446,-1205,352,2
447,-1415,391,2
448,-2695,618,1
449,-2235,549,2
450,-2040,527,2
451,-2145,550,2
452,-2655,618,1
453,-2615,618,1
454,-2605,618,1
455,-2340,570,2
456,-2600,618,1
457,-2625,618,1
458,-2605,618,1
459,-2775,618,0
460,-2650,618,1
461,-2660,618,1
462,-2650,618,1
463,-2635,618,1
464,-2395,593,2
465,-1055,297,2
466,-1495,415,2
467,-2110,532,2
468,-2160,543,2
469,-2660,618,1
470,-1915,478,2
471,-2575,618,1
472,-2805,618,0
473,-2695,618,1
474,-1655,444,2
475,-2770,618,0
476,-2670,618,1
477,-2785,618,0
478,-725,231,2
479,-2805,618,0
480,-2665,618,1
481,-2775,618,0
482,-2875,618,0
483,-2650,618,1
484,-2625,618,1
485,-2780,618,0
486,-2430,585,2
487,-2695,618,1
488,-1720,445,2
489,-2460,603,2
490,-1700,446,2
491,-2925,618,0
492,-2225,556,2
493,-2500,614,2
494,-2720,618,1
495,-1715,453,2
496,-2460,607,2
497,-2620,618,1
498,-625,222,2
499,-2620,618,1
500,-2600,618,1
501,-2925,618,0
502,-2640,618,1
503,-1560,415,2
504,-1920,493,2
505,-1380,378,2
506,-1730,442,2
507,-1095,319,2
508,-2825,618,0
509,-1360,381,2
510,-1720,438,2
511,-1580,422,2
512,-2330,593,2
513,-1360,384,2
514,-2660,618,1
515,-2705,618,1
516,-2675,618,1
517,-2630,618,1
518,-2095,527,2
519,-1455,406,2
520,-2725,618,1
521,-1765,459,2
522,-1830,473,2
523,-1260,351,2
524,-2625,618,1
525,-2605,618,1
526,-2600,618,1
527,-2795,618,0
528,-1890,485,2
529,-2625,618,1
530,-1660,444,2
531,-2610,618,1
532,-2635,618,1
533,-1490,403,2
534,-1260,348,2
535,-1110,336,2
536,-2595,618,1
537,-1820,471,2
538,-2585,618,1
539,-1225,349,2
540,-2680,618,1
541,-2650,618,1
542,-960,295,2
543,-1355,387,2
544,-2615,618,1
545,-2365,579,2
546,-2330,580,2
547,-1950,509,2
548,-1125,304,2
549,-1635,423,2
550,-1440,390,2
551,-895,259,2
552,-2480,598,2
553,-1365,384,2
554,-2595,618,1
555,-1730,455,2
556,-2600,618,1
557,-1240,343,2
558,-2685,618,1
559,-2750,618,0
560,-2615,618,1
561,-765,238,2
562,-2620,618,1
563,-1610,414,2
564,-2600,618,1
565,-2765,618,0
566,-2550,618,1
567,-735,225,2
568,-1310,377,2
569,-2735,618,1
570,-1170,323,2
571,-2615,618,1
572,-605,203,2
573,-2615,618,1
574,-2680,618,1
575,-765,248,2
576,-1370,373,2
577,-1210,348,2
578,-2365,566,2
579,-1420,389,2
580,-2685,618,1
581,-2720,618,0
582,-2615,618,1
583,-1970,494,2
584,-1485,385,2
585,-2640,618,1
586,-2330,566,2
587,-950,262,2
588,-2430,588,2
589,-2795,618,0
590,-2810,618,0
591,-2030,520,2
592,-1940,498,2
593,-2670,618,1
594,-1330,367,2
595,-1205,348,2
596,-2375,569,2
597,-1765,460,2
598,-1145,331,2
599,-2610,618,1
600,-2260,565,2
601,-500,181,2
602,-1265,335,2
603,-2590,618,1
604,-2765,618,0
605,-1980,504,2
606,-2225,541,2
607,-2795,618,0
608,-2830,618,0
609,-1810,459,2
610,-2680,618,1
611,-2680,618,1
612,-2830,618,0
613,-2750,618,0
614,-565,213,2
615,-1240,343,2
616,-2720,618,1
617,-2785,618,0
618,-2405,592,2
619,-2730,618,1
620,-2645,618,1
621,-2640,618,1
622,-1955,492,2
623,-1950,498,2
624,-1850,464,2
625,-2620,618,1
626,-2100,514,2
627,-2625,618,1
628,-1945,489,2
629,-2645,618,1
630,-2700,618,1
631,-2640,618,1
632,-2680,618,1
633,-2650,618,1
634,-2135,537,2
635,-2255,542,2
636,-2845,618,1
637,-1940,490,2
638,-2655,618,1
639,-2855,618,0
640,-1295,347,2
641,-860,260,2
642,-1685,430,2
643,-2730,618,1
644,-1795,448,2
645,-2540,607,2
646,-1975,509,2
647,-2680,618,1
648,-2715,618,1
649,-2800,618,0
650,-2660,618,1
651,-2615,618,1
652,-1410,380,2
653,-2625,618,1
654,-2115,541,2
655,-2630,618,1
656,-1525,403,2
657,-480,185,2
658,-2785,618,1
659,-1490,415,2
660,-2600,618,1
661,-1215,346,2
662,-1960,496,2
663,-1695,453,2
664,-2070,526,2
665,-2675,618,1
666,-2620,618,1
667,-2010,506,2
668,-1085,319,2
669,-805,254,2
670,-2520,616,2
671,-2615,618,1
672,-2715,618,1
673,-995,290,2
674,-810,255,2
675,-2700,618,1
676,-1805,479,2
677,-2750,618,1
678,-1215,344,2
679,-175,117,2
680,-1365,387,2
681,-2770,618,1
682,-2295,575,2
683,-2685,618,1
684,-2600,618,1
685,-465,177,2
686,-2705,618,1
687,-855,254,2
688,-1050,323,2
689,-575,195,2
690,-2700,618,1
691,-2635,618,1
692,-2670,618,1
693,-2180,549,2
694,-1660,424,2
695,-2640,618,1
696,-520,180,2
697,-2265,567,2
698,-2190,535,2
699,-2225,541,2
700,-2650,618,1
701,-935,273,2
702,-2225,559,2
703,-2030,509,2
704,-335,157,2
705,-2645,618,1
706,-2620,618,1
707,-2720,618,1
708,-2645,618,1
709,-1365,366,2
710,-555,201,2
711,-1490,383,2
712,-215,121,2
713,-2755,618,0
714,-2770,618,0
715,-2680,618,1
716,-2720,618,1
717,-2780,618,0
718,-2620,618,1
719,-2660,618,1
720,-1310,348,2
721,-1610,429,2
722,-2645,618,1
723,-1365,366,2
724,-785,234,2
725,-2735,618,0
726,-2745,618,0
727,-1190,338,2
728,-2635,618,1
729,-1970,503,2
730,-915,265,2
731,-1765,462,2
732,-2635,618,1
733,-2005,515,2
734,-425,159,2
735,-1275,358,2
736,-2110,523,2
737,-2685,618,1
738,-1450,384,2
739,-2690,618,1
740,-580,205,2
741,-2610,618,1
742,-625,224,2
743,-2735,618,1
744,-2555,618,1
745,-690,228,2
746,-2580,618,1
747,-1505,411,2
748,-2645,618,1
749,-1285,353,2
750,-775,251,2
751,-2670,618,1
752,-1335,363,2
753,-2615,618,1
754,-2230,546,2
755,-2640,618,1
756,-2680,618,1
757,-2135,539,2
758,-2685,618,1
759,-2745,618,1
760,-2030,521,2
761,-2650,618,1
762,-2715,618,1
763,-3070,618,0
764,-2670,618,1
765,-2770,618,1
766,-2615,618,1
767,-1985,499,2
768,-2645,618,1
769,-2695,618,1
770,-2700,618,1
771,-2695,618,1
772,-2670,618,1
773,-2635,618,1
774,-2705,618,1
775,-1120,318,2
776,-2825,618,0
777,-2805,618,0
778,-2680,618,1
779,-2650,618,1
780,-2630,618,1
781,-2800,618,1
782,-2275,563,2
783,-1490,394,2
784,-2670,618,1
785,-2580,618,1
786,-2660,618,1
787,-2600,618,1
788,-1520,417,2
789,-2645,618,1
790,-1500,402,2
791,-2710,618,1
792,-590,197,2
793,-2645,618,1
794,-2420,593,2
795,-870,255,2
796,-2680,618,1
797,-2595,618,1
798,-1440,384,2
799,-2705,618,1
800,-2815,618,0
801,-2720,618,1
802,-1245,343,2
803,-2630,618,1
804,-2130,521,2
805,-2675,618,1
806,-2660,618,1
807,-2655,618,1
808,-1355,352,2
809,-2645,618,1
810,-1885,491,2
811,-1825,467,2
812,-2015,503,2
813,-2765,618,1
814,-2620,618,1
815,-1695,436,2
816,-2660,618,1
817,-2705,618,1
818,-1005,275,2
819,-2600,618,1
820,-2665,618,1
821,-2635,618,1
822,-2085,512,2
823,-2640,618,1
824,-2715,618,1
825,-2715,618,1
826,-2640,618,1
827,-2695,618,1
828,-1630,424,2
829,-2680,618,1
830,-2580,618,1
831,-2785,618,0
832,-1635,423,2
833,-2645,618,1
834,-2935,618,0
835,-2785,618,1
836,-1460,392,2
837,-1215,332,2
838,-2675,618,1
839,-2715,618,1
840,-2680,618,1
841,-2285,564,2
842,-2235,559,2
843,-2320,572,2
844,-2095,520,2
845,-1740,453,2
846,-2640,618,1
847,-2765,618,1
848,-2690,618,1
849,-1900,473,2
850,-1740,436,2
851,-1475,380,2
852,-2655,618,1
853,-1500,389,2
854,-2795,618,0
855,-2335,569,2
856,-1785,459,2
857,-2670,618,1
858,-2665,618,1
859,-2670,618,1
860,-2640,618,1
861,-2710,618,1
862,-1940,481,2
863,-2625,618,1
864,-2720,618,1
865,-690,226,2
866,-2670,618,1
867,-2625,618,1
868,-2640,618,1
869,-2730,618,1
870,-2720,618,1
871,-2680,618,1
872,-2760,618,1
873,-1805,452,2
874,-2210,531,2
875,-2635,618,1
876,-2220,561,2
877,-2770,618,1
878,-2595,618,1
879,-3070,618,0
880,-2910,618,0
881,-2275,570,2
882,-2030,519,2
883,-1765,442,2
884,-2785,618,1
885,-2735,618,1
886,-1695,442,2
887,-120,98,2
888,-1215,331,2
889,-1695,429,2
890,-2775,618,1
891,-2665,618,1
892,-1825,470,2
893,-1565,421,2
894,-2760,618,1
895,-2615,618,1
896,-1100,301,2
897,-2645,618,1
898,-1550,400,2
899,-1055,296,2
900,-2100,519,2
901,-2780,618,0
902,-2515,615,2
903,-955,287,2
904,-1005,314,2
905,-2655,618,1
906,-2680,618,1
907,-2705,618,1
908,-2690,618,1
909,-2615,618,1
910,-2695,618,1
911,-2655,618,1
912,-2720,618,1
913,-2615,618,1
914,-2635,618,1
915,-1290,368,2
916,-2665,618,1
917,-1145,317,2
918,-2715,618,1
919,-1000,306,2
920,-205,129,2
921,-2695,618,1
922,-2675,618,1
923,-1970,496,2
924,-2655,618,1
925,-1380,380,2
926,-1625,403,2
927,-2675,618,1
928,-2625,618,1
929,-2645,618,1
930,-2720,618,1
931,-2770,618,1
932,-2735,618,1
933,-1580,428,2
934,-2780,618,1
935,-955,282,2
936,-2655,618,1
937,-2630,618,1
938,-2710,618,1
939,-2725,618,1
940,-690,237,2
941,-1460,388,2
942,-930,283,2
943,-2740,618,1
944,-1745,436,2
945,-2735,618,1
946,-2665,618,1
947,-2045,519,2
948,-2640,618,1
949,-2655,618,1
950,-1385,389,2
951,-860,262,2
952,-1790,437,2
953,-2710,618,1
954,-2805,618,0
955,-2650,618,1
956,-2680,618,1
957,-2675,618,1
958,-2745,618,1
959,-2650,618,1
960,-1125,308,2
961,-2805,618,0
962,-2755,618,1
963,-2625,618,1
964,-2740,618,1
965,-2700,618,1
966,-1435,380,2
967,-2695,618,1
968,-2745,618,1
969,-1750,450,2
970,-1335,351,2
971,-870,259,2
972,-1845,466,2
973,-2675,618,1
974,-1975,486,2
975,-1080,302,2
976,-1435,381,2
977,-2705,618,1
978,-2855,618,0
979,-2325,536,2
980,-2735,618,1
981,-1485,383,2
982,-2815,618,1
983,-2685,618,1
984,-2620,618,1
985,-2205,539,2
986,-2685,618,1
987,-2840,618,0
988,-2720,618,1
989,-2710,618,1
990,-2765,618,1
991,-2780,618,1
992,-2755,618,1
993,-1995,502,2
994,-2250,553,2
995,-2650,618,1
996,-2915,618,0
997,-2680,618,1
998,-2175,546,2
999,-2880,618,0
