episode,reward,step,sensitive
0,285,157,8
1,0,169,6
2,-125,169,5
3,140,169,7
4,140,169,7
5,-75,169,5
6,-420,169,3
7,130,169,7
8,270,157,8
9,590,97,8
10,-95,169,5
11,-10,169,6
12,-125,169,5
13,-120,169,5
14,45,169,6
15,140,169,7
16,30,169,6
17,245,164,8
18,560,105,8
19,-45,169,6
20,-75,169,6
21,160,169,7
22,520,118,8
23,295,160,8
24,145,169,7
25,135,169,7
26,300,160,8
27,420,129,8
28,550,107,8
29,360,149,8
30,25,169,6
31,135,169,7
32,-395,169,3
33,60,169,6
34,70,169,7
35,55,169,7
36,650,82,8
37,105,169,7
38,575,97,8
39,545,108,8
40,120,169,7
41,115,169,7
42,460,124,8
43,500,113,8
44,585,95,8
45,130,169,7
46,725,60,8
47,480,125,8
48,695,73,8
49,440,127,8
50,645,83,8
51,660,81,8
52,755,58,8
53,515,111,8
54,405,129,8
55,130,169,7
56,430,126,8
57,650,66,8
58,410,130,8
59,680,74,8
60,490,115,8
61,630,80,8
62,655,84,8
63,415,135,8
64,435,126,8
65,435,132,8
66,620,85,8
67,590,102,8
68,770,46,8
69,635,77,8
70,315,140,8
71,705,55,8
72,785,36,8
73,725,64,8
74,575,86,8
75,455,127,8
76,700,63,8
77,485,112,8
78,610,77,8
79,520,110,8
80,600,90,8
81,815,39,8
82,585,100,8
83,775,55,8
84,855,33,8
85,695,64,8
86,590,87,8
87,805,47,8
88,120,169,7
89,725,57,8
90,665,75,8
91,625,85,8
92,695,73,8
93,775,41,8
94,815,51,8
95,330,146,8
96,825,35,8
97,325,138,8
98,590,90,8
99,605,86,8
100,825,43,8
101,765,53,8
102,110,169,7
103,435,123,8
104,720,60,8
105,135,169,7
106,750,47,8
107,625,86,8
108,740,67,8
109,585,95,8
110,665,74,8
111,575,94,8
112,465,118,8
113,655,72,8
114,710,61,8
115,730,66,8
116,525,110,8
117,330,150,8
118,560,100,8
119,585,92,8
120,675,64,8
121,705,70,8
122,580,103,8
123,690,68,8
124,700,73,8
125,730,65,8
126,680,77,8
127,430,131,8
128,660,79,8
129,775,53,8
130,645,77,8
131,760,54,8
132,560,104,8
133,745,63,8
134,790,48,8
135,855,37,8
136,385,133,8
137,775,53,8
138,745,57,8
139,860,36,8
140,710,66,8
141,285,160,8
142,675,77,8
143,830,34,8
144,780,53,8
145,400,132,8
146,700,70,8
147,695,64,8
148,825,41,8
149,755,61,8
150,830,38,8
151,765,52,8
152,750,56,8
153,735,61,8
154,525,108,8
155,890,22,8
156,820,37,8
157,755,56,8
158,770,54,8
159,860,30,8
160,700,72,8
161,600,84,8
162,135,169,7
163,420,133,8
164,725,66,8
165,815,37,8
166,710,65,8
167,750,55,8
168,725,69,8
169,455,118,8
170,805,40,8
171,745,59,8
172,850,33,8
173,225,164,8
174,755,59,8
175,660,77,8
176,595,90,8
177,780,53,8
178,685,74,8
179,570,100,8
180,810,41,8
181,550,99,8
182,595,92,8
183,765,55,8
184,775,49,8
185,805,47,8
186,815,46,8
187,780,53,8
188,850,35,8
189,820,42,8
190,845,38,8
191,845,37,8
192,105,169,7
193,550,102,8
194,710,64,8
195,440,126,8
196,765,53,8
197,795,50,8
198,815,37,8
199,830,38,8
200,660,72,8
201,520,102,8
202,740,55,8
203,740,58,8
204,600,90,8
205,120,169,7
206,840,31,8
207,820,39,8
208,775,46,8
209,865,30,8
210,660,74,8
211,605,79,8
212,725,61,8
213,640,80,8
214,710,61,8
215,675,72,8
216,725,64,8
217,665,78,8
218,740,59,8
219,620,78,8
220,815,39,8
221,645,81,8
222,705,62,8
223,710,58,8
224,785,48,8
225,785,46,8
226,505,110,8
227,680,72,8
228,805,40,8
229,695,58,8
230,590,89,8
231,615,81,8
232,780,54,8
233,510,103,8
234,460,116,8
235,510,110,8
236,605,85,8
237,590,89,8
238,625,81,8
239,830,36,8
240,840,34,8
241,680,68,8
242,615,81,8
243,725,55,8
244,350,137,8
245,665,74,8
246,105,169,7
247,670,77,8
248,650,70,8
249,750,55,8
250,550,99,8
251,620,81,8
252,790,44,8
253,515,105,8
254,630,81,8
255,825,29,8
256,445,124,8
257,835,36,8
258,800,42,8
259,390,130,8
260,610,90,8
261,860,28,8
262,845,28,8
263,780,42,8
264,700,66,8
265,775,50,8
266,650,74,8
267,810,35,8
268,660,69,8
269,725,57,8
270,705,64,8
271,790,43,8
272,740,54,8
273,820,38,8
274,690,65,8
275,665,78,8
276,765,53,8
277,720,64,8
278,665,82,8
279,785,47,8
280,835,33,8
281,790,42,8
282,415,131,8
283,685,70,8
284,635,79,8
285,875,25,8
286,430,121,8
287,680,76,8
288,740,54,8
289,615,87,8
290,840,32,8
291,75,169,7
292,700,63,8
293,665,70,8
294,845,28,8
295,765,50,8
296,785,39,8
297,830,42,8
298,810,33,8
299,785,50,8
300,785,47,8
301,810,38,8
302,610,84,8
303,810,41,8
304,495,114,8
305,725,62,8
306,845,25,8
307,750,50,8
308,780,41,8
309,830,24,8
310,795,39,8
311,695,68,8
312,810,41,8
313,800,37,8
314,740,54,8
315,765,44,8
316,800,47,8
317,850,28,8
318,655,71,8
319,795,48,8
320,650,73,8
321,840,29,8
322,845,31,8
323,785,44,8
324,755,56,8
325,860,28,8
326,805,39,8
327,675,68,8
328,810,37,8
329,850,28,8
330,690,62,8
331,560,81,8
332,705,69,8
333,420,116,8
334,810,43,8
335,705,54,8
336,770,40,8
337,805,36,8
338,765,52,8
339,745,51,8
340,680,67,8
341,820,35,8
342,710,56,8
343,665,64,8
344,790,32,8
345,420,127,8
346,405,119,8
347,910,18,8
348,700,56,8
349,775,37,8
350,565,84,8
351,820,34,8
352,765,44,8
353,555,95,8
354,590,85,8
355,610,75,8
356,75,169,7
357,730,48,8
358,805,41,8
359,765,47,8
360,760,49,8
361,840,29,8
362,750,49,8
363,890,19,8
364,770,49,8
365,770,47,8
366,790,36,8
367,650,66,8
368,775,42,8
369,865,22,8
370,805,39,8
371,730,54,8
372,835,35,8
373,780,41,8
374,805,33,8
375,830,34,8
376,785,33,8
377,730,53,8
378,790,34,8
379,765,44,8
380,855,26,8
381,830,28,8
382,725,57,8
383,660,65,8
384,430,116,8
385,660,70,8
386,785,40,8
387,765,42,8
388,770,43,8
389,890,18,8
390,805,36,8
391,755,54,8
392,870,18,8
393,600,77,8
394,470,114,8
395,680,61,8
396,845,30,8
397,800,40,8
398,805,34,8
399,580,81,8
400,755,46,8
401,770,45,8
402,870,27,8
403,865,25,8
404,745,40,8
405,695,57,8
406,775,49,8
407,625,72,8
408,800,37,8
409,755,54,8
410,815,33,8
411,545,93,8
412,695,58,8
413,695,67,8
414,660,65,8
415,830,33,8
416,780,41,8
417,795,40,8
418,550,90,8
419,605,79,8
420,590,83,8
421,770,41,8
422,735,47,8
423,630,73,8
424,765,39,8
425,665,67,8
426,835,30,8
427,715,58,8
428,610,75,8
429,780,42,8
430,680,61,8
431,550,87,8
432,720,45,8
433,800,30,8
434,790,42,8
435,810,35,8
436,775,44,8
437,510,97,8
438,610,76,8
439,750,45,8
440,360,128,8
441,550,90,8
442,755,46,8
443,415,117,8
444,540,95,8
445,820,25,8
446,580,78,8
447,680,63,8
448,815,31,8
449,675,61,8
450,655,69,8
451,760,42,8
452,635,73,8
453,770,43,8
454,615,75,8
455,810,33,8
456,860,30,8
457,715,57,8
458,695,57,8
459,815,31,8
460,620,72,8
461,790,36,8
462,640,69,8
463,785,37,8
464,765,53,8
465,815,45,8
466,820,41,8
467,700,59,8
468,775,40,8
469,600,82,8
470,785,46,8
471,830,23,8
472,835,25,8
473,780,46,8
474,800,29,8
475,795,33,8
476,635,68,8
477,820,38,8
478,640,64,8
479,815,36,8
480,705,62,8
481,700,65,8
482,700,50,8
483,585,86,8
484,765,46,8
485,825,27,8
486,765,39,8
487,635,68,8
488,805,38,8
489,685,62,8
490,685,60,8
491,725,47,8
492,520,96,8
493,770,38,8
494,430,108,8
495,450,110,8
496,375,129,8
497,495,97,8
498,335,133,8
499,620,73,8
500,580,76,8
501,490,105,8
502,445,106,8
503,545,94,8
504,40,169,7
505,225,149,8
506,350,135,8
507,720,50,8
508,795,32,8
509,50,169,7
510,560,86,8
511,655,63,8
512,610,86,8
513,775,52,8
514,715,52,8
515,435,118,8
516,600,72,8
517,640,66,8
518,700,55,8
519,670,67,8
520,570,83,8
521,730,53,8
522,685,57,8
523,830,36,8
524,745,48,8
525,415,119,8
526,550,99,8
527,740,51,8
528,770,35,8
529,705,60,8
530,695,53,8
531,795,28,8
532,625,67,8
533,745,59,8
534,725,52,8
535,810,40,8
536,470,108,8
537,815,32,8
538,695,55,8
539,255,162,8
540,795,38,8
541,810,43,8
542,615,69,8
543,865,14,8
544,770,38,8
545,545,85,8
546,855,21,8
547,775,42,8
548,640,66,8
549,755,48,8
550,790,32,8
551,700,63,8
552,765,50,8
553,690,64,8
554,610,73,8
555,825,24,8
556,735,45,8
557,715,48,8
558,695,61,8
559,805,29,8
560,765,42,8
561,645,66,8
562,780,31,8
563,840,22,8
564,760,54,8
565,820,28,8
566,590,74,8
567,690,52,8
568,710,47,8
569,805,40,8
570,730,53,8
571,260,156,8
572,690,53,8
573,805,34,8
574,570,86,8
575,700,50,8
576,705,51,8
577,495,99,8
578,540,89,8
579,780,36,8
580,535,82,8
581,725,47,8
582,760,41,8
583,630,77,8
584,575,77,8
585,755,46,8
586,690,62,8
587,805,26,8
588,615,77,8
589,625,67,8
590,825,36,8
591,540,90,8
592,730,48,8
593,765,48,8
594,805,36,8
595,680,68,8
596,705,60,8
597,765,37,8
598,750,42,8
599,745,45,8
600,725,52,8
601,630,69,8
602,660,69,8
603,795,35,8
604,830,34,8
605,720,59,8
606,745,51,8
607,800,32,8
608,845,28,8
609,865,25,8
610,860,29,8
611,745,52,8
612,850,35,8
613,820,35,8
614,790,41,8
615,710,66,8
616,830,34,8
617,840,22,8
618,695,69,8
619,830,36,8
620,775,46,8
621,845,29,8
622,690,76,8
623,760,51,8
624,780,47,8
625,790,51,8
626,780,54,8
627,610,86,8
628,775,56,8
629,625,90,8
630,795,35,8
631,700,53,8
632,785,40,8
633,895,24,8
634,770,41,8
635,560,101,8
636,865,36,8
637,610,92,8
638,845,39,8
639,730,60,8
640,810,44,8
641,780,39,8
642,790,50,8
643,795,44,8
644,780,49,8
645,840,30,8
646,715,62,8
647,800,52,8
648,855,29,8
649,855,43,8
650,800,31,8
651,725,57,8
652,755,44,8
653,665,72,8
654,765,45,8
655,830,23,8
656,780,35,8
657,785,37,8
658,765,46,8
659,795,47,8
660,810,28,8
661,515,102,8
662,790,51,8
663,740,44,8
664,760,51,8
665,800,27,8
666,645,69,8
667,650,81,8
668,775,37,8
669,825,25,8
670,605,85,8
671,695,59,8
672,795,30,8
673,835,37,8
674,865,30,8
675,825,29,8
676,720,56,8
677,825,33,8
678,800,30,8
679,795,34,8
680,870,20,8
681,795,33,8
682,765,50,8
683,830,33,8
684,820,25,8
685,730,48,8
686,660,74,8
687,640,69,8
688,785,33,8
689,780,43,8
690,755,38,8
691,745,46,8
692,770,48,8
693,685,61,8
694,720,55,8
695,510,98,8
696,630,68,8
697,800,27,8
698,840,21,8
699,745,56,8
700,750,40,8
701,640,62,8
702,535,84,8
703,745,43,8
704,710,53,8
705,845,23,8
706,595,75,8
707,765,37,8
708,500,92,8
709,670,55,8
710,785,35,8
711,765,52,8
712,335,135,8
713,595,75,8
714,890,17,8
715,695,59,8
716,820,28,8
717,725,50,8
718,745,46,8
719,740,44,8
720,680,59,8
721,655,61,8
722,805,33,8
723,830,29,8
724,595,77,8
725,810,27,8
726,820,25,8
727,600,73,8
728,670,66,8
729,745,43,8
730,795,36,8
731,810,25,8
732,790,39,8
733,625,69,8
734,760,56,8
735,790,45,8
736,760,45,8
737,845,18,8
738,845,22,8
739,810,28,8
740,700,60,8
741,810,28,8
742,740,57,8
743,725,50,8
744,560,96,8
745,800,34,8
746,780,39,8
747,755,44,8
748,695,56,8
749,700,50,8
750,815,27,8
751,580,76,8
752,715,57,8
753,865,21,8
754,800,30,8
755,830,31,8
756,735,51,8
757,880,24,8
758,695,50,8
759,795,30,8
760,675,64,8
761,800,42,8
762,855,25,8
763,735,49,8
764,845,26,8
765,785,49,8
766,695,54,8
767,570,79,8
768,800,34,8
769,865,26,8
770,750,50,8
771,825,24,8
772,865,27,8
773,665,70,8
774,750,48,8
775,595,79,8
776,840,29,8
777,745,51,8
778,775,47,8
779,825,32,8
780,810,41,8
781,850,41,8
782,855,27,8
783,880,21,8
784,665,71,8
785,810,44,8
786,745,60,8
787,790,39,8
788,800,37,8
789,810,31,8
790,690,63,8
791,770,41,8
792,410,125,8
793,775,40,8
794,780,41,8
795,630,83,8
796,770,44,8
797,820,30,8
798,845,27,8
799,775,45,8
800,705,65,8
801,595,91,8
802,795,35,8
803,855,26,8
804,565,84,8
805,705,59,8
806,740,52,8
807,820,32,8
808,710,56,8
809,765,44,8
810,760,45,8
811,790,40,8
812,755,50,8
813,795,41,8
814,825,36,8
815,655,79,8
816,840,29,8
817,660,78,8
818,795,46,8
819,820,28,8
820,785,40,8
821,800,32,8
822,785,43,8
823,735,50,8
824,785,42,8
825,875,19,8
826,795,40,8
827,705,62,8
828,705,56,8
829,770,41,8
830,595,81,8
831,785,40,8
832,860,23,8
833,705,59,8
834,850,24,8
835,775,42,8
836,715,60,8
837,495,98,8
838,280,150,8
839,765,40,8
840,595,88,8
841,750,47,8
842,780,41,8
843,720,53,8
844,810,32,8
845,860,17,8
846,790,43,8
847,695,62,8
848,730,62,8
849,755,43,8
850,785,40,8
851,755,46,8
852,780,38,8
853,800,34,8
854,625,78,8
855,750,53,8
856,545,95,8
857,700,56,8
858,690,59,8
859,575,86,8
860,545,97,8
861,680,62,8
862,425,112,8
863,555,84,8
864,800,39,8
865,525,92,8
866,205,162,8
867,765,39,8
868,485,103,8
869,415,113,8
870,785,37,8
871,765,45,8
872,675,62,8
873,535,87,8
874,730,51,8
875,565,87,8
876,780,46,8
877,770,44,8
878,765,44,8
879,690,59,8
880,755,46,8
881,730,51,8
882,770,44,8
883,645,71,8
884,720,53,8
885,750,47,8
886,490,96,8
887,770,40,8
888,295,141,8
889,620,84,8
890,660,64,8
891,270,146,8
892,640,67,8
893,740,47,8
894,735,60,8
895,645,68,8
896,710,54,8
897,515,97,8
898,675,68,8
899,710,55,8
900,680,61,8
901,820,28,8
902,800,38,8
903,690,56,8
904,735,48,8
905,665,64,8
906,580,79,8
907,830,33,8
908,775,46,8
909,700,62,8
910,590,79,8
911,675,63,8
912,650,70,8
913,780,38,8
914,880,19,8
915,550,91,8
916,825,29,8
917,810,32,8
918,670,66,8
919,795,36,8
920,760,42,8
921,800,41,8
922,780,39,8
923,745,48,8
924,825,27,8
925,800,34,8
926,875,17,8
927,725,52,8
928,805,36,8
929,635,68,8
930,720,56,8
931,835,25,8
932,745,52,8
933,635,72,8
934,740,46,8
935,710,53,8
936,600,80,8
937,715,54,8
938,870,20,8
939,780,39,8
940,835,25,8
941,840,24,8
942,790,36,8
943,795,39,8
944,780,40,8
945,705,56,8
946,790,37,8
947,795,33,8
948,820,30,8
949,810,30,8
950,725,54,8
951,735,50,8
952,875,20,8
953,735,47,8
954,860,20,8
955,720,50,8
956,770,41,8
957,860,27,8
958,780,38,8
959,830,30,8
960,820,28,8
961,845,23,8
962,535,85,8
963,695,50,8
964,755,49,8
965,820,31,8
966,865,19,8
967,795,38,8
968,795,28,8
969,895,16,8
970,830,31,8
971,860,25,8
972,790,29,8
973,725,48,8
974,840,28,8
975,810,28,8
976,680,57,8
977,770,36,8
978,575,78,8
979,815,26,8
980,835,20,8
981,795,36,8
982,850,29,8
983,720,47,8
984,835,34,8
985,760,37,8
986,750,39,8
987,795,28,8
988,725,47,8
989,660,65,8
990,895,13,8
991,805,31,8
992,730,41,8
993,830,21,8
994,815,29,8
995,810,28,8
996,780,50,8
997,670,67,8
998,780,34,8
999,715,54,8
