episode,reward,step,sensitive
0,-3020,650,1
1,-2925,650,1
2,-2430,650,3
3,-2910,650,1
4,-3070,650,1
5,-1965,650,5
6,-1215,590,8
7,-2125,650,4
8,-3255,650,0
9,-2020,650,6
10,-2860,650,2
11,-3055,650,0
12,-2890,650,1
13,-2915,650,1
14,-2185,650,5
15,-1815,650,7
16,-2925,650,2
17,-2555,650,2
18,-2820,650,1
19,-3255,650,0
20,-3070,650,1
21,-1775,650,7
22,-3080,650,1
23,-3000,650,1
24,-2660,650,3
25,-1940,650,5
26,-2920,650,1
27,-1920,650,6
28,-2435,650,3
29,-2490,650,3
30,-1645,650,6
31,-2145,650,4
32,-2535,650,3
33,-2805,650,1
34,-2285,650,4
35,-1160,570,8
36,-2895,650,1
37,-2640,650,2
38,-2265,650,5
39,-3110,650,1
40,-1400,570,8
41,-3255,650,0
42,-3255,650,0
43,-2745,650,2
44,-1785,650,6
45,-2865,650,2
46,-1970,650,5
47,-1645,650,7
48,-2620,650,2
49,-1725,650,7
50,-620,407,8
51,-1840,650,6
52,-2920,650,1
53,-1830,650,7
54,-1810,650,5
55,-2110,650,6
56,-2665,650,1
57,-2590,650,3
58,-1580,650,7
59,-1645,650,7
60,-2865,650,1
61,-1795,650,7
62,-1195,553,8
63,-2255,650,4
64,-3015,650,1
65,-3215,650,0
66,-1940,650,5
67,-1915,650,6
68,-2360,650,4
69,-1395,582,8
70,-1565,650,7
71,-1925,650,6
72,-2500,650,3
73,-2220,650,4
74,-2900,650,1
75,-2205,650,5
76,-1920,650,6
77,-1345,614,8
78,-1565,650,7
79,-2890,650,1
80,-2065,650,5
81,-2370,650,3
82,-840,473,8
83,-2575,650,3
84,-610,441,8
85,-1375,610,8
86,-1725,650,7
87,-1665,650,7
88,-1840,650,6
89,-2325,650,3
90,-2110,650,5
91,-2140,650,4
92,-1800,650,6
93,-2205,650,4
94,-2050,650,5
95,-2875,650,1
96,-1925,650,6
97,-2425,650,4
98,-2595,650,3
99,-1800,650,7
100,-1815,650,6
101,-3175,650,0
102,-1510,650,7
103,-1690,650,6
104,-2920,650,2
105,-1560,650,7
106,-520,441,8
107,-215,336,8
108,-2990,650,1
109,-1300,616,8
110,-2315,650,4
111,-1780,650,7
112,-1590,650,7
113,-2185,650,4
114,-1850,650,5
115,-1940,650,6
116,-1260,620,8
117,-2465,650,4
118,-1825,650,7
119,-2920,650,1
120,-1795,650,6
121,-1565,650,7
122,-1325,612,8
123,-1860,650,6
124,-2175,650,5
125,-300,354,8
126,-1855,650,7
127,-1350,611,8
128,-1685,650,7
129,-1065,534,8
130,-1565,650,7
131,-1670,650,7
132,-1980,650,5
133,-1835,650,7
134,-950,522,8
135,-1975,650,5
136,-2000,650,5
137,-1835,650,7
138,-2345,650,4
139,-1705,650,7
140,-1680,650,7
141,-1500,607,8
142,-825,485,8
143,-1790,650,6
144,-845,499,8
145,-2325,650,5
146,-1555,650,7
147,-1795,650,6
148,-1910,650,6
149,-1315,610,8
150,-3110,650,0
151,-2250,650,4
152,-2500,650,3
153,-2170,650,5
154,-1760,650,7
155,-3070,650,1
156,-805,470,8
157,-1860,650,6
158,-1925,650,7
159,-1275,570,8
160,-1875,650,6
161,-1700,650,6
162,-660,432,8
163,-1720,650,6
164,-1110,557,8
165,-2040,650,5
166,-2420,650,4
167,-480,384,8
168,-2825,650,1
169,-1360,588,8
170,-1805,650,7
171,-1635,650,7
172,-1840,650,7
173,-2150,650,5
174,-925,500,8
175,-1600,650,7
176,-2105,650,6
177,-1730,650,7
178,-1435,604,8
179,-1510,650,8
180,-1835,650,6
181,-1140,595,8
182,-1735,650,7
183,-2095,650,4
184,-2725,650,1
185,-1750,650,7
186,-1160,569,8
187,-1945,650,7
188,-1960,650,6
189,-1845,650,7
190,-1385,635,8
191,-2760,650,1
192,-1630,650,7
193,-1245,567,8
194,-660,434,8
195,-2050,650,5
196,-2370,650,3
197,-380,376,8
198,-2335,650,2
199,-2035,650,6
200,-1145,587,8
201,-2910,650,1
202,-445,391,8
203,-1740,650,7
204,-1815,650,7
205,-1295,609,8
206,-1905,650,7
207,-1945,650,6
208,-1155,565,8
209,-945,523,8
210,-1675,650,7
211,-840,512,8
212,-1015,512,8
213,-2910,650,2
214,-1165,568,8
215,-700,425,8
216,-1070,546,8
217,-1000,516,8
218,-1765,650,7
219,-1665,650,7
220,-1365,567,8
221,-1550,650,7
222,-1670,650,7
223,-1835,650,6
224,-1255,581,8
225,-1505,631,8
226,-1360,600,8
227,-1680,650,7
228,-1600,650,7
229,-1985,650,6
230,-65,310,8
231,-1810,650,7
232,-2180,650,5
233,-1735,650,7
234,-1740,650,7
235,-1060,537,8
236,-2155,650,5
237,-1845,650,6
238,-1935,650,6
239,-1805,650,7
240,-1310,600,8
241,-1590,650,7
242,-885,507,8
243,-1840,650,6
244,-1915,650,6
245,-325,379,8
246,-595,471,8
247,-1670,650,7
248,-1020,526,8
249,-1605,643,8
250,-2205,650,5
251,-2260,650,5
252,-1785,650,7
253,-895,493,8
254,-1675,650,7
255,-1845,650,6
256,-1130,519,8
257,-1915,650,6
258,-1055,562,8
259,-1845,650,6
260,-460,386,8
261,-1745,650,6
262,-1980,650,5
263,-1300,573,8
264,-1395,619,8
265,-1240,566,8
266,-1915,650,7
267,-1800,650,7
268,-2210,650,4
269,-1600,650,7
270,-1675,650,7
271,-1685,650,7
272,-1580,650,7
273,-2540,650,2
274,-1655,650,6
275,-1900,650,6
276,-1765,650,7
277,-1915,650,6
278,-1700,650,7
279,-420,399,8
280,-1085,543,8
281,-2545,650,2
282,-1775,650,7
283,-1590,641,8
284,-825,474,8
285,-1490,625,8
286,-875,503,8
287,-820,493,8
288,-1440,632,8
289,-1320,614,8
290,-895,502,8
291,-1860,650,7
292,-1815,650,7
293,-2685,650,2
294,-2305,650,4
295,-415,404,8
296,-870,490,8
297,-140,352,8
298,-1085,528,8
299,-2115,650,6
300,-1715,650,7
301,-1780,650,6
302,-1890,650,6
303,-1120,562,8
304,-1935,650,6
305,-1965,650,5
306,-1195,552,8
307,-2045,650,6
308,-865,477,8
309,-1780,650,7
310,-1805,650,6
311,-785,468,8
312,-1955,650,7
313,-940,523,8
314,-1970,650,6
315,-1855,650,6
316,-1740,650,6
317,-2030,650,6
318,-1215,554,8
319,-1080,527,8
320,-405,357,8
321,-1790,650,7
322,-1700,650,7
323,30,277,8
324,-2080,650,6
325,-1165,531,8
326,-610,464,8
327,-1735,650,6
328,-1535,642,8
329,-465,413,8
330,-2045,650,6
331,-1830,650,7
332,-700,450,8
333,-835,501,8
334,-1655,650,7
335,-1240,595,8
336,-2025,650,6
337,-1410,599,8
338,-1610,650,7
339,-525,419,8
340,-1775,650,7
341,-1635,650,7
342,-720,451,8
343,-1900,650,7
344,-1170,521,8
345,-1705,650,7
346,-1640,650,7
347,-1805,650,7
348,-1730,650,7
349,-1730,650,7
350,-1705,650,6
351,-1610,650,7
352,-1785,650,7
353,-1890,650,6
354,-1965,650,6
355,-1795,650,7
356,-1735,650,7
357,-1640,650,7
358,-1120,533,8
359,-1930,650,6
360,-1095,519,8
361,-1840,650,5
362,-1635,650,7
363,-265,378,8
364,-1625,650,7
365,-695,467,8
366,-1765,650,7
367,-560,405,8
368,-1685,650,7
369,-1505,645,8
370,-660,444,8
371,-1605,650,7
372,-1935,650,6
373,-1735,650,7
374,-1255,580,8
375,-1820,650,7
376,-2000,650,4
377,-2270,650,4
378,-1710,650,6
379,-1785,650,6
380,-1045,498,8
381,-2080,650,6
382,-1400,604,8
383,-1950,650,7
384,-1875,650,6
385,-940,534,8
386,-1885,650,6
387,-2010,650,7
388,-1785,650,7
389,-1795,650,7
390,-880,428,8
391,-1075,558,8
392,-1795,650,7
393,-655,436,8
394,-2400,650,4
395,-1630,650,7
396,-1630,650,7
397,-1705,650,7
398,-795,464,8
399,-1745,650,7
400,-1505,638,8
401,-1905,650,7
402,-2190,650,5
403,-1975,650,6
404,-575,451,8
405,-1325,595,8
406,-1535,633,8
407,-1050,505,8
408,-1400,608,8
409,-1415,595,8
410,-1585,650,7
411,-410,351,8
412,-1810,650,7
413,-655,436,8
414,-340,340,8
415,-1840,650,7
416,-1900,650,5
417,-1440,595,8
418,-1725,650,7
419,-440,396,8
420,-690,430,8
421,-1505,639,8
422,-2040,650,6
423,-2005,650,7
424,-1610,650,7
425,-655,418,8
426,-1350,531,8
427,-2090,650,6
428,-1320,581,8
429,-1205,575,8
430,-1720,650,7
431,-1820,650,7
432,-1030,537,8
433,-1845,650,7
434,-550,427,8
435,-1630,650,7
436,-1765,640,8
437,-1700,650,7
438,-805,455,8
439,-2025,650,6
440,-2105,650,5
441,-1820,650,7
442,-1555,650,7
443,-2915,650,1
444,-1945,650,7
445,-1735,650,7
446,-1950,650,6
447,-1725,650,6
448,-1480,575,8
449,-2200,650,4
450,-1275,566,8
451,-1715,650,7
452,-675,398,8
453,-1660,650,7
454,-2150,650,6
455,-2145,650,5
456,-1170,559,8
457,-2645,650,2
458,-655,464,8
459,-1125,564,8
460,-600,401,8
461,-195,369,8
462,-1720,650,7
463,-1620,650,7
464,-1820,650,7
465,-1810,650,7
466,-1880,650,7
467,-1760,650,7
468,-1940,650,6
469,-1870,650,7
470,-1730,650,7
471,185,262,8
472,-20,281,8
473,-1820,650,7
474,-280,365,8
475,130,248,8
476,-1705,650,7
477,-950,506,8
478,-910,510,8
479,-740,487,8
480,-1410,590,8
481,465,188,8
482,-2150,650,5
483,-1780,650,7
484,-1550,650,7
485,-1615,650,7
486,-2635,650,2
487,-2080,650,5
488,-1240,576,8
489,-1575,650,7
490,-1755,650,7
491,-1605,627,8
492,-1100,528,8
493,-2055,650,5
494,-1390,596,8
495,-795,487,8
496,-1225,564,8
497,-1785,650,7
498,-1185,572,8
499,-1705,650,7
500,-1610,650,7
501,335,197,8
502,-1575,650,7
503,-2015,650,6
504,-1500,650,7
505,-1045,538,8
506,-1725,650,7
507,-1970,650,7
508,-1685,650,7
509,-2025,650,6
510,-870,476,8
511,-1515,595,8
512,-1930,650,7
513,-1835,650,7
514,-985,530,8
515,-1980,650,7
516,-1690,650,7
517,-1545,650,7
518,-1360,580,8
519,-1535,650,7
520,-1615,650,7
521,-2200,650,4
522,-2720,650,2
523,-1220,571,8
524,-1875,650,6
525,-985,470,8
526,-1405,644,8
527,-2025,650,6
528,-1610,637,8
529,-815,494,8
530,-1560,625,8
531,-1125,532,8
532,-1700,650,7
533,-1440,582,8
534,-1650,650,7
535,-1705,650,7
536,-1595,650,7
537,110,255,8
538,-1060,540,8
539,-1620,650,7
540,-970,492,8
541,-1820,650,7
542,-1610,650,7
543,-1185,588,8
544,-1980,650,7
545,-1915,650,7
546,-605,406,8
547,-1045,519,8
548,-800,470,8
549,-1215,552,8
550,-1155,557,8
551,-850,520,8
552,-1285,597,8
553,-1725,650,7
554,-2120,650,6
555,-1880,650,7
556,-1925,650,6
557,-1670,650,7
558,-1175,526,8
559,-1725,650,7
560,-2030,650,5
561,-895,524,8
562,-1625,650,7
563,-1940,650,7
564,-110,303,8
565,-1745,648,8
566,-1735,650,7
567,-1645,650,7
568,-1945,650,7
569,-895,514,8
570,-1690,650,7
571,-2075,650,6
572,250,197,8
573,-1650,650,7
574,-90,314,8
575,-495,432,8
576,-1270,565,8
577,-940,464,8
578,-875,525,8
579,-1180,498,8
580,-1625,650,7
581,-2055,650,6
582,-2110,650,5
583,-1165,513,8
584,-1750,650,6
585,-1140,527,8
586,-1445,631,8
587,-2180,650,5
588,-835,478,8
589,-815,475,8
590,-435,397,8
591,-2010,650,7
592,-1070,538,8
593,-675,439,8
594,-2025,650,7
595,-2035,650,6
596,-1810,650,7
597,-725,442,8
598,-2415,650,4
599,-1780,650,7
600,-1680,650,7
601,-490,372,8
602,-2010,650,6
603,-525,372,8
604,-3045,650,1
605,-655,449,8
606,-1270,576,8
607,-1665,650,7
608,-120,295,8
609,-1725,650,7
610,-1320,562,8
611,-1120,552,8
612,-1830,650,6
613,-1695,650,7
614,-1615,650,7
615,-1580,650,7
616,-1320,597,8
617,-800,479,8
618,-1600,650,7
619,-1135,505,8
620,-840,504,8
621,-1340,588,8
622,-1995,650,6
623,-2040,650,7
624,-1585,649,8
625,-515,380,8
626,-1655,650,6
627,-890,444,8
628,-1615,641,8
629,-1645,650,7
630,-1590,650,7
631,-305,343,8
632,-905,493,8
633,-2000,650,7
634,-2630,650,2
635,-1740,650,7
636,-1620,650,7
637,-1180,562,8
638,-1785,650,7
639,-1785,650,7
640,-1790,650,6
641,-650,441,8
642,-1635,650,7
643,-325,351,8
644,-1920,650,7
645,345,184,8
646,-1530,650,7
647,-1535,648,8
648,-1945,650,7
649,-955,468,8
650,-1390,619,8
651,-1660,650,7
652,-1710,650,7
653,-1555,625,8
654,-330,393,8
655,-780,462,8
656,-1445,634,8
657,-755,431,8
658,-1685,650,7
659,-250,345,8
660,-1520,619,8
661,-1920,650,7
662,-1960,650,7
663,-2095,650,6
664,-1665,650,7
665,-1440,640,8
666,-1160,575,8
667,-1500,624,8
668,-1700,650,7
669,-1670,650,7
670,-1650,650,7
671,-550,414,8
672,-1765,650,7
673,-1480,593,8
674,-1480,646,8
675,-505,402,8
676,-2115,650,6
677,-1800,650,7
678,-2610,650,4
679,-650,434,8
680,-1635,650,6
681,-770,476,8
682,-1580,634,8
683,-1635,650,7
684,-665,457,8
685,-805,462,8
686,-1660,650,7
687,-1600,650,7
688,-610,356,8
689,-300,325,8
690,-1805,650,7
691,-1715,650,7
692,-10,284,8
693,-1470,581,8
694,-1715,650,7
695,-1105,541,8
696,-2085,650,6
697,-1790,650,7
698,-1000,538,8
699,-1115,558,8
700,-1615,650,7
701,-1815,650,7
702,-1320,611,8
703,-1745,650,7
704,-125,278,8
705,-1780,650,7
706,-2055,650,7
707,-1675,650,7
708,-1715,650,7
709,-1210,564,8
710,-1620,650,7
711,-1455,643,8
712,-1140,548,8
713,-840,456,8
714,-470,406,8
715,-1750,650,6
716,-1740,650,7
717,-930,459,8
718,-210,366,8
719,-800,468,8
720,-605,397,8
721,-1710,650,6
722,-1770,650,7
723,-1375,614,8
724,-1715,650,7
725,-1795,650,6
726,-460,381,8
727,-1185,570,8
728,-1715,650,7
729,-1585,650,7
730,-530,421,8
731,-1280,545,8
732,-1680,650,7
733,-1995,650,5
734,-1410,615,8
735,-1045,537,8
736,-2055,650,5
737,-1590,650,7
738,-1095,530,8
739,-1920,650,7
740,-845,501,8
741,-1275,541,8
742,-245,337,8
743,-730,409,8
744,-1795,650,7
745,-1590,650,7
746,-705,450,8
747,-2075,650,6
748,-1755,650,7
749,-1630,650,7
750,-1075,521,8
751,-1880,650,5
752,-1900,650,7
753,-1100,571,8
754,-2190,650,5
755,-1815,650,6
756,-1960,650,5
757,-1840,650,6
758,-2090,650,5
759,-1680,650,7
760,-1750,650,6
761,-2045,650,7
762,-285,335,8
763,-1615,650,7
764,-1710,650,7
765,-1555,636,8
766,-1160,549,8
767,-1725,650,7
768,-1535,629,8
769,-2225,650,5
770,-1450,597,8
771,-925,481,8
772,-1740,650,7
773,-505,399,8
774,-1995,650,7
775,-1835,650,7
776,-1025,535,8
777,-2060,650,6
778,-1810,650,6
779,-1600,642,8
780,-1775,650,7
781,-2335,650,4
782,-1940,650,6
783,-2125,650,6
784,-2000,650,5
785,-1380,594,8
786,-1660,650,7
787,-1765,650,7
788,-1950,650,6
789,-945,519,8
790,-1535,633,8
791,-1860,650,6
792,-1640,650,7
793,-245,309,8
794,-1235,535,8
795,-1450,575,8
796,-1405,610,8
797,-670,398,8
798,-1750,650,7
799,-2000,650,8
800,-1405,586,8
801,-625,403,8
802,-1615,650,7
803,-1855,650,7
804,-1925,650,7
805,-1710,650,7
806,-1635,650,7
807,-1645,650,7
808,-1760,650,7
809,-1930,650,6
810,-1975,650,6
811,-2110,650,6
812,-985,505,8
813,-1965,650,6
814,-1945,650,6
815,-1905,650,7
816,-1760,650,7
817,-200,317,8
818,-1840,650,7
819,-2045,650,6
820,-1655,650,7
821,-1655,648,8
822,-1790,650,7
823,-110,313,8
824,-55,264,8
825,-1895,650,7
826,-1945,650,6
827,-2140,650,4
828,-2025,650,6
829,-1915,650,6
830,-2005,650,5
831,-2060,650,5
832,-1150,538,8
833,-995,505,8
834,-2240,650,5
835,-1955,650,6
836,-2145,650,6
837,-1925,650,7
838,-2045,650,6
839,-2070,650,5
840,-1990,650,6
841,-1660,650,7
842,-1470,613,8
843,-2535,650,3
844,-1915,650,6
845,-735,446,8
846,-2020,650,6
847,-1810,650,7
848,-1355,599,8
849,-950,466,8
850,-1150,510,8
851,-635,421,8
852,-1720,650,7
853,-2055,650,6
854,-2445,650,3
855,-1840,650,7
856,-1230,527,8
857,-1690,650,7
858,-475,413,8
859,-1525,595,8
860,-995,480,8
861,-1255,587,8
862,-1530,640,8
863,-1775,650,6
864,-815,466,8
865,-395,383,8
866,-1895,650,7
867,-685,419,8
868,-410,332,8
869,-665,432,8
870,-1745,650,7
871,-1700,650,7
872,-1885,650,7
873,-1260,560,8
874,-1685,650,7
875,-1730,650,7
876,-170,321,8
877,-1010,526,8
878,-985,500,8
879,-1770,650,6
880,-250,335,8
881,-1780,650,7
882,-1360,594,8
883,-465,390,8
884,-1935,650,6
885,-1675,650,7
886,-1770,650,7
887,-1730,650,7
888,-930,489,8
889,-1630,634,8
890,-470,390,8
891,-1655,650,7
892,-645,408,8
893,-1835,650,6
894,-1400,610,8
895,-1945,650,6
896,-1130,548,8
897,-645,425,8
898,-1825,650,7
899,-1975,650,6
900,-40,284,8
901,-1760,650,7
902,-1675,650,7
903,-930,483,8
904,-775,473,8
905,-1810,650,7
906,-1760,650,7
907,-2295,650,5
908,-2355,650,3
909,-1490,640,8
910,-250,334,8
911,-1690,650,7
912,-2580,650,3
913,-1700,650,7
914,-1395,569,8
915,-1795,650,7
916,-800,435,8
917,-345,370,8
918,-1880,650,6
919,-1105,532,8
920,-1710,641,8
921,-340,372,8
922,-1780,650,7
923,-1470,629,8
924,-1020,526,8
925,-1655,643,8
926,-1775,650,7
927,-1845,650,7
928,-1315,577,8
929,-1745,650,7
930,-790,480,8
931,-955,479,8
932,-1170,575,8
933,-565,420,8
934,-2570,650,2
935,-335,364,8
936,-145,334,8
937,-745,438,8
938,-625,396,8
939,-450,351,8
940,-2115,650,5
941,-745,461,8
942,-265,379,8
943,-1760,650,7
944,-1980,650,6
945,-790,460,8
946,-965,463,8
947,-1565,611,8
948,-1700,650,7
949,-480,406,8
950,-1765,650,7
951,-675,438,8
952,-1965,650,6
953,-630,428,8
954,-1775,650,7
955,-1305,545,8
956,-1640,650,7
957,-1510,604,8
958,-895,495,8
959,-995,465,8
960,-190,285,8
961,-995,471,8
962,-810,446,8
963,-500,404,8
964,-3050,650,1
965,-1385,592,8
966,-1095,512,8
967,-1675,617,8
968,-875,447,8
969,-975,479,8
970,-515,385,8
971,-2055,650,7
972,-1660,650,7
973,-1480,609,8
974,-890,491,8
975,-85,316,8
976,-2280,650,5
977,-1050,531,8
978,-1590,608,8
979,-1695,650,7
980,-2395,650,4
981,-680,419,8
982,-1045,549,8
983,-1390,560,8
984,-1055,510,8
985,-1840,650,7
986,-455,370,8
987,-1730,650,7
988,-1665,650,8
989,-2055,650,5
990,-760,415,8
991,-850,503,8
992,-1810,650,7
993,-1530,620,8
994,-460,405,8
995,-1695,650,7
996,-1665,650,7
997,-1665,649,8
998,-995,507,8
999,-650,422,8
