episode,reward,step,sensitive
0,-2455,490,0
1,-2180,490,0
2,-2235,490,0
3,-2180,490,0
4,-2395,490,0
5,-2160,490,0
6,-2245,490,0
7,-2105,490,0
8,-2455,490,0
9,-2155,490,0
10,-1980,490,1
11,-2165,490,0
12,-2020,490,0
13,-2245,490,0
14,-2025,490,0
15,-1970,490,0
16,-2035,490,0
17,-2420,490,0
18,-1940,490,0
19,-2430,490,0
20,-2175,490,0
21,-2075,490,0
22,-2050,490,0
23,-2015,490,1
24,-2015,490,0
25,-1905,490,1
26,-1815,490,1
27,-1875,490,0
28,-2455,490,0
29,-1940,490,0
30,-1995,490,0
31,-1990,490,0
32,-1970,490,1
33,-1990,490,0
34,-2095,490,0
35,-1955,490,1
36,-2075,490,0
37,-2015,490,0
38,-1920,490,0
39,-1905,490,1
40,-1970,490,1
41,-2015,490,0
42,-1985,490,1
43,-1380,403,2
44,-2055,490,0
45,-1830,490,0
46,-2015,490,0
47,-1915,490,0
48,-2140,490,0
49,-2095,490,0
50,-1950,490,0
51,-2030,490,0
52,-1865,490,1
53,-2115,490,0
54,-1995,490,1
55,-1935,490,0
56,-1975,490,0
57,-1755,490,1
58,-1910,490,1
59,-1835,490,1
60,-1855,490,1
61,-2045,490,0
62,-1705,471,2
63,-2085,490,0
64,-2040,490,0
65,-1775,490,1
66,-1890,490,0
67,-1860,490,0
68,-1855,490,0
69,-1930,490,0
70,-1810,490,1
71,-1960,490,0
72,-2105,490,0
73,-1925,490,0
74,-1835,490,1
75,-1735,490,1
76,-1955,490,0
77,-2090,490,0
78,-2075,490,1
79,-1915,490,0
80,-1860,490,1
81,-1810,490,1
82,-1975,490,1
83,-1935,490,1
84,-1885,490,1
85,-1885,490,1
86,-1785,490,1
87,-2045,490,0
88,-1900,490,0
89,-1960,490,1
90,-1855,490,0
91,-1940,490,1
92,-1505,447,2
93,-1925,490,0
94,-1905,490,1
95,-1870,490,1
96,-2025,490,0
97,-2015,490,0
98,-2005,490,0
99,-1995,490,0
100,-1860,490,1
101,-2035,490,0
102,-2230,490,0
103,-2080,490,0
104,-1775,490,1
105,-1905,490,0
106,-2130,490,0
107,-1915,490,0
108,-1805,490,1
109,-1850,490,1
110,-1910,490,0
111,-2090,490,0
112,-1935,490,0
113,-1520,434,2
114,-2000,490,0
115,-2060,490,0
116,-1790,490,1
117,-1785,490,1
118,-1840,490,1
119,-1830,490,1
120,-1895,490,1
121,-1825,490,1
122,-2100,490,0
123,-1885,490,0
124,-1885,490,1
125,-1975,490,0
126,-1915,490,0
127,-1945,490,1
128,-2075,490,0
129,-1780,490,1
130,-1885,490,0
131,-1885,490,0
132,-2025,490,0
133,-1980,490,0
134,-1910,490,1
135,-1805,490,1
136,-1880,490,1
137,-1895,490,0
138,-1795,490,1
139,-1945,490,1
140,-1375,393,2
141,-1775,490,1
142,-1865,490,0
143,-1995,490,1
144,-1820,490,1
145,-2055,490,0
146,-1895,490,0
147,-1330,392,2
148,-1915,490,0
149,-1870,490,1
150,-1825,490,1
151,-1930,490,1
152,-1740,490,1
153,-2065,490,0
154,-1805,490,1
155,-1895,490,0
156,-1835,490,1
157,-1820,490,1
158,-1910,490,1
159,-1890,490,1
160,-1765,490,1
161,-1775,490,1
162,-1960,490,0
163,-1870,490,1
164,-1785,490,1
165,-1910,490,0
166,-1800,490,1
167,-1575,471,2
168,-2085,490,0
169,-1920,490,0
170,-1960,490,0
171,-1570,440,2
172,-1890,490,1
173,-1800,490,1
174,-2040,490,0
175,-1955,490,0
176,-2005,490,0
177,-1920,490,1
178,-1865,490,1
179,-1945,490,1
180,-1970,490,0
181,-1915,490,1
182,-1820,490,1
183,-1795,490,1
184,-1895,490,0
185,-1950,490,0
186,-1925,490,1
187,-1905,490,0
188,-1875,490,1
189,-1815,490,0
190,-1855,490,0
191,-1870,490,0
192,-1775,490,1
193,-1855,490,1
194,-1990,490,0
195,-1780,490,0
196,-1825,490,1
197,-1975,490,1
198,-1945,490,1
199,-1860,490,1
200,-1960,490,0
201,-1995,490,0
202,-1790,490,1
203,-1815,490,1
204,-1860,490,1
205,-2010,490,0
206,-1980,490,0
207,-1790,490,1
208,-1870,490,0
209,-1850,490,1
210,-1855,490,1
211,-1845,490,1
212,-2085,490,0
213,-1830,490,1
214,-1910,490,0
215,-1970,490,0
216,-2140,490,0
217,-1845,490,0
218,-1940,490,0
219,-1860,490,1
220,-1860,490,1
221,-1975,490,1
222,-1825,490,1
223,-1960,490,0
224,-1950,490,0
225,-1885,490,0
226,-1880,490,0
227,-2065,490,0
228,-1900,490,1
229,-1915,490,1
230,-1900,490,1
231,-2035,490,1
232,-1920,490,0
233,-1665,490,1
234,-1810,490,1
235,-1230,398,2
236,-1905,490,1
237,-1210,372,2
238,-1975,490,0
239,-1930,490,0
240,-1915,490,0
241,-1435,416,2
242,-1950,490,0
243,-1790,490,1
244,-1785,490,1
245,-1900,490,0
246,-1895,490,0
247,-2085,490,0
248,-1735,490,1
249,-1765,490,1
250,-1780,490,1
251,-1830,490,1
252,-1740,490,1
253,-1860,490,1
254,-2000,490,0
255,-1990,490,0
256,-1850,490,1
257,-1935,490,1
258,-2000,490,0
259,-1615,454,2
260,-1925,490,0
261,-1830,490,1
262,-1880,490,1
263,-1925,490,0
264,-1930,490,0
265,-1840,490,0
266,-1955,490,1
267,-1950,490,0
268,-1835,490,1
269,-1835,490,1
270,-1775,490,1
271,-1965,490,0
272,-1800,490,1
273,-2035,490,0
274,-1875,490,0
275,-1940,490,1
276,-1955,490,0
277,-1840,490,1
278,-1765,490,1
279,-1950,490,0
280,-1875,490,0
281,-1865,490,0
282,-2000,490,0
283,-1790,490,1
284,-1740,490,1
285,-1910,490,0
286,-1985,490,0
287,-1865,490,0
288,-1935,490,0
289,-1910,490,0
290,-1815,490,1
291,-2045,490,0
292,-1970,490,0
293,-1765,490,1
294,-1885,490,1
295,-1860,490,1
296,-1725,490,1
297,-1985,490,0
298,-1785,490,1
299,-1885,490,0
300,-2020,490,0
301,-2050,490,0
302,-1785,490,1
303,-1570,465,2
304,-1860,490,1
305,-1395,389,2
306,-1800,490,1
307,-1835,490,0
308,-1915,490,0
309,-2015,490,0
310,-1895,490,0
311,-1910,490,0
312,-1975,490,0
313,-1880,490,1
314,-1835,490,1
315,-2010,490,0
316,-2070,490,0
317,-2135,490,0
318,-1925,490,1
319,-1250,389,2
320,-1765,490,1
321,-1830,490,1
322,-1910,490,0
323,-1860,490,0
324,-1260,395,2
325,-2050,490,0
326,-1945,490,1
327,-1885,490,0
328,-885,287,2
329,-1875,490,1
330,-1975,490,0
331,-1875,490,0
332,-2085,490,0
333,-1840,490,1
334,-1740,490,1
335,-1930,490,0
336,-1930,490,0
337,-1945,490,0
338,-1810,490,0
339,-1970,490,0
340,-1910,490,0
341,-2010,490,0
342,-2040,490,0
343,-1950,490,1
344,-1860,490,1
345,-1925,490,0
346,-2030,490,0
347,-1830,490,1
348,-2080,490,0
349,-1865,490,1
350,-2015,490,0
351,-2065,490,0
352,-1910,490,1
353,-1905,490,0
354,-1740,490,1
355,-1845,490,1
356,-1915,490,0
357,-2075,490,0
358,-2065,490,0
359,-1915,490,1
360,-1780,490,1
361,-2030,490,0
362,-1780,490,1
363,-1875,490,1
364,-1865,490,1
365,-1895,490,1
366,-1560,464,2
367,-1980,490,0
368,-2015,490,0
369,-1915,490,0
370,-1830,490,1
371,-1695,490,1
372,-1875,490,1
373,-1925,490,0
374,-1825,490,1
375,-2020,490,0
376,-1775,490,1
377,-1900,490,0
378,-1885,490,0
379,-1955,490,1
380,-1805,490,1
381,-1975,490,0
382,-1795,490,1
383,-2015,490,0
384,-1865,490,1
385,-2125,490,0
386,-1855,490,1
387,-1875,490,1
388,-1930,490,0
389,-1955,490,1
390,-2030,490,0
391,-2030,490,0
392,-1890,490,1
393,-1730,490,1
394,-1885,490,0
395,-1815,490,1
396,-1750,490,1
397,-1785,490,1
398,-1910,490,1
399,-1480,440,2
400,-775,252,2
401,-1860,490,1
402,-1950,490,0
403,-1955,490,0
404,-2035,490,0
405,-2045,490,0
406,-1915,490,1
407,-1820,490,1
408,-1835,490,1
409,-1705,490,1
410,-1900,490,0
411,-925,304,2
412,-2100,490,0
413,-1930,490,1
414,-1835,490,1
415,-1910,490,1
416,-1880,490,1
417,-2020,490,0
418,-1915,490,1
419,-1885,490,1
420,-1800,490,1
421,-2095,490,0
422,-1950,490,0
423,-2015,490,0
424,-1955,490,0
425,-1870,490,0
426,-1780,490,1
427,-1865,490,1
428,-1805,490,1
429,-1945,490,1
430,-1840,490,1
431,-1885,490,1
432,-2025,490,1
433,-1825,490,1
434,-1950,490,1
435,-1890,490,1
436,-1835,490,1
437,-2025,490,0
438,-1955,490,1
439,-1980,490,1
440,-1910,490,1
441,-2095,490,0
442,-1480,420,2
443,-1995,490,0
444,-1985,490,0
445,-1835,490,1
446,-1930,490,1
447,-1870,490,1
448,-1810,490,1
449,-2010,490,0
450,-1920,490,1
451,-1815,490,1
452,-1765,490,1
453,-1980,490,0
454,-2030,490,0
455,-2040,490,0
456,-1840,490,1
457,-1955,490,1
458,-1980,490,0
459,-2080,490,0
460,-1985,490,0
461,-1875,490,1
462,-1975,490,0
463,-1845,490,1
464,-1900,490,1
465,-1855,490,0
466,-1910,490,1
467,-1930,490,1
468,-1820,490,0
469,-2050,490,0
470,-1995,490,0
471,-1835,490,1
472,-1820,490,1
473,-2005,490,0
474,-1875,490,1
475,-1920,490,0
476,-2040,490,0
477,-1620,462,2
478,-1965,490,0
479,-1870,490,1
480,-1860,490,1
481,-1990,490,0
482,-1770,490,1
483,-1975,490,1
484,-2105,490,0
485,-1895,490,1
486,-1880,490,0
487,-1860,490,1
488,-1900,490,1
489,-1945,490,1
490,-1775,490,1
491,-910,299,2
492,-1810,490,1
493,-2090,490,0
494,-1850,490,1
495,-2020,490,0
496,-1930,490,0
497,-1460,414,2
498,-1940,490,0
499,-1865,490,1
500,-2035,490,0
501,-1810,490,1
502,-770,268,2
503,-1985,490,1
504,-1995,490,0
505,-1905,490,1
506,-1920,490,0
507,-2015,490,1
508,-1855,490,1
509,-840,266,2
510,-1850,490,1
511,-1905,490,1
512,-1975,490,0
513,-1910,490,1
514,-1940,490,1
515,-1360,403,2
516,-1905,490,0
517,-2025,490,1
518,-1990,490,1
519,-1890,490,1
520,-1905,490,1
521,-1985,490,1
522,-1685,485,2
523,-1740,490,1
524,-2145,490,0
525,-1930,490,0
526,-1885,490,1
527,-1960,490,0
528,-1985,490,1
529,-2050,490,0
530,-1875,490,1
531,-1895,490,1
532,-1715,461,2
533,-1950,490,0
534,-1990,490,0
535,-1890,490,1
536,-1995,490,0
537,-1960,490,1
538,-1805,490,1
539,-1920,490,1
540,-1835,490,1
541,-1925,490,0
542,-1910,490,1
543,-1800,490,1
544,-1890,490,1
545,-2005,490,0
546,-1840,490,1
547,-1975,490,0
548,-1945,490,1
549,-1850,490,1
550,-1945,490,1
551,-2010,490,0
552,-2045,490,0
553,-1830,490,1
554,-1785,490,1
555,-1860,490,1
556,-1930,490,0
557,-1960,490,1
558,-1870,490,0
559,-2045,490,0
560,-1520,460,2
561,-2005,490,0
562,-1850,490,1
563,-530,216,2
564,-2055,490,0
565,-2010,490,0
566,-1990,490,1
567,-1845,490,1
568,-1835,490,1
569,-2115,490,0
570,-1975,490,1
571,-1935,490,1
572,-1880,490,0
573,-1970,490,0
574,-1925,490,1
575,-1905,490,0
576,-1930,490,1
577,-1850,490,1
578,-1940,490,0
579,-1830,490,1
580,-2020,490,1
581,-2010,490,0
582,-1935,490,1
583,-1940,490,0
584,-1975,490,0
585,-1930,490,1
586,-1915,490,1
587,-1850,490,1
588,-1910,490,1
589,-2060,490,0
590,-1850,490,1
591,-1840,490,1
592,-1905,490,1
593,-2005,490,1
594,-1995,490,0
595,-1940,490,1
596,-1930,490,1
597,-1870,490,1
598,-1915,490,1
599,-1825,490,1
600,-1925,490,1
601,-1900,490,1
602,-1825,490,1
603,-1955,490,1
604,-1940,490,1
605,-1835,490,1
606,-1995,490,1
607,-1945,490,1
608,-1225,357,2
609,-1995,490,1
610,-1920,490,0
611,-1995,490,1
612,-1815,490,1
613,-1885,490,1
614,-2095,490,0
615,-1925,490,0
616,-1865,490,1
617,-1940,490,1
618,-1920,490,1
619,-1835,490,1
620,-1890,490,0
621,-1905,490,1
622,-1925,490,0
623,-1835,490,1
624,-2130,490,0
625,-1905,490,1
626,-1340,385,2
627,-1850,490,1
628,-2050,490,0
629,-1880,490,1
630,-2050,490,1
631,-1825,490,1
632,-1920,490,1
633,-1935,490,1
634,-2110,490,0
635,-1950,490,1
636,-2070,490,0
637,-1865,490,1
638,-1900,490,0
639,-1435,413,2
640,-1820,490,1
641,-1180,354,2
642,-1850,490,1
643,-1875,490,1
644,-1790,490,1
645,-1940,490,1
646,-1990,490,0
647,-1825,490,1
648,-1950,490,0
649,-1930,490,1
650,-2035,490,0
651,-1975,490,0
652,-1870,490,1
653,-1995,490,0
654,-2040,490,0
655,-1815,490,1
656,-1845,490,1
657,-1895,490,1
658,-2070,490,1
659,-1920,490,1
660,-1975,490,1
661,-2045,490,0
662,-1350,395,2
663,-1985,490,0
664,-1980,490,0
665,-1775,490,1
666,-1915,490,1
667,-1945,490,1
668,-2005,490,0
669,-1930,490,0
670,-1915,490,1
671,-1940,490,1
672,-2005,490,0
673,-1955,490,1
674,-2080,490,0
675,-1945,490,0
676,-1955,490,0
677,-2020,490,0
678,-1940,490,1
679,-2140,490,0
680,-2025,490,0
681,-1995,490,0
682,-1820,490,1
683,-1965,490,1
684,-2020,490,1
685,-2100,490,0
686,-1840,490,1
687,-1985,490,1
688,-2060,490,0
689,-2050,490,0
690,-1875,490,1
691,-2080,490,0
692,-1895,490,1
693,-1970,490,1
694,-1415,392,2
695,-1880,490,1
696,-2010,490,0
697,-1810,490,1
698,-2110,490,0
699,-1870,490,1
700,-1960,490,0
701,-1925,490,1
702,-2140,490,0
703,-1900,490,1
704,-1895,490,0
705,-1890,490,1
706,-1945,490,0
707,-1995,490,1
708,-1625,444,2
709,-1890,490,1
710,-2140,490,0
711,-1825,490,1
712,-2040,490,0
713,-1860,490,1
714,-1830,490,1
715,-2015,490,0
716,-2110,490,0
717,-1945,490,1
718,-2085,490,0
719,-2045,490,1
720,-1965,490,0
721,-2020,490,1
722,-1900,490,1
723,-2000,490,0
724,-1880,490,1
725,-1835,490,1
726,-1930,490,1
727,-1845,490,1
728,-1975,490,1
729,-2000,490,0
730,-1925,490,1
731,-2115,490,1
732,-1915,490,1
733,-2025,490,0
734,-1925,490,1
735,-2025,490,0
736,-1945,490,0
737,-1950,490,1
738,-2095,490,0
739,-1945,490,0
740,-1865,490,1
741,-1980,490,0
742,-1990,490,1
743,-2095,490,0
744,-2000,490,0
745,-1975,490,1
746,-2040,490,1
747,-1820,490,1
748,-2095,490,1
749,-2035,490,0
750,-2035,490,1
751,-1745,489,2
752,-1865,490,1
753,-2020,490,1
754,-1960,490,1
755,-1975,490,0
756,-2000,490,1
757,-1995,490,1
758,-1985,490,0
759,-1985,490,0
760,-1870,490,1
761,-1895,490,1
762,-1975,490,0
763,-1860,490,0
764,-1910,490,1
765,-1865,490,1
766,-2030,490,0
767,-1890,490,1
768,-2015,490,1
769,-1915,490,1
770,-2035,490,0
771,-1995,490,0
772,-1985,490,0
773,-1915,490,1
774,-2010,490,0
775,-2020,490,1
776,-2005,490,1
777,-1820,490,1
778,-2100,490,0
779,-1950,490,0
780,-2015,490,1
781,-1995,490,1
782,-2050,490,0
783,-2010,490,0
784,-2015,490,1
785,-2030,490,0
786,-1920,490,1
787,-1975,490,0
788,-1950,490,1
789,-2090,490,0
790,-1940,490,1
791,-1885,490,1
792,-1925,490,1
793,-2170,490,0
794,-2005,490,1
795,-1975,490,0
796,-2110,490,0
797,-1975,490,0
798,-2015,490,1
799,-1885,490,1
800,-2115,490,0
801,-1935,490,1
802,-1945,490,1
803,-2095,490,0
804,-1845,490,1
805,-1880,490,1
806,-2035,490,1
807,-1895,490,1
808,-1890,490,1
809,-1895,490,1
810,-1920,490,1
811,-1900,490,1
812,-2140,490,0
813,-2080,490,0
814,-1960,490,1
815,-2070,490,0
816,-1945,490,1
817,-2000,490,1
818,-1845,490,1
819,-1875,490,1
820,-1865,490,1
821,-2065,490,0
822,-1920,490,1
823,-2055,490,0
824,-1940,490,1
825,-1980,490,0
826,-1945,490,1
827,-2025,490,1
828,-1930,490,1
829,-1975,490,1
830,-2000,490,1
831,-1865,490,1
832,-1880,490,1
833,-1930,490,0
834,-1045,318,2
835,-2040,490,0
836,-1965,490,1
837,-1830,490,1
838,-1940,490,1
839,-2090,490,0
840,-1970,490,0
841,-2060,490,0
842,-2055,490,0
843,-2020,490,1
844,-2010,490,0
845,-1925,490,0
846,-2090,490,0
847,-2020,490,0
848,-1980,490,1
849,-1935,490,1
850,-1895,490,1
851,-1835,490,1
852,-1260,354,2
853,-1775,475,2
854,-2085,490,0
855,-1960,490,1
856,-1975,490,1
857,-2080,490,0
858,-2060,490,1
859,-1910,490,1
860,-2170,490,0
861,-1960,490,1
862,-1915,490,1
863,-1900,490,0
864,-2050,490,1
865,-1940,490,1
866,-1920,490,1
867,-1480,400,2
868,-2025,490,1
869,-2120,490,0
870,-2025,490,0
871,-1915,490,1
872,-1915,490,1
873,-1890,490,1
874,-1980,490,1
875,-1965,490,1
876,-2085,490,0
877,-2050,490,0
878,-1960,490,1
879,-1970,490,1
880,-2030,490,0
881,-2020,490,1
882,-2085,490,0
883,-1950,490,1
884,-2130,490,0
885,-2105,490,0
886,-2065,490,0
887,-1995,490,1
888,-1830,490,1
889,-2180,490,0
890,-1935,490,1
891,-2025,490,0
892,-2045,490,0
893,-1810,490,1
894,-1960,490,0
895,-1935,490,1
896,-1920,490,1
897,-1940,490,1
898,-1960,490,1
899,-2070,490,0
900,-1965,490,1
901,-2075,490,0
902,-2035,490,1
903,-1940,490,1
904,-2070,490,0
905,-1905,490,1
906,-2065,490,0
907,-2045,490,1
908,-1970,490,1
909,-1955,490,1
910,-2015,490,1
911,-1835,490,1
912,-2120,490,0
913,-2035,490,0
914,-1935,490,1
915,-1855,490,1
916,-1995,490,0
917,-1840,490,1
918,-1940,490,1
919,-2025,490,0
920,-1605,450,2
921,-1985,490,0
922,-2135,490,0
923,-2060,490,0
924,-2050,490,1
925,-2175,490,0
926,-1895,490,1
927,-1955,490,1
928,-2055,490,1
929,-2080,490,0
930,-1995,490,1
931,-2025,490,0
932,-1665,462,2
933,-2045,490,0
934,-1910,490,1
935,-2005,490,1
936,-2025,490,1
937,-2135,490,0
938,-1700,456,2
939,-1880,490,1
940,-2020,490,0
941,-1980,490,1
942,-1985,490,1
943,-1940,490,1
944,-1930,490,1
945,-2045,490,0
946,-1930,490,1
947,-1255,365,2
948,-2155,490,0
949,-2015,490,1
950,-1945,490,1
951,-1960,490,1
952,-2025,490,1
953,-2060,490,0
954,-2045,490,0
955,-1990,490,1
956,-1915,490,1
957,-1900,490,1
958,-2175,490,0
959,-1915,490,1
960,-2115,490,1
961,-2100,490,0
962,-2135,490,0
963,-1940,490,1
964,-1925,490,1
965,-2060,490,0
966,-1970,490,0
967,-1975,490,0
968,-1905,490,1
969,-2065,490,1
970,-2210,490,0
971,-2145,490,0
972,-1985,490,0
973,-1700,442,2
974,-1855,490,1
975,-1955,490,1
976,-2000,490,0
977,-2180,490,0
978,-905,288,2
979,-2105,490,0
980,-2120,490,0
981,-1990,490,1
982,-2085,490,0
983,-2030,490,0
984,-2015,490,1
985,-2135,490,0
986,-2130,490,0
987,-2085,490,0
988,-1955,490,0
989,-2130,490,0
990,-680,222,2
991,-2155,490,0
992,-2060,490,0
993,-1965,490,1
994,-1990,490,1
995,-1950,490,1
996,-2100,490,0
997,-1925,490,0
998,-1925,490,1
999,-1955,490,1
