episode,reward,step,sensitive
0,255,43,2
1,150,105,2
2,230,88,2
3,-710,209,1
4,105,112,2
5,-100,138,2
6,-40,148,2
7,-145,192,2
8,-635,209,1
9,-535,209,1
10,-585,209,1
11,-205,135,2
12,-460,209,1
13,-455,209,1
14,275,65,2
15,-150,174,2
16,220,84,2
17,140,114,2
18,165,107,2
19,-80,163,2
20,-20,153,2
21,-180,179,2
22,-350,200,2
23,170,60,2
24,110,124,2
25,115,101,2
26,-445,209,1
27,10,115,2
28,-115,171,2
29,-60,128,2
30,55,100,2
31,55,127,2
32,55,102,2
33,-415,203,2
34,-75,154,2
35,175,89,2
36,205,104,2
37,-170,170,2
38,-235,162,2
39,150,108,2
40,35,119,2
41,40,123,2
42,160,95,2
43,220,72,2
44,65,122,2
45,10,115,2
46,180,86,2
47,165,98,2
48,0,132,2
49,145,102,2
50,165,111,2
51,225,88,2
52,250,65,2
53,210,70,2
54,335,44,2
55,225,60,2
56,40,106,2
57,285,61,2
58,275,55,2
59,65,105,2
60,-50,133,2
61,275,26,2
62,150,100,2
63,215,84,2
64,210,52,2
65,110,106,2
66,295,41,2
67,255,32,2
68,325,26,2
69,240,32,2
70,-225,185,2
71,295,35,2
72,205,90,2
73,315,23,2
74,350,49,2
75,-5,135,2
76,335,37,2
77,210,49,2
78,340,30,2
79,-450,209,1
80,310,26,2
81,280,23,2
82,300,29,2
83,290,37,2
84,250,28,2
85,275,30,2
86,135,98,2
87,210,56,2
88,140,54,2
89,245,16,2
90,240,46,2
91,190,56,2
92,275,37,2
93,285,30,2
94,270,35,2
95,270,19,2
96,230,55,2
97,275,32,2
98,335,21,2
99,310,18,2
100,290,28,2
101,295,24,2
102,310,37,2
103,280,29,2
104,300,34,2
105,295,18,2
106,290,21,2
107,355,34,2
108,295,41,2
109,305,21,2
110,250,46,2
111,250,64,2
112,280,52,2
113,325,21,2
114,330,23,2
115,290,41,2
116,250,56,2
117,185,61,2
118,330,25,2
119,320,20,2
120,295,23,2
121,320,25,2
122,320,21,2
123,305,17,2
124,305,32,2
125,315,26,2
126,290,26,2
127,255,36,2
128,355,42,2
129,320,28,2
130,280,7,2
131,320,24,2
132,285,23,2
133,240,33,2
134,275,27,2
135,230,47,2
136,260,26,2
137,190,59,2
138,310,17,2
139,245,42,2
140,270,19,2
141,300,26,2
142,355,36,2
143,65,84,2
144,285,14,2
145,55,86,2
146,295,36,2
147,320,19,2
148,260,17,2
149,265,41,2
150,245,34,2
151,265,17,2
152,285,27,2
153,325,12,2
154,245,74,2
155,280,12,2
156,95,96,2
157,245,29,2
158,280,19,2
159,200,25,2
160,245,21,2
161,285,13,2
162,265,16,2
163,310,15,2
164,320,29,2
165,230,36,2
166,265,15,2
167,285,24,2
168,310,27,2
169,250,24,2
170,330,22,2
171,240,24,2
172,270,34,2
173,240,53,2
174,295,30,2
175,235,44,2
176,280,32,2
177,275,42,2
178,315,14,2
179,280,18,2
180,240,38,2
181,310,19,2
182,275,8,2
183,280,22,2
184,290,9,2
185,310,14,2
186,290,18,2
187,285,25,2
188,285,22,2
189,310,15,2
190,300,20,2
191,285,12,2
192,265,29,2
193,310,14,2
194,275,26,2
195,235,31,2
196,250,22,2
197,270,30,2
198,305,37,2
199,290,17,2
200,320,16,2
201,320,17,2
202,310,17,2
203,335,18,2
204,280,31,2
205,230,18,2
206,235,31,2
207,295,23,2
208,275,13,2
209,275,22,2
210,310,31,2
211,265,28,2
212,290,15,2
213,105,68,2
214,285,42,2
215,235,30,2
216,265,12,2
217,265,23,2
218,285,25,2
219,285,30,2
220,230,39,2
221,315,14,2
222,310,26,2
223,310,24,2
224,265,14,2
225,300,25,2
226,295,16,2
227,265,28,2
228,290,15,2
229,275,23,2
230,290,26,2
231,260,26,2
232,265,19,2
233,270,20,2
234,125,59,2
235,230,37,2
236,265,21,2
237,0,86,2
238,240,40,2
239,260,18,2
240,265,14,2
241,260,11,2
242,220,23,2
243,220,32,2
244,300,20,2
245,270,15,2
246,260,25,2
247,215,36,2
248,265,34,2
249,260,16,2
250,290,12,2
251,250,42,2
252,270,21,2
253,230,39,2
254,295,28,2
255,255,24,2
256,230,29,2
257,275,14,2
258,295,22,2
259,320,13,2
260,280,24,2
261,280,14,2
262,265,7,2
263,245,21,2
264,150,50,2
265,235,18,2
266,285,11,2
267,290,22,2
268,255,16,2
269,285,21,2
270,245,23,2
271,265,25,2
272,250,18,2
273,270,14,2
274,240,27,2
275,230,22,2
276,125,45,2
277,265,21,2
278,230,27,2
279,225,23,2
280,230,33,2
281,270,12,2
282,130,52,2
283,265,13,2
284,270,14,2
285,255,12,2
286,210,27,2
287,220,29,2
288,280,18,2
289,225,22,2
290,235,27,2
291,265,12,2
292,275,8,2
293,280,9,2
294,245,16,2
295,265,7,2
296,275,21,2
297,265,10,2
298,270,12,2
299,230,16,2
300,280,15,2
301,260,8,2
302,270,17,2
303,245,13,2
304,225,20,2
305,255,26,2
306,240,12,2
307,305,13,2
308,240,24,2
309,260,14,2
310,260,8,2
311,265,9,2
312,235,16,2
313,260,11,2
314,260,8,2
315,305,12,2
316,245,11,2
317,235,21,2
318,275,11,2
319,265,7,2
320,285,13,2
321,245,9,2
322,270,7,2
323,295,14,2
324,275,6,2
325,260,9,2
326,220,14,2
327,265,10,2
328,265,7,2
329,240,18,2
330,260,9,2
331,260,20,2
332,260,9,2
333,205,27,2
334,230,17,2
335,255,10,2
336,230,20,2
337,265,5,2
338,270,7,2
339,195,27,2
340,255,12,2
341,240,15,2
342,210,21,2
343,235,11,2
344,260,10,2
345,250,13,2
346,270,13,2
347,270,7,2
348,255,7,2
349,250,11,2
350,255,7,2
351,240,13,2
352,200,33,2
353,265,8,2
354,240,15,2
355,140,56,2
356,240,18,2
357,210,21,2
358,190,38,2
359,205,25,2
360,115,38,2
361,230,20,2
362,270,7,2
363,245,12,2
364,215,20,2
365,215,20,2
366,245,17,2
367,195,22,2
368,265,8,2
369,270,7,2
370,250,11,2
371,250,16,2
372,245,15,2
373,225,18,2
374,250,14,2
375,255,14,2
376,275,9,2
377,230,15,2
378,265,10,2
379,225,13,2
380,265,7,2
381,225,18,2
382,250,14,2
383,255,10,2
384,245,19,2
385,255,10,2
386,265,5,2
387,280,10,2
388,265,8,2
389,255,7,2
390,235,14,2
391,245,9,2
392,255,7,2
393,265,5,2
394,260,11,2
395,200,21,2
396,265,8,2
397,265,11,2
398,260,9,2
399,265,5,2
400,240,17,2
401,270,6,2
402,260,9,2
403,290,17,2
404,270,7,2
405,260,8,2
406,265,5,2
407,235,11,2
408,265,5,2
409,245,14,2
410,260,6,2
411,245,9,2
412,245,9,2
413,255,7,2
414,270,9,2
415,215,20,2
416,290,14,2
417,275,7,2
418,265,5,2
419,245,11,2
420,255,7,2
421,200,22,2
422,235,11,2
423,270,9,2
424,230,12,2
425,250,13,2
426,265,8,2
427,240,13,2
428,160,31,2
429,255,12,2
430,290,14,2
431,270,11,2
432,230,21,2
433,190,28,2
434,210,24,2
435,280,7,2
436,280,21,2
437,235,31,2
438,250,30,2
439,210,23,2
440,215,39,2
441,235,28,2
442,280,30,2
443,275,9,2
444,230,23,2
445,260,16,2
446,270,24,2
447,335,23,2
448,135,60,2
449,285,18,2
450,255,26,2
451,225,29,2
452,255,29,2
453,200,31,2
454,270,20,2
455,280,21,2
456,265,13,2
457,210,42,2
458,225,22,2
459,250,28,2
460,285,10,2
461,225,22,2
462,310,16,2
463,195,27,2
464,300,16,2
465,260,12,2
466,275,19,2
467,285,6,2
468,215,18,2
469,230,25,2
470,295,13,2
471,260,15,2
472,195,32,2
473,275,13,2
474,280,12,2
475,255,18,2
476,140,37,2
477,265,7,2
478,260,13,2
479,305,14,2
480,215,23,2
481,290,7,2
482,210,32,2
483,205,20,2
484,280,10,2
485,250,8,2
486,260,9,2
487,285,6,2
488,260,20,2
489,275,15,2
490,255,11,2
491,260,15,2
492,285,14,2
493,240,10,2
494,245,9,2
495,255,12,2
496,245,22,2
497,240,16,2
498,275,6,2
499,245,9,2
500,255,7,2
501,230,31,2
502,265,5,2
503,245,12,2
504,270,7,2
505,260,9,2
506,240,12,2
507,235,15,2
508,255,7,2
509,245,9,2
510,245,12,2
511,260,6,2
512,270,9,2
513,235,16,2
514,245,9,2
515,245,9,2
516,245,9,2
517,265,5,2
518,240,17,2
519,260,13,2
520,245,9,2
521,250,8,2
522,240,10,2
523,260,6,2
524,245,9,2
525,235,20,2
526,215,18,2
527,220,19,2
528,165,27,2
529,260,6,2
530,260,6,2
531,235,11,2
532,175,26,2
533,255,7,2
534,190,20,2
535,260,6,2
536,195,19,2
537,265,8,2
538,245,11,2
539,260,6,2
540,185,24,2
541,255,7,2
542,220,14,2
543,240,12,2
544,240,10,2
545,210,19,2
546,265,5,2
547,225,13,2
548,255,7,2
549,210,24,2
550,245,9,2
551,210,16,2
552,255,7,2
553,245,19,2
554,225,13,2
555,200,21,2
556,250,10,2
557,250,8,2
558,235,24,2
559,195,19,2
560,195,22,2
561,280,7,2
562,240,13,2
563,230,12,2
564,240,15,2
565,250,11,2
566,205,17,2
567,205,20,2
568,275,11,2
569,245,14,2
570,190,23,2
571,220,17,2
572,240,18,2
573,235,13,2
574,185,32,2
575,250,13,2
576,130,37,2
577,215,18,2
578,-35,73,2
579,-120,93,2
580,255,18,2
581,130,35,2
582,150,36,2
583,230,22,2
584,175,23,2
585,225,22,2
586,205,20,2
587,185,23,2
588,255,10,2
589,160,26,2
590,145,32,2
591,250,8,2
592,265,13,2
593,220,24,2
594,245,12,2
595,200,26,2
596,280,11,2
597,280,10,2
598,255,13,2
599,240,13,2
600,240,15,2
601,265,17,2
602,245,14,2
603,250,11,2
604,240,20,2
605,200,21,2
606,240,12,2
607,250,11,2
608,255,15,2
609,245,23,2
610,245,14,2
611,240,18,2
612,250,14,2
613,265,24,2
614,230,14,2
615,290,15,2
616,265,10,2
617,285,9,2
618,255,10,2
619,245,12,2
620,230,18,2
621,255,12,2
622,290,12,2
623,285,10,2
624,270,9,2
625,210,24,2
626,255,19,2
627,260,13,2
628,275,8,2
629,255,19,2
630,240,23,2
631,265,5,2
632,265,10,2
633,265,21,2
634,270,14,2
635,240,13,2
636,265,11,2
637,225,22,2
638,275,12,2
639,250,14,2
640,225,16,2
641,250,17,2
642,250,13,2
643,230,15,2
644,270,13,2
645,260,8,2
646,270,7,2
647,240,12,2
648,285,9,2
649,265,13,2
650,280,18,2
651,280,14,2
652,290,15,2
653,260,6,2
654,260,6,2
655,240,10,2
656,245,11,2
657,250,13,2
658,250,8,2
659,255,7,2
660,215,26,2
661,235,14,2
662,255,19,2
663,270,7,2
664,280,10,2
665,250,8,2
666,255,12,2
667,240,13,2
668,240,12,2
669,255,7,2
670,255,7,2
671,235,11,2
672,270,9,2
673,235,13,2
674,275,13,2
675,295,9,2
676,230,12,2
677,260,6,2
678,250,11,2
679,240,10,2
680,255,20,2
681,245,9,2
682,195,34,2
683,230,14,2
684,225,13,2
685,215,18,2
686,275,15,2
687,215,20,2
688,220,22,2
689,265,5,2
690,255,10,2
691,275,8,2
692,255,18,2
693,265,16,2
694,265,18,2
695,265,13,2
696,230,12,2
697,250,8,2
698,245,14,2
699,260,19,2
700,250,11,2
701,240,18,2
702,225,13,2
703,195,24,2
704,290,9,2
705,295,7,2
706,195,26,2
707,260,11,2
708,235,13,2
709,265,14,2
710,235,16,2
711,270,19,2
712,250,11,2
713,275,8,2
714,275,14,2
715,280,7,2
716,255,19,2
717,225,34,2
718,240,21,2
719,270,9,2
720,255,10,2
721,270,7,2
722,245,19,2
723,275,14,2
724,245,16,2
725,255,7,2
726,295,9,2
727,210,28,2
728,295,12,2
729,230,14,2
730,255,12,2
731,275,14,2
732,235,11,2
733,280,12,2
734,245,19,2
735,245,16,2
736,275,8,2
737,270,9,2
738,245,14,2
739,280,10,2
740,240,10,2
741,260,6,2
742,260,8,2
743,275,15,2
744,255,7,2
745,265,10,2
746,285,6,2
747,255,7,2
748,280,20,2
749,260,8,2
750,270,9,2
751,255,10,2
752,275,8,2
753,240,13,2
754,215,18,2
755,220,24,2
756,255,10,2
757,290,10,2
758,255,7,2
759,245,9,2
760,240,13,2
761,230,12,2
762,255,14,2
763,245,9,2
764,240,10,2
765,275,8,2
766,220,24,2
767,210,16,2
768,240,10,2
769,260,17,2
770,250,8,2
771,260,9,2
772,215,15,2
773,250,11,2
774,250,8,2
775,260,6,2
776,265,5,2
777,265,5,2
778,250,10,2
779,265,5,2
780,235,11,2
781,260,6,2
782,235,11,2
783,230,12,2
784,230,17,2
785,260,8,2
786,265,5,2
787,240,10,2
788,270,7,2
789,260,6,2
790,275,8,2
791,245,9,2
792,260,6,2
793,230,12,2
794,235,14,2
795,265,10,2
796,220,14,2
797,240,13,2
798,230,12,2
799,225,20,2
800,265,5,2
801,255,7,2
802,255,7,2
803,210,16,2
804,225,16,2
805,260,6,2
806,240,10,2
807,240,10,2
808,245,9,2
809,225,16,2
810,265,5,2
811,270,9,2
812,255,7,2
813,225,13,2
814,245,9,2
815,250,8,2
816,250,11,2
817,230,12,2
818,240,10,2
819,260,19,2
820,215,15,2
821,255,7,2
822,245,9,2
823,225,16,2
824,105,40,2
825,260,6,2
826,230,14,2
827,260,6,2
828,255,7,2
829,265,10,2
830,240,10,2
831,220,14,2
832,265,5,2
833,270,11,2
834,250,8,2
835,250,11,2
836,275,6,2
837,255,7,2
838,250,8,2
839,255,7,2
840,275,6,2
841,245,9,2
842,260,14,2
843,260,6,2
844,260,6,2
845,265,5,2
846,250,8,2
847,270,7,2
848,255,7,2
849,245,12,2
850,270,12,2
851,265,5,2
852,250,10,2
853,275,11,2
854,265,11,2
855,180,27,2
856,250,8,2
857,245,12,2
858,245,19,2
859,265,5,2
860,265,5,2
861,265,5,2
862,260,6,2
863,220,14,2
864,250,8,2
865,265,5,2
866,245,12,2
867,240,10,2
868,255,15,2
869,250,8,2
870,260,9,2
871,250,8,2
872,260,6,2
873,255,7,2
874,275,8,2
875,260,6,2
876,255,7,2
877,255,7,2
878,255,7,2
879,260,11,2
880,260,6,2
881,250,8,2
882,260,6,2
883,255,7,2
884,265,5,2
885,245,9,2
886,265,5,2
887,215,18,2
888,285,6,2
889,265,5,2
890,230,12,2
891,255,7,2
892,260,14,2
893,275,8,2
894,230,12,2
895,235,11,2
896,240,10,2
897,245,9,2
898,205,17,2
899,245,9,2
900,240,10,2
901,180,22,2
902,265,5,2
903,225,13,2
904,180,22,2
905,240,10,2
906,245,9,2
907,160,26,2
908,200,18,2
909,230,12,2
910,240,10,2
911,220,17,2
912,205,24,2
913,270,11,2
914,250,8,2
915,230,19,2
916,230,12,2
917,255,16,2
918,195,28,2
919,230,12,2
920,225,15,2
921,280,10,2
922,280,10,2
923,225,13,2
924,270,9,2
925,250,8,2
926,255,7,2
927,285,6,2
928,275,15,2
929,195,35,2
930,245,9,2
931,240,17,2
932,275,8,2
933,250,10,2
934,260,13,2
935,220,19,2
936,240,20,2
937,195,19,2
938,285,6,2
939,285,6,2
940,210,21,2
941,275,8,2
942,290,8,2
943,250,8,2
944,250,16,2
945,250,13,2
946,285,8,2
947,280,7,2
948,220,29,2
949,265,10,2
950,280,12,2
951,280,13,2
952,250,15,2
953,250,11,2
954,295,19,2
955,245,17,2
956,215,30,2
957,285,9,2
958,240,17,2
959,240,20,2
960,275,10,2
961,265,14,2
962,250,23,2
963,285,12,2
964,290,8,2
965,270,7,2
966,265,10,2
967,255,19,2
968,250,8,2
969,260,11,2
970,260,6,2
971,270,7,2
972,305,16,2
973,270,11,2
974,270,11,2
975,240,10,2
976,275,16,2
977,275,20,2
978,255,22,2
979,255,14,2
980,260,6,2
981,235,11,2
982,245,9,2
983,275,8,2
984,265,8,2
985,250,20,2
986,275,24,2
987,230,15,2
988,230,30,2
989,260,6,2
990,270,11,2
991,270,12,2
992,210,21,2
993,250,8,2
994,180,24,2
995,205,20,2
996,245,9,2
997,270,7,2
998,235,11,2
999,275,17,2
