episode,reward,step,sensitive
0,-850,169,0
1,-615,169,0
2,-505,169,1
3,-655,169,1
4,-120,169,2
5,-410,169,1
6,-210,169,2
7,-560,169,0
8,-480,169,1
9,-505,169,0
10,-275,169,2
11,-395,169,1
12,-345,169,1
13,-850,169,0
14,-535,169,1
15,-735,169,0
16,-740,169,0
17,-610,169,1
18,-710,169,0
19,-160,169,2
20,-470,169,1
21,-415,169,1
22,-245,169,2
23,-525,169,1
24,-420,169,2
25,-585,169,1
26,-685,169,0
27,-330,169,2
28,-400,169,1
29,-565,169,0
30,-240,169,2
31,-475,169,1
32,-145,169,2
33,-435,169,1
34,-465,169,0
35,-375,169,1
36,-275,169,2
37,-300,169,2
38,-410,169,1
39,-195,169,3
40,-255,169,2
41,-390,169,1
42,-470,169,1
43,-460,169,1
44,-70,169,3
45,-590,169,1
46,-520,169,1
47,-665,169,0
48,-550,169,0
49,-85,169,3
50,-560,169,1
51,-340,169,1
52,-440,169,1
53,-455,169,1
54,-400,169,1
55,-435,169,1
56,-305,169,2
57,-435,169,1
58,-355,169,1
59,-630,169,0
60,-215,169,2
61,-445,169,1
62,-325,169,1
63,-305,169,2
64,-560,169,1
65,-380,169,1
66,-495,169,0
67,-130,169,3
68,-455,169,1
69,-190,169,2
70,-475,169,0
71,-470,169,1
72,-655,169,0
73,-245,169,2
74,-500,169,1
75,-320,169,2
76,-165,169,3
77,-25,169,3
78,-650,169,0
79,-565,169,0
80,-295,169,2
81,-285,169,2
82,-370,169,1
83,-555,169,1
84,-645,169,0
85,-560,169,1
86,-205,169,2
87,-470,169,0
88,-495,169,0
89,-285,169,2
90,-300,169,2
91,-425,169,1
92,-400,169,1
93,-490,169,1
94,-345,169,1
95,-665,169,0
96,-545,169,0
97,-455,169,1
98,-465,169,1
99,-245,169,2
100,-610,169,1
101,-320,169,1
102,-340,169,2
103,-150,169,3
104,-715,169,0
105,-455,169,1
106,-630,169,0
107,-295,169,2
108,-690,169,0
109,-450,169,1
110,-475,169,1
111,-130,169,3
112,-745,169,0
113,-395,169,1
114,-505,169,1
115,-420,169,1
116,-255,169,2
117,-600,169,0
118,-550,169,1
119,-480,169,2
120,-285,169,2
121,-660,169,1
122,-240,169,3
123,-490,169,1
124,-595,169,1
125,-400,169,1
126,-410,169,1
127,-290,169,2
128,-255,169,2
129,-430,169,1
130,-355,169,1
131,-405,169,1
132,-295,169,2
133,-225,169,3
134,-365,169,1
135,-255,169,2
136,-260,169,2
137,-375,169,1
138,-230,169,2
139,-50,169,3
140,-295,169,2
141,-285,169,2
142,-90,169,3
143,-335,169,1
144,-345,169,1
145,35,169,4
146,-435,169,1
147,-460,169,1
148,-310,169,2
149,-130,169,3
150,-370,169,1
151,-285,169,1
152,-285,169,2
153,-190,169,2
154,-305,169,1
155,-400,169,1
156,-210,169,3
157,-275,169,1
158,-390,169,2
159,-410,169,1
160,-300,169,1
161,-470,169,1
162,-250,169,2
163,-295,169,1
164,-380,169,1
165,-420,169,1
166,-300,169,1
167,-190,169,2
168,-390,169,1
169,-385,169,1
170,-365,169,1
171,-465,169,0
172,-150,169,3
173,-470,169,0
174,-395,169,1
175,-240,169,2
176,-280,169,2
177,-480,169,1
178,0,169,4
179,-75,169,3
180,-125,169,3
181,-210,169,2
182,-135,169,3
183,215,169,6
184,-395,169,2
185,-395,169,1
186,-160,169,3
187,-170,169,3
188,-5,169,4
189,-95,169,3
190,-220,169,2
191,-245,169,2
192,-235,169,2
193,25,169,4
194,-60,169,3
195,-220,169,2
196,140,169,6
197,-505,169,1
198,155,169,5
199,-280,169,2
200,-155,169,2
201,-270,169,2
202,-265,169,3
203,10,169,4
204,-330,169,2
205,-340,169,1
206,-265,169,2
207,-260,169,2
208,110,169,5
209,40,169,4
210,-325,169,2
211,45,169,5
212,-260,169,2
213,15,169,4
214,-110,169,3
215,-15,169,4
216,-35,169,4
217,-180,169,3
218,-465,169,1
219,50,169,4
220,-55,169,3
221,100,169,4
222,-530,169,1
223,-325,169,2
224,-170,169,3
225,-35,169,4
226,-335,169,1
227,-230,169,2
228,-285,169,2
229,-245,169,2
230,-325,169,2
231,-255,169,3
232,-455,169,1
233,-390,169,1
234,-455,169,1
235,-295,169,2
236,-170,169,3
237,-180,169,2
238,-120,169,3
239,-280,169,2
240,-175,169,2
241,165,169,5
242,-45,169,3
243,-265,169,2
244,-150,169,3
245,-415,169,1
246,160,169,6
247,0,169,4
248,175,169,6
249,-210,169,3
250,-225,169,2
251,-20,169,4
252,-215,169,3
253,-400,169,0
254,-185,169,2
255,155,169,5
256,-140,169,3
257,10,169,4
258,185,169,6
259,-150,169,3
260,-15,169,3
261,-230,169,3
262,-240,169,2
263,260,169,6
264,-145,169,3
265,-90,169,3
266,80,169,4
267,180,169,6
268,-5,169,4
269,5,169,4
270,-70,169,3
271,-130,169,3
272,220,169,6
273,-100,169,3
274,85,169,5
275,-155,169,2
276,-140,169,3
277,-45,169,4
278,90,169,5
279,0,169,4
280,40,169,4
281,-105,169,3
282,-360,169,1
283,-35,169,4
284,260,169,6
285,-365,169,1
286,-65,169,4
287,195,169,6
288,-140,169,3
289,80,169,5
290,-260,169,2
291,-115,169,3
292,55,169,5
293,-125,169,3
294,240,169,6
295,-180,169,3
296,110,169,4
297,-5,169,4
298,-285,169,2
299,120,169,6
300,15,169,4
301,90,169,6
302,-70,169,4
303,-65,169,3
304,140,169,6
305,5,169,5
306,-290,169,2
307,5,169,4
308,85,169,5
309,25,169,4
310,-55,169,4
311,155,169,6
312,-25,169,4
313,-10,169,5
314,160,169,6
315,205,169,6
316,100,169,5
317,185,169,6
318,-30,169,4
319,-30,169,4
320,210,169,6
321,-195,169,3
322,90,169,5
323,230,169,6
324,-70,169,4
325,-80,169,4
326,135,169,5
327,-35,169,4
328,130,169,6
329,80,169,5
330,25,169,5
331,10,169,4
332,215,169,6
333,170,169,6
334,100,169,5
335,-15,169,4
336,160,169,6
337,160,169,6
338,135,169,5
339,-60,169,4
340,230,169,6
341,160,169,6
342,110,169,6
343,210,169,6
344,115,169,6
345,170,169,6
346,-55,169,4
347,325,169,7
348,145,169,6
349,-185,169,3
350,-180,169,3
351,75,169,5
352,140,169,6
353,-20,169,4
354,135,169,6
355,-20,169,4
356,250,169,7
357,320,169,7
358,85,169,5
359,75,169,5
360,125,169,6
361,115,169,6
362,145,169,6
363,110,169,6
364,25,169,5
365,75,169,5
366,-120,169,4
367,140,169,6
368,115,169,5
369,130,169,6
370,135,169,6
371,35,169,5
372,135,169,6
373,-15,169,5
374,60,169,6
375,-20,169,5
376,50,169,5
377,175,169,7
378,135,169,6
379,35,169,4
380,5,169,5
381,-70,169,4
382,215,169,6
383,90,169,6
384,-65,169,4
385,-185,169,3
386,20,169,5
387,5,169,5
388,150,169,6
389,115,169,6
390,275,169,7
391,60,169,5
392,-10,169,5
393,170,169,6
394,45,169,5
395,135,169,6
396,170,169,6
397,95,169,6
398,-15,169,5
399,30,169,5
400,210,169,6
401,130,169,6
402,195,169,6
403,40,169,5
404,50,169,5
405,50,169,5
406,190,169,6
407,-40,169,4
408,-20,169,4
409,300,169,7
410,-85,169,4
411,180,169,6
412,20,169,5
413,180,169,6
414,-45,169,5
415,180,169,6
416,135,169,6
417,25,169,5
418,35,169,5
419,165,169,6
420,145,169,6
421,155,169,6
422,290,169,7
423,250,169,7
424,250,169,7
425,-35,169,4
426,-80,169,4
427,15,169,4
428,110,169,5
429,170,169,6
430,-185,169,3
431,170,169,6
432,185,169,6
433,270,169,7
434,50,169,5
435,165,169,6
436,60,169,5
437,200,169,6
438,70,169,5
439,170,169,6
440,-40,169,4
441,175,169,6
442,30,169,5
443,85,169,5
444,85,169,5
445,190,169,6
446,130,169,6
447,150,169,6
448,285,169,7
449,205,169,6
450,-50,169,4
451,185,169,6
452,75,169,5
453,160,169,6
454,-75,169,4
455,-55,169,4
456,50,169,5
457,105,169,5
458,-30,169,5
459,250,169,7
460,75,169,5
461,30,169,5
462,175,169,6
463,-30,169,4
464,-110,169,4
465,115,169,6
466,260,169,7
467,180,169,6
468,290,169,7
469,75,169,5
470,260,169,7
471,40,169,5
472,75,169,5
473,145,169,6
474,60,169,5
475,-15,169,4
476,210,169,6
477,155,169,6
478,75,169,5
479,195,169,6
480,330,169,7
481,245,169,7
482,330,169,7
483,325,169,7
484,-15,169,4
485,170,169,6
486,295,169,7
487,305,169,7
488,310,169,7
489,80,169,5
490,195,169,6
491,285,169,7
492,265,169,7
493,105,169,5
494,85,169,5
495,170,169,6
496,195,169,6
497,105,169,6
498,-85,169,4
499,200,169,6
500,35,169,5
501,175,169,6
502,210,169,6
503,240,169,7
504,30,169,5
505,-20,169,4
506,-65,169,4
507,155,169,6
508,-165,169,3
509,300,169,7
510,10,169,5
511,200,169,6
512,70,169,5
513,-165,169,3
514,-15,169,4
515,200,169,6
516,240,169,7
517,185,169,6
518,40,169,5
519,175,169,6
520,80,169,5
521,125,169,6
522,20,169,5
523,75,169,5
524,75,169,5
525,230,169,7
526,115,169,6
527,35,169,5
528,165,169,6
529,135,169,6
530,75,169,5
531,180,169,6
532,210,169,7
533,-165,169,3
534,165,169,6
535,0,169,5
536,170,169,6
537,130,169,6
538,50,169,5
539,160,169,6
540,10,169,5
541,65,169,5
542,270,169,7
543,35,169,5
544,-175,169,3
545,185,169,6
546,20,169,5
547,270,169,7
548,-60,169,4
549,40,169,5
550,40,169,5
551,270,169,7
552,230,169,7
553,250,169,7
554,60,169,5
555,0,169,4
556,125,169,6
557,145,169,6
558,270,169,7
559,180,169,6
560,100,169,5
561,160,169,6
562,165,169,6
563,-65,169,4
564,300,169,7
565,375,169,7
566,230,169,7
567,280,169,7
568,155,169,6
569,70,169,5
570,65,169,5
571,135,169,6
572,140,169,6
573,155,169,6
574,45,169,5
575,165,169,6
576,240,169,6
577,170,169,6
578,135,169,6
579,135,169,6
580,195,169,6
581,190,169,6
582,150,169,6
583,115,169,6
584,155,169,6
585,-85,169,4
586,185,169,6
587,260,169,7
588,270,169,7
589,15,169,5
590,210,169,6
591,55,169,5
592,285,169,7
593,300,169,7
594,125,169,6
595,250,169,7
596,15,169,5
597,170,169,6
598,125,169,6
599,180,169,6
600,45,169,5
601,-70,169,4
602,130,169,6
603,60,169,5
604,175,169,6
605,260,169,7
606,285,169,7
607,145,169,6
608,-60,169,4
609,130,169,6
610,175,169,6
611,30,169,5
612,180,169,6
613,215,169,6
614,80,169,5
615,120,169,6
616,70,169,5
617,60,169,5
618,220,169,7
619,260,169,7
620,-80,169,4
621,220,169,7
622,70,169,5
623,280,169,7
624,25,169,5
625,280,169,7
626,245,169,7
627,240,169,7
628,190,169,6
629,275,169,7
630,115,169,6
631,245,169,7
632,135,169,6
633,245,169,7
634,165,169,6
635,75,169,6
636,300,169,7
637,165,169,6
638,220,169,7
639,115,169,6
640,150,169,6
641,-140,169,4
642,85,169,5
643,295,169,7
644,210,169,7
645,230,169,7
646,250,169,7
647,195,169,7
648,295,169,7
649,115,169,6
650,-75,169,4
651,180,169,6
652,40,169,5
653,260,169,7
654,140,169,6
655,120,169,6
656,-70,169,4
657,165,169,6
658,90,169,5
659,260,169,7
660,210,169,7
661,130,169,6
662,115,169,6
663,240,169,7
664,235,169,7
665,-20,169,5
666,305,169,7
667,30,169,5
668,40,169,5
669,115,169,6
670,75,169,5
671,280,169,7
672,-75,169,4
673,145,169,6
674,80,169,5
675,165,169,6
676,220,169,7
677,70,169,5
678,240,169,7
679,145,169,6
680,45,169,5
681,150,169,6
682,220,169,7
683,125,169,6
684,240,169,7
685,150,169,6
686,145,169,6
687,120,169,6
688,0,169,5
689,140,169,6
690,-85,169,4
691,245,169,7
692,210,169,6
693,60,169,5
694,180,169,6
695,285,169,7
696,45,169,5
697,250,169,7
698,280,169,7
699,230,169,7
700,145,169,6
701,245,169,7
702,240,169,7
703,310,169,7
704,175,169,6
705,95,169,6
706,255,169,7
707,280,169,7
708,135,169,6
709,285,169,7
710,150,169,6
711,225,169,7
712,275,169,7
713,35,169,5
714,265,169,7
715,260,169,7
716,250,169,7
717,225,169,7
718,220,169,7
719,-15,169,4
720,155,169,6
721,20,169,5
722,-75,169,4
723,145,169,6
724,280,169,7
725,150,169,6
726,245,169,7
727,240,169,7
728,265,169,7
729,330,169,7
730,310,169,7
731,300,169,7
732,40,169,5
733,230,169,6
734,25,169,5
735,330,169,7
736,-35,169,4
737,170,169,6
738,130,169,6
739,165,169,6
740,155,169,6
741,200,169,6
742,-10,169,4
743,155,169,6
744,190,169,6
745,30,169,5
746,-280,169,2
747,185,169,6
748,210,169,6
749,255,169,7
750,190,169,6
751,155,169,6
752,160,169,6
753,235,169,6
754,385,169,7
755,330,169,7
756,170,169,6
757,200,169,6
758,180,169,6
759,165,169,6
760,50,169,5
761,-45,169,4
762,190,169,6
763,120,169,6
764,150,169,6
765,210,169,6
766,265,169,7
767,165,169,6
768,355,169,7
769,175,169,6
770,220,169,6
771,180,169,6
772,195,169,6
773,310,169,7
774,220,169,6
775,230,169,6
776,370,169,7
777,140,169,6
778,230,169,6
779,270,169,6
780,95,169,5
781,200,169,6
782,125,169,5
783,35,169,5
784,5,169,4
785,225,169,6
786,190,169,6
787,115,169,5
788,290,169,6
789,225,169,6
790,155,169,5
791,145,169,5
792,275,169,7
793,295,169,7
794,80,169,5
795,300,169,7
796,375,169,7
797,150,169,6
798,155,169,6
799,10,169,4
800,40,169,4
801,240,169,7
802,170,169,6
803,100,169,5
804,235,169,6
805,210,169,6
806,210,169,6
807,195,169,6
808,70,169,5
809,300,169,7
810,95,169,5
811,210,169,6
812,330,169,7
813,190,169,6
814,295,169,6
815,220,169,6
816,175,169,6
817,230,169,7
818,260,169,7
819,245,169,6
820,235,169,7
821,200,169,6
822,75,169,5
823,210,169,6
824,0,169,4
825,115,169,6
826,155,169,6
827,295,169,7
828,305,169,7
829,65,169,5
830,165,169,6
831,285,169,6
832,80,169,5
833,245,169,6
834,340,169,7
835,125,169,5
836,15,169,5
837,225,169,6
838,160,169,6
839,310,169,7
840,150,169,6
841,330,169,7
842,190,169,6
843,250,169,7
844,290,169,7
845,285,169,7
846,45,169,5
847,50,169,5
848,235,169,6
849,270,169,7
850,355,169,7
851,260,169,7
852,260,169,7
853,185,169,6
854,370,169,7
855,240,169,6
856,5,169,4
857,135,169,5
858,270,169,6
859,300,169,6
860,270,169,6
861,125,169,5
862,355,169,7
863,355,169,7
864,465,168,8
865,210,169,7
866,350,169,7
867,215,169,6
868,285,169,7
869,105,169,5
870,170,169,6
871,310,169,7
872,165,169,5
873,100,169,5
874,215,169,6
875,625,115,8
876,195,169,6
877,170,169,6
878,325,169,7
879,345,169,7
880,315,169,7
881,185,169,6
882,355,169,7
883,225,169,6
884,210,169,6
885,160,169,6
886,370,169,7
887,200,169,6
888,75,169,5
889,70,169,5
890,220,169,6
891,190,169,6
892,190,169,6
893,-10,169,5
894,40,169,5
895,295,169,7
896,275,169,7
897,300,169,7
898,345,169,7
899,340,169,7
900,290,169,7
901,170,169,6
902,160,169,6
903,125,169,6
904,25,169,5
905,120,169,5
906,295,169,7
907,290,169,7
908,60,169,5
909,225,169,7
910,310,169,7
911,25,169,4
912,290,169,7
913,290,169,7
914,350,169,7
915,295,169,7
916,160,169,6
917,295,169,7
918,200,169,6
919,240,169,6
920,210,169,6
921,240,169,6
922,240,169,7
923,100,169,5
924,220,169,6
925,210,169,6
926,535,135,8
927,180,169,6
928,320,169,7
929,230,169,6
930,195,169,6
931,220,169,6
932,190,169,6
933,205,169,6
934,130,169,5
935,155,169,6
936,380,169,7
937,60,169,5
938,215,169,6
939,235,169,6
940,215,169,5
941,295,169,7
942,135,169,5
943,180,169,6
944,290,169,7
945,320,169,7
946,210,169,6
947,265,169,6
948,260,169,6
949,255,169,7
950,350,169,7
951,310,169,7
952,300,169,7
953,340,169,7
954,80,169,5
955,335,169,7
956,240,169,6
957,190,169,6
958,175,169,6
959,370,169,7
960,265,169,6
961,270,169,7
962,240,169,6
963,120,169,5
964,20,169,4
965,145,169,6
966,135,169,6
967,170,169,6
968,235,169,6
969,165,169,6
970,105,169,5
971,320,169,7
972,305,169,6
973,230,169,6
974,310,169,7
975,215,169,6
976,160,169,6
977,305,169,7
978,65,169,5
979,165,169,6
980,230,169,6
981,380,169,7
982,145,169,5
983,310,169,7
984,220,169,6
985,245,169,7
986,355,169,7
987,185,169,6
988,170,169,6
989,335,169,7
990,180,169,6
991,175,169,6
992,245,169,6
993,205,169,6
994,120,169,5
995,115,169,5
996,180,169,6
997,315,169,7
998,320,169,7
999,165,169,6
