{
    "subnets": [
        {
            "code": "External",
            "subnet_mark": 24
        },
        {
            "code": "S0",
            "subnet_mark": 24
        },
        {
            "code": "S1",
            "subnet_mark": 24
        },
        {
            "code": "S2",
            "subnet_mark": 24
        },
        {
            "code": "S3",
            "subnet_mark": 24
        },
        {
            "code": "S4",
            "subnet_mark": 24
        }
    ],
    "connections": [
        [
            "External",
            "S0"
        ],
        [
            "S0",
            "S1"
        ],
        [
            "S0",
            "S2"
        ],
        [
            "S1",
            "S2"
        ],
        [
            "S2",
            "S3"
        ],
        [
            "S2",
            "S4"
        ],
        [
            "S3",
            "S4"
        ]
    ],
    "hosts": [
        {
            "code": "Attacker",
            "subnet": "External",
            "compromised": true,
            "attacker": true
        },
        {
            "code": "M00",
            "subnet": "S0",
            "techniques": [
                [
                    "T1059.008",
                    "T1600",
                    "T1608.005"
                ],
                [
                    "T1556.004",
                    "T1555.002",
                    "T1564.008",
                    "T1547.015"
                ],
                [
                    "T1564.008",
                    "T1534",
                    "T1556.004",
                    "T1578.002",
                    "T1037.001"
                ],
                [
                    "T1574.010",
                    "T1137.001",
                    "T1055.013",
                    "T1218"
                ]
            ],
            "required": [
                2
            ]
        },
        {
            "code": "M10",
            "subnet": "S1",
            "techniques": [
                [
                    "T1505",
                    "T1555"
                ]
            ],
            "required": [
                0
            ]
        },
        {
            "code": "M11",
            "subnet": "S1",
            "techniques": [
                [
                    "T1213.003",
                    "T1037.002",
                    "T1495"
                ],
                [
                    "T1495",
                    "T1001.002"
                ]
            ],
            "required": [
                1
            ]
        },
        {
            "code": "M12",
            "subnet": "S1",
            "techniques": [
                [
                    "T1053.002",
                    "T1555.002"
                ]
            ],
            "required": [
                0
            ]
        },
        {
            "code": "M13",
            "subnet": "S1",
            "techniques": [
                [
                    "T1137.001",
                    "T1608.005",
                    "T1055.013",
                    "T1218"
                ],
                [
                    "T1495",
                    "T1578.001",
                    "T1001.002"
                ],
                [
                    "T1547.015",
                    "T1587.003",
                    "T1219"
                ]
            ],
            "required": [
                1,
                2
            ]
        },
        {
            "code": "M14",
            "subnet": "S1",
            "techniques": [
                [
                    "T1561.001",
                    "T1555",
                    "T1529"
                ],
                [
                    "T1548.003",
                    "T1137.001",
                    "T1055.013",
                    "T1546.015",
                    "T1547.008"
                ],
                [
                    "T1547.015",
                    "T1529"
                ],
                [
                    "T1037.002",
                    "T1614.001",
                    "T1578.001",
                    "T1495"
                ]
            ],
            "required": [
                1,
                3
            ]
        },
        {
            "code": "M15",
            "subnet": "S1",
            "techniques": [
                [
                    "T1578.001",
                    "T1534"
                ]
            ],
            "required": [
                0
            ]
        },
        {
            "code": "M16",
            "subnet": "S1",
            "techniques": [
                [
                    "T1555",
                    "T1505"
                ],
                [
                    "T1059.008",
                    "T1608.005",
                    "T1037.002"
                ],
                [
                    "T1499",
                    "T1495",
                    "T1548"
                ]
            ],
            "required": [
                1
            ]
        },
        {
            "code": "M17",
            "subnet": "S1",
            "techniques": [
                [
                    "T1528",
                    "T1546.009",
                    "T1587.003"
                ],
                [
                    "T1218",
                    "T1055.013",
                    "T1547.008"
                ],
                [
                    "T1547.015",
                    "T1578.002",
                    "T1583.002"
                ],
                [
                    "T1027.006",
                    "T1548.003",
                    "T1546.009",
                    "T1132.002",
                    "T1080"
                ]
            ],
            "required": [
                2,
                0,
                1
            ]
        },
        {
            "code": "M18",
            "subnet": "S1",
            "techniques": [
                [
                    "T1574.010",
                    "T1134.002",
                    "T1548"
                ],
                [
                    "T1589.001",
                    "T1534",
                    "T1564.008",
                    "T1555.002"
                ]
            ],
            "required": [
                1,
                0
            ]
        },
        {
            "code": "M19",
            "subnet": "S1",
            "techniques": [
                [
                    "T1548",
                    "T1574.010",
                    "T1134.002",
                    "T1546.015"
                ],
                [
                    "T1037.002",
                    "T1614.001"
                ],
                [
                    "T1528",
                    "T1037.001",
                    "T1556.004"
                ],
                [
                    "T1608.005",
                    "T1055.013",
                    "T1134.002"
                ]
            ],
            "required": [
                3,
                2,
                1
            ]
        },
        {
            "code": "M20",
            "subnet": "S2",
            "techniques": [
                [
                    "T1546.015",
                    "T1137.001"
                ],
                [
                    "T1132.001",
                    "T1027.006",
                    "T1570"
                ],
                [
                    "T1578.001",
                    "T1589",
                    "T1505"
                ],
                [
                    "T1137.001",
                    "T1608.005",
                    "T1059.008",
                    "T1134.002"
                ]
            ],
            "required": [
                0,
                2
            ],
            "sensitive": true
        },
        {
            "code": "M21",
            "subnet": "S2",
            "techniques": [
                [
                    "T1495",
                    "T1564.008",
                    "T1529"
                ]
            ],
            "required": [
                0
            ]
        },
        {
            "code": "M22",
            "subnet": "S2",
            "techniques": [
                [
                    "T1495",
                    "T1614.001",
                    "T1555",
                    "T1053.002",
                    "T1001.002"
                ]
            ],
            "required": [
                0
            ]
        },
        {
            "code": "M23",
            "subnet": "S2",
            "techniques": [
                [
                    "T1555.002",
                    "T1534",
                    "T1583.002"
                ],
                [
                    "T1564.008",
                    "T1556.004",
                    "T1534",
                    "T1578.002"
                ]
            ],
            "required": [
                0,
                1
            ],
            "sensitive": true
        },
        {
            "code": "M24",
            "subnet": "S2",
            "techniques": [
                [
                    "T1534",
                    "T1053.002",
                    "T1555"
                ],
                [
                    "T1548.003",
                    "T1546.009",
                    "T1589.001",
                    "T1137.001"
                ],
                [
                    "T1505.001",
                    "T1547.015",
                    "T1080"
                ],
                [
                    "T1546.009",
                    "T1587.003",
                    "T1505.001",
                    "T1132.002"
                ]
            ],
            "required": [
                3,
                1,
                2
            ]
        },
        {
            "code": "M25",
            "subnet": "S2",
            "techniques": [
                [
                    "T1027.006",
                    "T1219",
                    "T1068"
                ],
                [
                    "T1578.001",
                    "T1499",
                    "T1001.002"
                ]
            ],
            "required": [
                0,
                1
            ]
        },
        {
            "code": "M26",
            "subnet": "S2",
            "techniques": [
                [
                    "T1080",
                    "T1132.001",
                    "T1529"
                ],
                [
                    "T1555.002",
                    "T1555",
                    "T1583.002"
                ],
                [
                    "T1037.002",
                    "T1213.003",
                    "T1495"
                ],
                [
                    "T1555",
                    "T1614.001",
                    "T1505",
                    "T1495"
                ]
            ],
            "required": [
                2,
                1,
                0
            ]
        },
        {
            "code": "M30",
            "subnet": "S3",
            "techniques": [
                [
                    "T1587.003",
                    "T1132.002",
                    "T1548.003",
                    "T1547.015",
                    "T1555.002"
                ],
                [
                    "T1529",
                    "T1080"
                ],
                [
                    "T1589",
                    "T1561.001",
                    "T1550.001"
                ],
                [
                    "T1218",
                    "T1548.003",
                    "T1055.013"
                ]
            ],
            "required": [
                1
            ]
        },
        {
            "code": "M31",
            "subnet": "S3",
            "techniques": [
                [
                    "T1548.003",
                    "T1547.008",
                    "T1134.002"
                ]
            ],
            "required": [
                0
            ],
            "sensitive": true
        },
        {
            "code": "M32",
            "subnet": "S3",
            "techniques": [
                [
                    "T1564.008",
                    "T1555",
                    "T1570",
                    "T1499",
                    "T1556.004"
                ]
            ],
            "required": [
                0
            ]
        },
        {
            "code": "M33",
            "subnet": "S3",
            "techniques": [
                [
                    "T1021.003",
                    "T1600",
                    "T1059.008",
                    "T1134.002",
                    "T1608.005"
                ],
                [
                    "T1505.001",
                    "T1574.010"
                ],
                [
                    "T1505",
                    "T1600",
                    "T1001.002"
                ]
            ],
            "required": [
                2,
                0,
                1
            ]
        },
        {
            "code": "M34",
            "subnet": "S3",
            "techniques": [
                [
                    "T1137.001",
                    "T1546.015",
                    "T1059.008"
                ]
            ],
            "required": [
                0
            ]
        },
        {
            "code": "M35",
            "subnet": "S3",
            "techniques": [
                [
                    "T1027.006",
                    "T1587.003",
                    "T1132.002",
                    "T1547.015"
                ]
            ],
            "required": [
                0
            ]
        },
        {
            "code": "M36",
            "subnet": "S3",
            "techniques": [
                [
                    "T1600",
                    "T1608.005"
                ],
                [
                    "T1001.002",
                    "T1614.001",
                    "T1495"
                ],
                [
                    "T1556.004",
                    "T1589.001",
                    "T1578.002"
                ]
            ],
            "required": [
                1,
                0,
                2
            ]
        },
        {
            "code": "M37",
            "subnet": "S3",
            "techniques": [
                [
                    "T1546.009",
                    "T1027.006"
                ],
                [
                    "T1547.008",
                    "T1608.005",
                    "T1600"
                ],
                [
                    "T1132.002",
                    "T1587.003",
                    "T1589.001"
                ]
            ],
            "required": [
                0,
                2,
                1
            ],
            "sensitive": true
        },
        {
            "code": "M38",
            "subnet": "S3",
            "techniques": [
                [
                    "T1001",
                    "T1587.003",
                    "T1529",
                    "T1547.015",
                    "T1132.001"
                ],
                [
                    "T1499",
                    "T1495",
                    "T1600"
                ]
            ],
            "required": [
                1,
                0
            ]
        },
        {
            "code": "M39",
            "subnet": "S3",
            "techniques": [
                [
                    "T1132.002",
                    "T1548.003"
                ]
            ],
            "required": [
                0
            ]
        },
        {
            "code": "M310",
            "subnet": "S3",
            "techniques": [
                [
                    "T1600",
                    "T1608.005",
                    "T1137.001",
                    "T1059.008"
                ],
                [
                    "T1578.001",
                    "T1555",
                    "T1213.003",
                    "T1001.002",
                    "T1505"
                ],
                [
                    "T1528",
                    "T1547.015",
                    "T1132.002"
                ]
            ],
            "required": [
                2,
                0,
                1
            ]
        },
        {
            "code": "M311",
            "subnet": "S3",
            "techniques": [
                [
                    "T1505",
                    "T1037.002",
                    "T1589"
                ],
                [
                    "T1499",
                    "T1561.001",
                    "T1505"
                ]
            ],
            "required": [
                1
            ]
        },
        {
            "code": "M40",
            "subnet": "S4",
            "techniques": [
                [
                    "T1505.001",
                    "T1589.001",
                    "T1529",
                    "T1027.006",
                    "T1546.009"
                ],
                [
                    "T1134.002",
                    "T1574.010",
                    "T1505.001",
                    "T1546.009"
                ],
                [
                    "T1037.001",
                    "T1053.002",
                    "T1564.008"
                ]
            ],
            "required": [
                1,
                2,
                0
            ]
        },
        {
            "code": "M41",
            "subnet": "S4",
            "techniques": [
                [
                    "T1134.002",
                    "T1548.003",
                    "T1547.008",
                    "T1608.005"
                ]
            ],
            "required": [
                0
            ]
        }
    ],
    "additional_techniques": [
        "T1584.005",
        "T1052"
    ],
    "mitigations": [
        "M1036",
        "M1015",
        "M1049",
        "M1013",
        "M1048",
        "M1047",
        "M1040",
        "M1046",
        "M1045",
        "M1043",
        "M1053",
        "M1057",
        "M1042",
        "M1055",
        "M1041",
        "M1039",
        "M1038",
        "M1050",
        "M1037",
        "M1035",
        "M1034",
        "M1033",
        "M1032",
        "M1031",
        "M1030",
        "M1028",
        "M1027",
        "M1056",
        "M1026",
        "M1025",
        "M1029",
        "M1022",
        "M1044",
        "M1024",
        "M1021",
        "M1020",
        "M1054",
        "M1019",
        "M1051",
        "M1052",
        "M1018",
        "M1017",
        "M1016"
    ]
}