episode,reward,step,sensitive
0,-305,169,1
1,-260,169,1
2,-280,169,1
3,-320,169,1
4,-140,164,2
5,-300,169,1
6,-445,169,1
7,-340,169,1
8,-5,119,2
9,-380,169,1
10,-400,169,1
11,-10,125,2
12,0,130,2
13,-350,169,1
14,-205,169,2
15,55,79,2
16,-290,169,1
17,-135,159,2
18,190,82,2
19,155,96,2
20,-310,169,1
21,-140,140,2
22,105,117,2
23,20,95,2
24,-310,169,1
25,-170,168,2
26,-140,158,2
27,135,68,2
28,195,77,2
29,35,127,2
30,125,46,2
31,-280,169,1
32,-95,153,2
33,95,117,2
34,145,83,2
35,315,70,2
36,220,36,2
37,-310,169,1
38,200,83,2
39,260,82,2
40,145,91,2
41,185,45,2
42,205,73,2
43,275,62,2
44,120,96,2
45,15,127,2
46,115,82,2
47,195,85,2
48,140,63,2
49,60,122,2
50,285,40,2
51,235,55,2
52,235,55,2
53,155,95,2
54,325,47,2
55,180,87,2
56,265,71,2
57,300,54,2
58,50,124,2
59,140,84,2
60,335,45,2
61,215,75,2
62,75,105,2
63,275,70,2
64,155,82,2
65,215,54,2
66,80,113,2
67,185,68,2
68,95,102,2
69,300,54,2
70,-40,140,2
71,215,86,2
72,150,94,2
73,240,77,2
74,320,70,2
75,130,102,2
76,205,87,2
77,390,42,2
78,140,89,2
79,285,63,2
80,295,27,2
81,310,45,2
82,260,30,2
83,-135,155,2
84,345,24,2
85,310,53,2
86,355,49,2
87,300,42,2
88,240,71,2
89,235,83,2
90,320,39,2
91,340,25,2
92,260,67,2
93,305,46,2
94,295,68,2
95,380,34,2
96,395,28,2
97,300,42,2
98,345,45,2
99,325,55,2
100,350,33,2
101,330,21,2
102,325,38,2
103,330,34,2
104,275,67,2
105,180,82,2
106,240,65,2
107,320,39,2
108,335,30,2
109,320,25,2
110,290,38,2
111,350,44,2
112,370,38,2
113,325,18,2
114,340,19,2
115,355,48,2
116,310,26,2
117,390,38,2
118,340,38,2
119,310,25,2
120,250,60,2
121,200,80,2
122,365,21,2
123,285,31,2
124,325,30,2
125,345,35,2
126,220,40,2
127,300,71,2
128,180,47,2
129,290,21,2
130,280,66,2
131,55,74,2
132,335,30,2
133,255,56,2
134,195,69,2
135,240,51,2
136,200,41,2
137,95,78,2
138,310,27,2
139,245,54,2
140,180,53,2
141,305,25,2
142,70,77,2
143,200,72,2
144,230,35,2
145,160,67,2
146,320,23,2
147,270,46,2
148,250,41,2
149,260,28,2
150,315,20,2
151,285,33,2
152,220,49,2
153,305,23,2
154,385,33,2
155,285,34,2
156,220,47,2
157,175,60,2
158,305,34,2
159,285,32,2
160,285,56,2
161,330,38,2
162,250,38,2
163,175,66,2
164,245,61,2
165,310,45,2
166,230,68,2
167,255,32,2
168,305,50,2
169,300,43,2
170,235,64,2
171,260,35,2
172,300,58,2
173,330,38,2
174,300,64,2
175,280,38,2
176,310,47,2
177,210,62,2
178,190,70,2
179,130,95,2
180,280,64,2
181,285,53,2
182,215,82,2
183,290,33,2
184,320,36,2
185,295,44,2
186,325,46,2
187,230,43,2
188,325,50,2
189,305,48,2
190,280,40,2
191,350,19,2
192,255,35,2
193,285,29,2
194,325,42,2
195,320,35,2
196,215,71,2
197,265,50,2
198,335,41,2
199,285,45,2
200,295,47,2
201,290,55,2
202,315,18,2
203,305,42,2
204,280,50,2
205,350,33,2
206,295,40,2
207,295,28,2
208,230,70,2
209,230,63,2
210,350,16,2
211,335,22,2
212,320,32,2
213,325,30,2
214,315,24,2
215,350,27,2
216,350,22,2
217,295,55,2
218,330,20,2
219,370,23,2
220,320,33,2
221,350,24,2
222,325,31,2
223,320,14,2
224,340,29,2
225,350,28,2
226,295,34,2
227,310,15,2
228,335,38,2
229,360,25,2
230,345,15,2
231,330,26,2
232,340,34,2
233,295,42,2
234,245,51,2
235,330,15,2
236,205,71,2
237,350,31,2
238,295,30,2
239,340,14,2
240,325,15,2
241,340,12,2
242,315,28,2
243,355,20,2
244,330,15,2
245,330,16,2
246,305,9,2
247,345,18,2
248,345,19,2
249,330,17,2
250,340,14,2
251,340,30,2
252,345,28,2
253,295,26,2
254,325,24,2
255,300,23,2
256,320,14,2
257,295,33,2
258,330,13,2
259,255,45,2
260,200,51,2
261,270,26,2
262,280,33,2
263,25,84,2
264,150,65,2
265,335,21,2
266,225,39,2
267,80,84,2
268,295,35,2
269,240,31,2
270,285,32,2
271,315,25,2
272,280,29,2
273,235,39,2
274,285,15,2
275,310,28,2
276,315,18,2
277,290,30,2
278,255,33,2
279,185,51,2
280,285,23,2
281,300,22,2
282,325,23,2
283,310,18,2
284,265,26,2
285,305,23,2
286,285,31,2
287,345,18,2
288,355,22,2
289,350,19,2
290,290,24,2
291,335,17,2
292,300,26,2
293,335,21,2
294,330,25,2
295,330,21,2
296,235,52,2
297,325,17,2
298,305,35,2
299,325,12,2
300,330,19,2
301,355,20,2
302,340,26,2
303,345,19,2
304,325,33,2
305,345,27,2
306,335,33,2
307,290,51,2
308,355,34,2
309,375,27,2
310,330,34,2
311,320,20,2
312,310,21,2
313,305,32,2
314,355,40,2
315,315,35,2
316,365,20,2
317,345,38,2
318,315,35,2
319,335,29,2
320,260,49,2
321,240,53,2
322,330,27,2
323,130,58,2
324,220,58,2
325,275,29,2
326,-445,169,1
327,210,55,2
328,290,45,2
329,195,53,2
330,25,106,2
331,310,26,2
332,230,63,2
333,300,32,2
334,330,38,2
335,305,27,2
336,280,20,2
337,345,24,2
338,325,28,2
339,300,20,2
340,330,14,2
341,370,29,2
342,295,31,2
343,320,39,2
344,285,35,2
345,355,24,2
346,330,13,2
347,325,23,2
348,295,22,2
349,315,22,2
350,325,17,2
351,275,38,2
352,355,15,2
353,340,21,2
354,350,20,2
355,335,15,2
356,340,15,2
357,335,16,2
358,345,30,2
359,360,27,2
360,365,19,2
361,325,30,2
362,315,37,2
363,350,27,2
364,350,36,2
365,235,60,2
366,285,36,2
367,265,47,2
368,295,38,2
369,280,37,2
370,295,45,2
371,295,28,2
372,155,78,2
373,285,50,2
374,250,37,2
375,335,24,2
376,200,58,2
377,350,35,2
378,245,54,2
379,320,49,2
380,165,72,2
381,340,24,2
382,290,47,2
383,275,50,2
384,340,43,2
385,295,56,2
386,260,56,2
387,275,43,2
388,280,47,2
389,250,65,2
390,350,18,2
391,370,39,2
392,320,33,2
393,290,25,2
394,320,21,2
395,365,18,2
396,355,42,2
397,320,37,2
398,325,37,2
399,340,18,2
400,345,29,2
401,330,26,2
402,325,36,2
403,335,21,2
404,250,62,2
405,335,38,2
406,330,21,2
407,315,45,2
408,365,26,2
409,350,20,2
410,320,30,2
411,350,30,2
412,290,35,2
413,365,16,2
414,315,23,2
415,345,32,2
416,215,54,2
417,325,26,2
418,260,51,2
419,340,19,2
420,315,28,2
421,320,24,2
422,260,38,2
423,290,21,2
424,130,54,2
425,90,76,2
426,120,69,2
427,105,74,2
428,170,53,2
429,300,36,2
430,295,24,2
431,295,23,2
432,285,22,2
433,290,24,2
434,170,49,2
435,-130,138,2
436,310,29,2
437,280,25,2
438,245,39,2
439,295,23,2
440,315,21,2
441,320,17,2
442,290,41,2
443,235,32,2
444,340,28,2
445,305,16,2
446,310,19,2
447,305,25,2
448,310,31,2
449,335,14,2
450,300,14,2
451,290,31,2
452,285,17,2
453,320,24,2
454,300,24,2
455,340,19,2
456,310,12,2
457,265,32,2
458,285,34,2
459,330,21,2
460,355,14,2
461,320,31,2
462,255,35,2
463,290,19,2
464,330,27,2
465,310,17,2
466,280,20,2
467,275,23,2
468,345,24,2
469,285,35,2
470,335,22,2
471,290,18,2
472,305,25,2
473,240,34,2
474,290,31,2
475,310,26,2
476,275,44,2
477,285,22,2
478,110,62,2
479,270,26,2
480,345,18,2
481,235,43,2
482,275,24,2
483,310,28,2
484,340,24,2
485,250,36,2
486,285,20,2
487,325,17,2
488,340,14,2
489,350,16,2
490,275,31,2
491,310,36,2
492,375,20,2
493,350,15,2
494,280,24,2
495,280,39,2
496,355,20,2
497,300,29,2
498,315,15,2
499,310,20,2
500,305,25,2
501,320,14,2
502,355,22,2
503,370,19,2
504,320,17,2
505,325,25,2
506,305,16,2
507,340,19,2
508,355,21,2
509,350,22,2
510,325,14,2
511,335,12,2
512,320,12,2
513,355,26,2
514,310,15,2
515,360,15,2
516,345,26,2
517,355,19,2
518,330,30,2
519,330,32,2
520,350,19,2
521,315,26,2
522,390,36,2
523,305,34,2
524,365,24,2
525,315,27,2
526,355,21,2
527,330,29,2
528,335,19,2
529,310,34,2
530,235,56,2
531,275,34,2
532,350,29,2
533,320,40,2
534,325,26,2
535,310,49,2
536,330,18,2
537,335,21,2
538,330,29,2
539,340,19,2
540,295,25,2
541,260,42,2
542,300,25,2
543,320,21,2
544,325,27,2
545,355,18,2
546,350,19,2
547,330,34,2
548,320,19,2
549,300,27,2
550,280,47,2
551,285,30,2
552,275,39,2
553,335,15,2
554,310,14,2
555,275,46,2
556,245,43,2
557,310,33,2
558,310,31,2
559,305,21,2
560,325,27,2
561,330,24,2
562,315,18,2
563,370,17,2
564,295,25,2
565,295,28,2
566,365,19,2
567,330,25,2
568,305,33,2
569,295,22,2
570,315,26,2
571,320,20,2
572,320,21,2
573,310,12,2
574,310,34,2
575,340,17,2
576,295,14,2
577,295,27,2
578,340,14,2
579,300,23,2
580,295,19,2
581,340,19,2
582,310,24,2
583,360,15,2
584,320,20,2
585,325,16,2
586,335,17,2
587,320,19,2
588,310,19,2
589,335,16,2
590,315,23,2
591,320,18,2
592,335,19,2
593,330,21,2
594,330,13,2
595,315,15,2
596,295,23,2
597,345,15,2
598,310,27,2
599,300,32,2
600,315,11,2
601,335,12,2
602,290,18,2
603,290,28,2
604,330,19,2
605,355,20,2
606,320,24,2
607,335,13,2
608,275,26,2
609,345,17,2
610,345,22,2
611,255,33,2
612,335,19,2
613,280,25,2
614,340,24,2
615,345,22,2
616,335,24,2
617,265,36,2
618,330,15,2
619,305,23,2
620,345,19,2
621,310,12,2
622,320,19,2
623,330,18,2
624,295,35,2
625,305,23,2
626,340,19,2
627,270,32,2
628,295,35,2
629,290,23,2
630,325,24,2
631,320,12,2
632,310,24,2
633,345,15,2
634,360,26,2
635,340,13,2
636,320,17,2
637,355,18,2
638,310,34,2
639,320,19,2
640,335,13,2
641,300,26,2
642,330,21,2
643,340,21,2
644,350,17,2
645,325,21,2
646,320,14,2
647,335,10,2
648,340,28,2
649,335,24,2
650,315,13,2
651,345,23,2
652,325,14,2
653,245,33,2
654,305,14,2
655,310,18,2
656,340,27,2
657,320,17,2
658,335,21,2
659,365,17,2
660,310,24,2
661,355,16,2
662,305,20,2
663,305,30,2
664,330,15,2
665,320,19,2
666,345,17,2
667,320,24,2
668,310,12,2
669,365,16,2
670,360,21,2
671,305,17,2
672,300,28,2
673,330,16,2
674,335,26,2
675,330,15,2
676,355,18,2
677,320,19,2
678,330,12,2
679,315,31,2
680,345,22,2
681,370,20,2
682,340,21,2
683,315,25,2
684,290,23,2
685,315,16,2
686,320,30,2
687,345,13,2
688,325,23,2
689,330,18,2
690,295,47,2
691,320,16,2
692,280,35,2
693,340,16,2
694,335,15,2
695,345,25,2
696,335,14,2
697,320,32,2
698,305,20,2
699,335,15,2
700,335,20,2
701,260,43,2
702,320,16,2
703,345,25,2
704,295,32,2
705,365,17,2
706,325,29,2
707,285,40,2
708,325,33,2
709,375,26,2
710,360,19,2
711,290,30,2
712,285,29,2
713,305,28,2
714,320,31,2
715,320,38,2
716,300,27,2
717,350,18,2
718,325,15,2
719,355,18,2
720,320,23,2
721,295,33,2
722,335,15,2
723,295,40,2
724,345,25,2
725,325,33,2
726,335,24,2
727,330,17,2
728,335,16,2
729,340,21,2
730,360,27,2
731,325,16,2
732,350,20,2
733,325,21,2
734,315,43,2
735,370,18,2
736,360,24,2
737,340,15,2
738,330,17,2
739,355,23,2
740,325,14,2
741,290,16,2
742,345,20,2
743,385,19,2
744,330,18,2
745,340,14,2
746,335,24,2
747,340,13,2
748,345,18,2
749,335,15,2
750,360,18,2
751,320,43,2
752,350,19,2
753,285,29,2
754,340,15,2
755,315,35,2
756,335,21,2
757,350,16,2
758,295,29,2
759,330,15,2
760,345,16,2
761,365,20,2
762,350,35,2
763,335,25,2
764,330,19,2
765,325,14,2
766,330,20,2
767,350,23,2
768,375,24,2
769,315,25,2
770,330,29,2
771,295,33,2
772,335,19,2
773,320,23,2
774,340,27,2
775,360,18,2
776,335,14,2
777,340,18,2
778,355,32,2
779,210,65,2
780,340,23,2
781,340,27,2
782,320,28,2
783,345,11,2
784,330,30,2
785,340,30,2
786,340,35,2
787,345,22,2
788,340,34,2
789,280,35,2
790,340,13,2
791,335,20,2
792,300,25,2
793,330,17,2
794,335,32,2
795,315,21,2
796,335,22,2
797,335,18,2
798,335,23,2
799,320,20,2
800,325,33,2
801,330,16,2
802,355,20,2
803,350,26,2
804,365,18,2
805,335,31,2
806,335,12,2
807,305,16,2
808,345,20,2
809,280,39,2
810,320,23,2
811,295,19,2
812,310,12,2
813,310,17,2
814,320,20,2
815,295,30,2
816,330,24,2
817,315,24,2
818,285,32,2
819,295,23,2
820,225,42,2
821,320,18,2
822,325,27,2
823,375,21,2
824,265,39,2
825,365,21,2
826,330,18,2
827,320,26,2
828,310,22,2
829,345,26,2
830,285,39,2
831,255,29,2
832,330,10,2
833,335,16,2
834,295,41,2
835,325,14,2
836,315,34,2
837,300,19,2
838,310,30,2
839,300,24,2
840,320,18,2
841,310,21,2
842,300,25,2
843,300,25,2
844,320,15,2
845,320,20,2
846,230,32,2
847,325,14,2
848,280,36,2
849,325,29,2
850,300,18,2
851,235,53,2
852,325,14,2
853,350,15,2
854,335,14,2
855,270,45,2
856,330,27,2
857,285,23,2
858,315,26,2
859,320,19,2
860,300,24,2
861,300,33,2
862,250,50,2
863,330,14,2
864,310,21,2
865,325,17,2
866,330,20,2
867,315,21,2
868,375,31,2
869,345,18,2
870,280,28,2
871,270,28,2
872,265,34,2
873,325,9,2
874,320,19,2
875,310,31,2
876,290,23,2
877,340,23,2
878,295,23,2
879,280,31,2
880,295,25,2
881,335,19,2
882,330,16,2
883,255,39,2
884,320,16,2
885,270,28,2
886,335,17,2
887,355,20,2
888,305,27,2
889,295,25,2
890,295,23,2
891,315,27,2
892,265,36,2
893,320,20,2
894,315,21,2
895,325,21,2
896,310,18,2
897,295,18,2
898,300,24,2
899,325,22,2
900,305,26,2
901,290,24,2
902,300,28,2
903,330,21,2
904,290,21,2
905,270,23,2
906,275,30,2
907,335,27,2
908,340,11,2
909,200,41,2
910,215,36,2
911,300,19,2
912,280,26,2
913,290,24,2
914,235,37,2
915,325,20,2
916,315,14,2
917,310,21,2
918,325,17,2
919,300,19,2
920,260,32,2
921,275,26,2
922,285,20,2
923,305,20,2
924,265,21,2
925,305,19,2
926,295,18,2
927,315,14,2
928,320,20,2
929,305,19,2
930,315,14,2
931,300,21,2
932,265,33,2
933,315,16,2
934,290,23,2
935,315,21,2
936,280,25,2
937,280,25,2
938,315,14,2
939,280,21,2
940,260,31,2
941,280,24,2
942,240,31,2
943,300,22,2
944,315,23,2
945,310,22,2
946,330,20,2
947,290,19,2
948,280,18,2
949,265,24,2
950,325,20,2
951,280,23,2
952,330,13,2
953,295,23,2
954,320,13,2
955,280,25,2
956,330,15,2
957,315,18,2
958,330,19,2
959,320,16,2
960,285,19,2
961,330,11,2
962,310,15,2
963,315,14,2
964,335,10,2
965,320,18,2
966,305,10,2
967,320,15,2
968,320,10,2
969,320,13,2
970,300,16,2
971,295,15,2
972,325,9,2
973,290,14,2
974,270,18,2
975,285,17,2
976,305,11,2
977,330,13,2
978,345,14,2
979,315,11,2
980,315,13,2
981,280,13,2
982,315,16,2
983,-555,169,1
984,335,13,2
985,330,13,2
986,325,12,2
987,345,15,2
988,-485,169,1
989,320,10,2
990,340,15,2
991,335,12,2
992,325,11,2
993,335,10,2
994,345,20,2
995,345,15,2
996,330,20,2
997,340,24,2
998,325,19,2
999,330,32,2
