episode,reward,step,sensitive
0,-2135,489,0
1,-2450,489,0
2,-1790,489,1
3,-2155,489,0
4,-2010,489,0
5,-2055,489,0
6,-2205,489,0
7,-2220,489,0
8,-2450,489,0
9,-2025,489,0
10,-1915,489,1
11,-1730,489,1
12,-2360,489,0
13,-2150,489,0
14,-2450,489,0
15,-2235,489,0
16,-2335,489,0
17,-2415,489,0
18,-1920,489,0
19,-2335,489,0
20,-2145,489,0
21,-2175,489,0
22,-1895,489,1
23,-2140,489,0
24,-2015,489,0
25,-2090,489,0
26,-1730,472,2
27,-2425,489,0
28,-2325,489,0
29,-2180,489,0
30,-2360,489,0
31,-2450,489,0
32,-2100,489,0
33,-2155,489,0
34,-2450,489,0
35,-2160,489,0
36,-2225,489,0
37,-2450,489,0
38,-2415,489,0
39,-2350,489,0
40,-1750,489,0
41,-2405,489,0
42,-2415,489,0
43,-2140,489,0
44,-2250,489,0
45,-2415,489,0
46,-2085,489,0
47,-2300,489,0
48,-1895,489,0
49,-2140,489,0
50,-2290,489,0
51,-2450,489,0
52,-1940,489,0
53,-2105,489,0
54,-1735,489,1
55,-2200,489,0
56,-2240,489,0
57,-2280,489,0
58,-2245,489,0
59,-2240,489,0
60,-2105,489,0
61,-2350,489,0
62,-1990,489,1
63,-2045,489,0
64,-1980,489,0
65,-1910,489,0
66,-2065,489,0
67,-2100,489,0
68,-1945,489,0
69,-2030,489,0
70,-2080,489,0
71,-2020,489,0
72,-2205,489,0
73,-2105,489,0
74,-2040,489,0
75,-1545,441,2
76,-2175,489,0
77,-2160,489,0
78,-2145,489,0
79,-2105,489,0
80,-2205,489,0
81,-2230,489,0
82,-1710,489,1
83,-1805,489,1
84,-2070,489,0
85,-1925,489,0
86,-2230,489,0
87,-2220,489,0
88,-2090,489,0
89,-2165,489,0
90,-2165,489,0
91,-2190,489,0
92,-2260,489,0
93,-2015,489,0
94,-1940,489,0
95,-2235,489,0
96,-2310,489,0
97,-2320,489,0
98,-2300,489,0
99,-2310,489,0
100,-2385,489,0
101,-2340,489,0
102,-2385,489,0
103,-2385,489,0
104,-2450,489,0
105,-2450,489,0
106,-2450,489,0
107,-2395,489,0
108,-2450,489,0
109,-2450,489,0
110,-2450,489,0
111,-2450,489,0
112,-2450,489,0
113,-2450,489,0
114,-2450,489,0
115,-2450,489,0
116,-2450,489,0
117,-2450,489,0
118,-2450,489,0
119,-2450,489,0
120,-2450,489,0
121,-2450,489,0
122,-2450,489,0
123,-2450,489,0
124,-2450,489,0
125,-2450,489,0
126,-2450,489,0
127,-2450,489,0
128,-2450,489,0
129,-2450,489,0
130,-2450,489,0
131,-2450,489,0
132,-2450,489,0
133,-2450,489,0
134,-2450,489,0
135,-2450,489,0
136,-2450,489,0
137,-2450,489,0
138,-2450,489,0
139,-2450,489,0
140,-2450,489,0
141,-2450,489,0
142,-2450,489,0
143,-2450,489,0
144,-2450,489,0
145,-2450,489,0
146,-2450,489,0
147,-2450,489,0
148,-2450,489,0
149,-2450,489,0
150,-2450,489,0
151,-2450,489,0
152,-2450,489,0
153,-2450,489,0
154,-2450,489,0
155,-2450,489,0
156,-2450,489,0
157,-2450,489,0
158,-2450,489,0
159,-2450,489,0
160,-2450,489,0
161,-2450,489,0
162,-2450,489,0
163,-2450,489,0
164,-2450,489,0
165,-2450,489,0
166,-2450,489,0
167,-2450,489,0
168,-2450,489,0
169,-2450,489,0
170,-2450,489,0
171,-2450,489,0
172,-2450,489,0
173,-2450,489,0
174,-2450,489,0
175,-2450,489,0
176,-2450,489,0
177,-2450,489,0
178,-2450,489,0
179,-2450,489,0
180,-2450,489,0
181,-2450,489,0
182,-2450,489,0
183,-2450,489,0
184,-2450,489,0
185,-2450,489,0
186,-2450,489,0
187,-2450,489,0
188,-2450,489,0
189,-2450,489,0
190,-2450,489,0
191,-2450,489,0
192,-2450,489,0
193,-2450,489,0
194,-2450,489,0
195,-2450,489,0
196,-2450,489,0
197,-2450,489,0
198,-2450,489,0
199,-2450,489,0
200,-2450,489,0
201,-2450,489,0
202,-2450,489,0
203,-2450,489,0
204,-2450,489,0
205,-2450,489,0
206,-2450,489,0
207,-2450,489,0
208,-2450,489,0
209,-2450,489,0
210,-2450,489,0
211,-2450,489,0
212,-2450,489,0
213,-2450,489,0
214,-2450,489,0
215,-2450,489,0
216,-2450,489,0
217,-2450,489,0
218,-2450,489,0
219,-2450,489,0
220,-2450,489,0
221,-2450,489,0
222,-2450,489,0
223,-2450,489,0
224,-2450,489,0
225,-2450,489,0
226,-2450,489,0
227,-2450,489,0
228,-2450,489,0
229,-2450,489,0
230,-2450,489,0
231,-2450,489,0
232,-2450,489,0
233,-2450,489,0
234,-2450,489,0
235,-2450,489,0
236,-2450,489,0
237,-2450,489,0
238,-2450,489,0
239,-2450,489,0
240,-2450,489,0
241,-2450,489,0
242,-2450,489,0
243,-2450,489,0
244,-2450,489,0
245,-2450,489,0
246,-2450,489,0
247,-2450,489,0
248,-2450,489,0
249,-2450,489,0
250,-2450,489,0
251,-2450,489,0
252,-2450,489,0
253,-2450,489,0
254,-2450,489,0
255,-2450,489,0
256,-2450,489,0
257,-2450,489,0
258,-2450,489,0
259,-2450,489,0
260,-2450,489,0
261,-2450,489,0
262,-2450,489,0
263,-2450,489,0
264,-2450,489,0
265,-2450,489,0
266,-2450,489,0
267,-2450,489,0
268,-2450,489,0
269,-2450,489,0
270,-2450,489,0
271,-2450,489,0
272,-2450,489,0
273,-2450,489,0
274,-2450,489,0
275,-2450,489,0
276,-2450,489,0
277,-2450,489,0
278,-2450,489,0
279,-2450,489,0
280,-2450,489,0
281,-2450,489,0
282,-2450,489,0
283,-2450,489,0
284,-2450,489,0
285,-2450,489,0
286,-2450,489,0
287,-2450,489,0
288,-2450,489,0
289,-2450,489,0
290,-2450,489,0
291,-2450,489,0
292,-2450,489,0
293,-2450,489,0
294,-2450,489,0
295,-2450,489,0
296,-2450,489,0
297,-2450,489,0
298,-2450,489,0
299,-2450,489,0
300,-2450,489,0
301,-2450,489,0
302,-2450,489,0
303,-2450,489,0
304,-2450,489,0
305,-2450,489,0
306,-2450,489,0
307,-2450,489,0
308,-2450,489,0
309,-2450,489,0
310,-2450,489,0
311,-2450,489,0
312,-2450,489,0
313,-2450,489,0
314,-2450,489,0
315,-2450,489,0
316,-2450,489,0
317,-2450,489,0
318,-2450,489,0
319,-2450,489,0
320,-2450,489,0
321,-2450,489,0
322,-2450,489,0
323,-2450,489,0
324,-2450,489,0
325,-2450,489,0
326,-2450,489,0
327,-2450,489,0
328,-2450,489,0
329,-2450,489,0
330,-2450,489,0
331,-2450,489,0
332,-2450,489,0
333,-2450,489,0
334,-2450,489,0
335,-2450,489,0
336,-2450,489,0
337,-2450,489,0
338,-2450,489,0
339,-2450,489,0
340,-2450,489,0
341,-2450,489,0
342,-2450,489,0
343,-2450,489,0
344,-2450,489,0
345,-2450,489,0
346,-2450,489,0
347,-2450,489,0
348,-2450,489,0
349,-2450,489,0
350,-2450,489,0
351,-2450,489,0
352,-2450,489,0
353,-2450,489,0
354,-2450,489,0
355,-2450,489,0
356,-2450,489,0
357,-2450,489,0
358,-2450,489,0
359,-2450,489,0
360,-2450,489,0
361,-2450,489,0
362,-2450,489,0
363,-2450,489,0
364,-2450,489,0
365,-2450,489,0
366,-2450,489,0
367,-2450,489,0
368,-2450,489,0
369,-2450,489,0
370,-2450,489,0
371,-2450,489,0
372,-2450,489,0
373,-2450,489,0
374,-2450,489,0
375,-2450,489,0
376,-2450,489,0
377,-2450,489,0
378,-2450,489,0
379,-2450,489,0
380,-2450,489,0
381,-2450,489,0
382,-2450,489,0
383,-2450,489,0
384,-2450,489,0
385,-2450,489,0
386,-2450,489,0
387,-2450,489,0
388,-2450,489,0
389,-2450,489,0
390,-2450,489,0
391,-2450,489,0
392,-2450,489,0
393,-2450,489,0
394,-2450,489,0
395,-2450,489,0
396,-2450,489,0
397,-2450,489,0
398,-2450,489,0
399,-2450,489,0
400,-2450,489,0
401,-2450,489,0
402,-2450,489,0
403,-2450,489,0
404,-2450,489,0
405,-2450,489,0
406,-2450,489,0
407,-2450,489,0
408,-2450,489,0
409,-2450,489,0
410,-2450,489,0
411,-2450,489,0
412,-2450,489,0
413,-2450,489,0
414,-2450,489,0
415,-2450,489,0
416,-2450,489,0
417,-2450,489,0
418,-2450,489,0
419,-2450,489,0
420,-2450,489,0
421,-2450,489,0
422,-2450,489,0
423,-2450,489,0
424,-2450,489,0
425,-2450,489,0
426,-2450,489,0
427,-2450,489,0
428,-2450,489,0
429,-2450,489,0
430,-2450,489,0
431,-2450,489,0
432,-2450,489,0
433,-2450,489,0
434,-2450,489,0
435,-2450,489,0
436,-2450,489,0
437,-2450,489,0
438,-2450,489,0
439,-2450,489,0
440,-2450,489,0
441,-2450,489,0
442,-2450,489,0
443,-2450,489,0
444,-2450,489,0
445,-2450,489,0
446,-2450,489,0
447,-2450,489,0
448,-2450,489,0
449,-2450,489,0
450,-2450,489,0
451,-2450,489,0
452,-2450,489,0
453,-2450,489,0
454,-2450,489,0
455,-2450,489,0
456,-2450,489,0
457,-2450,489,0
458,-2450,489,0
459,-2450,489,0
460,-2450,489,0
461,-2450,489,0
462,-2450,489,0
463,-2450,489,0
464,-2450,489,0
465,-2450,489,0
466,-2450,489,0
467,-2450,489,0
468,-2450,489,0
469,-2450,489,0
470,-2450,489,0
471,-2450,489,0
472,-2450,489,0
473,-2450,489,0
474,-2450,489,0
475,-2450,489,0
476,-2450,489,0
477,-2450,489,0
478,-2450,489,0
479,-2450,489,0
480,-2450,489,0
481,-2450,489,0
482,-2450,489,0
483,-2450,489,0
484,-2450,489,0
485,-2450,489,0
486,-2450,489,0
487,-2450,489,0
488,-2450,489,0
489,-2450,489,0
490,-2450,489,0
491,-2450,489,0
492,-2450,489,0
493,-2450,489,0
494,-2450,489,0
495,-2450,489,0
496,-2450,489,0
497,-2450,489,0
498,-2450,489,0
499,-2450,489,0
500,-2450,489,0
501,-2450,489,0
502,-2450,489,0
503,-2450,489,0
504,-2450,489,0
505,-2450,489,0
506,-2450,489,0
507,-2450,489,0
508,-2450,489,0
509,-2450,489,0
510,-2450,489,0
511,-2450,489,0
512,-2450,489,0
513,-2450,489,0
514,-2450,489,0
515,-2450,489,0
516,-2450,489,0
517,-2450,489,0
518,-2450,489,0
519,-2450,489,0
520,-2450,489,0
521,-2450,489,0
522,-2450,489,0
523,-2450,489,0
524,-2450,489,0
525,-2450,489,0
526,-2450,489,0
527,-2450,489,0
528,-2450,489,0
529,-2450,489,0
530,-2450,489,0
531,-2450,489,0
532,-2450,489,0
533,-2450,489,0
534,-2450,489,0
535,-2450,489,0
536,-2450,489,0
537,-2450,489,0
538,-2450,489,0
539,-2450,489,0
540,-2450,489,0
541,-2450,489,0
542,-2450,489,0
543,-2450,489,0
544,-2450,489,0
545,-2450,489,0
546,-2450,489,0
547,-2450,489,0
548,-2450,489,0
549,-2450,489,0
550,-2450,489,0
551,-2450,489,0
552,-2450,489,0
553,-2450,489,0
554,-2450,489,0
555,-2450,489,0
556,-2450,489,0
557,-2450,489,0
558,-2450,489,0
559,-2450,489,0
560,-2450,489,0
561,-2450,489,0
562,-2450,489,0
563,-2450,489,0
564,-2450,489,0
565,-2450,489,0
566,-2450,489,0
567,-2450,489,0
568,-2450,489,0
569,-2450,489,0
570,-2450,489,0
571,-2450,489,0
572,-2450,489,0
573,-2450,489,0
574,-2450,489,0
575,-2450,489,0
576,-2450,489,0
577,-2450,489,0
578,-2450,489,0
579,-2450,489,0
580,-2450,489,0
581,-2450,489,0
582,-2450,489,0
583,-2450,489,0
584,-2450,489,0
585,-2450,489,0
586,-2450,489,0
587,-2450,489,0
588,-2450,489,0
589,-2450,489,0
590,-2450,489,0
591,-2450,489,0
592,-2450,489,0
593,-2450,489,0
594,-2450,489,0
595,-2450,489,0
596,-2450,489,0
597,-2450,489,0
598,-2450,489,0
599,-2450,489,0
600,-2450,489,0
601,-2450,489,0
602,-2450,489,0
603,-2450,489,0
604,-2450,489,0
605,-2450,489,0
606,-2450,489,0
607,-2450,489,0
608,-2450,489,0
609,-2450,489,0
610,-2450,489,0
611,-2450,489,0
612,-2450,489,0
613,-2450,489,0
614,-2450,489,0
615,-2450,489,0
616,-2450,489,0
617,-2450,489,0
618,-2450,489,0
619,-2450,489,0
620,-2450,489,0
621,-2450,489,0
622,-2450,489,0
623,-2450,489,0
624,-2450,489,0
625,-2450,489,0
626,-2450,489,0
627,-2450,489,0
628,-2450,489,0
629,-2450,489,0
630,-2450,489,0
631,-2450,489,0
632,-2450,489,0
633,-2450,489,0
634,-2450,489,0
635,-2450,489,0
636,-2450,489,0
637,-2450,489,0
638,-2450,489,0
639,-2450,489,0
640,-2450,489,0
641,-2450,489,0
642,-2450,489,0
643,-2450,489,0
644,-2450,489,0
645,-2450,489,0
646,-2450,489,0
647,-2450,489,0
648,-2450,489,0
649,-2450,489,0
650,-2450,489,0
651,-2450,489,0
652,-2450,489,0
653,-2450,489,0
654,-2450,489,0
655,-2450,489,0
656,-2450,489,0
657,-2450,489,0
658,-2450,489,0
659,-2450,489,0
660,-2450,489,0
661,-2450,489,0
662,-2450,489,0
663,-2450,489,0
664,-2450,489,0
665,-2450,489,0
666,-2450,489,0
667,-2450,489,0
668,-2450,489,0
669,-2450,489,0
670,-2450,489,0
671,-2450,489,0
672,-2450,489,0
673,-2450,489,0
674,-2450,489,0
675,-2450,489,0
676,-2450,489,0
677,-2450,489,0
678,-2450,489,0
679,-2450,489,0
680,-2450,489,0
681,-2450,489,0
682,-2450,489,0
683,-2450,489,0
684,-2450,489,0
685,-2450,489,0
686,-2450,489,0
687,-2450,489,0
688,-2450,489,0
689,-2450,489,0
690,-2450,489,0
691,-2450,489,0
692,-2450,489,0
693,-2450,489,0
694,-2450,489,0
695,-2450,489,0
696,-2450,489,0
697,-2450,489,0
698,-2450,489,0
699,-2450,489,0
700,-2450,489,0
701,-2450,489,0
702,-2450,489,0
703,-2450,489,0
704,-2450,489,0
705,-2450,489,0
706,-2450,489,0
707,-2450,489,0
708,-2450,489,0
709,-2450,489,0
710,-2450,489,0
711,-2450,489,0
712,-2450,489,0
713,-2450,489,0
714,-2450,489,0
715,-2450,489,0
716,-2450,489,0
717,-2450,489,0
718,-2450,489,0
719,-2450,489,0
720,-2450,489,0
721,-2450,489,0
722,-2450,489,0
723,-2450,489,0
724,-2450,489,0
725,-2450,489,0
726,-2450,489,0
727,-2450,489,0
728,-2450,489,0
729,-2450,489,0
730,-2450,489,0
731,-2450,489,0
732,-2450,489,0
733,-2450,489,0
734,-2450,489,0
735,-2450,489,0
736,-2450,489,0
737,-2450,489,0
738,-2450,489,0
739,-2450,489,0
740,-2450,489,0
741,-2450,489,0
742,-2450,489,0
743,-2450,489,0
744,-2450,489,0
745,-2450,489,0
746,-2450,489,0
747,-2450,489,0
748,-2450,489,0
749,-2450,489,0
750,-2450,489,0
751,-2450,489,0
752,-2450,489,0
753,-2450,489,0
754,-2450,489,0
755,-2450,489,0
756,-2450,489,0
757,-2450,489,0
758,-2450,489,0
759,-2450,489,0
760,-2450,489,0
761,-2450,489,0
762,-2450,489,0
763,-2450,489,0
764,-2450,489,0
765,-2450,489,0
766,-2450,489,0
767,-2450,489,0
768,-2450,489,0
769,-2450,489,0
770,-2450,489,0
771,-2450,489,0
772,-2450,489,0
773,-2450,489,0
774,-2450,489,0
775,-2450,489,0
776,-2450,489,0
777,-2450,489,0
778,-2450,489,0
779,-2450,489,0
780,-2450,489,0
781,-2450,489,0
782,-2450,489,0
783,-2450,489,0
784,-2450,489,0
785,-2450,489,0
786,-2450,489,0
787,-2450,489,0
788,-2450,489,0
789,-2450,489,0
790,-2450,489,0
791,-2450,489,0
792,-2450,489,0
793,-2450,489,0
794,-2450,489,0
795,-2450,489,0
796,-2450,489,0
797,-2450,489,0
798,-2450,489,0
799,-2450,489,0
800,-2450,489,0
801,-2450,489,0
802,-2450,489,0
803,-2450,489,0
804,-2450,489,0
805,-2450,489,0
806,-2450,489,0
807,-2450,489,0
808,-2450,489,0
809,-2450,489,0
810,-2450,489,0
811,-2450,489,0
812,-2450,489,0
813,-2450,489,0
814,-2450,489,0
815,-2450,489,0
816,-2450,489,0
817,-2450,489,0
818,-2450,489,0
819,-2450,489,0
820,-2450,489,0
821,-2450,489,0
822,-2450,489,0
823,-2450,489,0
824,-2450,489,0
825,-2450,489,0
826,-2450,489,0
827,-2450,489,0
828,-2450,489,0
829,-2450,489,0
830,-2450,489,0
831,-2450,489,0
832,-2450,489,0
833,-2450,489,0
834,-2450,489,0
835,-2450,489,0
836,-2450,489,0
837,-2450,489,0
838,-2450,489,0
839,-2450,489,0
840,-2450,489,0
841,-2450,489,0
842,-2450,489,0
843,-2450,489,0
844,-2450,489,0
845,-2450,489,0
846,-2450,489,0
847,-2450,489,0
848,-2450,489,0
849,-2450,489,0
850,-2450,489,0
851,-2450,489,0
852,-2450,489,0
853,-2450,489,0
854,-2450,489,0
855,-2450,489,0
856,-2450,489,0
857,-2450,489,0
858,-2450,489,0
859,-2450,489,0
860,-2450,489,0
861,-2450,489,0
862,-2450,489,0
863,-2450,489,0
864,-2450,489,0
865,-2450,489,0
866,-2450,489,0
867,-2450,489,0
868,-2450,489,0
869,-2450,489,0
870,-2450,489,0
871,-2450,489,0
872,-2450,489,0
873,-2450,489,0
874,-2450,489,0
875,-2450,489,0
876,-2450,489,0
877,-2450,489,0
878,-2450,489,0
879,-2450,489,0
880,-2450,489,0
881,-2450,489,0
882,-2450,489,0
883,-2450,489,0
884,-2450,489,0
885,-2450,489,0
886,-2450,489,0
887,-2450,489,0
888,-2450,489,0
889,-2450,489,0
890,-2450,489,0
891,-2450,489,0
892,-2450,489,0
893,-2450,489,0
894,-2450,489,0
895,-2450,489,0
896,-2450,489,0
897,-2450,489,0
898,-2450,489,0
899,-2450,489,0
900,-2450,489,0
901,-2450,489,0
902,-2450,489,0
903,-2450,489,0
904,-2450,489,0
905,-2450,489,0
906,-2450,489,0
907,-2450,489,0
908,-2450,489,0
909,-2450,489,0
910,-2450,489,0
911,-2450,489,0
912,-2450,489,0
913,-2450,489,0
914,-2450,489,0
915,-2450,489,0
916,-2450,489,0
917,-2450,489,0
918,-2450,489,0
919,-2450,489,0
920,-2450,489,0
921,-2450,489,0
922,-2450,489,0
923,-2450,489,0
924,-2450,489,0
925,-2450,489,0
926,-2450,489,0
927,-2450,489,0
928,-2450,489,0
929,-2450,489,0
930,-2450,489,0
931,-2450,489,0
932,-2450,489,0
933,-2450,489,0
934,-2450,489,0
935,-2450,489,0
936,-2450,489,0
937,-2450,489,0
938,-2450,489,0
939,-2450,489,0
940,-2450,489,0
941,-2450,489,0
942,-2450,489,0
943,-2450,489,0
944,-2450,489,0
945,-2450,489,0
946,-2450,489,0
947,-2450,489,0
948,-2450,489,0
949,-2450,489,0
950,-2450,489,0
951,-2450,489,0
952,-2450,489,0
953,-2450,489,0
954,-2450,489,0
955,-2450,489,0
956,-2450,489,0
957,-2450,489,0
958,-2450,489,0
959,-2450,489,0
960,-2450,489,0
961,-2450,489,0
962,-2450,489,0
963,-2450,489,0
964,-2450,489,0
965,-2450,489,0
966,-2450,489,0
967,-2450,489,0
968,-2450,489,0
969,-2450,489,0
970,-2450,489,0
971,-2450,489,0
972,-2450,489,0
973,-2450,489,0
974,-2450,489,0
975,-2450,489,0
976,-2450,489,0
977,-2450,489,0
978,-2450,489,0
979,-2450,489,0
980,-2450,489,0
981,-2450,489,0
982,-2450,489,0
983,-2450,489,0
984,-2450,489,0
985,-2450,489,0
986,-2450,489,0
987,-2450,489,0
988,-2450,489,0
989,-2450,489,0
990,-2450,489,0
991,-2450,489,0
992,-2450,489,0
993,-2450,489,0
994,-2450,489,0
995,-2450,489,0
996,-2450,489,0
997,-2450,489,0
998,-2450,489,0
999,-2450,489,0
