episode,reward,step,sensitive
0,-2680,609,0
1,-2460,609,1
2,-1735,609,4
3,-2740,609,1
4,-2370,609,1
5,-2175,609,3
6,-2205,609,3
7,-2285,609,2
8,-2240,609,3
9,-2310,609,2
10,-1575,609,4
11,-2615,609,1
12,-2555,609,1
13,-1935,609,3
14,-3050,609,0
15,-2220,609,3
16,-2160,609,2
17,-2780,609,1
18,-2475,609,0
19,-2645,609,1
20,-1655,609,3
21,-3050,609,0
22,-2380,609,2
23,-3050,609,0
24,-2100,609,3
25,-1570,609,5
26,-1865,609,3
27,-2720,609,1
28,-2920,609,0
29,-2270,609,3
30,-3005,609,0
31,-3050,609,0
32,-2995,609,0
33,-2380,609,2
34,-2605,609,1
35,-2435,609,1
36,-2475,609,1
37,-1645,609,5
38,-2545,609,1
39,-2255,609,3
40,-2270,609,3
41,-3050,609,0
42,-2735,609,1
43,-2780,609,1
44,-3050,609,0
45,-3050,609,0
46,-2100,609,3
47,-3050,609,0
48,-3050,609,0
49,-2545,609,2
50,-3050,609,0
51,-2655,609,1
52,-1715,609,5
53,-2690,609,1
54,-2105,609,3
55,-1895,609,2
56,-2825,609,1
57,-3050,609,0
58,-3050,609,0
59,-1560,609,5
60,-3050,609,0
61,-2910,609,0
62,-2840,609,0
63,-3050,609,0
64,-2130,609,3
65,-3050,609,0
66,-2875,609,0
67,-3050,609,0
68,-3050,609,0
69,-3050,609,0
70,-2825,609,0
71,-3005,609,0
72,-3050,609,0
73,-3050,609,0
74,-2505,609,2
75,-2380,609,1
76,-2995,609,0
77,-2520,609,1
78,-2985,609,0
79,-2145,609,2
80,-2285,609,3
81,-2465,609,1
82,-2265,609,3
83,-2695,609,1
84,-1850,609,3
85,-1695,609,4
86,-3050,609,0
87,-2585,609,1
88,-2410,609,1
89,-2355,609,1
90,-3050,609,0
91,-2080,609,3
92,-2210,609,2
93,-2355,609,2
94,-2025,609,2
95,-2960,609,0
96,-3025,609,0
97,-2420,609,1
98,-2045,609,4
99,-1680,609,3
100,-2455,609,2
101,-1770,609,5
102,-2255,609,2
103,-2140,609,3
104,-1725,609,4
105,-1680,609,3
106,-2600,609,2
107,-2310,609,3
108,-2365,609,2
109,-2085,609,2
110,-1985,609,2
111,-2240,609,2
112,-2375,609,1
113,-2310,609,2
114,-2165,609,2
115,-1865,609,3
116,-2160,609,3
117,-2310,609,1
118,-2385,609,1
119,-2320,609,2
120,-1875,609,4
121,-2100,609,2
122,-1230,580,6
123,-1620,609,4
124,-2035,609,3
125,-1225,544,6
126,-1905,609,4
127,-2110,609,2
128,-1815,609,4
129,-995,541,6
130,-2200,609,3
131,-1770,609,4
132,-1980,609,2
133,-2275,609,1
134,-2390,609,2
135,-1995,609,3
136,-2345,609,2
137,-2150,609,3
138,-2315,609,2
139,-2460,609,2
140,-1685,609,5
141,-1665,609,5
142,-2295,609,2
143,-2360,609,1
144,-2220,609,2
145,-2205,609,2
146,-2120,609,4
147,-1870,609,3
148,-2420,609,1
149,-2180,609,2
150,-1875,609,3
151,-1925,609,4
152,-1640,609,4
153,-2585,609,1
154,-2470,609,1
155,-1610,609,5
156,-2025,609,3
157,-1485,609,4
158,-1940,609,3
159,-2395,609,2
160,-2100,609,2
161,-2665,609,1
162,-2065,609,3
163,-1650,609,5
164,-1935,609,3
165,-2265,609,2
166,-2160,609,2
167,-1745,609,3
168,-1760,609,4
169,-2300,609,3
170,-2255,609,3
171,-1590,609,5
172,-2170,609,2
173,-2130,609,3
174,-1745,609,3
175,-1855,609,4
176,-1885,609,3
177,-1710,609,4
178,-2210,609,2
179,-1660,609,5
180,-1630,609,5
181,-1515,609,5
182,-2145,609,2
183,-2315,609,2
184,-1665,609,4
185,-2230,609,2
186,-2265,609,3
187,-2225,609,2
188,-1595,609,4
189,-2345,609,2
190,-2145,609,2
191,-1560,609,5
192,-1790,609,4
193,-1485,609,5
194,-1015,500,6
195,-1490,609,5
196,-1680,609,4
197,-1985,609,3
198,-1635,609,4
199,-2275,609,3
200,-1685,609,4
201,-1600,609,5
202,-1680,609,4
203,-1530,609,5
204,-1765,609,3
205,-1685,609,5
206,-1610,609,5
207,-1680,609,4
208,-1455,609,5
209,-1730,609,5
210,-1115,521,6
211,-2105,609,3
212,-1800,609,3
213,-1490,609,5
214,-1175,505,6
215,-1955,609,2
216,-1125,488,6
217,-1500,609,5
218,-1350,580,6
219,-1590,609,5
220,-1780,609,3
221,-1665,609,5
222,-1715,609,4
223,-1730,609,4
224,-1630,609,5
225,-1695,609,5
226,-1230,538,6
227,-1590,609,5
228,-1640,609,4
229,-1600,609,5
230,-1585,609,5
231,-640,382,6
232,-1580,609,5
233,-515,414,6
234,-1665,609,4
235,-1570,609,5
236,-1540,609,5
237,-1270,553,6
238,-1575,609,5
239,-1440,609,5
240,-1580,609,5
241,-1535,609,5
242,-1720,609,3
243,-1505,609,5
244,-515,394,6
245,-670,418,6
246,-1045,470,6
247,-1670,609,5
248,-1695,609,5
249,-1615,609,5
250,-1025,507,6
251,-1760,609,4
252,-1840,609,3
253,-1095,523,6
254,-1685,609,5
255,-1595,609,5
256,-1765,609,4
257,-1765,609,4
258,-1770,609,5
259,-2130,609,3
260,-1695,609,5
261,-1830,609,4
262,-1385,572,6
263,-1745,609,5
264,-1680,609,5
265,-1655,609,5
266,-1750,609,5
267,-620,385,6
268,-1820,609,4
269,-1095,491,6
270,-1765,609,4
271,-1765,609,5
272,-990,468,6
273,-1725,609,5
274,-1795,609,5
275,-1810,609,5
276,-1815,609,5
277,-1905,609,5
278,-2000,609,3
279,-1890,609,5
280,-1845,609,5
281,-1530,537,6
282,-2060,609,3
283,-1915,609,4
284,-1820,609,5
285,-530,348,6
286,-1790,609,5
287,-1785,609,5
288,-1735,609,5
289,-660,404,6
290,-1745,609,5
291,-680,398,6
292,-1910,609,3
293,-1255,522,6
294,-1635,609,5
295,-1700,609,4
296,-1630,609,5
297,-1580,609,5
298,-1645,609,5
299,-1710,609,4
300,-1615,609,5
301,-770,464,6
302,-1655,609,5
303,-835,463,6
304,-1395,586,6
305,-1670,609,4
306,-1580,609,5
307,-1585,609,5
308,-450,373,6
309,-1070,499,6
310,-600,399,6
311,-1590,609,5
312,-1205,567,6
313,-1775,609,4
314,-1560,609,5
315,-1775,609,4
316,-1545,609,5
317,-580,420,6
318,-1590,609,5
319,-1485,609,5
320,-1450,609,5
321,-1345,587,6
322,-1590,609,4
323,-1215,560,6
324,-1510,609,5
325,-1485,609,5
326,-940,481,6
327,-1520,609,5
328,-1475,609,5
329,-195,330,6
330,-425,401,6
331,-1505,609,5
332,-1235,567,6
333,-1510,609,5
334,-1525,609,5
335,-1590,609,4
336,-1565,609,5
337,-1590,609,5
338,-515,399,6
339,-1420,605,6
340,-1515,609,5
341,-1565,609,5
342,-1470,609,5
343,315,149,6
344,85,256,6
345,-1540,609,4
346,-1690,609,5
347,-1630,609,5
348,-500,394,6
349,-1805,609,4
350,-1620,609,5
351,-1240,538,6
352,-1555,609,5
353,-1465,608,6
354,-1570,609,5
355,-1600,609,5
356,-1580,609,5
357,-1545,609,5
358,-1640,609,5
359,-190,333,6
360,-505,386,6
361,-1690,609,4
362,-960,488,6
363,-1655,609,5
364,-1050,504,6
365,-1655,609,5
366,-1630,609,5
367,-1715,609,4
368,-1635,609,5
369,75,257,6
370,-455,398,6
371,-325,356,6
372,-910,467,6
373,-1675,609,5
374,-420,328,6
375,-850,474,6
376,-1270,565,6
377,-1530,609,5
378,-330,342,6
379,-1180,536,6
380,-920,495,6
381,-1490,609,5
382,-570,419,6
383,235,217,6
384,-1060,529,6
385,-550,420,6
386,200,190,6
387,5,288,6
388,-385,356,6
389,360,142,6
390,-850,471,6
391,185,218,6
392,-1555,609,5
393,-145,308,6
394,-240,302,6
395,55,249,6
396,-480,367,6
397,-1205,527,6
398,5,226,6
399,25,256,6
400,-1705,609,5
401,-930,481,6
402,-355,339,6
403,260,182,6
404,-940,466,6
405,-1440,595,6
406,180,205,6
407,-95,289,6
408,-200,322,6
409,180,188,6
410,-55,286,6
411,190,222,6
412,145,212,6
413,-310,360,6
414,-560,390,6
415,-685,437,6
416,35,251,6
417,265,176,6
418,-200,316,6
419,180,190,6
420,-305,338,6
421,-1660,609,5
422,-1140,529,6
423,90,224,6
424,-250,330,6
425,-50,270,6
426,160,205,6
427,215,213,6
428,265,187,6
429,270,184,6
430,50,255,6
431,65,286,6
432,115,249,6
433,-95,299,6
434,-50,275,6
435,330,146,6
436,-25,290,6
437,510,162,6
438,400,165,6
439,135,231,6
440,220,228,6
441,95,214,6
442,465,115,6
443,-205,317,6
444,250,197,6
445,155,233,6
446,300,188,6
447,250,215,6
448,340,171,6
449,430,165,6
450,415,117,6
451,-335,345,6
452,350,176,6
453,215,221,6
454,375,164,6
455,155,209,6
456,400,152,6
457,-415,356,6
458,340,162,6
459,-45,284,6
460,115,197,6
461,535,120,6
462,445,131,6
463,315,178,6
464,195,203,6
465,445,149,6
466,230,165,6
467,550,96,6
468,455,104,6
469,-20,242,6
470,140,198,6
471,395,127,6
472,470,108,6
473,680,68,6
474,365,158,6
475,605,50,6
476,275,175,6
477,240,186,6
478,90,198,6
479,275,135,6
480,485,85,6
481,530,69,6
482,520,68,6
483,325,124,6
484,220,134,6
485,285,135,6
486,495,68,6
487,365,119,6
488,435,98,6
489,660,27,6
490,445,83,6
491,585,63,6
492,470,60,6
493,200,123,6
494,345,92,6
495,105,140,6
496,-1095,412,6
497,165,133,6
498,-470,276,6
499,-450,259,6
500,-580,274,6
501,-410,244,6
502,-1260,414,6
503,-2735,609,2
504,-560,294,6
505,195,127,6
506,-375,236,6
507,-475,258,6
508,535,47,6
509,15,169,6
510,340,90,6
511,335,99,6
512,405,85,6
513,475,54,6
514,420,78,6
515,10,177,6
516,385,87,6
517,485,60,6
518,430,68,6
519,105,131,6
520,595,35,6
521,490,58,6
522,290,103,6
523,240,118,6
524,410,77,6
525,480,62,6
526,305,88,6
527,470,55,6
528,510,49,6
529,490,56,6
530,370,77,6
531,350,87,6
532,-2245,609,5
533,255,103,6
534,-2295,609,5
535,480,53,6
536,115,131,6
537,-330,227,6
538,395,75,6
539,-410,238,6
540,-1400,455,6
541,345,87,6
542,-2320,609,5
543,-245,205,6
544,-2335,609,5
545,410,67,6
546,435,67,6
547,480,61,6
548,210,109,6
549,100,138,6
550,340,91,6
551,340,88,6
552,445,60,6
553,175,125,6
554,-2270,609,5
555,450,66,6
556,495,58,6
557,375,81,6
558,450,66,6
559,265,105,6
560,-165,195,6
561,545,40,6
562,495,50,6
563,185,122,6
564,450,66,6
565,275,105,6
566,430,68,6
567,555,43,6
568,575,39,6
569,525,46,6
570,125,132,6
571,625,24,6
572,410,67,6
573,585,39,6
574,420,78,6
575,485,57,6
576,205,115,6
577,615,30,6
578,480,53,6
579,420,74,6
580,445,63,6
581,260,106,6
582,450,74,6
583,495,59,6
584,595,40,6
585,330,92,6
586,435,77,6
587,310,102,6
588,345,94,6
589,555,60,6
590,510,70,6
591,330,91,6
592,475,70,6
593,-5,196,6
594,590,45,6
595,560,50,6
596,640,38,6
597,450,85,6
598,615,41,6
599,410,103,6
600,220,144,6
601,450,78,6
602,610,67,6
603,455,85,6
604,595,62,6
605,565,54,6
606,565,66,6
607,535,79,6
608,-40,217,6
609,555,64,6
610,260,143,6
611,565,48,6
612,445,92,6
613,525,70,6
614,485,72,6
615,505,78,6
616,485,79,6
617,425,114,6
618,345,102,6
619,490,82,6
620,495,73,6
621,415,84,6
622,420,86,6
623,375,98,6
624,345,96,6
625,435,76,6
626,580,42,6
627,565,55,6
628,475,72,6
629,415,100,6
630,365,102,6
631,315,114,6
632,465,73,6
633,460,79,6
634,380,103,6
635,440,91,6
636,535,60,6
637,470,77,6
638,380,85,6
639,340,95,6
640,485,75,6
641,295,121,6
642,455,83,6
643,480,78,6
644,525,52,6
645,575,43,6
646,575,55,6
647,590,43,6
648,355,97,6
649,520,72,6
650,220,137,6
651,530,62,6
652,390,93,6
653,165,154,6
654,315,109,6
655,255,141,6
656,485,58,6
657,395,81,6
658,510,73,6
659,455,73,6
660,350,107,6
661,655,34,6
662,565,45,6
663,545,77,6
664,555,64,6
665,565,58,6
666,615,51,6
667,610,50,6
668,465,83,6
669,580,58,6
670,565,45,6
671,325,116,6
672,580,58,6
673,540,71,6
674,585,63,6
675,580,45,6
676,520,59,6
677,630,40,6
678,410,99,6
679,640,36,6
680,510,80,6
681,565,53,6
682,620,44,6
683,510,79,6
684,300,112,6
685,560,69,6
686,545,75,6
687,475,68,6
688,605,45,6
689,540,80,6
690,530,89,6
691,420,94,6
692,435,85,6
693,430,81,6
694,545,79,6
695,455,110,6
696,655,35,6
697,315,137,6
698,345,115,6
699,485,89,6
700,525,71,6
701,550,56,6
702,665,24,6
703,520,67,6
704,415,94,6
705,455,75,6
706,460,74,6
707,540,61,6
708,450,79,6
709,565,53,6
710,580,39,6
711,500,62,6
712,215,133,6
713,560,43,6
714,465,74,6
715,555,60,6
716,585,35,6
717,645,32,6
718,565,51,6
719,530,59,6
720,585,44,6
721,585,46,6
722,460,64,6
723,515,56,6
724,505,69,6
725,625,39,6
726,550,43,6
727,605,37,6
728,590,47,6
729,690,28,6
730,480,81,6
731,515,67,6
732,635,28,6
733,510,84,6
734,495,71,6
735,455,77,6
736,445,104,6
737,555,67,6
738,630,57,6
739,625,37,6
740,550,60,6
741,505,84,6
742,575,62,6
743,400,136,6
744,515,63,6
745,530,92,6
746,390,122,6
747,450,113,6
748,475,94,6
749,575,82,6
750,430,110,6
751,420,101,6
752,520,84,6
753,360,139,6
754,660,51,6
755,555,66,6
756,420,101,6
757,535,88,6
758,415,104,6
759,485,92,6
760,625,35,6
761,480,77,6
762,475,108,6
763,555,83,6
764,580,70,6
765,570,69,6
766,590,59,6
767,545,96,6
768,360,104,6
769,540,69,6
770,595,49,6
771,470,73,6
772,450,108,6
773,605,57,6
774,620,48,6
775,540,65,6
776,570,68,6
777,590,57,6
778,375,102,6
779,620,57,6
780,525,62,6
781,520,54,6
782,405,85,6
783,525,62,6
784,485,67,6
785,425,91,6
786,510,63,6
787,485,83,6
788,360,116,6
789,360,92,6
790,480,80,6
791,185,132,6
792,555,51,6
793,520,66,6
794,350,128,6
795,340,103,6
796,420,80,6
797,510,66,6
798,250,119,6
799,455,80,6
800,510,73,6
801,435,79,6
802,510,57,6
803,240,125,6
804,235,120,6
805,245,117,6
806,430,90,6
807,-5,167,6
808,340,94,6
809,565,52,6
810,305,113,6
811,495,63,6
812,545,63,6
813,150,144,6
814,525,75,6
815,505,57,6
816,465,78,6
817,525,49,6
818,435,62,6
819,125,140,6
820,620,39,6
821,310,106,6
822,595,44,6
823,485,64,6
824,580,49,6
825,445,69,6
826,465,78,6
827,520,73,6
828,530,56,6
829,570,45,6
830,440,82,6
831,400,89,6
832,405,78,6
833,645,38,6
834,320,105,6
835,505,55,6
836,405,80,6
837,395,100,6
838,460,79,6
839,505,61,6
840,485,68,6
841,370,99,6
842,270,120,6
843,320,98,6
844,555,55,6
845,475,74,6
846,500,65,6
847,125,152,6
848,460,64,6
849,245,121,6
850,270,113,6
851,375,98,6
852,350,92,6
853,430,70,6
854,570,40,6
855,420,78,6
856,365,93,6
857,400,92,6
858,560,53,6
859,340,112,6
860,335,96,6
861,380,80,6
862,415,91,6
863,125,150,6
864,335,98,6
865,540,57,6
866,620,37,6
867,585,48,6
868,570,52,6
869,230,108,6
870,595,38,6
871,425,84,6
872,570,52,6
873,520,60,6
874,540,57,6
875,515,56,6
876,590,36,6
877,495,57,6
878,500,59,6
879,580,39,6
880,475,62,6
881,560,47,6
882,585,42,6
883,560,47,6
884,155,142,6
885,480,70,6
886,425,69,6
887,340,103,6
888,495,60,6
889,400,86,6
890,545,53,6
891,450,74,6
892,470,69,6
893,390,77,6
894,580,43,6
895,325,91,6
896,530,51,6
897,490,54,6
898,295,112,6
899,380,98,6
900,470,59,6
901,425,73,6
902,410,79,6
903,110,150,6
904,315,104,6
905,260,120,6
906,445,70,6
907,155,143,6
908,370,88,6
909,530,48,6
910,310,113,6
911,555,52,6
912,460,66,6
913,380,90,6
914,475,81,6
915,280,117,6
916,75,157,6
917,550,52,6
918,395,81,6
919,485,68,6
920,295,110,6
921,430,78,6
922,-30,177,6
923,490,65,6
924,385,91,6
925,355,92,6
926,410,79,6
927,445,70,6
928,430,84,6
929,-20,182,6
930,555,50,6
931,225,117,6
932,345,109,6
933,100,150,6
934,530,65,6
935,415,99,6
936,195,147,6
937,510,58,6
938,465,77,6
939,500,59,6
940,520,79,6
941,430,76,6
942,485,57,6
943,595,39,6
944,635,41,6
945,440,88,6
946,410,90,6
947,585,47,6
948,210,149,6
949,460,75,6
950,465,88,6
951,530,64,6
952,435,80,6
953,310,114,6
954,560,42,6
955,555,68,6
956,420,103,6
957,550,54,6
958,330,108,6
959,430,71,6
960,390,98,6
961,385,96,6
962,360,108,6
963,455,73,6
964,385,96,6
965,535,44,6
966,520,63,6
967,-30,190,6
968,330,100,6
969,250,113,6
970,335,110,6
971,360,114,6
972,385,89,6
973,230,130,6
974,565,58,6
975,425,95,6
976,355,95,6
977,620,52,6
978,405,90,6
979,525,66,6
980,515,48,6
981,455,79,6
982,410,77,6
983,505,63,6
984,375,98,6
985,410,82,6
986,435,84,6
987,495,60,6
988,330,102,6
989,475,67,6
990,405,87,6
991,535,50,6
992,240,113,6
993,485,68,6
994,500,49,6
995,490,56,6
996,535,54,6
997,450,77,6
998,525,56,6
999,420,77,6
