episode,reward,step,sensitive
0,-125,169,3
1,-495,169,1
2,-555,169,0
3,-470,169,0
4,90,169,4
5,-660,169,0
6,10,169,4
7,200,169,5
8,-35,169,4
9,145,169,5
10,10,169,4
11,-240,169,2
12,-155,169,3
13,280,169,6
14,60,169,4
15,-450,169,1
16,540,169,8
17,-120,169,2
18,-645,169,0
19,-220,169,2
20,-75,169,3
21,120,169,4
22,-30,169,4
23,210,169,5
24,310,169,6
25,105,169,4
26,-120,169,3
27,-170,169,3
28,-150,169,2
29,55,169,4
30,450,169,8
31,60,169,4
32,-315,169,1
33,115,169,4
34,85,169,4
35,-155,169,2
36,85,169,4
37,385,169,7
38,-255,169,2
39,95,169,4
40,-365,169,1
41,220,169,6
42,-275,169,3
43,225,169,6
44,-60,169,4
45,-145,169,2
46,35,169,3
47,70,169,4
48,5,169,4
49,-440,169,1
50,120,169,5
51,70,169,4
52,-155,169,3
53,-95,169,3
54,50,169,4
55,0,169,3
56,130,169,5
57,-75,169,3
58,145,169,5
59,255,169,6
60,235,169,6
61,115,169,5
62,130,169,5
63,-400,169,1
64,-65,169,3
65,350,169,6
66,30,169,4
67,385,169,7
68,445,169,7
69,285,169,6
70,55,169,4
71,120,169,5
72,345,169,6
73,180,169,5
74,15,169,4
75,155,169,5
76,-15,169,3
77,505,169,8
78,175,169,5
79,490,169,8
80,30,169,5
81,95,169,5
82,310,169,6
83,-300,169,1
84,265,169,6
85,60,169,4
86,-35,169,3
87,55,169,4
88,80,169,4
89,-40,169,3
90,35,169,4
91,-150,169,3
92,-35,169,4
93,90,169,4
94,-160,169,2
95,155,169,5
96,-35,169,3
97,225,169,5
98,195,169,5
99,100,169,5
100,190,169,5
101,230,169,6
102,55,169,4
103,40,169,5
104,140,169,5
105,45,169,4
106,245,169,6
107,275,169,7
108,260,169,6
109,35,169,4
110,335,169,7
111,345,169,7
112,230,169,6
113,235,169,6
114,115,169,5
115,105,169,4
116,110,169,5
117,25,169,4
118,160,169,5
119,100,169,4
120,0,169,4
121,-40,169,3
122,115,169,5
123,180,169,6
124,0,169,4
125,60,169,4
126,405,169,7
127,200,169,6
128,125,169,5
129,375,169,7
130,5,169,4
131,80,169,5
132,165,169,5
133,235,169,6
134,-10,169,4
135,315,169,7
136,345,169,7
137,140,169,5
138,135,169,5
139,125,169,5
140,290,169,6
141,90,169,5
142,-45,169,3
143,25,169,4
144,370,169,7
145,105,169,5
146,305,169,6
147,90,169,5
148,40,169,4
149,355,169,7
150,350,169,7
151,55,169,4
152,230,169,6
153,415,169,7
154,180,169,6
155,155,169,5
156,40,169,4
157,-40,169,3
158,245,169,6
159,25,169,4
160,130,169,5
161,125,169,5
162,285,169,6
163,105,169,5
164,65,169,4
165,245,169,6
166,345,169,7
167,410,169,7
168,15,169,4
169,215,169,6
170,485,169,8
171,105,169,5
172,140,169,5
173,430,169,7
174,230,169,5
175,10,169,3
176,-30,169,3
177,30,169,4
178,120,169,5
179,345,169,7
180,130,169,5
181,215,169,6
182,205,169,6
183,340,169,7
184,135,169,5
185,10,169,4
186,240,169,6
187,475,169,8
188,110,169,4
189,185,169,5
190,-5,169,4
191,340,169,7
192,90,169,5
193,370,169,7
194,145,169,5
195,495,169,8
196,165,169,5
197,370,169,6
198,110,169,5
199,60,169,4
200,290,169,6
201,175,169,6
202,330,169,7
203,210,169,6
204,75,169,4
205,195,169,5
206,150,169,5
207,230,169,6
208,340,169,7
209,240,169,6
210,580,169,9
211,180,169,5
212,70,169,5
213,300,169,7
214,220,169,5
215,410,169,8
216,60,169,4
217,210,169,6
218,80,169,5
219,175,169,5
220,5,169,4
221,170,169,5
222,350,169,7
223,375,169,7
224,300,169,7
225,180,169,6
226,445,169,8
227,180,169,5
228,30,169,4
229,120,169,5
230,150,169,5
231,250,169,6
232,345,169,6
233,150,169,5
234,35,169,4
235,200,169,6
236,190,169,6
237,205,169,6
238,200,169,6
239,260,169,5
240,310,169,7
241,280,169,6
242,65,169,4
243,245,169,6
244,330,169,7
245,-135,169,3
246,480,169,8
247,135,169,5
248,385,169,7
249,245,169,6
250,25,169,4
251,100,169,4
252,120,169,5
253,380,169,7
254,330,169,7
255,140,169,5
256,135,169,5
257,-95,169,3
258,520,169,9
259,330,169,7
260,335,169,7
261,235,169,6
262,75,169,5
263,60,169,4
264,190,169,5
265,95,169,5
266,130,169,5
267,70,169,4
268,205,169,5
269,150,169,5
270,175,169,5
271,40,169,4
272,100,169,5
273,245,169,6
274,185,169,5
275,150,169,6
276,-95,169,3
277,225,169,6
278,145,169,5
279,-15,169,4
280,315,169,7
281,190,169,5
282,235,169,6
283,290,169,6
284,165,169,5
285,80,169,5
286,330,169,6
287,30,169,4
288,85,169,5
289,20,169,4
290,380,169,7
291,145,169,5
292,210,169,6
293,290,169,6
294,295,169,6
295,30,169,4
296,-165,169,2
297,125,169,5
298,190,169,5
299,35,169,4
300,240,169,6
301,365,169,7
302,-35,169,3
303,-75,169,3
304,-75,169,3
305,-310,169,1
306,-100,169,3
307,290,169,7
308,300,169,6
309,340,169,7
310,135,169,5
311,215,169,6
312,120,169,5
313,-15,169,4
314,115,169,5
315,-10,169,4
316,5,169,4
317,5,169,4
318,-40,169,4
319,-35,169,4
320,235,169,6
321,195,169,6
322,150,169,6
323,-5,169,4
324,75,169,4
325,10,169,4
326,145,169,6
327,105,169,5
328,200,169,6
329,-170,169,3
330,-125,169,3
331,150,169,5
332,-200,169,2
333,70,169,5
334,355,169,7
335,145,169,6
336,55,169,5
337,315,169,6
338,220,169,6
339,285,169,7
340,195,169,6
341,-90,169,3
342,195,169,6
343,5,169,4
344,205,169,6
345,75,169,5
346,20,169,4
347,35,169,5
348,5,169,4
349,-50,169,3
350,195,169,6
351,280,169,7
352,10,169,4
353,195,169,6
354,5,169,4
355,320,169,7
356,150,169,6
357,-100,169,4
358,-130,169,3
359,65,169,5
360,325,169,7
361,25,169,5
362,145,169,6
363,35,169,4
364,185,169,6
365,-40,169,4
366,320,169,7
367,140,169,6
368,260,169,7
369,220,169,6
370,60,169,5
371,180,169,6
372,50,169,5
373,-45,169,4
374,-85,169,4
375,-240,169,2
376,60,169,5
377,35,169,5
378,-5,169,4
379,170,169,6
380,310,169,7
381,275,169,7
382,155,169,6
383,-135,169,4
384,350,169,8
385,-60,169,4
386,-30,169,4
387,-55,169,4
388,35,169,5
389,15,169,5
390,165,169,6
391,-210,169,3
392,-210,169,3
393,-95,169,4
394,-85,169,4
395,-100,169,4
396,-185,169,3
397,-90,169,4
398,-300,169,2
399,-340,169,2
400,-345,169,2
401,-275,169,3
402,-405,169,2
403,-470,169,1
404,-425,169,2
405,-535,169,1
406,-610,169,1
407,-715,169,0
408,-620,169,1
409,-715,169,0
410,-600,169,1
411,-725,169,0
412,-725,169,0
413,-735,169,0
414,-760,169,0
415,-760,169,0
416,-760,169,0
417,-760,169,0
418,-760,169,0
419,-785,169,0
420,-785,169,0
421,-785,169,0
422,-785,169,0
423,-785,169,0
424,-785,169,0
425,-785,169,0
426,-785,169,0
427,-785,169,0
428,-785,169,0
429,-785,169,0
430,-785,169,0
431,-785,169,0
432,-785,169,0
433,-785,169,0
434,-785,169,0
435,-785,169,0
436,-785,169,0
437,-785,169,0
438,-785,169,0
439,-785,169,0
440,-785,169,0
441,-785,169,0
442,-785,169,0
443,-785,169,0
444,-785,169,0
445,-785,169,0
446,-785,169,0
447,-785,169,0
448,-785,169,0
449,-785,169,0
450,-785,169,0
451,-785,169,0
452,-785,169,0
453,-785,169,0
454,-785,169,0
455,-785,169,0
456,-785,169,0
457,-785,169,0
458,-785,169,0
459,-785,169,0
460,-785,169,0
461,-785,169,0
462,-785,169,0
463,-785,169,0
464,-785,169,0
465,-785,169,0
466,-785,169,0
467,-785,169,0
468,-785,169,0
469,-785,169,0
470,-785,169,0
471,-785,169,0
472,-785,169,0
473,-785,169,0
474,-785,169,0
475,-785,169,0
476,-785,169,0
477,-785,169,0
478,-785,169,0
479,-785,169,0
480,-785,169,0
481,-785,169,0
482,-785,169,0
483,-785,169,0
484,-785,169,0
485,-785,169,0
486,-785,169,0
487,-785,169,0
488,-785,169,0
489,-785,169,0
490,-785,169,0
491,-785,169,0
492,-785,169,0
493,-785,169,0
494,-785,169,0
495,-785,169,0
496,-785,169,0
497,-785,169,0
498,-785,169,0
499,-785,169,0
500,-785,169,0
501,-785,169,0
502,-785,169,0
503,-785,169,0
504,-785,169,0
505,-785,169,0
506,-785,169,0
507,-785,169,0
508,-785,169,0
509,-785,169,0
510,-785,169,0
511,-785,169,0
512,-785,169,0
513,-785,169,0
514,-785,169,0
515,-785,169,0
516,-795,169,0
517,-785,169,0
518,-785,169,0
519,-785,169,0
520,-785,169,0
521,-785,169,0
522,-785,169,0
523,-785,169,0
524,-785,169,0
525,-785,169,0
526,-785,169,0
527,-785,169,0
528,-785,169,0
529,-785,169,0
530,-785,169,0
531,-785,169,0
532,-785,169,0
533,-785,169,0
534,-785,169,0
535,-785,169,0
536,-785,169,0
537,-785,169,0
538,-785,169,0
539,-785,169,0
540,-785,169,0
541,-785,169,0
542,-785,169,0
543,-785,169,0
544,-785,169,0
545,-785,169,0
546,-785,169,0
547,-785,169,0
548,-785,169,0
549,-785,169,0
550,-785,169,0
551,-785,169,0
552,-785,169,0
553,-785,169,0
554,-795,169,0
555,-785,169,0
556,-785,169,0
557,-785,169,0
558,-785,169,0
559,-785,169,0
560,-785,169,0
561,-785,169,0
562,-785,169,0
563,-785,169,0
564,-785,169,0
565,-785,169,0
566,-785,169,0
567,-785,169,0
568,-785,169,0
569,-785,169,0
570,-785,169,0
571,-785,169,0
572,-785,169,0
573,-785,169,0
574,-785,169,0
575,-785,169,0
576,-785,169,0
577,-785,169,0
578,-785,169,0
579,-785,169,0
580,-785,169,0
581,-785,169,0
582,-785,169,0
583,-785,169,0
584,-785,169,0
585,-785,169,0
586,-785,169,0
587,-785,169,0
588,-785,169,0
589,-785,169,0
590,-785,169,0
591,-785,169,0
592,-785,169,0
593,-785,169,0
594,-785,169,0
595,-785,169,0
596,-785,169,0
597,-785,169,0
598,-785,169,0
599,-785,169,0
600,-785,169,0
601,-785,169,0
602,-785,169,0
603,-785,169,0
604,-785,169,0
605,-785,169,0
606,-785,169,0
607,-785,169,0
608,-785,169,0
609,-785,169,0
610,-785,169,0
611,-785,169,0
612,-785,169,0
613,-785,169,0
614,-785,169,0
615,-785,169,0
616,-785,169,0
617,-785,169,0
618,-785,169,0
619,-785,169,0
620,-785,169,0
621,-785,169,0
622,-785,169,0
623,-785,169,0
624,-785,169,0
625,-785,169,0
626,-785,169,0
627,-785,169,0
628,-785,169,0
629,-785,169,0
630,-785,169,0
631,-785,169,0
632,-785,169,0
633,-785,169,0
634,-785,169,0
635,-785,169,0
636,-785,169,0
637,-785,169,0
638,-785,169,0
639,-785,169,0
640,-785,169,0
641,-785,169,0
642,-785,169,0
643,-785,169,0
644,-785,169,0
645,-785,169,0
646,-785,169,0
647,-785,169,0
648,-785,169,0
649,-785,169,0
650,-785,169,0
651,-785,169,0
652,-785,169,0
653,-785,169,0
654,-785,169,0
655,-785,169,0
656,-785,169,0
657,-785,169,0
658,-785,169,0
659,-785,169,0
660,-785,169,0
661,-785,169,0
662,-785,169,0
663,-785,169,0
664,-785,169,0
665,-785,169,0
666,-785,169,0
667,-785,169,0
668,-785,169,0
669,-785,169,0
670,-785,169,0
671,-785,169,0
672,-785,169,0
673,-795,169,0
674,-785,169,0
675,-785,169,0
676,-785,169,0
677,-785,169,0
678,-785,169,0
679,-785,169,0
680,-785,169,0
681,-785,169,0
682,-785,169,0
683,-785,169,0
684,-785,169,0
685,-785,169,0
686,-785,169,0
687,-785,169,0
688,-785,169,0
689,-785,169,0
690,-785,169,0
691,-785,169,0
692,-785,169,0
693,-785,169,0
694,-785,169,0
695,-785,169,0
696,-785,169,0
697,-785,169,0
698,-785,169,0
699,-785,169,0
700,-785,169,0
701,-785,169,0
702,-785,169,0
703,-785,169,0
704,-785,169,0
705,-785,169,0
706,-785,169,0
707,-785,169,0
708,-785,169,0
709,-785,169,0
710,-785,169,0
711,-785,169,0
712,-785,169,0
713,-785,169,0
714,-785,169,0
715,-785,169,0
716,-785,169,0
717,-785,169,0
718,-785,169,0
719,-785,169,0
720,-785,169,0
721,-785,169,0
722,-785,169,0
723,-785,169,0
724,-785,169,0
725,-785,169,0
726,-785,169,0
727,-785,169,0
728,-785,169,0
729,-795,169,0
730,-785,169,0
731,-785,169,0
732,-785,169,0
733,-785,169,0
734,-785,169,0
735,-785,169,0
736,-785,169,0
737,-785,169,0
738,-785,169,0
739,-785,169,0
740,-785,169,0
741,-785,169,0
742,-785,169,0
743,-785,169,0
744,-785,169,0
745,-785,169,0
746,-785,169,0
747,-785,169,0
748,-785,169,0
749,-785,169,0
750,-785,169,0
751,-785,169,0
752,-785,169,0
753,-785,169,0
754,-785,169,0
755,-785,169,0
756,-785,169,0
757,-785,169,0
758,-785,169,0
759,-785,169,0
760,-785,169,0
761,-785,169,0
762,-785,169,0
763,-785,169,0
764,-785,169,0
765,-785,169,0
766,-785,169,0
767,-785,169,0
768,-785,169,0
769,-785,169,0
770,-785,169,0
771,-785,169,0
772,-785,169,0
773,-785,169,0
774,-785,169,0
775,-785,169,0
776,-785,169,0
777,-785,169,0
778,-785,169,0
779,-785,169,0
780,-785,169,0
781,-785,169,0
782,-785,169,0
783,-785,169,0
784,-785,169,0
785,-785,169,0
786,-785,169,0
787,-785,169,0
788,-785,169,0
789,-785,169,0
790,-785,169,0
791,-785,169,0
792,-785,169,0
793,-785,169,0
794,-785,169,0
795,-785,169,0
796,-785,169,0
797,-785,169,0
798,-785,169,0
799,-785,169,0
800,-785,169,0
801,-785,169,0
802,-785,169,0
803,-785,169,0
804,-785,169,0
805,-785,169,0
806,-785,169,0
807,-785,169,0
808,-785,169,0
809,-785,169,0
810,-785,169,0
811,-785,169,0
812,-785,169,0
813,-785,169,0
814,-785,169,0
815,-785,169,0
816,-785,169,0
817,-785,169,0
818,-785,169,0
819,-785,169,0
820,-785,169,0
821,-785,169,0
822,-785,169,0
823,-785,169,0
824,-785,169,0
825,-785,169,0
826,-785,169,0
827,-785,169,0
828,-785,169,0
829,-785,169,0
830,-785,169,0
831,-785,169,0
832,-785,169,0
833,-785,169,0
834,-785,169,0
835,-785,169,0
836,-785,169,0
837,-785,169,0
838,-785,169,0
839,-785,169,0
840,-785,169,0
841,-785,169,0
842,-785,169,0
843,-785,169,0
844,-785,169,0
845,-785,169,0
846,-785,169,0
847,-785,169,0
848,-785,169,0
849,-785,169,0
850,-785,169,0
851,-785,169,0
852,-785,169,0
853,-785,169,0
854,-785,169,0
855,-785,169,0
856,-785,169,0
857,-785,169,0
858,-785,169,0
859,-785,169,0
860,-785,169,0
861,-785,169,0
862,-785,169,0
863,-785,169,0
864,-785,169,0
865,-785,169,0
866,-785,169,0
867,-785,169,0
868,-785,169,0
869,-785,169,0
870,-785,169,0
871,-785,169,0
872,-785,169,0
873,-785,169,0
874,-785,169,0
875,-785,169,0
876,-785,169,0
877,-785,169,0
878,-785,169,0
879,-785,169,0
880,-785,169,0
881,-785,169,0
882,-785,169,0
883,-785,169,0
884,-785,169,0
885,-785,169,0
886,-785,169,0
887,-785,169,0
888,-785,169,0
889,-785,169,0
890,-785,169,0
891,-785,169,0
892,-785,169,0
893,-785,169,0
894,-785,169,0
895,-785,169,0
896,-785,169,0
897,-785,169,0
898,-785,169,0
899,-785,169,0
900,-785,169,0
901,-785,169,0
902,-785,169,0
903,-785,169,0
904,-785,169,0
905,-785,169,0
906,-785,169,0
907,-785,169,0
908,-785,169,0
909,-785,169,0
910,-785,169,0
911,-785,169,0
912,-785,169,0
913,-785,169,0
914,-785,169,0
915,-785,169,0
916,-785,169,0
917,-785,169,0
918,-785,169,0
919,-785,169,0
920,-785,169,0
921,-785,169,0
922,-785,169,0
923,-785,169,0
924,-785,169,0
925,-785,169,0
926,-785,169,0
927,-785,169,0
928,-785,169,0
929,-785,169,0
930,-785,169,0
931,-785,169,0
932,-785,169,0
933,-785,169,0
934,-785,169,0
935,-785,169,0
936,-785,169,0
937,-785,169,0
938,-785,169,0
939,-785,169,0
940,-785,169,0
941,-785,169,0
942,-785,169,0
943,-785,169,0
944,-785,169,0
945,-785,169,0
946,-785,169,0
947,-785,169,0
948,-785,169,0
949,-785,169,0
950,-785,169,0
951,-785,169,0
952,-785,169,0
953,-785,169,0
954,-785,169,0
955,-785,169,0
956,-785,169,0
957,-785,169,0
958,-785,169,0
959,-785,169,0
960,-785,169,0
961,-785,169,0
962,-785,169,0
963,-785,169,0
964,-785,169,0
965,-785,169,0
966,-785,169,0
967,-785,169,0
968,-785,169,0
969,-785,169,0
970,-785,169,0
971,-785,169,0
972,-785,169,0
973,-785,169,0
974,-785,169,0
975,-785,169,0
976,-785,169,0
977,-785,169,0
978,-785,169,0
979,-785,169,0
980,-785,169,0
981,-785,169,0
982,-785,169,0
983,-785,169,0
984,-785,169,0
985,-785,169,0
986,-785,169,0
987,-785,169,0
988,-785,169,0
989,-785,169,0
990,-785,169,0
991,-785,169,0
992,-785,169,0
993,-785,169,0
994,-785,169,0
995,-785,169,0
996,-785,169,0
997,-785,169,0
998,-785,169,0
999,-785,169,0
