episode,reward,step,sensitive
0,165,609,5
1,855,455,6
2,45,609,5
3,-2330,609,2
4,1025,487,6
5,545,602,6
6,320,609,5
7,120,597,6
8,-1110,609,4
9,530,544,6
10,-10,609,5
11,70,609,5
12,665,560,6
13,1285,352,6
14,1225,334,6
15,260,609,5
16,975,461,6
17,1090,419,6
18,915,476,6
19,225,609,5
20,495,548,6
21,1030,426,6
22,240,596,6
23,225,609,5
24,80,609,5
25,-180,609,4
26,725,564,6
27,-5,609,3
28,135,609,5
29,100,609,4
30,-115,609,4
31,200,609,5
32,-200,609,4
33,-145,609,4
34,-450,609,3
35,-60,609,5
36,-265,609,4
37,-400,609,3
38,-455,609,4
39,-465,609,4
40,-515,609,3
41,-605,609,4
42,-430,609,4
43,-610,609,4
44,-650,609,4
45,-900,609,3
46,-1050,609,2
47,-730,609,4
48,-695,609,4
49,-765,609,3
50,-860,609,4
51,-1020,609,2
52,-1280,609,2
53,-830,609,4
54,-1150,609,4
55,-1010,609,5
56,-1075,609,4
57,-1020,609,3
58,-1055,609,3
59,-740,609,5
60,-990,609,4
61,-1210,609,4
62,-995,609,5
63,-940,609,5
64,-955,609,5
65,-1165,609,4
66,-980,609,4
67,-920,609,5
68,-1130,609,4
69,-1115,609,4
70,-1450,609,2
71,-1455,609,2
72,-1440,609,2
73,-1810,609,1
74,-1825,609,0
75,-1820,609,0
76,-1695,609,1
77,-1800,609,1
78,-1805,609,1
79,-1965,609,0
80,-1975,609,0
81,-1780,609,1
82,-1745,609,1
83,-1890,609,0
84,-1780,609,0
85,-1630,609,1
86,-1845,609,0
87,-1780,609,0
88,-1735,609,0
89,-1845,609,0
90,-1700,609,1
91,-1895,609,0
92,-2040,609,0
93,-2005,609,0
94,-2040,609,0
95,-1845,609,0
96,-1775,609,0
97,-1770,609,0
98,-1630,609,1
99,-1630,609,0
100,-1825,609,0
101,-1815,609,0
102,-1870,609,0
103,-1835,609,0
104,-1855,609,0
105,-1805,609,0
106,-1855,609,0
107,-1870,609,0
108,-1815,609,0
109,-1845,609,0
110,-1845,609,0
111,-1870,609,0
112,-1920,609,0
113,-1720,609,1
114,-1960,609,0
115,-1835,609,0
116,-1875,609,0
117,-1865,609,0
118,-1760,609,1
119,-1810,609,0
120,-1845,609,0
121,-1880,609,0
122,-1685,609,0
123,-1785,609,0
124,-1735,609,0
125,-1745,609,0
126,-1760,609,0
127,-1755,609,0
128,-1825,609,0
129,-1775,609,0
130,-1815,609,0
131,-1765,609,0
132,-1825,609,0
133,-1790,609,0
134,-1800,609,0
135,-1845,609,0
136,-1815,609,0
137,-1715,609,1
138,-1765,609,0
139,-1815,609,0
140,-1740,609,0
141,-1720,609,0
142,-1845,609,0
143,-1920,609,0
144,-1895,609,0
145,-1885,609,0
146,-1875,609,0
147,-1895,609,0
148,-1820,609,1
149,-1965,609,0
150,-1940,609,0
151,-1940,609,0
152,-1875,609,0
153,-1940,609,0
154,-1930,609,0
155,-1970,609,0
156,-1940,609,0
157,-1860,609,0
158,-1865,609,0
159,-1840,609,0
160,-1895,609,0
161,-1910,609,0
162,-1930,609,0
163,-1890,609,0
164,-1865,609,0
165,-1950,609,0
166,-1940,609,0
167,-1905,609,0
168,-1890,609,0
169,-1940,609,0
170,-2030,609,0
171,-2035,609,0
172,-1915,609,0
173,-1950,609,0
174,-1905,609,0
175,-1915,609,0
176,-1820,609,0
177,-1860,609,0
178,-1930,609,0
179,-1900,609,0
180,-1890,609,0
181,-1880,609,0
182,-1910,609,0
183,-1840,609,0
184,-1930,609,0
185,-1885,609,0
186,-1930,609,0
187,-1900,609,0
188,-1900,609,0
189,-1940,609,0
190,-1910,609,0
191,-1910,609,0
192,-1920,609,0
193,-1940,609,0
194,-1890,609,0
195,-1895,609,0
196,-1960,609,0
197,-1900,609,0
198,-1910,609,0
199,-1860,609,0
200,-1800,609,0
201,-1930,609,0
202,-1975,609,0
203,-1945,609,0
204,-1930,609,0
205,-1900,609,0
206,-1945,609,0
207,-1905,609,0
208,-1885,609,0
209,-1815,609,1
210,-1910,609,0
211,-1860,609,0
212,-1935,609,0
213,-1930,609,0
214,-1915,609,0
215,-1850,609,0
216,-1890,609,0
217,-1945,609,0
218,-1875,609,0
219,-1950,609,0
220,-1925,609,0
221,-1900,609,0
222,-1905,609,0
223,-1940,609,0
224,-1930,609,0
225,-1880,609,0
226,-1860,609,0
227,-1910,609,0
228,-1920,609,0
229,-1900,609,0
230,-1930,609,0
231,-1910,609,0
232,-1930,609,0
233,-1860,609,0
234,-1860,609,0
235,-1835,609,0
236,-1830,609,0
237,-2790,609,0
238,-2825,609,0
239,-2825,609,0
240,-2850,609,0
241,-2825,609,0
242,-2850,609,0
243,-2850,609,0
244,-2850,609,0
245,-2850,609,0
246,-2895,609,0
247,-2895,609,0
248,-2895,609,0
249,-2895,609,0
250,-2895,609,0
251,-2895,609,0
252,-2895,609,0
253,-2895,609,0
254,-2885,609,0
255,-2895,609,0
256,-2895,609,0
257,-2895,609,0
258,-2895,609,0
259,-2895,609,0
260,-2885,609,0
261,-2895,609,0
262,-2895,609,0
263,-2895,609,0
264,-2895,609,0
265,-2895,609,0
266,-2895,609,0
267,-2895,609,0
268,-2895,609,0
269,-2895,609,0
270,-2895,609,0
271,-2895,609,0
272,-2895,609,0
273,-2895,609,0
274,-2895,609,0
275,-2885,609,0
276,-2895,609,0
277,-2895,609,0
278,-2895,609,0
279,-2895,609,0
280,-2895,609,0
281,-2885,609,0
282,-2895,609,0
283,-2895,609,0
284,-2895,609,0
285,-2885,609,0
286,-2895,609,0
287,-2895,609,0
288,-2895,609,0
289,-2895,609,0
290,-2895,609,0
291,-2895,609,0
292,-2895,609,0
293,-2885,609,0
294,-2895,609,0
295,-2895,609,0
296,-2895,609,0
297,-2895,609,0
298,-2895,609,0
299,-2895,609,0
300,-2895,609,0
301,-2895,609,0
302,-2885,609,0
303,-2895,609,0
304,-2895,609,0
305,-2895,609,0
306,-2895,609,0
307,-2895,609,0
308,-2885,609,0
309,-2895,609,0
310,-2895,609,0
311,-2895,609,0
312,-2895,609,0
313,-2895,609,0
314,-2895,609,0
315,-2895,609,0
316,-2895,609,0
317,-2895,609,0
318,-2895,609,0
319,-2895,609,0
320,-2885,609,0
321,-2895,609,0
322,-2895,609,0
323,-2895,609,0
324,-2895,609,0
325,-2895,609,0
326,-2895,609,0
327,-2895,609,0
328,-2895,609,0
329,-2895,609,0
330,-2895,609,0
331,-2895,609,0
332,-2895,609,0
333,-2895,609,0
334,-2895,609,0
335,-2895,609,0
336,-2895,609,0
337,-2895,609,0
338,-2895,609,0
339,-2895,609,0
340,-2895,609,0
341,-2895,609,0
342,-2895,609,0
343,-2895,609,0
344,-2895,609,0
345,-2895,609,0
346,-2895,609,0
347,-2895,609,0
348,-2885,609,0
349,-2895,609,0
350,-2895,609,0
351,-2895,609,0
352,-2895,609,0
353,-2895,609,0
354,-2895,609,0
355,-2895,609,0
356,-2895,609,0
357,-2895,609,0
358,-2895,609,0
359,-2895,609,0
360,-2895,609,0
361,-2895,609,0
362,-2895,609,0
363,-2895,609,0
364,-2895,609,0
365,-2895,609,0
366,-2895,609,0
367,-2895,609,0
368,-2895,609,0
369,-2895,609,0
370,-2895,609,0
371,-2895,609,0
372,-2895,609,0
373,-2895,609,0
374,-2895,609,0
375,-2895,609,0
376,-2895,609,0
377,-2895,609,0
378,-2895,609,0
379,-2895,609,0
380,-2895,609,0
381,-2895,609,0
382,-2895,609,0
383,-2895,609,0
384,-2895,609,0
385,-2895,609,0
386,-2895,609,0
387,-2895,609,0
388,-2895,609,0
389,-2895,609,0
390,-2895,609,0
391,-2895,609,0
392,-2895,609,0
393,-2885,609,0
394,-2895,609,0
395,-2895,609,0
396,-2895,609,0
397,-2895,609,0
398,-2895,609,0
399,-2895,609,0
400,-2895,609,0
401,-2895,609,0
402,-2895,609,0
403,-2895,609,0
404,-2895,609,0
405,-2895,609,0
406,-2895,609,0
407,-2895,609,0
408,-2895,609,0
409,-2895,609,0
410,-2895,609,0
411,-2895,609,0
412,-2895,609,0
413,-2895,609,0
414,-2895,609,0
415,-2885,609,0
416,-2895,609,0
417,-2895,609,0
418,-2895,609,0
419,-2895,609,0
420,-2895,609,0
421,-2895,609,0
422,-2895,609,0
423,-2895,609,0
424,-2895,609,0
425,-2895,609,0
426,-2895,609,0
427,-2895,609,0
428,-2895,609,0
429,-2895,609,0
430,-2895,609,0
431,-2895,609,0
432,-2895,609,0
433,-2895,609,0
434,-2895,609,0
435,-2895,609,0
436,-2885,609,0
437,-2895,609,0
438,-2895,609,0
439,-2895,609,0
440,-2895,609,0
441,-2895,609,0
442,-2895,609,0
443,-2895,609,0
444,-2885,609,0
445,-2895,609,0
446,-2885,609,0
447,-2895,609,0
448,-2895,609,0
449,-2895,609,0
450,-2885,609,0
451,-2895,609,0
452,-2895,609,0
453,-2895,609,0
454,-2895,609,0
455,-2895,609,0
456,-2895,609,0
457,-2895,609,0
458,-2895,609,0
459,-2895,609,0
460,-2895,609,0
461,-2895,609,0
462,-2895,609,0
463,-2895,609,0
464,-2895,609,0
465,-2895,609,0
466,-2885,609,0
467,-2895,609,0
468,-2895,609,0
469,-2885,609,0
470,-2895,609,0
471,-2895,609,0
472,-2895,609,0
473,-2895,609,0
474,-2895,609,0
475,-2885,609,0
476,-2895,609,0
477,-2895,609,0
478,-2895,609,0
479,-2895,609,0
480,-2895,609,0
481,-2895,609,0
482,-2895,609,0
483,-2895,609,0
484,-2895,609,0
485,-2895,609,0
486,-2895,609,0
487,-2895,609,0
488,-2895,609,0
489,-2895,609,0
490,-2895,609,0
491,-2895,609,0
492,-2895,609,0
493,-2895,609,0
494,-2895,609,0
495,-2895,609,0
496,-2895,609,0
497,-2895,609,0
498,-2895,609,0
499,-2895,609,0
