episode,reward,step,sensitive
0,395,49,2
1,395,50,2
2,415,48,2
3,360,58,2
4,140,106,2
5,350,34,2
6,325,47,2
7,385,36,2
8,290,69,2
9,315,63,2
10,310,53,2
11,325,55,2
12,335,42,2
13,50,128,2
14,250,80,2
15,230,88,2
16,220,83,2
17,305,69,2
18,390,54,2
19,310,65,2
20,370,55,2
21,215,77,2
22,155,99,2
23,390,46,2
24,330,67,2
25,365,57,2
26,395,47,2
27,365,22,2
28,370,31,2
29,415,32,2
30,365,54,2
31,355,50,2
32,380,26,2
33,410,32,2
34,160,100,2
35,400,28,2
36,360,43,2
37,405,35,2
38,380,34,2
39,390,44,2
40,345,20,2
41,400,28,2
42,390,35,2
43,420,45,2
44,400,38,2
45,355,23,2
46,410,20,2
47,420,25,2
48,410,33,2
49,355,16,2
50,375,30,2
51,380,25,2
52,355,32,2
53,365,23,2
54,340,45,2
55,350,18,2
56,350,18,2
57,335,17,2
58,395,24,2
59,380,23,2
60,380,35,2
61,360,29,2
62,370,17,2
63,350,22,2
64,365,27,2
65,405,26,2
66,385,35,2
67,400,31,2
68,375,18,2
69,360,22,2
70,335,32,2
71,350,20,2
72,390,21,2
73,440,25,2
74,380,24,2
75,355,40,2
76,405,35,2
77,380,25,2
78,365,36,2
79,330,33,2
80,340,30,2
81,360,22,2
82,385,45,2
83,305,58,2
84,365,16,2
85,405,19,2
86,355,48,2
87,360,34,2
88,370,39,2
89,365,29,2
90,310,53,2
91,325,47,2
92,345,25,2
93,390,32,2
94,335,31,2
95,365,24,2
96,370,46,2
97,335,45,2
98,390,33,2
99,335,42,2
100,375,37,2
101,340,61,2
102,365,23,2
103,365,29,2
104,370,46,2
105,350,35,2
106,360,44,2
107,220,70,2
108,375,33,2
109,380,24,2
110,400,33,2
111,310,47,2
112,325,59,2
113,380,26,2
114,380,32,2
115,345,48,2
116,235,79,2
117,370,30,2
118,330,44,2
119,345,31,2
120,350,46,2
121,175,91,2
122,350,50,2
123,385,27,2
124,350,30,2
125,370,30,2
126,345,17,2
127,350,31,2
128,345,26,2
129,360,21,2
130,390,22,2
131,360,22,2
132,370,30,2
133,355,22,2
134,360,39,2
135,350,49,2
136,385,35,2
137,350,43,2
138,335,34,2
139,380,36,2
140,340,25,2
141,385,41,2
142,375,35,2
143,310,30,2
144,335,37,2
145,290,59,2
146,340,45,2
147,340,50,2
148,355,31,2
149,280,64,2
150,335,50,2
151,315,38,2
152,340,25,2
153,345,52,2
154,395,40,2
155,305,40,2
156,345,45,2
157,360,33,2
158,300,47,2
159,355,35,2
160,335,45,2
161,350,29,2
162,295,46,2
163,360,28,2
164,350,29,2
165,345,25,2
166,380,35,2
167,385,41,2
168,340,39,2
169,425,33,2
170,260,61,2
171,360,15,2
172,325,48,2
173,355,20,2
174,300,56,2
175,355,43,2
176,280,63,2
177,365,25,2
178,375,24,2
179,370,25,2
180,325,26,2
181,365,28,2
182,355,27,2
183,340,31,2
184,360,32,2
185,355,26,2
186,350,28,2
187,405,26,2
188,365,28,2
189,280,45,2
190,405,29,2
191,385,36,2
192,385,28,2
193,330,24,2
194,360,17,2
195,355,17,2
196,420,32,2
197,390,27,2
198,395,25,2
199,360,21,2
200,380,23,2
201,380,29,2
202,380,30,2
203,370,31,2
204,340,26,2
205,360,32,2
206,390,42,2
207,385,27,2
208,340,42,2
209,385,25,2
210,325,14,2
211,360,40,2
212,380,33,2
213,340,35,2
214,380,32,2
215,365,30,2
216,350,41,2
217,345,46,2
218,365,39,2
219,290,56,2
220,315,30,2
221,330,14,2
222,395,37,2
223,315,46,2
224,380,42,2
225,385,25,2
226,320,43,2
227,360,36,2
228,320,39,2
229,400,25,2
230,315,39,2
231,300,49,2
232,345,32,2
233,370,30,2
234,320,42,2
235,365,24,2
236,350,29,2
237,350,43,2
238,360,39,2
239,340,14,2
240,355,37,2
241,410,27,2
242,340,37,2
243,310,20,2
244,365,22,2
245,350,39,2
246,370,27,2
247,365,35,2
248,330,29,2
249,365,35,2
250,375,23,2
251,330,37,2
252,305,43,2
253,335,32,2
254,325,38,2
255,365,28,2
256,355,23,2
257,340,34,2
258,365,33,2
259,350,45,2
260,290,37,2
261,385,24,2
262,355,31,2
263,365,38,2
264,310,26,2
265,330,25,2
266,310,52,2
267,365,28,2
268,325,40,2
269,335,32,2
270,345,31,2
271,350,33,2
272,325,34,2
273,345,41,2
274,305,48,2
275,350,40,2
276,300,52,2
277,285,51,2
278,345,21,2
279,320,44,2
280,355,26,2
281,330,48,2
282,335,36,2
283,330,36,2
284,380,22,2
285,355,25,2
286,350,37,2
287,360,23,2
288,315,23,2
289,370,31,2
290,350,15,2
291,360,26,2
292,340,34,2
293,370,21,2
294,315,27,2
295,325,34,2
296,315,41,2
297,310,31,2
298,330,34,2
299,320,44,2
300,365,30,2
301,330,33,2
302,295,38,2
303,330,34,2
304,345,23,2
305,315,18,2
306,255,55,2
307,340,21,2
308,270,50,2
309,310,20,2
310,340,24,2
311,330,37,2
312,325,26,2
313,305,25,2
314,370,22,2
315,355,30,2
316,375,34,2
317,350,35,2
318,320,28,2
319,365,38,2
320,350,23,2
321,340,30,2
322,365,26,2
323,320,36,2
324,260,32,2
325,325,10,2
326,335,45,2
327,335,26,2
328,325,38,2
329,365,28,2
330,325,27,2
331,300,27,2
332,310,33,2
333,320,24,2
334,325,14,2
335,315,23,2
336,305,33,2
337,345,18,2
338,350,26,2
339,330,16,2
340,325,35,2
341,335,36,2
342,310,25,2
343,335,21,2
344,295,38,2
345,310,28,2
346,285,38,2
347,330,30,2
348,325,22,2
349,340,26,2
350,315,24,2
351,300,23,2
352,320,20,2
353,295,33,2
354,360,27,2
355,265,35,2
356,245,49,2
357,315,37,2
358,335,27,2
359,350,21,2
360,345,29,2
361,290,44,2
362,340,25,2
363,300,39,2
364,265,43,2
365,320,22,2
366,240,59,2
367,295,43,2
368,290,47,2
369,350,30,2
370,275,43,2
371,350,23,2
372,175,70,2
373,250,50,2
374,215,54,2
375,310,39,2
376,345,24,2
377,325,23,2
378,285,28,2
379,350,25,2
380,300,35,2
381,325,35,2
382,330,35,2
383,330,28,2
384,250,52,2
385,355,32,2
386,305,35,2
387,335,25,2
388,315,21,2
389,340,29,2
390,315,45,2
391,355,24,2
392,340,31,2
393,330,33,2
394,305,30,2
395,230,62,2
396,330,18,2
397,340,20,2
398,340,15,2
399,280,51,2
400,335,32,2
401,330,19,2
402,260,47,2
403,335,18,2
404,335,12,2
405,345,16,2
406,315,29,2
407,335,21,2
408,345,17,2
409,305,29,2
410,325,34,2
411,320,31,2
412,350,20,2
413,345,17,2
414,280,39,2
415,305,22,2
416,335,31,2
417,315,15,2
418,310,15,2
419,290,23,2
420,370,22,2
421,325,27,2
422,335,17,2
423,310,20,2
424,290,40,2
425,285,40,2
426,300,26,2
427,305,29,2
428,325,13,2
429,325,13,2
430,305,31,2
431,320,16,2
432,350,26,2
433,320,14,2
434,325,25,2
435,330,18,2
436,310,19,2
437,315,14,2
438,325,20,2
439,295,39,2
440,320,15,2
441,320,14,2
442,280,20,2
443,305,16,2
444,330,20,2
445,320,18,2
446,335,14,2
447,290,22,2
448,310,17,2
449,320,21,2
450,335,17,2
451,345,13,2
452,320,19,2
453,285,42,2
454,350,19,2
455,320,18,2
456,335,13,2
457,295,33,2
458,315,26,2
459,285,24,2
460,340,28,2
461,330,21,2
462,295,21,2
463,300,33,2
464,355,26,2
465,305,38,2
466,295,46,2
467,315,24,2
468,255,46,2
469,290,25,2
470,325,38,2
471,300,34,2
472,275,23,2
473,250,35,2
474,325,16,2
475,265,45,2
476,310,30,2
477,320,29,2
478,305,23,2
479,310,40,2
480,300,30,2
481,325,11,2
482,340,29,2
483,350,24,2
484,320,24,2
485,335,31,2
486,315,31,2
487,325,21,2
488,320,18,2
489,335,22,2
490,345,16,2
491,325,18,2
492,295,14,2
493,200,54,2
494,345,22,2
495,340,17,2
496,305,28,2
497,315,16,2
498,270,40,2
499,300,23,2
500,310,16,2
501,340,20,2
502,290,41,2
503,295,27,2
504,340,18,2
505,310,11,2
506,315,16,2
507,330,16,2
508,305,31,2
509,330,15,2
510,305,20,2
511,340,22,2
512,310,16,2
513,255,33,2
514,300,11,2
515,335,14,2
516,325,16,2
517,365,21,2
518,300,27,2
519,300,13,2
520,340,14,2
521,310,14,2
522,305,26,2
523,340,19,2
524,325,11,2
525,340,19,2
526,340,17,2
527,300,17,2
528,295,15,2
529,315,10,2
530,300,11,2
531,315,22,2
532,305,15,2
533,325,15,2
534,335,16,2
535,320,17,2
536,275,33,2
537,330,21,2
538,310,14,2
539,335,12,2
540,235,29,2
541,305,15,2
542,330,17,2
543,345,23,2
544,330,24,2
545,305,12,2
546,305,23,2
547,310,11,2
548,315,21,2
549,325,19,2
550,330,15,2
551,315,23,2
552,305,9,2
553,320,32,2
554,295,29,2
555,325,17,2
556,305,33,2
557,305,19,2
558,315,18,2
559,280,17,2
560,260,30,2
561,310,22,2
562,265,24,2
563,325,11,2
564,245,29,2
565,295,26,2
566,305,24,2
567,315,12,2
568,300,24,2
569,325,19,2
570,305,18,2
571,315,27,2
572,310,16,2
573,325,13,2
574,315,27,2
575,320,12,2
576,300,25,2
577,305,10,2
578,325,9,2
579,350,17,2
580,310,11,2
581,300,26,2
582,320,10,2
583,300,21,2
584,305,17,2
585,240,38,2
586,335,12,2
587,315,13,2
588,310,21,2
589,310,11,2
590,325,22,2
591,295,16,2
592,310,22,2
593,240,33,2
594,290,24,2
595,335,14,2
596,335,15,2
597,315,15,2
598,330,17,2
599,315,12,2
600,360,18,2
601,330,22,2
602,340,15,2
603,320,35,2
604,310,27,2
605,315,25,2
606,320,25,2
607,320,30,2
608,315,31,2
609,325,16,2
610,290,20,2
611,310,30,2
612,345,16,2
613,290,29,2
614,335,19,2
615,315,43,2
616,305,27,2
617,310,31,2
618,315,43,2
619,290,27,2
620,320,28,2
621,235,65,2
622,330,32,2
623,330,34,2
624,325,25,2
625,290,35,2
626,270,34,2
627,275,42,2
628,315,19,2
629,280,38,2
630,295,20,2
631,345,23,2
632,220,53,2
633,355,20,2
634,240,40,2
635,340,20,2
636,315,19,2
637,320,25,2
638,315,31,2
639,335,17,2
640,360,34,2
641,330,17,2
642,235,45,2
643,305,29,2
644,370,18,2
645,340,22,2
646,300,35,2
647,315,13,2
648,290,35,2
649,315,22,2
650,290,16,2
651,320,23,2
652,305,24,2
653,340,12,2
654,315,28,2
655,195,55,2
656,300,8,2
657,320,15,2
658,295,18,2
659,315,15,2
660,325,15,2
661,295,19,2
662,310,11,2
663,315,17,2
664,295,21,2
665,340,17,2
666,310,15,2
667,310,17,2
668,335,17,2
669,310,15,2
670,310,11,2
671,295,13,2
672,325,14,2
673,325,14,2
674,310,9,2
675,295,16,2
676,320,15,2
677,320,12,2
678,310,13,2
679,330,17,2
680,315,12,2
681,315,17,2
682,310,12,2
683,305,17,2
684,290,20,2
685,320,14,2
686,280,28,2
687,275,16,2
688,315,10,2
689,280,18,2
690,280,15,2
691,315,13,2
692,310,9,2
693,320,14,2
694,305,11,2
695,305,15,2
696,225,31,2
697,310,8,2
698,250,25,2
699,300,10,2
700,300,11,2
701,310,9,2
702,260,23,2
703,310,8,2
704,315,22,2
705,340,15,2
706,320,12,2
707,255,34,2
708,295,17,2
709,315,12,2
710,290,28,2
711,330,11,2
712,305,11,2
713,305,16,2
714,285,21,2
715,315,10,2
716,335,13,2
717,270,29,2
718,320,23,2
719,330,25,2
720,325,17,2
721,245,45,2
722,280,23,2
723,305,12,2
724,300,11,2
725,290,31,2
726,310,9,2
727,325,16,2
728,300,14,2
729,305,24,2
730,300,14,2
731,325,28,2
732,330,18,2
733,265,29,2
734,325,21,2
735,320,12,2
736,320,9,2
737,315,13,2
738,330,19,2
739,300,18,2
740,325,19,2
741,255,33,2
742,335,20,2
743,330,16,2
744,280,26,2
745,310,20,2
746,305,10,2
747,290,19,2
748,295,9,2
749,335,17,2
750,310,26,2
751,305,14,2
752,320,16,2
753,320,23,2
754,330,15,2
755,295,11,2
756,320,11,2
757,320,15,2
758,325,13,2
759,305,16,2
760,295,11,2
761,300,14,2
762,300,19,2
763,300,15,2
764,275,16,2
765,315,13,2
766,315,12,2
767,300,13,2
768,305,7,2
769,330,12,2
770,320,13,2
771,315,13,2
772,290,14,2
773,305,10,2
774,310,9,2
775,325,17,2
776,310,14,2
777,315,8,2
778,305,7,2
779,285,20,2
780,300,8,2
781,305,13,2
782,300,19,2
783,310,12,2
784,310,9,2
785,285,11,2
786,320,9,2
787,325,9,2
788,320,10,2
789,290,15,2
790,280,19,2
791,320,13,2
792,305,7,2
793,310,14,2
794,295,20,2
795,320,12,2
796,320,14,2
797,290,13,2
798,305,10,2
799,345,15,2
800,305,10,2
801,325,12,2
802,285,14,2
803,325,11,2
804,335,16,2
805,300,8,2
806,310,9,2
807,310,9,2
808,300,17,2
809,310,12,2
810,295,9,2
811,290,23,2
812,335,13,2
813,295,11,2
814,325,14,2
815,335,13,2
816,310,9,2
817,280,21,2
818,325,9,2
819,305,16,2
820,285,17,2
821,305,7,2
822,330,13,2
823,310,9,2
824,315,18,2
825,310,9,2
826,315,11,2
827,325,11,2
828,305,10,2
829,345,15,2
830,310,14,2
831,330,17,2
832,305,7,2
833,310,9,2
834,315,13,2
835,310,9,2
836,285,11,2
837,320,15,2
838,285,23,2
839,215,40,2
840,285,26,2
841,310,24,2
842,325,11,2
843,280,28,2
844,305,15,2
845,305,24,2
846,285,16,2
847,305,15,2
848,325,12,2
849,340,19,2
850,290,24,2
851,290,19,2
852,270,32,2
853,315,11,2
854,315,17,2
855,290,24,2
856,300,14,2
857,270,28,2
858,315,21,2
859,315,17,2
860,280,25,2
861,315,8,2
862,280,21,2
863,320,17,2
864,280,21,2
865,305,10,2
866,320,20,2
867,315,19,2
868,320,10,2
869,315,24,2
870,280,21,2
871,305,23,2
872,300,8,2
873,295,14,2
874,305,18,2
875,300,10,2
876,320,23,2
877,330,13,2
878,325,12,2
879,290,12,2
880,310,21,2
881,325,17,2
882,305,13,2
883,310,14,2
884,300,10,2
885,315,8,2
886,320,11,2
887,320,15,2
888,325,12,2
889,305,13,2
890,305,16,2
891,300,8,2
892,310,11,2
893,290,18,2
894,295,9,2
895,310,10,2
896,315,13,2
897,300,13,2
898,320,9,2
899,315,24,2
900,325,11,2
901,290,14,2
902,295,15,2
903,285,16,2
904,315,18,2
905,265,29,2
906,300,24,2
907,295,14,2
908,310,12,2
909,320,12,2
910,315,11,2
911,315,10,2
912,285,16,2
913,300,20,2
914,305,12,2
915,310,8,2
916,315,16,2
917,320,12,2
918,290,20,2
919,310,12,2
920,295,16,2
921,300,27,2
922,320,12,2
923,335,22,2
924,310,20,2
925,305,14,2
926,320,10,2
927,290,10,2
928,300,19,2
929,315,14,2
930,320,21,2
931,280,25,2
932,320,10,2
933,300,13,2
934,295,18,2
935,335,10,2
936,315,16,2
937,290,25,2
938,335,14,2
939,315,10,2
940,280,15,2
941,310,19,2
942,290,12,2
943,320,22,2
944,310,15,2
945,305,13,2
946,310,12,2
947,310,14,2
948,325,9,2
949,295,18,2
950,325,14,2
951,310,25,2
952,325,21,2
953,295,14,2
954,320,19,2
955,305,9,2
956,320,23,2
957,345,13,2
958,305,21,2
959,325,22,2
960,270,31,2
961,310,20,2
962,320,22,2
963,305,17,2
964,295,15,2
965,315,16,2
966,325,12,2
967,325,22,2
968,335,15,2
969,320,15,2
970,270,35,2
971,325,14,2
972,305,18,2
973,305,15,2
974,300,14,2
975,320,13,2
976,315,28,2
977,325,24,2
978,315,16,2
979,235,41,2
980,325,9,2
981,295,24,2
982,305,28,2
983,325,11,2
984,345,14,2
985,265,24,2
986,310,11,2
987,330,11,2
988,330,14,2
989,325,15,2
990,325,21,2
991,325,18,2
992,285,17,2
993,325,13,2
994,335,12,2
995,310,13,2
996,330,20,2
997,300,26,2
998,315,14,2
999,340,17,2
