episode,reward,step,sensitive
0,-200,170,5
1,-400,170,4
2,55,170,7
3,85,170,7
4,285,170,9
5,145,170,8
6,95,170,7
7,490,170,11
8,150,170,8
9,-45,170,6
10,-85,170,6
11,-150,170,6
12,160,170,8
13,-405,170,3
14,375,170,10
15,-60,170,7
16,515,170,11
17,45,170,7
18,630,170,12
19,430,170,10
20,-135,170,6
21,260,170,9
22,205,170,9
23,480,170,11
24,150,170,8
25,370,170,10
26,40,170,7
27,-55,170,6
28,-150,170,6
29,160,170,8
30,205,170,9
31,-145,170,6
32,160,170,8
33,255,170,9
34,-60,170,6
35,270,170,9
36,140,170,8
37,405,170,10
38,465,170,11
39,-240,170,5
40,245,170,9
41,145,170,8
42,335,170,10
43,410,170,10
44,500,170,11
45,-55,170,7
46,185,170,8
47,405,170,10
48,260,170,9
49,280,170,9
50,-65,170,6
51,305,170,9
52,-35,170,7
53,385,170,10
54,370,170,10
55,-185,170,5
56,5,170,7
57,-235,170,5
58,110,170,8
59,135,170,8
60,170,170,8
61,-45,170,7
62,125,170,8
63,155,170,8
64,-50,170,6
65,195,170,9
66,410,170,10
67,140,170,8
68,-60,170,7
69,140,170,8
70,-55,170,7
71,370,170,10
72,-15,170,7
73,125,170,8
74,-90,170,6
75,-45,170,7
76,10,170,7
77,515,170,11
78,50,170,7
79,210,170,8
80,145,170,8
81,310,170,9
82,-30,170,7
83,-35,170,7
84,285,170,9
85,255,170,9
86,-45,170,7
87,85,170,8
88,230,170,9
89,460,170,11
90,380,170,10
91,595,169,12
92,-150,170,6
93,90,170,7
94,290,170,9
95,-45,170,7
96,-30,170,7
97,140,170,8
98,100,170,8
99,465,170,11
100,485,170,11
101,245,170,9
102,-165,170,6
103,250,170,9
104,-20,170,7
105,-295,170,5
106,405,170,10
107,-55,170,7
108,445,170,11
109,-260,170,5
110,-45,170,7
111,525,170,11
112,395,170,10
113,85,170,8
114,230,170,9
115,465,170,11
116,300,170,9
117,525,170,11
118,15,170,7
119,415,170,10
120,75,170,8
121,-55,170,7
122,-45,170,7
123,-35,170,7
124,150,170,8
125,295,170,9
126,-305,170,5
127,-150,170,6
128,-255,170,5
129,225,170,9
130,150,170,8
131,240,170,9
132,365,170,10
133,85,170,7
134,-55,170,7
135,-200,170,6
136,110,170,8
137,385,170,10
138,135,170,8
139,-50,170,7
140,240,170,9
141,-65,170,6
142,250,170,9
143,225,170,9
144,-55,170,7
145,325,170,10
146,45,170,7
147,410,170,10
148,125,170,8
149,155,170,8
150,-85,170,6
151,295,170,9
152,85,170,8
153,10,170,7
154,455,170,11
155,305,170,9
156,500,170,11
157,180,170,9
158,375,170,10
159,465,170,11
160,245,170,9
161,-220,170,5
162,160,170,8
163,265,170,9
164,390,170,10
165,505,170,11
166,440,170,11
167,465,170,11
168,5,170,7
169,290,170,9
170,500,170,11
171,775,134,12
172,90,170,8
173,110,170,8
174,365,170,10
175,490,170,11
176,310,170,9
177,285,170,9
178,190,170,9
179,110,170,8
180,390,170,10
181,350,170,10
182,205,170,9
183,-175,170,6
184,-220,170,5
185,10,170,7
186,225,170,9
187,935,92,12
188,500,170,11
189,215,170,9
190,170,170,8
191,360,170,10
192,5,170,7
193,265,170,9
194,230,170,9
195,510,170,11
196,155,170,8
197,370,170,10
198,-70,170,7
199,535,170,11
200,150,170,8
201,-45,170,7
202,130,170,8
203,380,170,10
204,480,170,11
205,405,170,10
206,520,170,11
207,175,170,8
208,110,170,8
209,70,170,7
210,305,170,9
211,-55,170,7
212,345,170,10
213,795,127,12
214,90,170,8
215,20,170,7
216,345,170,10
217,-10,170,7
218,-45,170,7
219,-30,170,7
220,5,170,7
221,500,170,11
222,270,170,9
223,-20,170,7
224,50,170,8
225,340,170,10
226,135,170,8
227,85,170,7
228,280,170,9
229,485,170,11
230,375,170,10
231,175,170,8
232,-65,170,6
233,370,170,10
234,275,170,9
235,765,136,12
236,635,164,12
237,415,170,10
238,385,170,10
239,350,170,10
240,115,170,8
241,255,170,9
242,665,156,12
243,100,170,8
244,340,170,10
245,75,170,8
246,205,170,9
247,295,170,9
248,280,170,9
249,475,170,11
250,255,170,9
251,-160,170,6
252,190,170,9
253,250,170,9
254,375,170,10
255,245,170,9
256,355,170,10
257,310,170,9
258,525,170,11
259,335,170,10
260,505,170,11
261,280,170,9
262,490,170,11
263,95,170,7
264,740,138,12
265,385,170,10
266,345,170,10
267,325,170,10
268,715,146,12
269,-70,170,7
270,235,170,9
271,495,170,11
272,495,170,11
273,470,170,11
274,220,170,9
275,335,170,10
276,105,170,8
277,-150,170,6
278,55,170,7
279,205,170,9
280,490,170,11
281,170,170,8
282,-70,170,7
283,240,170,9
284,365,170,10
285,125,170,8
286,-165,170,6
287,-55,170,7
288,635,163,12
289,70,170,8
290,420,170,10
291,465,170,11
292,380,170,10
293,495,170,11
294,-45,170,7
295,325,170,10
296,155,170,8
297,470,170,11
298,510,170,11
299,90,170,8
300,250,170,9
301,-100,170,6
302,350,170,10
303,-150,170,6
304,740,142,12
305,380,170,10
306,-50,170,7
307,450,170,11
308,10,170,7
309,320,170,10
310,515,170,11
311,-55,170,7
312,440,170,11
313,230,170,9
314,70,170,8
315,490,170,11
316,355,170,10
317,255,170,9
318,495,170,11
319,230,170,9
320,110,170,8
321,325,170,10
322,400,170,10
323,110,170,8
324,45,170,7
325,390,170,10
326,800,122,12
327,500,170,11
328,510,170,11
329,375,170,10
330,665,156,12
331,270,170,9
332,375,170,10
333,260,170,9
334,-255,170,5
335,-55,170,7
336,-125,170,6
337,40,170,7
338,370,170,10
339,-255,170,5
340,255,170,9
341,125,170,8
342,155,170,8
343,370,170,10
344,5,170,7
345,755,137,12
346,110,170,8
347,195,170,9
348,75,170,7
349,-55,170,7
350,-55,170,7
351,75,170,8
352,125,170,8
353,190,170,8
354,105,170,8
355,730,137,12
356,475,170,11
357,465,170,11
358,175,170,8
359,340,170,10
360,215,170,9
361,365,170,10
362,290,170,9
363,230,170,9
364,-55,170,7
365,600,168,12
366,470,170,11
367,245,170,9
368,475,170,11
369,480,170,11
370,255,170,9
371,-165,170,6
372,-45,170,7
373,310,170,10
374,480,170,11
375,375,170,10
376,345,170,10
377,335,170,10
378,165,170,8
379,240,170,9
380,55,170,7
381,90,170,8
382,365,170,10
383,165,170,8
384,-45,170,7
385,480,170,11
386,490,170,11
387,135,170,8
388,-175,170,6
389,850,118,12
390,590,168,12
391,135,170,8
392,-60,170,7
393,645,165,12
394,450,170,11
395,385,170,10
396,810,133,12
397,340,170,10
398,-55,170,7
399,195,170,8
400,330,170,10
401,100,170,8
402,-55,170,7
403,900,113,12
404,515,170,11
405,-70,170,7
406,270,170,9
407,675,154,12
408,-55,170,7
409,385,170,10
410,395,170,10
411,505,170,11
412,350,170,10
413,495,170,11
414,375,170,10
415,695,156,12
416,100,170,8
417,355,170,10
418,-55,170,7
419,-165,170,6
420,-45,170,7
421,-45,170,7
422,-190,170,6
423,270,170,9
424,375,170,10
425,345,170,10
426,455,170,11
427,-70,170,7
428,255,170,9
429,115,170,8
430,380,170,10
431,655,160,12
432,-55,170,7
433,-45,170,7
434,485,170,11
435,-5,170,7
436,725,149,12
437,275,170,9
438,325,170,10
439,-60,170,7
440,385,170,10
441,-150,170,6
442,125,170,8
443,655,160,12
444,345,170,10
445,310,170,10
446,100,170,8
447,380,170,10
448,-35,170,7
449,495,170,11
450,200,170,8
451,475,170,11
452,700,144,12
453,430,170,10
454,360,170,10
455,335,170,10
456,725,143,12
457,485,170,11
458,420,170,10
459,390,170,10
460,385,170,10
461,495,170,11
462,485,170,11
463,410,170,10
464,255,170,9
465,440,170,11
466,485,170,11
467,205,170,9
468,125,170,8
469,75,170,8
470,730,143,12
471,255,170,9
472,375,170,10
473,715,143,12
474,685,150,12
475,625,164,12
476,735,150,12
477,505,170,11
478,500,170,11
479,280,170,9
480,-35,170,7
481,100,170,8
482,100,170,8
483,255,170,9
484,-30,170,7
485,385,170,10
486,15,170,7
487,160,170,8
488,20,170,7
489,-55,170,7
490,605,168,12
491,240,170,9
492,675,157,12
493,255,170,9
494,715,141,12
495,350,170,10
496,450,170,11
497,695,145,12
498,400,170,10
499,320,170,10
500,335,170,10
501,130,170,8
502,245,170,9
503,850,115,12
504,-20,170,7
505,515,170,11
506,515,170,11
507,230,170,9
508,220,170,9
509,400,170,10
510,75,170,8
511,365,170,10
512,495,170,11
513,205,170,9
514,5,170,7
515,270,170,9
516,350,170,10
517,375,170,10
518,490,170,11
519,525,170,11
520,485,170,11
521,-140,170,6
522,-10,170,7
523,5,170,7
524,230,170,9
525,235,170,9
526,265,170,9
527,-35,170,7
528,45,170,8
529,945,102,12
530,485,170,11
531,-20,170,7
532,295,170,9
533,-70,170,7
534,425,170,10
535,370,170,10
536,480,170,11
537,585,168,12
538,160,170,8
539,-45,170,7
540,500,170,11
541,480,170,11
542,230,170,9
543,270,170,9
544,-190,170,6
545,490,170,11
546,230,170,9
547,505,170,11
548,430,170,11
549,350,170,10
550,350,170,10
551,255,170,9
552,-45,170,7
553,-55,170,7
554,225,170,9
555,360,170,10
556,360,170,10
557,-55,170,7
558,195,170,9
559,-35,170,7
560,370,170,10
561,495,170,11
562,-50,170,7
563,470,170,11
564,10,170,7
565,470,170,11
566,485,170,11
567,-55,170,7
568,240,170,9
569,390,170,10
570,400,170,10
571,-55,170,7
572,-15,170,7
573,335,170,10
574,145,170,8
575,835,122,12
576,0,170,7
577,495,170,11
578,385,170,10
579,450,170,11
580,85,170,8
581,455,170,11
582,100,170,8
583,-55,170,7
584,350,170,10
585,780,136,12
586,60,170,8
587,260,170,9
588,745,140,12
589,-55,170,7
590,1035,83,12
591,-20,170,7
592,410,170,10
593,490,170,11
594,85,170,8
595,-55,170,7
596,-15,170,7
597,400,170,10
598,640,160,12
599,375,170,10
600,900,105,12
601,710,152,12
602,135,170,8
603,485,170,11
604,-45,170,7
605,-55,170,7
606,335,170,10
607,235,170,9
608,-20,170,7
609,325,170,10
610,350,170,10
611,-125,170,6
612,305,170,9
613,100,170,8
614,125,170,8
615,-55,170,7
616,450,170,11
617,-55,170,7
618,390,170,10
619,325,170,10
620,365,170,10
621,490,170,11
622,-20,170,7
623,365,170,10
624,125,170,8
625,135,170,8
626,180,170,8
627,310,170,10
628,695,142,12
629,385,170,10
630,475,170,11
631,500,170,11
632,655,158,12
633,390,170,10
634,-45,170,7
635,755,138,12
636,635,160,12
637,390,170,10
638,175,170,8
639,730,146,12
640,345,170,10
641,780,132,12
642,350,170,10
643,365,170,10
644,245,170,9
645,-85,170,6
646,85,170,8
647,345,170,10
648,730,143,12
649,310,170,10
650,75,170,8
651,150,170,8
652,350,170,10
653,675,154,12
654,340,170,10
655,495,170,11
656,-55,170,7
657,115,170,8
658,-55,170,7
659,260,170,9
660,495,170,11
661,400,170,10
662,-5,170,7
663,-55,170,7
664,480,170,11
665,310,170,10
666,645,155,12
667,-45,170,7
668,255,170,9
669,-45,170,7
670,205,170,9
671,-45,170,7
672,-45,170,7
673,-55,170,7
674,240,170,9
675,495,170,11
676,785,131,12
677,380,170,10
678,355,170,10
679,-200,170,6
680,-200,170,6
681,-45,170,7
682,495,170,11
683,480,170,11
684,655,153,12
685,375,170,10
686,400,170,10
687,375,170,10
688,390,170,10
689,360,170,10
690,-45,170,7
691,-35,170,7
692,335,170,10
693,180,170,9
694,470,170,11
695,410,170,10
696,630,158,12
697,640,162,12
698,460,170,11
699,230,170,9
700,-150,170,6
701,360,170,10
702,435,170,11
703,10,170,7
704,525,170,11
705,-55,170,7
706,465,170,11
707,350,170,10
708,480,170,11
709,845,125,12
710,375,170,10
711,-45,170,7
712,650,154,12
713,275,170,9
714,810,124,12
715,195,170,9
716,155,170,8
717,730,143,12
718,190,170,8
719,275,170,9
720,-160,170,6
721,715,144,12
722,475,170,11
723,480,170,11
724,245,170,9
725,70,170,7
726,180,170,9
727,505,170,11
728,350,170,10
729,-70,170,7
730,655,158,12
731,400,170,10
732,-60,170,7
733,450,170,11
734,795,126,12
735,-55,170,7
736,230,170,9
737,-55,170,7
738,360,170,10
739,205,170,9
740,-55,170,7
741,355,170,10
742,335,170,10
743,505,170,11
744,480,170,11
745,865,114,12
746,-5,170,7
747,280,170,9
748,375,170,10
749,505,170,11
750,-55,170,7
751,495,170,11
752,370,170,10
753,400,170,10
754,495,170,11
755,490,170,11
756,580,168,12
757,495,170,11
758,-60,170,7
759,125,170,8
760,385,170,10
761,240,170,9
762,380,170,10
763,380,170,10
764,-55,170,7
765,10,170,7
766,85,170,7
767,130,170,8
768,-45,170,7
769,820,120,12
770,485,170,11
771,-45,170,7
772,90,170,8
773,490,170,11
774,395,170,10
775,475,170,11
776,355,170,10
777,270,170,9
778,375,170,10
779,725,136,12
780,270,170,9
781,245,170,9
782,375,170,10
783,515,170,11
784,90,170,8
785,-70,170,7
786,-55,170,7
787,350,170,10
788,470,170,11
789,115,170,8
790,610,167,12
791,445,170,11
792,380,170,10
793,290,170,9
794,325,170,10
795,700,145,12
796,455,170,11
797,-55,170,7
798,85,170,8
799,140,170,8
800,755,137,12
801,825,121,12
802,165,170,8
803,360,170,10
804,400,170,10
805,155,170,8
806,-175,170,6
807,75,170,8
808,360,170,10
809,480,170,11
810,75,170,8
811,375,170,10
812,335,170,10
813,395,170,10
814,500,170,11
815,485,170,11
816,325,170,10
817,495,170,11
818,-55,170,7
819,-45,170,7
820,250,170,9
821,760,139,12
822,380,170,10
823,60,170,8
824,-45,170,7
825,485,170,11
826,115,170,8
827,-45,170,7
828,215,170,9
829,480,170,11
830,325,170,10
831,375,170,10
832,140,170,8
833,-125,170,6
834,-200,170,6
835,485,170,11
836,-110,170,6
837,-45,170,7
838,435,170,11
839,-55,170,7
840,245,170,9
841,130,170,8
842,350,170,10
843,-55,170,7
844,30,170,7
845,455,170,11
846,-30,170,7
847,470,170,11
848,440,170,11
849,-65,170,6
850,760,133,12
851,245,170,9
852,785,131,12
853,220,170,9
854,-45,170,7
855,220,170,9
856,775,133,12
857,465,170,11
858,630,156,12
859,675,157,12
860,165,170,8
861,255,170,9
862,465,170,11
863,-140,170,6
864,630,161,12
865,495,170,11
866,260,170,9
867,500,170,11
868,200,170,9
869,115,170,8
870,400,170,10
871,780,129,12
872,195,170,9
873,465,170,11
874,-125,170,6
875,385,170,10
876,-5,170,7
877,350,170,10
878,505,170,11
879,485,170,11
880,85,170,8
881,345,170,10
882,365,170,10
883,655,157,12
884,515,170,11
885,360,170,10
886,895,105,12
887,370,170,10
888,340,170,10
889,255,170,9
890,115,170,8
891,265,170,9
892,335,170,10
893,125,170,8
894,455,170,11
895,825,122,12
896,365,170,10
897,-70,170,7
898,480,170,11
899,500,170,11
900,-55,170,7
901,220,170,9
902,35,170,8
903,495,170,11
904,20,170,7
905,70,170,8
906,470,170,11
907,-30,170,7
908,490,170,11
909,395,170,10
910,505,170,11
911,-60,170,7
912,20,170,7
913,-160,170,6
914,345,170,10
915,470,170,11
916,260,170,9
917,480,170,11
918,110,170,8
919,-55,170,7
920,125,170,8
921,215,170,9
922,640,157,12
923,-255,170,5
924,495,170,11
925,-125,170,6
926,30,170,7
927,270,170,9
928,230,170,9
929,385,170,10
930,475,170,11
931,-200,170,6
932,150,170,8
933,-55,170,7
934,255,170,9
935,220,170,9
936,-30,170,7
937,440,170,11
938,275,170,9
939,480,170,11
940,235,170,9
941,480,170,11
942,-30,170,7
943,750,140,12
944,-55,170,7
945,125,170,8
946,-45,170,7
947,350,170,10
948,735,138,12
949,-160,170,6
950,125,170,8
951,270,170,9
952,235,170,9
953,165,170,8
954,5,170,7
955,-55,170,7
956,350,170,10
957,485,170,11
958,-55,170,7
959,455,170,11
960,370,170,10
961,365,170,10
962,280,170,9
963,490,170,11
964,75,170,7
965,-55,170,7
966,325,170,10
967,230,170,9
968,480,170,11
969,-60,170,7
970,115,170,8
971,495,170,11
972,485,170,11
973,30,170,7
974,270,170,9
975,130,170,8
976,510,170,11
977,100,170,8
978,375,170,10
979,375,170,10
980,485,170,11
981,480,170,11
982,285,170,9
983,480,170,11
984,220,170,9
985,795,128,12
986,140,170,8
987,350,170,10
988,-55,170,7
989,365,170,10
990,340,170,10
991,515,170,11
992,685,142,12
993,110,170,8
994,110,170,8
995,230,170,9
996,265,170,9
997,335,170,10
998,-15,170,7
999,975,92,12
