episode,reward,step,sensitive
0,-225,109,1
1,-480,109,0
2,110,59,2
3,-30,81,2
4,-305,109,0
5,-275,109,0
6,-20,93,2
7,-525,109,0
8,-525,109,0
9,35,75,2
10,-185,109,1
11,-160,109,1
12,-20,80,2
13,-320,109,0
14,-205,109,1
15,75,65,2
16,-225,109,1
17,-195,109,1
18,-205,109,1
19,5,86,2
20,60,65,2
21,135,62,2
22,-185,109,1
23,-415,109,0
24,-55,96,2
25,-315,109,0
26,-210,109,1
27,110,69,2
28,80,74,2
29,-230,109,1
30,220,52,2
31,-115,106,2
32,-495,109,0
33,-210,109,1
34,180,47,2
35,-200,109,1
36,-175,109,1
37,90,64,2
38,-190,109,1
39,70,61,2
40,150,47,2
41,225,43,2
42,155,56,2
43,155,46,2
44,195,43,2
45,115,51,2
46,155,53,2
47,130,61,2
48,35,89,2
49,230,39,2
50,225,36,2
51,260,30,2
52,160,35,2
53,225,39,2
54,20,89,2
55,135,45,2
56,210,27,2
57,145,69,2
58,150,55,2
59,80,57,2
60,145,50,2
61,-25,96,2
62,215,39,2
63,35,91,2
64,115,70,2
65,220,39,2
66,-195,109,1
67,265,19,2
68,35,70,2
69,225,34,2
70,165,54,2
71,265,27,2
72,255,40,2
73,215,33,2
74,215,26,2
75,210,40,2
76,255,23,2
77,210,27,2
78,270,14,2
79,270,20,2
80,275,15,2
81,135,59,2
82,165,51,2
83,80,63,2
84,225,36,2
85,240,32,2
86,200,31,2
87,155,65,2
88,250,21,2
89,135,44,2
90,240,32,2
91,255,26,2
92,265,23,2
93,300,18,2
94,185,34,2
95,195,32,2
96,260,14,2
97,185,39,2
98,115,54,2
99,215,40,2
100,265,23,2
101,225,26,2
102,190,46,2
103,235,41,2
104,250,19,2
105,250,23,2
106,220,36,2
107,240,15,2
108,200,36,2
109,170,39,2
110,235,27,2
111,205,25,2
112,140,57,2
113,235,29,2
114,205,25,2
115,275,16,2
116,205,33,2
117,255,12,2
118,170,53,2
119,255,17,2
120,245,15,2
121,135,42,2
122,225,35,2
123,260,27,2
124,235,34,2
125,275,26,2
126,245,20,2
127,315,18,2
128,250,24,2
129,165,53,2
130,255,26,2
131,260,17,2
132,250,19,2
133,145,55,2
134,280,15,2
135,260,14,2
136,225,36,2
137,240,21,2
138,295,15,2
139,295,10,2
140,250,16,2
141,245,15,2
142,285,20,2
143,270,16,2
144,305,16,2
145,290,10,2
146,290,11,2
147,225,23,2
148,260,22,2
149,235,36,2
150,310,20,2
151,240,34,2
152,240,18,2
153,225,23,2
154,275,17,2
155,250,11,2
156,240,26,2
157,205,25,2
158,305,11,2
159,285,6,2
160,300,11,2
161,315,13,2
162,290,16,2
163,255,20,2
164,265,27,2
165,275,17,2
166,295,13,2
167,275,11,2
168,280,18,2
169,295,15,2
170,280,21,2
171,260,17,2
172,240,13,2
173,285,17,2
174,310,12,2
175,305,13,2
176,285,26,2
177,275,6,2
178,300,17,2
179,285,20,2
180,275,19,2
181,225,34,2
182,275,16,2
183,260,24,2
184,275,16,2
185,260,20,2
186,285,14,2
187,170,45,2
188,300,17,2
189,250,25,2
190,275,22,2
191,325,9,2
192,315,9,2
193,195,41,2
194,285,12,2
195,265,21,2
196,280,21,2
197,280,13,2
198,280,13,2
199,305,8,2
200,265,15,2
201,300,21,2
202,290,14,2
203,305,14,2
204,270,18,2
205,305,11,2
206,285,12,2
207,300,9,2
208,280,22,2
209,280,10,2
210,290,8,2
211,270,21,2
212,275,19,2
213,320,11,2
214,305,11,2
215,270,20,2
216,290,17,2
217,240,21,2
218,245,27,2
219,285,15,2
220,305,8,2
221,280,18,2
222,205,34,2
223,190,31,2
224,240,21,2
225,230,23,2
226,300,15,2
227,270,21,2
228,240,21,2
229,160,40,2
230,280,16,2
231,195,30,2
232,255,22,2
233,275,14,2
234,240,24,2
235,180,39,2
236,235,30,2
237,280,19,2
238,205,31,2
239,300,12,2
240,285,9,2
241,280,13,2
242,260,14,2
243,275,14,2
244,250,19,2
245,280,10,2
246,285,12,2
247,280,16,2
248,250,24,2
249,225,32,2
250,260,17,2
251,290,11,2
252,310,10,2
253,260,17,2
254,250,16,2
255,280,13,2
256,300,15,2
257,265,16,2
258,230,20,2
259,275,14,2
260,285,11,2
261,265,19,2
262,110,57,2
263,285,9,2
264,295,7,2
265,200,40,2
266,275,17,2
267,290,8,2
268,260,14,2
269,290,11,2
270,250,22,2
271,235,19,2
272,275,14,2
273,270,18,2
274,275,14,2
275,310,10,2
276,245,20,2
277,295,7,2
278,290,8,2
279,285,9,2
280,300,9,2
281,285,12,2
282,285,15,2
283,290,8,2
284,290,14,2
285,255,15,2
286,295,10,2
287,295,10,2
288,270,7,2
289,265,18,2
290,265,16,2
291,245,23,2
292,270,12,2
293,300,9,2
294,255,21,2
295,275,11,2
296,285,15,2
297,290,11,2
298,300,9,2
299,245,20,2
300,270,15,2
301,275,13,2
302,290,11,2
303,260,14,2
304,270,15,2
305,250,19,2
306,290,11,2
307,275,17,2
308,305,8,2
309,290,11,2
310,270,18,2
311,265,16,2
312,280,13,2
313,260,17,2
314,290,13,2
315,290,11,2
316,230,23,2
317,260,17,2
318,255,18,2
319,280,13,2
320,250,19,2
321,230,26,2
322,275,14,2
323,275,14,2
324,295,7,2
325,310,7,2
326,275,14,2
327,295,10,2
328,175,34,2
329,215,26,2
330,240,21,2
331,270,15,2
332,245,20,2
333,260,17,2
334,265,13,2
335,270,10,2
336,300,6,2
337,285,12,2
338,250,18,2
339,265,16,2
340,240,21,2
341,295,10,2
342,260,17,2
343,275,14,2
344,165,36,2
345,120,45,2
346,295,10,2
347,265,16,2
348,245,22,2
349,265,16,2
350,230,23,2
351,190,31,2
352,265,16,2
353,280,13,2
354,190,33,2
355,280,10,2
356,255,18,2
357,275,14,2
358,290,11,2
359,235,22,2
360,280,13,2
361,250,11,2
362,275,14,2
363,170,35,2
364,260,17,2
365,290,8,2
366,210,27,2
367,255,18,2
368,240,24,2
369,275,17,2
370,305,11,2
371,265,13,2
372,270,15,2
373,275,14,2
374,295,10,2
375,250,16,2
376,215,29,2
377,285,9,2
378,260,17,2
379,265,16,2
380,260,14,2
381,240,21,2
382,245,17,2
383,270,15,2
384,275,14,2
385,215,23,2
386,135,45,2
387,235,22,2
388,200,29,2
389,285,12,2
390,260,14,2
391,200,26,2
392,240,21,2
393,295,10,2
394,240,18,2
395,230,15,2
396,290,8,2
397,285,12,2
398,255,21,2
399,260,14,2
400,225,16,2
401,240,21,2
402,250,11,2
403,245,20,2
404,255,15,2
405,220,25,2
406,240,18,2
407,275,11,2
408,240,21,2
409,230,23,2
410,260,17,2
411,160,40,2
412,180,33,2
413,255,15,2
414,85,55,2
415,150,39,2
416,265,13,2
417,220,25,2
418,165,35,2
419,210,19,2
420,225,24,2
421,275,14,2
422,290,8,2
423,265,13,2
424,-125,94,2
425,210,24,2
426,295,10,2
427,240,13,2
428,240,18,2
429,225,16,2
430,260,9,2
431,285,9,2
432,260,17,2
433,265,8,2
434,295,7,2
435,270,12,2
436,225,24,2
437,240,24,2
438,230,23,2
439,290,11,2
440,235,22,2
441,220,28,2
442,290,8,2
443,285,9,2
444,290,11,2
445,285,12,2
446,260,14,2
447,285,12,2
448,290,8,2
449,245,20,2
450,290,11,2
451,275,11,2
452,270,14,2
453,285,9,2
454,290,8,2
455,255,15,2
456,255,18,2
457,285,9,2
458,290,8,2
459,285,9,2
460,285,12,2
461,250,19,2
462,265,13,2
463,285,12,2
464,270,12,2
465,290,8,2
466,310,7,2
467,250,16,2
468,285,12,2
469,270,15,2
470,285,9,2
471,295,7,2
472,295,10,2
473,265,13,2
474,305,8,2
475,305,8,2
476,290,11,2
477,290,8,2
478,270,7,2
479,290,8,2
480,250,16,2
481,270,15,2
482,295,13,2
483,265,16,2
484,290,8,2
485,265,13,2
486,245,17,2
487,265,8,2
488,290,8,2
489,265,16,2
490,270,14,2
491,295,7,2
492,215,23,2
493,295,7,2
494,270,12,2
495,260,14,2
496,285,12,2
497,285,9,2
498,300,11,2
499,300,9,2
500,305,11,2
501,300,9,2
502,295,7,2
503,280,12,2
504,235,22,2
505,265,13,2
506,280,16,2
507,280,10,2
508,305,10,2
509,240,27,2
510,320,8,2
511,270,12,2
512,300,9,2
513,300,6,2
514,305,8,2
515,260,14,2
516,270,12,2
517,305,11,2
518,290,8,2
519,290,11,2
520,290,8,2
521,280,10,2
522,295,7,2
523,290,8,2
524,310,13,2
525,285,9,2
526,295,13,2
527,290,11,2
528,280,10,2
529,280,10,2
530,295,7,2
531,300,6,2
532,290,8,2
533,275,11,2
534,285,12,2
535,300,6,2
536,235,19,2
537,285,9,2
538,300,6,2
539,280,13,2
540,295,7,2
541,275,11,2
542,290,11,2
543,295,7,2
544,295,7,2
545,255,18,2
546,280,10,2
547,295,7,2
548,260,17,2
549,295,7,2
550,250,22,2
551,290,8,2
552,305,8,2
553,310,7,2
554,300,6,2
555,295,7,2
556,285,12,2
557,275,11,2
558,275,11,2
559,260,14,2
560,265,13,2
561,280,5,2
562,295,7,2
563,285,12,2
564,300,9,2
565,300,6,2
566,280,13,2
567,280,8,2
568,285,9,2
569,300,6,2
570,285,9,2
571,295,7,2
572,275,13,2
573,290,8,2
574,295,7,2
575,275,17,2
576,270,12,2
577,285,12,2
578,300,6,2
579,290,8,2
580,265,16,2
581,295,10,2
582,295,7,2
583,285,12,2
584,295,10,2
585,280,10,2
586,295,9,2
587,290,8,2
588,280,10,2
589,305,8,2
590,300,9,2
591,270,15,2
592,190,31,2
593,285,9,2
594,300,9,2
595,295,7,2
596,295,13,2
597,235,22,2
598,190,31,2
599,285,15,2
600,290,8,2
601,270,15,2
602,280,10,2
603,290,11,2
604,290,8,2
605,205,28,2
606,300,9,2
607,290,8,2
608,190,34,2
609,265,16,2
610,265,13,2
611,170,35,2
612,290,11,2
613,285,12,2
614,285,9,2
615,270,14,2
616,280,13,2
617,265,13,2
618,300,6,2
619,260,17,2
620,310,9,2
621,250,19,2
622,300,6,2
623,265,16,2
624,280,13,2
625,305,8,2
626,305,11,2
627,300,6,2
628,275,14,2
629,300,9,2
630,295,7,2
631,305,8,2
632,270,18,2
633,295,10,2
634,285,12,2
635,305,11,2
636,310,7,2
637,300,6,2
638,285,12,2
639,295,10,2
640,305,8,2
641,275,11,2
642,280,12,2
643,285,12,2
644,255,18,2
645,290,8,2
646,305,8,2
647,295,10,2
648,285,9,2
649,200,29,2
650,305,8,2
651,300,9,2
652,290,8,2
653,295,7,2
654,260,17,2
655,280,13,2
656,275,14,2
657,275,14,2
658,295,7,2
659,285,9,2
660,275,17,2
661,240,24,2
662,295,9,2
663,300,17,2
664,305,8,2
665,290,8,2
666,300,9,2
667,290,8,2
668,285,9,2
669,300,9,2
670,295,10,2
671,295,10,2
672,315,9,2
673,290,8,2
674,290,11,2
675,295,7,2
676,275,16,2
677,290,11,2
678,285,15,2
679,285,12,2
680,270,12,2
681,295,7,2
682,280,10,2
683,300,9,2
684,290,14,2
685,290,8,2
686,280,10,2
687,300,6,2
688,300,9,2
689,285,9,2
690,250,19,2
691,300,6,2
692,285,15,2
693,285,9,2
694,290,11,2
695,280,10,2
696,270,12,2
697,290,8,2
698,270,12,2
699,295,7,2
700,250,19,2
701,285,9,2
702,300,9,2
703,285,9,2
704,245,17,2
705,290,8,2
706,285,9,2
707,285,9,2
708,285,9,2
709,300,6,2
710,300,9,2
711,295,10,2
712,300,6,2
713,275,14,2
714,290,11,2
715,285,9,2
716,300,9,2
717,285,9,2
718,255,18,2
719,255,15,2
720,290,8,2
721,285,9,2
722,280,10,2
723,300,6,2
724,270,14,2
725,240,18,2
726,270,15,2
727,280,10,2
728,290,8,2
729,280,10,2
730,300,9,2
731,275,14,2
732,295,7,2
733,300,6,2
734,280,10,2
735,280,10,2
736,280,10,2
737,290,8,2
738,280,10,2
739,290,8,2
740,295,7,2
741,285,9,2
742,300,9,2
743,280,10,2
744,270,12,2
745,275,11,2
746,310,7,2
747,285,9,2
748,285,9,2
749,300,6,2
750,280,10,2
751,300,6,2
752,295,7,2
753,265,13,2
754,295,7,2
755,295,7,2
756,280,10,2
757,275,11,2
758,285,9,2
759,285,9,2
760,290,8,2
761,285,12,2
762,280,10,2
763,295,10,2
764,290,8,2
765,280,10,2
766,275,11,2
767,270,15,2
768,280,10,2
769,285,9,2
770,285,9,2
771,285,9,2
772,270,12,2
773,290,11,2
774,285,9,2
775,280,13,2
776,300,6,2
777,290,8,2
778,290,8,2
779,290,8,2
780,285,9,2
781,300,6,2
782,290,8,2
783,295,7,2
784,290,8,2
785,295,7,2
786,290,8,2
787,300,6,2
788,295,7,2
789,290,8,2
790,290,8,2
791,290,11,2
792,285,9,2
793,300,9,2
794,295,7,2
795,295,10,2
796,275,11,2
797,300,6,2
798,310,7,2
799,305,8,2
800,285,9,2
801,295,7,2
802,300,6,2
803,310,7,2
804,300,6,2
805,295,7,2
806,305,8,2
807,285,9,2
808,295,7,2
809,290,8,2
810,305,8,2
811,300,9,2
812,280,15,2
813,290,8,2
814,270,12,2
815,285,12,2
816,300,9,2
817,285,12,2
818,285,12,2
819,300,9,2
820,280,10,2
821,300,9,2
822,300,6,2
823,265,16,2
824,300,9,2
825,285,12,2
826,275,11,2
827,295,7,2
828,285,9,2
829,300,6,2
830,280,16,2
831,295,10,2
832,250,16,2
833,305,8,2
834,280,13,2
835,295,7,2
836,275,11,2
837,300,6,2
838,290,11,2
839,255,15,2
840,285,9,2
841,280,10,2
842,265,13,2
843,270,12,2
844,280,13,2
845,285,9,2
846,295,10,2
847,290,8,2
848,295,10,2
849,295,13,2
850,230,23,2
851,290,10,2
852,290,8,2
853,295,7,2
854,295,7,2
855,300,9,2
856,285,12,2
857,290,8,2
858,270,12,2
859,295,7,2
860,305,8,2
861,295,10,2
862,280,13,2
863,285,12,2
864,285,9,2
865,295,10,2
866,295,7,2
867,300,9,2
868,285,9,2
869,285,12,2
870,290,8,2
871,275,11,2
872,275,11,2
873,300,6,2
874,305,8,2
875,285,15,2
876,300,8,2
877,295,7,2
878,290,8,2
879,295,10,2
880,310,7,2
881,285,11,2
882,300,6,2
883,285,9,2
884,295,9,2
885,285,9,2
886,300,11,2
887,295,10,2
888,300,6,2
889,305,8,2
890,295,7,2
891,305,8,2
892,315,9,2
893,295,7,2
894,310,10,2
895,280,15,2
896,290,8,2
897,300,13,2
898,300,8,2
899,295,7,2
900,295,10,2
901,280,10,2
902,300,11,2
903,305,7,2
904,300,9,2
905,300,9,2
906,295,7,2
907,305,11,2
908,305,8,2
909,310,7,2
910,270,18,2
911,290,8,2
912,305,8,2
913,290,11,2
914,305,10,2
915,290,11,2
916,305,11,2
917,285,9,2
918,250,19,2
919,295,13,2
920,310,7,2
921,280,13,2
922,255,18,2
923,290,11,2
924,280,15,2
925,310,9,2
926,280,10,2
927,285,15,2
928,290,8,2
929,290,14,2
930,295,10,2
931,270,18,2
932,270,20,2
933,295,7,2
934,295,9,2
935,300,8,2
936,275,17,2
937,240,27,2
938,300,9,2
939,295,7,2
940,305,11,2
941,275,17,2
942,270,12,2
943,305,8,2
944,265,19,2
945,305,7,2
946,280,15,2
947,290,8,2
948,310,10,2
949,275,14,2
950,265,16,2
951,295,7,2
952,305,8,2
953,235,24,2
954,285,9,2
955,280,10,2
956,300,9,2
957,300,9,2
958,285,11,2
959,300,6,2
960,255,15,2
961,230,28,2
962,280,10,2
963,310,7,2
964,290,8,2
965,295,10,2
966,240,23,2
967,290,8,2
968,295,10,2
969,280,13,2
970,300,6,2
971,290,14,2
972,300,6,2
973,300,6,2
974,295,10,2
975,290,8,2
976,270,18,2
977,255,17,2
978,280,10,2
979,280,13,2
980,300,6,2
981,295,7,2
982,275,16,2
983,310,7,2
984,295,7,2
985,285,9,2
986,295,7,2
987,250,19,2
988,280,10,2
989,300,6,2
990,300,6,2
991,305,8,2
992,310,7,2
993,300,9,2
994,300,6,2
995,285,12,2
996,275,11,2
997,290,11,2
998,300,6,2
999,295,7,2
