episode,reward,step,sensitive
0,-1150,309,0
1,-855,309,1
2,-655,309,1
3,-785,309,0
4,-1090,309,0
5,-1035,309,0
6,-750,309,0
7,-1025,309,0
8,-1410,309,0
9,-1495,309,0
10,-1430,309,0
11,-1440,309,0
12,-720,309,0
13,-1390,309,0
14,-1050,309,0
15,-1425,309,0
16,-1280,309,0
17,-740,309,1
18,-1285,309,0
19,-900,309,1
20,-975,309,0
21,-1030,309,1
22,-1405,309,0
23,-1430,309,0
24,-1420,309,0
25,-770,309,1
26,-1550,309,0
27,-1170,309,0
28,-475,309,1
29,-1110,309,0
30,-1280,309,0
31,-1405,309,0
32,-635,309,1
33,-1065,309,0
34,-830,309,1
35,-1145,309,0
36,-865,309,1
37,-1155,309,0
38,-570,309,1
39,-1130,309,0
40,-515,309,1
41,-1070,309,0
42,-600,309,1
43,-625,309,1
44,-440,309,1
45,-845,309,0
46,-1025,309,0
47,-420,309,1
48,-550,309,1
49,-1235,309,0
50,-535,309,1
51,-910,309,0
52,-590,309,0
53,-950,309,0
54,-1230,309,0
55,-685,309,0
56,-585,309,1
57,-455,309,2
58,-485,309,1
59,-455,309,1
60,-1060,309,0
61,-900,309,0
62,-915,309,0
63,-825,309,1
64,-725,309,1
65,-480,309,1
66,-515,309,1
67,-440,309,2
68,-580,309,1
69,-645,309,1
70,-680,309,1
71,-670,309,1
72,-745,309,0
73,-730,309,0
74,-685,309,1
75,-715,309,1
76,-670,309,1
77,-665,309,1
78,-755,309,0
79,-920,309,0
80,-990,309,0
81,-925,309,0
82,-1085,309,0
83,-1115,309,0
84,-1185,309,0
85,-1215,309,0
86,-1225,309,0
87,-1285,309,0
88,-1310,309,0
89,-1315,309,0
90,-1265,309,0
91,-1335,309,0
92,-1335,309,0
93,-1325,309,0
94,-1380,309,0
95,-1360,309,0
96,-1360,309,0
97,-1360,309,0
98,-1385,309,0
99,-1360,309,0
100,-1380,309,0
101,-1370,309,0
102,-1390,309,0
103,-1330,309,0
104,-1335,309,0
105,-1355,309,0
106,-1335,309,0
107,-1365,309,0
108,-1335,309,0
109,-1340,309,0
110,-1345,309,0
111,-1345,309,0
112,-1355,309,0
113,-1380,309,0
114,-1365,309,0
115,-1375,309,0
116,-1360,309,0
117,-1400,309,0
118,-1390,309,0
119,-1380,309,0
120,-1395,309,0
121,-1355,309,0
122,-1400,309,0
123,-1345,309,0
124,-1355,309,0
125,-1380,309,0
126,-1355,309,0
127,-1345,309,0
128,-1335,309,0
129,-1325,309,0
130,-1335,309,0
131,-1340,309,0
132,-1355,309,0
133,-1340,309,0
134,-1345,309,0
135,-1345,309,0
136,-1365,309,0
137,-1310,309,0
138,-1355,309,0
139,-1365,309,0
140,-1370,309,0
141,-1355,309,0
142,-1365,309,0
143,-1330,309,0
144,-1365,309,0
145,-1380,309,0
146,-1355,309,0
147,-1345,309,0
148,-1390,309,0
149,-1355,309,0
150,-1345,309,0
151,-1340,309,0
152,-1365,309,0
153,-1340,309,0
154,-1355,309,0
155,-1355,309,0
156,-1345,309,0
157,-1315,309,0
158,-1345,309,0
159,-1295,309,0
160,-1295,309,0
161,-1320,309,0
162,-1295,309,0
163,-1295,309,0
164,-1295,309,0
165,-1285,309,0
166,-1320,309,0
167,-1295,309,0
168,-1320,309,0
169,-1330,309,0
170,-1250,309,0
171,-1320,309,0
172,-1285,309,0
173,-1300,309,0
174,-1275,309,0
175,-1330,309,0
176,-1290,309,0
177,-1315,309,0
178,-1295,309,0
179,-1310,309,0
180,-1385,309,0
181,-1285,309,0
182,-1355,309,0
183,-1345,309,0
184,-1340,309,0
185,-1310,309,0
186,-1320,309,0
187,-1335,309,0
188,-1400,309,0
189,-1345,309,0
190,-1405,309,0
191,-1380,309,0
192,-1380,309,0
193,-1370,309,0
194,-1340,309,0
195,-1350,309,0
196,-1310,309,0
197,-1330,309,0
198,-1310,309,0
199,-1320,309,0
200,-1290,309,0
201,-1320,309,0
202,-1305,309,0
203,-1310,309,0
204,-1275,309,0
205,-1310,309,0
206,-1290,309,0
207,-1320,309,0
208,-1325,309,0
209,-1310,309,0
210,-1315,309,0
211,-1305,309,0
212,-1310,309,0
213,-1275,309,0
214,-1300,309,0
215,-1280,309,0
216,-1270,309,0
217,-1280,309,0
218,-1275,309,0
219,-1335,309,0
220,-1335,309,0
221,-1280,309,0
222,-1265,309,0
223,-1265,309,0
224,-1300,309,0
225,-1320,309,0
226,-1250,309,0
227,-1275,309,0
228,-1285,309,0
229,-1275,309,0
230,-1290,309,0
231,-1275,309,0
232,-1245,309,0
233,-1290,309,0
234,-1250,309,0
235,-1260,309,0
236,-1285,309,0
237,-1290,309,0
238,-1285,309,0
239,-1240,309,0
240,-1260,309,0
241,-1230,309,0
242,-1255,309,0
243,-1290,309,0
244,-1300,309,0
245,-1250,309,0
246,-1250,309,0
247,-1275,309,0
248,-1270,309,0
249,-1290,309,0
250,-1250,309,0
251,-1245,309,0
252,-1240,309,0
253,-1250,309,0
254,-1245,309,0
255,-1265,309,0
256,-1285,309,0
257,-1220,309,0
258,-1265,309,0
259,-1255,309,0
260,-1295,309,0
261,-1240,309,0
262,-1235,309,0
263,-1255,309,0
264,-1255,309,0
265,-1230,309,0
266,-1240,309,0
267,-1285,309,0
268,-1300,309,0
269,-1260,309,0
270,-1285,309,0
271,-1265,309,0
272,-1265,309,0
273,-1260,309,0
274,-1300,309,0
275,-1295,309,0
276,-1270,309,0
277,-1300,309,0
278,-1315,309,0
279,-1290,309,0
280,-1235,309,0
281,-1295,309,0
282,-1290,309,0
283,-1225,309,0
284,-1245,309,0
285,-1245,309,0
286,-1245,309,0
287,-1245,309,0
288,-1280,309,0
289,-1310,309,0
290,-1320,309,0
291,-1305,309,0
292,-1300,309,0
293,-1230,309,0
294,-1265,309,0
295,-1340,309,0
296,-1280,309,0
297,-1265,309,0
298,-1270,309,0
299,-1320,309,0
300,-1305,309,0
301,-1275,309,0
302,-1280,309,0
303,-1255,309,0
304,-1290,309,0
305,-1265,309,0
306,-1280,309,0
307,-1290,309,0
308,-1265,309,0
309,-1255,309,0
310,-1225,309,0
311,-1230,309,0
312,-1295,309,0
313,-1280,309,0
314,-1275,309,0
315,-1305,309,0
316,-1240,309,0
317,-1235,309,0
318,-1285,309,0
319,-1260,309,0
320,-1325,309,0
321,-1290,309,0
322,-1305,309,0
323,-1280,309,0
324,-1310,309,0
325,-1290,309,0
326,-1250,309,0
327,-1280,309,0
328,-1295,309,0
329,-1310,309,0
330,-1280,309,0
331,-1255,309,0
332,-1295,309,0
333,-1245,309,0
334,-1280,309,0
335,-1255,309,0
336,-1285,309,0
337,-1265,309,0
338,-1255,309,0
339,-1345,309,0
340,-1315,309,0
341,-1280,309,0
342,-1260,309,0
343,-1330,309,0
344,-1320,309,0
345,-1260,309,0
346,-1265,309,0
347,-1285,309,0
348,-1265,309,0
349,-1325,309,0
350,-1235,309,0
351,-1310,309,0
352,-1285,309,0
353,-1335,309,0
354,-1255,309,0
355,-1265,309,0
356,-1315,309,0
357,-1335,309,0
358,-1175,309,0
359,-1275,309,0
360,-1240,309,0
361,-1275,309,0
362,-1275,309,0
363,-1275,309,0
364,-1250,309,0
365,-1320,309,0
366,-1260,309,0
367,-1310,309,0
368,-1310,309,0
369,-1290,309,0
370,-1295,309,0
371,-1270,309,0
372,-1305,309,0
373,-1275,309,0
374,-1280,309,0
375,-1315,309,0
376,-1250,309,0
377,-1265,309,0
378,-1280,309,0
379,-1280,309,0
380,-1265,309,0
381,-1335,309,0
382,-1205,309,0
383,-1335,309,0
384,-1270,309,0
385,-1310,309,0
386,-1315,309,0
387,-1295,309,0
388,-1300,309,0
389,-1325,309,0
390,-1290,309,0
391,-1275,309,0
392,-1300,309,0
393,-1255,309,0
394,-1325,309,0
395,-1250,309,0
396,-1285,309,0
397,-1310,309,0
398,-1340,309,0
399,-1275,309,0
400,-1285,309,0
401,-1320,309,0
402,-1280,309,0
403,-1335,309,0
404,-1320,309,0
405,-1310,309,0
406,-1305,309,0
407,-1245,309,0
408,-1270,309,0
409,-1295,309,0
410,-1280,309,0
411,-1360,309,0
412,-1310,309,0
413,-1345,309,0
414,-1280,309,0
415,-1330,309,0
416,-1320,309,0
417,-1335,309,0
418,-1275,309,0
419,-1310,309,0
420,-1335,309,0
421,-1355,309,0
422,-1365,309,0
423,-1355,309,0
424,-1290,309,0
425,-1370,309,0
426,-1365,309,0
427,-1335,309,0
428,-1360,309,0
429,-1340,309,0
430,-1390,309,0
431,-1340,309,0
432,-1365,309,0
433,-1355,309,0
434,-1345,309,0
435,-1335,309,0
436,-1390,309,0
437,-1315,309,0
438,-1355,309,0
439,-1425,309,0
440,-1340,309,0
441,-1375,309,0
442,-1365,309,0
443,-1410,309,0
444,-1430,309,0
445,-1370,309,0
446,-1395,309,0
447,-1425,309,0
448,-1415,309,0
449,-1355,309,0
450,-1410,309,0
451,-1385,309,0
452,-1370,309,0
453,-1340,309,0
454,-1415,309,0
455,-1375,309,0
456,-1395,309,0
457,-1435,309,0
458,-1390,309,0
459,-1425,309,0
460,-1430,309,0
461,-1375,309,0
462,-1445,309,0
463,-1415,309,0
464,-1410,309,0
465,-1490,309,0
466,-1460,309,0
467,-1445,309,0
468,-1455,309,0
469,-1515,309,0
470,-1480,309,0
471,-1450,309,0
472,-1480,309,0
473,-1490,309,0
474,-1515,309,0
475,-1515,309,0
476,-1480,309,0
477,-1490,309,0
478,-1445,309,0
479,-1465,309,0
480,-1515,309,0
481,-1490,309,0
482,-1490,309,0
483,-1490,309,0
484,-1490,309,0
485,-1515,309,0
486,-1515,309,0
487,-1515,309,0
488,-1435,309,0
489,-1490,309,0
490,-1440,309,0
491,-1400,309,0
492,-1515,309,0
493,-1515,309,0
494,-1490,309,0
495,-1515,309,0
496,-1515,309,0
497,-1515,309,0
498,-1515,309,0
499,-1425,309,0
500,-1515,309,0
501,-1490,309,0
502,-1515,309,0
503,-1515,309,0
504,-1490,309,0
505,-1515,309,0
506,-1515,309,0
507,-1495,309,0
508,-1450,309,0
509,-1430,309,0
510,-1480,309,0
511,-1415,309,0
512,-1490,309,0
513,-1410,309,0
514,-1430,309,0
515,-1425,309,0
516,-1380,309,0
517,-1400,309,0
518,-1415,309,0
519,-1390,309,0
520,-1405,309,0
521,-1465,309,0
522,-1345,309,0
523,-1455,309,0
524,-1445,309,0
525,-1390,309,0
526,-1455,309,0
527,-1455,309,0
528,-1390,309,0
529,-1400,309,0
530,-1455,309,0
531,-1425,309,0
532,-1390,309,0
533,-1365,309,0
534,-1345,309,0
535,-1355,309,0
536,-1425,309,0
537,-1390,309,0
538,-1395,309,0
539,-1380,309,0
540,-1435,309,0
541,-1400,309,0
542,-1355,309,0
543,-1390,309,0
544,-1425,309,0
545,-1385,309,0
546,-1385,309,0
547,-1335,309,0
548,-1390,309,0
549,-1375,309,0
550,-1355,309,0
551,-1405,309,0
552,-1380,309,0
553,-1415,309,0
554,-1380,309,0
555,-1390,309,0
556,-1435,309,0
557,-1385,309,0
558,-1405,309,0
559,-1425,309,0
560,-1380,309,0
561,-1420,309,0
562,-1350,309,0
563,-1435,309,0
564,-1330,309,0
565,-1380,309,0
566,-1350,309,0
567,-1365,309,0
568,-1310,309,0
569,-1395,309,0
570,-1390,309,0
571,-1355,309,0
572,-1375,309,0
573,-1395,309,0
574,-1365,309,0
575,-1435,309,0
576,-1450,309,0
577,-1455,309,0
578,-1390,309,0
579,-1375,309,0
580,-1425,309,0
581,-1375,309,0
582,-1300,309,0
583,-1345,309,0
584,-1335,309,0
585,-1380,309,0
586,-1370,309,0
587,-1365,309,0
588,-1340,309,0
589,-1370,309,0
590,-1335,309,0
591,-1370,309,0
592,-1390,309,0
593,-1325,309,0
594,-1355,309,0
595,-1340,309,0
596,-1355,309,0
597,-1355,309,0
598,-1390,309,0
599,-1365,309,0
600,-1370,309,0
601,-1365,309,0
602,-1400,309,0
603,-1425,309,0
604,-1385,309,0
605,-1365,309,0
606,-1380,309,0
607,-1400,309,0
608,-1330,309,0
609,-1430,309,0
610,-1355,309,0
611,-1380,309,0
612,-1315,309,0
613,-1400,309,0
614,-1345,309,0
615,-1425,309,0
616,-1370,309,0
617,-1435,309,0
618,-1380,309,0
619,-1365,309,0
620,-1385,309,0
621,-1345,309,0
622,-1405,309,0
623,-1405,309,0
624,-1360,309,0
625,-1345,309,0
626,-1370,309,0
627,-1335,309,0
628,-1425,309,0
629,-1375,309,0
630,-1360,309,0
631,-1330,309,0
632,-1315,309,0
633,-1395,309,0
634,-1360,309,0
635,-1355,309,0
636,-1365,309,0
637,-1335,309,0
638,-1370,309,0
639,-1405,309,0
640,-1365,309,0
641,-1345,309,0
642,-1375,309,0
643,-1410,309,0
644,-1340,309,0
645,-1390,309,0
646,-1375,309,0
647,-1405,309,0
648,-1380,309,0
649,-1405,309,0
650,-1410,309,0
651,-1410,309,0
652,-1405,309,0
653,-1400,309,0
654,-1410,309,0
655,-1420,309,0
656,-1470,309,0
657,-1425,309,0
658,-1435,309,0
659,-1440,309,0
660,-1480,309,0
661,-1470,309,0
662,-1440,309,0
663,-1455,309,0
664,-1450,309,0
665,-1460,309,0
666,-1400,309,0
667,-1380,309,0
668,-1435,309,0
669,-1400,309,0
670,-1450,309,0
671,-1420,309,0
672,-1455,309,0
673,-1360,309,0
674,-1395,309,0
675,-1410,309,0
676,-1405,309,0
677,-1375,309,0
678,-1415,309,0
679,-1405,309,0
680,-1355,309,0
681,-1390,309,0
682,-1395,309,0
683,-1440,309,0
684,-1395,309,0
685,-1400,309,0
686,-1375,309,0
687,-1355,309,0
688,-1370,309,0
689,-1375,309,0
690,-1355,309,0
691,-1400,309,0
692,-1380,309,0
693,-1350,309,0
694,-1410,309,0
695,-1370,309,0
696,-1355,309,0
697,-1365,309,0
698,-1425,309,0
699,-1395,309,0
700,-1345,309,0
701,-1405,309,0
702,-1430,309,0
703,-1400,309,0
704,-1420,309,0
705,-1415,309,0
706,-1395,309,0
707,-1405,309,0
708,-1380,309,0
709,-1385,309,0
710,-1390,309,0
711,-1400,309,0
712,-1405,309,0
713,-1365,309,0
714,-1420,309,0
715,-1370,309,0
716,-1395,309,0
717,-1430,309,0
718,-1335,309,0
719,-1410,309,0
720,-1405,309,0
721,-1415,309,0
722,-1415,309,0
723,-1395,309,0
724,-1410,309,0
725,-1420,309,0
726,-1385,309,0
727,-1430,309,0
728,-1385,309,0
729,-1365,309,0
730,-1430,309,0
731,-1400,309,0
732,-1400,309,0
733,-1405,309,0
734,-1430,309,0
735,-1335,309,0
736,-1400,309,0
737,-1465,309,0
738,-1410,309,0
739,-1380,309,0
740,-1340,309,0
741,-1360,309,0
742,-1345,309,0
743,-1355,309,0
744,-1400,309,0
745,-1370,309,0
746,-1385,309,0
747,-1385,309,0
748,-1380,309,0
749,-1410,309,0
750,-1375,309,0
751,-1425,309,0
752,-1370,309,0
753,-1400,309,0
754,-1345,309,0
755,-1360,309,0
756,-1370,309,0
757,-1355,309,0
758,-1400,309,0
759,-1395,309,0
760,-1380,309,0
761,-1370,309,0
762,-1400,309,0
763,-1345,309,0
764,-1390,309,0
765,-1395,309,0
766,-1315,309,0
767,-1335,309,0
768,-1380,309,0
769,-1405,309,0
770,-1420,309,0
771,-1380,309,0
772,-1375,309,0
773,-1390,309,0
774,-1360,309,0
775,-1360,309,0
776,-1365,309,0
777,-1310,309,0
778,-1370,309,0
779,-1385,309,0
780,-1400,309,0
781,-1325,309,0
782,-1365,309,0
783,-1405,309,0
784,-1405,309,0
785,-1370,309,0
786,-1395,309,0
787,-1390,309,0
788,-1405,309,0
789,-1370,309,0
790,-1345,309,0
791,-1380,309,0
792,-1310,309,0
793,-1380,309,0
794,-1345,309,0
795,-1380,309,0
796,-1385,309,0
797,-1355,309,0
798,-1335,309,0
799,-1405,309,0
800,-1345,309,0
801,-1305,309,0
802,-1370,309,0
803,-1410,309,0
804,-1390,309,0
805,-1380,309,0
806,-1410,309,0
807,-1370,309,0
808,-1340,309,0
809,-1390,309,0
810,-1405,309,0
811,-1390,309,0
812,-1395,309,0
813,-1365,309,0
814,-1370,309,0
815,-1395,309,0
816,-1380,309,0
817,-1375,309,0
818,-1300,309,0
819,-1335,309,0
820,-1365,309,0
821,-1360,309,0
822,-1415,309,0
823,-1340,309,0
824,-1450,309,0
825,-1405,309,0
826,-1370,309,0
827,-1380,309,0
828,-1355,309,0
829,-1315,309,0
830,-1390,309,0
831,-1415,309,0
832,-1445,309,0
833,-1365,309,0
834,-1435,309,0
835,-1425,309,0
836,-1490,309,0
837,-1470,309,0
838,-1400,309,0
839,-1390,309,0
840,-1360,309,0
841,-1390,309,0
842,-1400,309,0
843,-1490,309,0
844,-1490,309,0
845,-1490,309,0
846,-1490,309,0
847,-1360,309,0
848,-1490,309,0
849,-1470,309,0
850,-1490,309,0
851,-1490,309,0
852,-1490,309,0
853,-1390,309,0
854,-1405,309,0
855,-1410,309,0
856,-1350,309,0
857,-1445,309,0
858,-1360,309,0
859,-1340,309,0
860,-1355,309,0
861,-1380,309,0
862,-1425,309,0
863,-1405,309,0
864,-1360,309,0
865,-1390,309,0
866,-1470,309,0
867,-1375,309,0
868,-1445,309,0
869,-1375,309,0
870,-1470,309,0
871,-1470,309,0
872,-1470,309,0
873,-1415,309,0
874,-1380,309,0
875,-1470,309,0
876,-1490,309,0
877,-1340,309,0
878,-1465,309,0
879,-1490,309,0
880,-1400,309,0
881,-1385,309,0
882,-1470,309,0
883,-1440,309,0
884,-1490,309,0
885,-1340,309,0
886,-1505,309,0
887,-1505,309,0
888,-1420,309,0
889,-1505,309,0
890,-1505,309,0
891,-1505,309,0
892,-1515,309,0
893,-1505,309,0
894,-1505,309,0
895,-1470,309,0
896,-1505,309,0
897,-1490,309,0
898,-1505,309,0
899,-1380,309,0
900,-1490,309,0
901,-1470,309,0
902,-1395,309,0
903,-1515,309,0
904,-1435,309,0
905,-1480,309,0
906,-1490,309,0
907,-1355,309,0
908,-1490,309,0
909,-1490,309,0
910,-1470,309,0
911,-1380,309,0
912,-1505,309,0
913,-1330,309,0
914,-1490,309,0
915,-1415,309,0
916,-1390,309,0
917,-1480,309,0
918,-1505,309,0
919,-1435,309,0
920,-1480,309,0
921,-1515,309,0
922,-1505,309,0
923,-1505,309,0
924,-1515,309,0
925,-1515,309,0
926,-1525,309,0
927,-1455,309,0
928,-1515,309,0
929,-1450,309,0
930,-1500,309,0
931,-1480,309,0
932,-1490,309,0
933,-1475,309,0
934,-1490,309,0
935,-1490,309,0
936,-1455,309,0
937,-1490,309,0
938,-1475,309,0
939,-1355,309,0
940,-1360,309,0
941,-1525,309,0
942,-1400,309,0
943,-1340,309,0
944,-1365,309,0
945,-1390,309,0
946,-1390,309,0
947,-1335,309,0
948,-1410,309,0
949,-1345,309,0
950,-1340,309,0
951,-1390,309,0
952,-1395,309,0
953,-1405,309,0
954,-1385,309,0
955,-1390,309,0
956,-1455,309,0
957,-1400,309,0
958,-1415,309,0
959,-1410,309,0
960,-1440,309,0
961,-1400,309,0
962,-1380,309,0
963,-1370,309,0
964,-1395,309,0
965,-1390,309,0
966,-1405,309,0
967,-1400,309,0
968,-1335,309,0
969,-1405,309,0
970,-1420,309,0
971,-1410,309,0
972,-1425,309,0
973,-1415,309,0
974,-1390,309,0
975,-1385,309,0
976,-1410,309,0
977,-1355,309,0
978,-1400,309,0
979,-1375,309,0
980,-1405,309,0
981,-1330,309,0
982,-1360,309,0
983,-1355,309,0
984,-1415,309,0
985,-1390,309,0
986,-1360,309,0
987,-1400,309,0
988,-1465,309,0
989,-1395,309,0
990,-1410,309,0
991,-1375,309,0
992,-1360,309,0
993,-1380,309,0
994,-1350,309,0
995,-1395,309,0
996,-1415,309,0
997,-1405,309,0
998,-1440,309,0
999,-1375,309,0
