episode,reward,step,sensitive
0,990,50,6
1,1005,63,6
2,895,40,6
3,685,48,6
4,690,45,6
5,915,142,6
6,800,25,6
7,855,51,6
8,760,25,6
9,1055,102,6
10,675,29,6
11,715,45,6
12,775,28,6
13,785,30,6
14,745,25,6
15,1025,113,6
16,965,115,6
17,860,41,6
18,655,25,6
19,905,44,6
20,895,47,6
21,905,41,6
22,815,25,6
23,740,25,6
24,845,31,6
25,915,44,6
26,810,29,6
27,720,15,6
28,685,10,6
29,865,151,6
30,770,20,6
31,945,53,6
32,805,22,6
33,825,27,6
34,955,76,6
35,905,66,6
36,825,32,6
37,740,23,6
38,695,14,6
39,1000,52,6
40,815,26,6
41,755,38,6
42,850,31,6
43,710,17,6
44,735,21,6
45,810,39,6
46,720,27,6
47,590,50,6
48,770,70,6
49,375,90,6
50,75,220,6
51,165,146,6
52,400,79,6
53,410,241,6
54,205,150,6
55,610,117,6
56,345,127,6
57,435,87,6
58,660,183,6
59,760,55,6
60,645,54,6
61,1050,107,6
62,745,64,6
63,785,74,6
64,705,57,6
65,770,91,6
66,885,48,6
67,730,31,6
68,915,45,6
69,730,52,6
70,985,71,6
71,755,32,6
72,820,36,6
73,1020,94,6
74,820,40,6
75,930,52,6
76,755,17,6
77,740,20,6
78,735,24,6
79,805,28,6
80,1070,69,6
81,805,31,6
82,750,24,6
83,840,33,6
84,980,56,6
85,1030,83,6
86,1155,82,6
87,905,37,6
88,1025,86,6
89,740,17,6
90,780,24,6
91,750,24,6
92,955,81,6
93,840,36,6
94,1030,73,6
95,1010,63,6
96,1090,72,6
97,755,21,6
98,1000,54,6
99,635,187,6
100,1000,57,6
101,795,27,6
102,900,38,6
103,890,31,6
104,880,40,6
105,825,32,6
106,380,250,6
107,710,24,6
108,875,34,6
109,790,37,6
110,960,75,6
111,670,11,6
112,770,29,6
113,1040,78,6
114,815,161,6
115,945,54,6
116,750,18,6
117,845,47,6
118,930,116,6
119,695,18,6
120,870,36,6
121,900,43,6
122,785,23,6
123,1015,70,6
124,875,135,6
125,745,22,6
126,740,35,6
127,970,81,6
128,760,161,6
129,935,108,6
130,755,26,6
131,45,317,6
132,865,37,6
133,970,82,6
134,920,53,6
135,980,64,6
136,780,30,6
137,895,49,6
138,785,23,6
139,865,44,6
140,740,20,6
141,745,25,6
142,740,26,6
143,795,27,6
144,940,111,6
145,955,46,6
146,790,31,6
147,775,31,6
148,895,43,6
149,800,29,6
150,705,18,6
151,685,11,6
152,960,52,6
153,975,96,6
154,815,44,6
155,835,132,6
156,950,86,6
157,765,27,6
158,860,40,6
159,760,22,6
160,710,21,6
161,855,45,6
162,885,71,6
163,765,18,6
164,775,23,6
165,965,52,6
166,790,25,6
167,745,19,6
168,745,22,6
169,925,43,6
170,905,41,6
171,780,22,6
172,710,11,6
173,870,46,6
174,870,49,6
175,930,83,6
176,720,18,6
177,695,14,6
178,745,19,6
179,840,45,6
180,1030,64,6
181,765,24,6
182,900,97,6
183,730,19,6
184,840,36,6
185,860,88,6
186,735,21,6
187,705,18,6
188,750,21,6
189,740,23,6
190,765,33,6
191,725,17,6
192,885,45,6
193,745,18,6
194,755,17,6
195,720,30,6
196,720,18,6
197,750,24,6
198,685,19,6
199,715,19,6
200,690,27,6
201,755,26,6
202,705,21,6
203,785,32,6
204,700,22,6
205,770,52,6
206,760,28,6
207,785,35,6
208,715,37,6
209,715,19,6
210,670,52,6
211,670,25,6
212,675,27,6
213,780,69,6
214,670,43,6
215,635,53,6
216,605,67,6
217,785,31,6
218,665,26,6
219,655,43,6
220,545,62,6
221,680,56,6
222,805,53,6
223,550,99,6
224,625,60,6
225,765,36,6
226,275,135,6
227,800,50,6
228,615,36,6
229,620,32,6
230,725,39,6
231,810,73,6
232,625,63,6
233,685,25,6
234,745,46,6
235,605,44,6
236,755,35,6
237,745,31,6
238,595,55,6
239,750,30,6
240,685,46,6
241,760,43,6
242,715,64,6
243,875,56,6
244,680,29,6
245,860,47,6
246,620,53,6
247,935,86,6
248,920,98,6
249,840,68,6
250,715,54,6
251,620,180,6
252,545,117,6
253,770,47,6
254,720,54,6
255,750,42,6
256,780,40,6
257,720,20,6
258,750,30,6
259,740,20,6
260,875,47,6
261,750,21,6
262,780,27,6
263,935,93,6
264,790,34,6
265,730,22,6
266,750,18,6
267,725,20,6
268,705,24,6
269,790,34,6
270,950,88,6
271,750,24,6
272,730,25,6
273,740,35,6
274,985,76,6
275,825,29,6
276,710,15,6
277,745,20,6
278,810,32,6
279,725,39,6
280,680,20,6
281,660,65,6
282,705,88,6
283,620,72,6
284,245,154,6
285,290,104,6
286,-445,349,6
287,-800,331,6
288,25,208,6
289,-915,363,6
290,-3050,609,0
291,-515,314,6
292,615,51,6
293,-505,329,6
294,565,59,6
295,850,69,6
296,-670,300,6
297,760,39,6
298,725,61,6
299,880,51,6
300,775,31,6
301,830,37,6
302,670,29,6
303,705,25,6
304,825,27,6
305,695,15,6
306,720,28,6
307,825,45,6
308,830,67,6
309,760,31,6
310,865,70,6
311,755,24,6
312,840,78,6
313,925,75,6
314,700,22,6
315,855,70,6
316,830,80,6
317,745,34,6
318,830,41,6
319,900,53,6
320,835,56,6
321,755,26,6
322,825,45,6
323,715,13,6
324,740,17,6
325,785,29,6
326,670,20,6
327,840,50,6
328,735,21,6
329,775,22,6
330,825,65,6
331,755,28,6
332,680,12,6
333,785,26,6
334,935,69,6
335,815,26,6
336,860,34,6
337,745,43,6
338,750,21,6
339,710,17,6
340,875,57,6
341,745,24,6
342,775,25,6
343,705,29,6
344,815,35,6
345,805,44,6
346,850,40,6
347,700,16,6
348,755,17,6
349,725,17,6
350,730,22,6
351,760,31,6
352,815,42,6
353,705,21,6
354,795,21,6
355,725,20,6
356,790,49,6
357,685,34,6
358,770,26,6
359,725,29,6
360,720,27,6
361,775,49,6
362,800,84,6
363,825,51,6
364,805,107,6
365,770,40,6
366,770,38,6
367,840,42,6
368,720,18,6
369,720,30,6
370,875,52,6
371,680,26,6
372,840,71,6
373,815,93,6
374,760,34,6
375,895,71,6
376,745,31,6
377,745,19,6
378,840,54,6
379,850,79,6
380,775,51,6
381,700,34,6
382,725,23,6
383,760,25,6
384,890,61,6
385,795,32,6
386,815,131,6
387,745,37,6
388,750,24,6
389,810,43,6
390,855,72,6
391,950,77,6
392,735,33,6
393,725,55,6
394,785,62,6
395,760,27,6
396,750,30,6
397,800,26,6
398,770,51,6
399,845,68,6
400,810,52,6
401,890,51,6
402,735,36,6
403,795,47,6
404,785,50,6
405,950,67,6
406,770,31,6
407,810,35,6
408,865,66,6
409,830,32,6
410,760,28,6
411,925,55,6
412,725,31,6
413,845,60,6
414,735,24,6
415,765,62,6
416,805,25,6
417,825,46,6
418,725,38,6
419,800,31,6
420,835,42,6
421,795,101,6
422,755,43,6
423,765,26,6
424,690,24,6
425,720,24,6
426,720,21,6
427,755,25,6
428,745,63,6
429,795,36,6
430,800,41,6
431,745,25,6
432,775,97,6
433,735,29,6
434,740,29,6
435,710,74,6
436,710,20,6
437,730,16,6
438,745,49,6
439,780,36,6
440,725,58,6
441,755,29,6
442,715,22,6
443,835,45,6
444,770,43,6
445,830,35,6
446,785,43,6
447,725,26,6
448,700,16,6
449,730,58,6
450,750,60,6
451,775,31,6
452,730,39,6
453,715,25,6
454,710,32,6
455,770,25,6
456,730,28,6
457,730,21,6
458,700,55,6
459,745,22,6
460,690,32,6
461,790,34,6
462,695,58,6
463,735,68,6
464,720,62,6
465,675,30,6
466,745,76,6
467,795,59,6
468,790,48,6
469,710,44,6
470,710,50,6
471,745,53,6
472,785,54,6
473,740,29,6
474,775,37,6
475,725,31,6
476,810,54,6
477,650,80,6
478,750,39,6
479,785,49,6
480,765,38,6
481,790,37,6
482,670,52,6
483,710,31,6
484,740,29,6
485,835,45,6
486,700,97,6
487,780,24,6
488,705,21,6
489,705,23,6
490,725,29,6
491,835,59,6
492,780,36,6
493,735,39,6
494,755,55,6
495,715,93,6
496,730,43,6
497,695,78,6
498,700,40,6
499,690,51,6
500,725,65,6
501,715,70,6
502,645,39,6
503,710,23,6
504,650,124,6
505,685,42,6
506,620,73,6
507,765,38,6
508,740,44,6
509,775,37,6
510,685,33,6
511,715,56,6
512,705,35,6
513,720,53,6
514,720,21,6
515,745,34,6
516,740,31,6
517,735,56,6
518,760,66,6
519,735,24,6
520,730,30,6
521,775,29,6
522,710,44,6
523,685,52,6
524,785,35,6
525,735,39,6
526,710,45,6
527,660,51,6
528,780,64,6
529,685,31,6
530,735,69,6
531,715,24,6
532,755,44,6
533,750,66,6
534,635,56,6
535,700,18,6
536,695,77,6
537,705,84,6
538,690,52,6
539,700,33,6
540,755,37,6
541,700,31,6
542,725,33,6
543,685,55,6
544,700,77,6
545,740,20,6
546,750,41,6
547,750,21,6
548,745,39,6
549,785,35,6
550,715,118,6
551,705,59,6
552,680,106,6
553,715,78,6
554,715,93,6
555,735,72,6
556,750,21,6
557,715,37,6
558,740,29,6
559,705,35,6
560,740,56,6
561,745,95,6
562,780,21,6
563,705,27,6
564,790,52,6
565,710,78,6
566,680,98,6
567,730,49,6
568,740,69,6
569,800,68,6
570,735,48,6
571,830,61,6
572,785,28,6
573,705,123,6
574,765,44,6
575,600,59,6
576,735,70,6
577,715,88,6
578,695,108,6
579,780,35,6
580,740,46,6
581,795,60,6
582,740,52,6
583,830,89,6
584,705,60,6
585,745,58,6
586,760,52,6
587,735,41,6
588,715,57,6
589,730,30,6
590,770,55,6
591,785,70,6
592,750,26,6
593,725,33,6
594,635,92,6
595,700,72,6
596,780,41,6
597,755,67,6
598,710,43,6
599,735,86,6
600,785,43,6
601,665,101,6
602,765,65,6
603,705,47,6
604,675,63,6
605,715,25,6
606,680,52,6
607,740,41,6
608,750,71,6
609,695,26,6
610,685,90,6
611,670,36,6
612,720,27,6
613,660,35,6
614,590,109,6
615,665,38,6
616,765,47,6
617,550,114,6
618,550,155,6
619,700,25,6
620,615,140,6
621,695,70,6
622,760,58,6
623,785,46,6
624,710,52,6
625,810,74,6
626,710,35,6
627,735,73,6
628,620,98,6
629,750,53,6
630,755,44,6
631,765,47,6
632,750,62,6
633,705,36,6
634,710,49,6
635,865,54,6
636,750,37,6
637,725,23,6
638,770,39,6
639,800,29,6
640,770,51,6
641,765,25,6
642,770,41,6
643,755,62,6
644,690,21,6
645,755,44,6
646,815,76,6
647,790,55,6
648,655,75,6
649,785,37,6
650,780,53,6
651,815,32,6
652,795,41,6
653,745,28,6
654,790,69,6
655,760,60,6
656,715,89,6
657,820,76,6
658,745,40,6
659,780,35,6
660,770,46,6
661,780,80,6
662,805,55,6
663,790,52,6
664,795,89,6
665,780,52,6
666,755,84,6
667,750,23,6
668,735,26,6
669,725,104,6
670,825,83,6
671,710,102,6
672,785,72,6
673,325,244,6
674,780,84,6
675,765,29,6
676,815,36,6
677,745,35,6
678,685,125,6
679,490,182,6
680,860,51,6
681,820,63,6
682,790,41,6
683,790,47,6
684,830,88,6
685,795,31,6
686,760,31,6
687,785,67,6
688,745,39,6
689,745,34,6
690,800,34,6
691,775,31,6
692,810,36,6
693,780,51,6
694,720,15,6
695,690,73,6
696,815,54,6
697,760,45,6
698,820,49,6
699,735,26,6
700,760,61,6
701,740,37,6
702,735,36,6
703,750,33,6
704,740,76,6
705,785,55,6
706,780,53,6
707,795,41,6
708,720,27,6
709,825,48,6
710,715,16,6
711,730,28,6
712,730,39,6
713,770,35,6
714,745,34,6
715,715,31,6
716,745,25,6
717,750,35,6
718,760,24,6
719,750,24,6
720,685,40,6
721,665,52,6
722,680,34,6
723,740,65,6
724,690,30,6
725,670,55,6
726,745,52,6
727,685,48,6
728,665,58,6
729,695,70,6
730,735,39,6
731,695,44,6
732,710,17,6
733,730,27,6
734,730,31,6
735,655,57,6
736,735,54,6
737,750,36,6
738,620,99,6
739,780,24,6
740,740,50,6
741,705,62,6
742,725,38,6
743,700,25,6
744,750,29,6
745,735,32,6
746,685,25,6
747,700,40,6
748,760,61,6
749,695,88,6
750,725,43,6
751,705,39,6
752,730,31,6
753,705,36,6
754,705,42,6
755,760,46,6
756,735,33,6
757,690,64,6
758,720,41,6
759,740,79,6
760,745,31,6
761,640,124,6
762,705,21,6
763,735,18,6
764,725,26,6
765,660,61,6
766,615,83,6
767,690,45,6
768,765,30,6
769,820,46,6
770,725,32,6
771,695,31,6
772,735,96,6
773,715,90,6
774,680,41,6
775,705,38,6
776,705,17,6
777,785,37,6
778,725,14,6
779,770,34,6
780,805,74,6
781,755,54,6
782,720,71,6
783,710,43,6
784,805,43,6
785,725,35,6
786,755,56,6
787,770,60,6
788,795,30,6
789,780,30,6
790,735,45,6
791,685,27,6
792,730,58,6
793,690,33,6
794,710,38,6
795,740,82,6
796,670,105,6
797,790,50,6
798,760,63,6
799,730,37,6
800,700,73,6
801,735,87,6
802,710,20,6
803,750,20,6
804,725,76,6
805,655,79,6
806,730,22,6
807,735,35,6
808,725,38,6
809,680,20,6
810,735,28,6
811,720,45,6
812,785,36,6
813,715,72,6
814,725,20,6
815,710,85,6
816,810,41,6
817,755,45,6
818,750,33,6
819,755,60,6
820,680,100,6
821,730,41,6
822,735,44,6
823,725,17,6
824,770,40,6
825,785,29,6
826,675,56,6
827,785,46,6
828,680,59,6
829,730,59,6
830,740,38,6
831,510,173,6
832,735,30,6
833,720,27,6
834,770,70,6
835,740,32,6
836,725,57,6
837,685,78,6
838,735,27,6
839,815,26,6
840,745,19,6
841,715,57,6
842,755,70,6
843,740,50,6
844,705,32,6
845,730,62,6
846,745,43,6
847,750,70,6
848,810,52,6
849,775,71,6
850,785,40,6
851,830,41,6
852,755,35,6
853,740,32,6
854,825,41,6
855,780,41,6
856,755,49,6
857,705,39,6
858,750,36,6
859,760,59,6
860,820,95,6
861,735,25,6
862,745,39,6
863,725,113,6
864,800,46,6
865,790,69,6
866,700,59,6
867,725,28,6
868,700,48,6
869,715,16,6
870,760,59,6
871,725,25,6
872,745,31,6
873,710,52,6
874,745,36,6
875,740,35,6
876,760,60,6
877,655,46,6
878,740,63,6
879,685,76,6
880,705,64,6
881,735,21,6
882,800,53,6
883,740,34,6
884,710,20,6
885,685,30,6
886,745,33,6
887,780,49,6
888,725,45,6
889,695,88,6
890,700,21,6
891,755,51,6
892,685,33,6
893,730,28,6
894,695,67,6
895,725,35,6
896,765,30,6
897,735,94,6
898,755,25,6
899,685,47,6
900,755,35,6
901,770,40,6
902,690,47,6
903,720,58,6
904,705,38,6
905,675,21,6
906,735,59,6
907,710,29,6
908,695,49,6
909,735,23,6
910,735,35,6
911,745,37,6
912,715,99,6
913,720,36,6
914,755,56,6
915,745,21,6
916,695,23,6
917,765,42,6
918,690,36,6
919,755,23,6
920,750,34,6
921,710,35,6
922,740,31,6
923,715,39,6
924,725,29,6
925,730,25,6
926,750,42,6
927,735,23,6
928,725,28,6
929,725,34,6
930,785,53,6
931,685,40,6
932,775,46,6
933,725,25,6
934,695,64,6
935,740,74,6
936,710,61,6
937,740,36,6
938,730,30,6
939,695,28,6
940,775,26,6
941,735,70,6
942,730,22,6
943,710,48,6
944,760,37,6
945,695,17,6
946,755,23,6
947,735,32,6
948,770,56,6
949,750,27,6
950,775,40,6
951,745,34,6
952,765,43,6
953,710,23,6
954,735,26,6
955,695,58,6
956,710,37,6
957,710,17,6
958,745,25,6
959,755,39,6
960,730,42,6
961,655,25,6
962,700,54,6
963,685,31,6
964,770,26,6
965,640,51,6
966,695,46,6
967,710,38,6
968,715,25,6
969,650,44,6
970,725,26,6
971,690,32,6
972,700,31,6
973,620,41,6
974,695,58,6
975,685,46,6
976,710,20,6
977,655,34,6
978,680,17,6
979,670,25,6
980,730,34,6
981,725,58,6
982,735,24,6
983,725,55,6
984,700,16,6
985,655,31,6
986,590,56,6
987,640,66,6
988,700,34,6
989,685,25,6
990,710,25,6
991,700,40,6
992,730,22,6
993,705,33,6
994,730,37,6
995,695,29,6
996,660,21,6
997,685,81,6
998,585,103,6
999,710,26,6
