episode,reward,step,sensitive
0,-1010,209,0
1,-1000,209,0
2,-740,209,1
3,-975,209,0
4,-975,209,0
5,-1010,209,0
6,-1025,209,0
7,-880,209,0
8,-1010,209,0
9,-960,209,0
10,-1050,209,0
11,-880,209,0
12,-835,209,0
13,-780,209,0
14,-220,134,2
15,-880,209,0
16,-960,209,0
17,-795,209,0
18,-905,209,0
19,-945,209,0
20,-850,209,0
21,-605,209,1
22,-1050,209,0
23,-960,209,0
24,-855,209,0
25,-530,199,2
26,-965,209,0
27,-365,175,2
28,-445,208,2
29,-935,209,0
30,-970,209,0
31,-530,187,2
32,-565,205,2
33,-840,209,0
34,-210,147,2
35,-730,209,1
36,-820,209,0
37,-1050,209,0
38,-895,209,0
39,-845,209,0
40,-990,209,0
41,-1050,209,0
42,-635,209,1
43,-215,133,2
44,-845,209,0
45,-930,209,0
46,-690,209,1
47,-1025,209,0
48,-770,209,0
49,-970,209,0
50,-880,209,0
51,-600,209,1
52,-135,134,2
53,-840,209,0
54,-805,209,0
55,-1010,209,0
56,-970,209,0
57,-790,209,0
58,-705,209,1
59,-490,194,2
60,-650,209,1
61,-960,209,0
62,-895,209,0
63,-865,209,0
64,-145,110,2
65,-660,204,2
66,-575,209,1
67,-405,194,2
68,-890,209,0
69,-375,175,2
70,-985,209,0
71,-985,209,0
72,-970,209,0
73,-670,209,1
74,-300,174,2
75,-640,209,1
76,-915,209,0
77,-1050,209,0
78,75,60,2
79,-765,209,1
80,-780,209,0
81,-795,209,0
82,-655,209,1
83,-670,209,1
84,-225,149,2
85,-530,188,2
86,-145,101,2
87,-475,175,2
88,-1050,209,0
89,-480,184,2
90,10,68,2
91,-5,81,2
92,-525,206,2
93,20,88,2
94,5,88,2
95,-200,112,2
96,10,67,2
97,20,87,2
98,-530,193,2
99,-65,103,2
100,-55,82,2
101,-35,88,2
102,-975,209,0
103,-25,82,2
104,5,62,2
105,-50,83,2
106,55,61,2
107,-410,168,2
108,-805,209,0
109,70,60,2
110,-115,103,2
111,-990,209,0
112,-80,93,2
113,70,67,2
114,20,66,2
115,-5,65,2
116,135,31,2
117,-95,85,2
118,-310,131,2
119,160,27,2
120,-10,58,2
121,70,56,2
122,155,32,2
123,80,48,2
124,220,20,2
125,175,21,2
126,80,40,2
127,180,20,2
128,225,14,2
129,200,30,2
130,280,8,2
131,195,17,2
132,230,19,2
133,205,26,2
134,155,25,2
135,230,13,2
136,110,39,2
137,185,19,2
138,195,22,2
139,220,12,2
140,255,15,2
141,240,8,2
142,135,32,2
143,240,16,2
144,75,51,2
145,235,9,2
146,245,17,2
147,225,14,2
148,130,30,2
149,185,19,2
150,205,15,2
151,245,7,2
152,255,8,2
153,220,12,2
154,245,7,2
155,240,8,2
156,235,20,2
157,250,6,2
158,255,8,2
159,240,11,2
160,230,10,2
161,185,22,2
162,225,11,2
163,180,20,2
164,130,33,2
165,190,21,2
166,230,13,2
167,245,7,2
168,220,20,2
169,215,16,2
170,200,16,2
171,120,35,2
172,110,34,2
173,110,34,2
174,225,11,2
175,95,37,2
176,55,48,2
177,220,15,2
178,250,12,2
179,30,56,2
180,160,30,2
181,215,13,2
182,225,11,2
183,235,9,2
184,245,7,2
185,230,13,2
186,210,14,2
187,250,6,2
188,195,20,2
189,255,5,2
190,205,15,2
191,270,5,2
192,165,26,2
193,195,17,2
194,250,6,2
195,250,9,2
196,260,4,2
197,245,7,2
198,255,5,2
199,265,6,2
200,245,10,2
201,265,6,2
202,240,8,2
203,220,12,2
204,235,9,2
205,150,29,2
206,150,26,2
207,-305,120,2
208,25,54,2
209,45,50,2
210,165,23,2
211,70,42,2
212,70,42,2
213,75,44,2
214,-190,97,2
215,255,8,2
216,170,22,2
217,235,9,2
218,180,20,2
219,190,18,2
220,265,6,2
221,250,6,2
222,225,14,2
223,255,5,2
224,250,9,2
225,245,7,2
226,270,5,2
227,240,11,2
228,260,7,2
229,195,20,2
230,220,15,2
231,240,11,2
232,260,4,2
233,245,10,2
234,240,11,2
235,235,12,2
236,220,15,2
237,225,14,2
238,230,10,2
239,220,15,2
240,240,11,2
241,265,6,2
242,215,16,2
243,230,13,2
244,240,11,2
245,230,13,2
246,225,14,2
247,225,14,2
248,275,7,2
249,250,9,2
250,255,5,2
251,245,10,2
252,210,17,2
253,160,27,2
254,260,7,2
255,255,8,2
256,220,15,2
257,235,12,2
258,245,10,2
259,265,6,2
260,235,12,2
261,255,8,2
262,200,19,2
263,250,9,2
264,235,12,2
265,240,11,2
266,250,9,2
267,250,6,2
268,220,12,2
269,255,8,2
270,255,5,2
271,245,10,2
272,240,8,2
273,250,9,2
274,260,7,2
275,235,12,2
276,250,6,2
277,250,9,2
278,255,5,2
279,255,8,2
280,250,6,2
281,255,5,2
282,230,10,2
283,255,5,2
284,255,5,2
285,260,4,2
286,225,11,2
287,240,11,2
288,255,5,2
289,260,4,2
290,230,10,2
291,245,7,2
292,255,5,2
293,230,10,2
294,260,4,2
295,255,5,2
296,255,5,2
297,260,4,2
298,245,7,2
299,255,5,2
300,255,5,2
301,255,5,2
302,260,4,2
303,225,11,2
304,255,5,2
305,255,5,2
306,250,6,2
307,235,12,2
308,260,4,2
309,215,13,2
310,260,4,2
311,240,8,2
312,245,7,2
313,260,4,2
314,245,7,2
315,255,5,2
316,260,4,2
317,245,7,2
318,255,5,2
319,265,6,2
320,250,6,2
321,240,8,2
322,240,8,2
323,240,8,2
324,250,6,2
325,255,5,2
326,245,7,2
327,260,4,2
328,250,6,2
329,235,9,2
330,250,6,2
331,255,5,2
332,270,5,2
333,250,6,2
334,235,9,2
335,250,6,2
336,250,6,2
337,260,4,2
338,255,5,2
339,260,4,2
340,230,10,2
341,245,7,2
342,255,5,2
343,250,6,2
344,240,8,2
345,235,9,2
346,260,4,2
347,245,7,2
348,260,4,2
349,255,5,2
350,245,7,2
351,255,5,2
352,250,6,2
353,235,9,2
354,225,14,2
355,260,4,2
356,255,5,2
357,260,4,2
358,250,6,2
359,260,4,2
360,260,4,2
361,255,5,2
362,245,7,2
363,240,8,2
364,260,4,2
365,255,5,2
366,240,8,2
367,245,7,2
368,235,9,2
369,210,14,2
370,230,10,2
371,230,10,2
372,235,9,2
373,210,14,2
374,235,9,2
375,220,12,2
376,260,4,2
377,200,16,2
378,245,7,2
379,250,6,2
380,245,7,2
381,250,6,2
382,245,7,2
383,255,5,2
384,255,5,2
385,255,5,2
386,250,6,2
387,260,4,2
388,255,5,2
389,240,8,2
390,255,5,2
391,260,4,2
392,245,7,2
393,230,10,2
394,240,8,2
395,225,11,2
396,245,7,2
397,245,7,2
398,260,4,2
399,200,16,2
400,250,6,2
401,235,9,2
402,255,5,2
403,225,11,2
404,255,5,2
405,240,8,2
406,240,8,2
407,255,5,2
408,225,11,2
409,260,4,2
410,260,4,2
411,245,7,2
412,260,4,2
413,250,6,2
414,245,7,2
415,250,6,2
416,255,5,2
417,250,6,2
418,260,4,2
419,245,7,2
420,240,8,2
421,230,10,2
422,245,7,2
423,260,4,2
424,255,5,2
425,260,4,2
426,255,5,2
427,260,4,2
428,230,10,2
429,255,8,2
430,255,5,2
431,250,6,2
432,260,4,2
433,235,9,2
434,260,4,2
435,260,4,2
436,250,6,2
437,260,4,2
438,255,5,2
439,260,4,2
440,245,7,2
441,230,10,2
442,250,6,2
443,250,6,2
444,250,6,2
445,255,5,2
446,230,10,2
447,250,6,2
448,260,4,2
449,255,5,2
450,255,5,2
451,245,7,2
452,255,5,2
453,250,6,2
454,215,13,2
455,250,6,2
456,260,4,2
457,260,4,2
458,260,4,2
459,240,8,2
460,260,4,2
461,255,5,2
462,255,5,2
463,245,7,2
464,260,4,2
465,260,4,2
466,250,6,2
467,260,4,2
468,230,10,2
469,255,5,2
470,245,7,2
471,225,11,2
472,255,5,2
473,255,5,2
474,260,4,2
475,250,6,2
476,260,4,2
477,260,4,2
478,235,9,2
479,260,4,2
480,215,13,2
481,250,6,2
482,260,4,2
483,235,9,2
484,260,4,2
485,260,4,2
486,260,4,2
487,250,6,2
488,255,5,2
489,245,7,2
490,255,5,2
491,260,4,2
492,250,6,2
493,260,4,2
494,255,5,2
495,255,5,2
496,260,4,2
497,255,5,2
498,260,4,2
499,260,4,2
500,240,8,2
501,255,5,2
502,250,6,2
503,250,6,2
504,255,5,2
505,245,7,2
506,260,4,2
507,250,6,2
508,230,10,2
509,240,8,2
510,260,4,2
511,245,7,2
512,250,6,2
513,255,5,2
514,245,7,2
515,240,8,2
516,240,8,2
517,215,13,2
518,245,7,2
519,255,5,2
520,230,10,2
521,260,4,2
522,255,5,2
523,250,6,2
524,260,7,2
525,255,5,2
526,250,6,2
527,260,4,2
528,255,5,2
529,260,4,2
530,260,4,2
531,255,5,2
532,245,7,2
533,245,7,2
534,250,6,2
535,255,5,2
536,260,4,2
537,250,6,2
538,260,4,2
539,260,4,2
540,250,6,2
541,260,4,2
542,260,4,2
543,255,5,2
544,240,8,2
545,255,5,2
546,255,5,2
547,255,5,2
548,260,4,2
549,250,6,2
550,260,4,2
551,250,6,2
552,235,9,2
553,255,5,2
554,260,4,2
555,250,6,2
556,215,13,2
557,260,4,2
558,255,8,2
559,255,5,2
560,220,12,2
561,255,5,2
562,255,5,2
563,250,6,2
564,250,6,2
565,255,5,2
566,260,4,2
567,255,5,2
568,255,5,2
569,255,5,2
570,260,4,2
571,255,5,2
572,250,6,2
573,260,4,2
574,260,4,2
575,260,4,2
576,245,7,2
577,260,4,2
578,260,4,2
579,245,7,2
580,245,7,2
581,250,6,2
582,270,5,2
583,250,6,2
584,250,6,2
585,260,4,2
586,250,6,2
587,250,6,2
588,245,7,2
589,255,5,2
590,255,5,2
591,260,4,2
592,260,7,2
593,240,8,2
594,250,6,2
595,260,4,2
596,250,6,2
597,255,5,2
598,260,4,2
599,260,4,2
600,260,4,2
601,260,4,2
602,250,6,2
603,260,4,2
604,255,5,2
605,250,6,2
606,255,5,2
607,255,5,2
608,245,7,2
609,250,6,2
610,260,4,2
611,260,4,2
612,265,6,2
613,225,11,2
614,245,7,2
615,250,6,2
616,260,4,2
617,255,5,2
618,260,4,2
619,250,6,2
620,255,5,2
621,260,4,2
622,255,5,2
623,260,4,2
624,235,9,2
625,260,4,2
626,260,4,2
627,245,7,2
628,255,8,2
629,245,7,2
630,255,5,2
631,250,6,2
632,260,4,2
633,250,6,2
634,255,5,2
635,245,7,2
636,260,4,2
637,250,6,2
638,260,4,2
639,255,5,2
640,255,5,2
641,255,5,2
642,250,6,2
643,260,4,2
644,260,4,2
645,250,6,2
646,235,9,2
647,260,4,2
648,260,4,2
649,260,4,2
650,250,6,2
651,255,5,2
652,245,7,2
653,255,8,2
654,245,7,2
655,245,7,2
656,225,11,2
657,255,5,2
658,195,17,2
659,230,10,2
660,145,27,2
661,245,7,2
662,255,5,2
663,255,5,2
664,70,42,2
665,155,25,2
666,225,11,2
667,255,5,2
668,245,7,2
669,245,7,2
670,255,5,2
671,235,9,2
672,235,9,2
673,235,9,2
674,245,7,2
675,245,7,2
676,255,5,2
677,240,8,2
678,255,5,2
679,235,9,2
680,260,4,2
681,255,5,2
682,250,6,2
683,255,5,2
684,240,8,2
685,260,4,2
686,245,7,2
687,255,5,2
688,260,4,2
689,250,6,2
690,250,6,2
691,265,6,2
692,255,5,2
693,255,5,2
694,255,5,2
695,255,5,2
696,255,5,2
697,255,5,2
698,240,8,2
699,240,8,2
700,260,4,2
701,260,4,2
702,265,6,2
703,255,5,2
704,260,4,2
705,260,4,2
706,255,5,2
707,260,4,2
708,260,4,2
709,235,9,2
710,255,5,2
711,255,5,2
712,260,4,2
713,240,8,2
714,255,5,2
715,235,9,2
716,260,4,2
717,240,8,2
718,240,8,2
719,250,6,2
720,245,7,2
721,250,6,2
722,255,5,2
723,215,13,2
724,235,12,2
725,255,5,2
726,240,8,2
727,235,9,2
728,255,5,2
729,200,16,2
730,260,4,2
731,260,4,2
732,235,12,2
733,260,4,2
734,255,5,2
735,255,5,2
736,260,4,2
737,260,4,2
738,250,6,2
739,255,8,2
740,260,4,2
741,260,4,2
742,270,5,2
743,260,4,2
744,260,4,2
745,250,6,2
746,260,4,2
747,250,6,2
748,260,4,2
749,260,4,2
750,260,4,2
751,255,5,2
752,255,5,2
753,250,6,2
754,255,5,2
755,260,4,2
756,260,4,2
757,260,4,2
758,240,11,2
759,240,8,2
760,270,5,2
761,250,6,2
762,260,4,2
763,260,4,2
764,260,4,2
765,260,4,2
766,260,4,2
767,260,4,2
768,255,5,2
769,250,6,2
770,260,4,2
771,260,4,2
772,260,4,2
773,250,6,2
774,225,11,2
775,240,8,2
776,250,6,2
777,245,7,2
778,255,5,2
779,255,5,2
780,260,4,2
781,245,7,2
782,255,5,2
783,265,6,2
784,250,6,2
785,260,4,2
786,240,8,2
787,260,4,2
788,270,7,2
789,255,5,2
790,260,4,2
791,255,5,2
792,250,6,2
793,260,4,2
794,260,4,2
795,255,5,2
796,250,6,2
797,230,10,2
798,240,8,2
799,240,8,2
800,255,5,2
801,255,5,2
802,240,8,2
803,235,9,2
804,260,4,2
805,260,4,2
806,255,5,2
807,250,6,2
808,270,7,2
809,255,5,2
810,260,4,2
811,255,5,2
812,245,7,2
813,250,6,2
814,260,4,2
815,260,4,2
816,255,5,2
817,255,5,2
818,260,4,2
819,255,5,2
820,255,5,2
821,255,5,2
822,260,4,2
823,230,10,2
824,255,5,2
825,255,5,2
826,260,4,2
827,245,7,2
828,255,5,2
829,245,7,2
830,260,4,2
831,260,4,2
832,245,12,2
833,245,7,2
834,250,6,2
835,255,5,2
836,240,8,2
837,260,4,2
838,255,8,2
839,260,4,2
840,260,4,2
841,245,7,2
842,250,6,2
843,260,4,2
844,260,4,2
845,255,5,2
846,255,5,2
847,250,6,2
848,255,5,2
849,260,4,2
850,255,5,2
851,260,4,2
852,260,4,2
853,260,4,2
854,255,5,2
855,255,5,2
856,260,4,2
857,255,5,2
858,245,7,2
859,255,5,2
860,260,4,2
861,255,5,2
862,255,5,2
863,255,5,2
864,245,7,2
865,260,7,2
866,250,6,2
867,260,4,2
868,260,4,2
869,245,9,2
870,255,5,2
871,255,5,2
872,260,4,2
873,250,6,2
874,260,4,2
875,260,4,2
876,245,7,2
877,260,4,2
878,240,8,2
879,235,9,2
880,250,6,2
881,250,6,2
882,250,6,2
883,260,4,2
884,260,4,2
885,255,5,2
886,260,4,2
887,260,4,2
888,260,4,2
889,275,7,2
890,250,6,2
891,265,6,2
892,255,5,2
893,255,5,2
894,255,8,2
895,260,7,2
896,245,7,2
897,235,9,2
898,255,5,2
899,245,7,2
900,255,5,2
901,260,4,2
902,265,6,2
903,265,6,2
904,260,4,2
905,255,5,2
906,270,7,2
907,245,10,2
908,255,5,2
909,260,4,2
910,260,9,2
911,260,4,2
912,250,6,2
913,255,5,2
914,255,11,2
915,260,4,2
916,245,10,2
917,255,8,2
918,270,8,2
919,255,5,2
920,255,5,2
921,260,4,2
922,255,5,2
923,255,5,2
924,255,5,2
925,230,13,2
926,260,4,2
927,250,6,2
928,255,5,2
929,260,4,2
930,255,5,2
931,255,5,2
932,260,4,2
933,260,4,2
934,255,5,2
935,260,4,2
936,260,4,2
937,260,4,2
938,260,4,2
939,260,4,2
940,255,5,2
941,245,7,2
942,260,4,2
943,255,5,2
944,260,4,2
945,255,5,2
946,260,4,2
947,265,6,2
948,250,6,2
949,250,6,2
950,260,4,2
951,255,5,2
952,260,4,2
953,250,6,2
954,255,5,2
955,235,9,2
956,255,5,2
957,255,5,2
958,240,8,2
959,255,5,2
960,260,4,2
961,255,5,2
962,260,4,2
963,255,5,2
964,260,7,2
965,260,4,2
966,255,5,2
967,265,6,2
968,230,10,2
969,250,6,2
970,260,4,2
971,260,4,2
972,255,5,2
973,255,5,2
974,250,8,2
975,260,4,2
976,260,4,2
977,255,5,2
978,260,4,2
979,240,8,2
980,260,4,2
981,260,4,2
982,260,4,2
983,255,5,2
984,260,4,2
985,255,5,2
986,255,5,2
987,260,4,2
988,260,4,2
989,260,7,2
990,250,6,2
991,260,4,2
992,250,6,2
993,260,4,2
994,270,5,2
995,260,4,2
996,260,4,2
997,255,5,2
998,245,7,2
999,260,4,2
