episode,reward,step,sensitive
0,900,139,12
1,880,139,12
2,65,169,6
3,585,169,10
4,670,169,11
5,800,161,12
6,900,145,12
7,755,161,12
8,925,133,12
9,840,154,12
10,255,169,8
11,305,169,8
12,925,134,12
13,420,169,9
14,680,169,11
15,415,169,9
16,680,169,11
17,815,165,12
18,345,169,8
19,530,169,10
20,305,169,8
21,760,166,12
22,-175,169,5
23,965,128,12
24,635,169,11
25,545,169,10
26,-200,169,5
27,660,169,11
28,625,169,11
29,420,169,9
30,655,169,11
31,-210,169,5
32,490,169,10
33,855,142,12
34,950,115,12
35,915,131,12
36,620,169,11
37,795,153,12
38,620,169,11
39,625,169,11
40,945,125,12
41,545,169,10
42,920,133,12
43,710,169,11
44,680,169,11
45,640,169,11
46,630,169,11
47,1110,98,12
48,635,169,11
49,610,169,11
50,985,116,12
51,930,134,12
52,670,169,11
53,655,169,11
54,485,169,10
55,820,153,12
56,975,127,12
57,765,163,12
58,820,158,12
59,1095,98,12
60,630,169,11
61,910,137,12
62,520,169,10
63,710,169,11
64,990,105,12
65,945,135,12
66,1190,72,12
67,635,169,11
68,1140,92,12
69,755,164,12
70,950,124,12
71,795,166,12
72,730,167,12
73,1050,102,12
74,670,169,11
75,820,164,12
76,980,125,12
77,890,146,12
78,795,163,12
79,650,169,11
80,905,136,12
81,680,169,11
82,780,159,12
83,830,144,12
84,730,169,12
85,915,130,12
86,1020,109,12
87,855,144,12
88,650,169,11
89,930,135,12
90,615,169,11
91,660,169,11
92,645,169,11
93,645,169,11
94,680,169,11
95,915,130,12
96,610,169,11
97,865,144,12
98,860,148,12
99,970,116,12
100,765,159,12
101,855,146,12
102,630,169,11
103,925,131,12
104,1005,111,12
105,910,131,12
106,975,122,12
107,780,159,12
108,905,129,12
109,960,130,12
110,900,143,12
111,775,164,12
112,645,169,11
113,780,159,12
114,895,137,12
115,1080,102,12
116,540,169,10
117,750,157,12
118,885,129,12
119,870,145,12
120,750,165,12
121,970,118,12
122,985,112,12
123,605,169,11
124,630,169,11
125,1010,108,12
126,950,121,12
127,760,162,12
128,645,169,11
129,605,169,11
130,800,158,12
131,860,152,12
132,610,169,11
133,170,169,7
134,640,169,11
135,780,159,12
136,535,169,10
137,625,169,11
138,5,169,6
139,-580,169,2
140,-695,169,1
141,1025,108,12
142,605,169,11
143,965,126,12
144,860,145,12
145,1035,106,12
146,940,134,12
147,615,169,11
148,645,169,11
149,670,169,11
150,1120,80,12
151,1030,109,12
152,920,131,12
153,875,140,12
154,795,165,12
155,620,169,11
156,905,129,12
157,995,123,12
158,610,169,11
159,745,163,12
160,635,169,11
161,615,169,11
162,985,114,12
163,985,122,12
164,750,162,12
165,955,122,12
166,985,117,12
167,800,157,12
168,925,129,12
169,615,169,11
170,845,149,12
171,910,137,12
172,645,169,11
173,1115,97,12
174,615,169,11
175,600,169,11
176,630,169,11
177,885,138,12
178,635,169,11
179,635,169,11
180,1025,108,12
181,975,130,12
182,1045,107,12
183,830,149,12
184,1025,105,12
185,1055,110,12
186,825,154,12
187,1085,94,12
188,935,129,12
189,1060,100,12
190,920,137,12
191,780,152,12
192,955,124,12
193,660,169,11
194,925,129,12
195,990,113,12
196,1025,117,12
197,940,131,12
198,1070,103,12
199,1215,64,12
200,980,120,12
201,990,113,12
202,1095,97,12
203,930,136,12
204,625,169,11
205,885,139,12
206,635,169,11
207,935,126,12
208,875,140,12
209,620,169,11
210,980,112,12
211,1135,93,12
212,1125,93,12
213,955,124,12
214,1130,86,12
215,1060,95,12
216,910,131,12
217,955,117,12
218,1105,85,12
219,830,154,12
220,605,169,11
221,1155,84,12
222,885,133,12
223,830,145,12
224,625,169,11
225,-695,169,1
226,-685,169,1
227,-695,169,1
228,-800,169,0
229,390,169,9
230,1010,102,12
231,-780,169,0
232,-825,169,0
233,-800,169,0
234,510,169,10
235,490,169,10
236,220,169,8
237,-790,169,0
238,205,169,8
239,-160,169,5
240,-780,169,0
241,350,169,9
242,485,169,10
243,885,138,12
244,230,169,8
245,600,169,11
246,765,157,12
247,615,169,11
248,615,169,11
249,480,169,10
250,615,169,11
251,875,135,12
252,505,169,10
253,645,169,11
254,595,169,11
255,1140,70,12
256,595,169,11
257,795,154,12
258,780,150,12
259,1085,85,12
260,615,169,11
261,505,169,10
262,1040,91,12
263,975,113,12
264,530,169,10
265,615,169,11
266,875,135,12
267,600,169,11
268,875,138,12
269,785,156,12
270,845,133,12
271,790,155,12
272,625,169,11
273,605,169,11
274,590,169,11
275,570,169,11
276,565,169,11
277,1095,80,12
278,520,169,10
279,935,123,12
280,1010,97,12
281,590,169,11
282,840,140,12
283,865,133,12
284,930,124,12
285,575,169,11
286,775,151,12
287,905,131,12
288,500,169,10
289,925,129,12
290,590,169,11
291,765,163,12
292,800,147,12
293,615,169,11
294,580,169,11
295,720,164,12
296,615,169,11
297,1040,102,12
298,610,169,11
299,575,169,11
300,785,148,12
301,490,169,10
302,855,139,12
303,480,169,10
304,775,155,12
305,600,169,11
306,815,140,12
307,570,169,11
308,785,157,12
309,600,169,11
310,970,120,12
311,995,119,12
312,620,169,11
313,590,169,11
314,785,154,12
315,1150,77,12
316,610,169,11
317,645,169,11
318,620,169,11
319,845,140,12
320,960,113,12
321,615,169,11
322,970,119,12
323,945,119,12
324,585,169,11
325,760,157,12
326,900,131,12
327,625,169,11
328,940,121,12
329,660,169,11
330,1030,108,12
331,1020,103,12
332,795,160,12
333,630,169,11
334,810,146,12
335,835,146,12
336,510,169,10
337,855,134,12
338,550,169,11
339,640,169,11
340,615,169,11
341,930,122,12
342,860,139,12
343,805,149,12
344,605,169,11
345,510,169,10
346,670,167,12
347,625,169,11
348,515,169,10
349,650,169,11
350,915,117,12
351,785,145,12
352,595,169,11
353,825,151,12
354,760,146,12
355,1070,84,12
356,620,169,11
357,905,127,12
358,610,169,11
359,605,169,11
360,610,169,11
361,660,169,11
362,985,104,12
363,620,169,11
364,930,130,12
365,870,135,12
366,630,169,11
367,1030,99,12
368,870,142,12
369,945,124,12
370,870,139,12
371,1100,88,12
372,565,169,10
373,1040,102,12
374,830,143,12
375,890,134,12
376,925,123,12
377,795,154,12
378,920,119,12
379,900,136,12
380,1155,71,12
381,930,115,12
382,955,114,12
383,1115,82,12
384,910,127,12
385,665,169,11
386,645,169,11
387,955,117,12
388,665,169,11
389,645,169,11
390,980,114,12
391,1005,112,12
392,605,169,11
393,640,169,11
394,795,146,12
395,595,169,11
396,565,169,11
397,645,169,11
398,1220,60,12
399,1065,95,12
400,770,164,12
401,880,130,12
402,975,112,12
403,580,169,11
404,615,169,11
405,950,130,12
406,955,123,12
407,1015,102,12
408,645,169,11
409,805,143,12
410,610,169,11
411,1030,99,12
412,1150,72,12
413,1025,103,12
414,825,148,12
415,885,141,12
416,1020,108,12
417,1175,73,12
418,825,143,12
419,995,112,12
420,600,169,11
421,1080,93,12
422,810,148,12
423,830,150,12
424,590,169,11
425,780,159,12
426,1160,62,12
427,780,151,12
428,1060,101,12
429,1035,101,12
430,1080,91,12
431,1050,102,12
432,1110,87,12
433,905,122,12
434,605,169,11
435,605,169,11
436,1100,80,12
437,625,169,11
438,740,159,12
439,600,169,11
440,590,169,11
441,830,150,12
442,460,169,10
443,575,169,11
444,895,129,12
445,595,169,11
446,760,164,12
447,1105,84,12
448,1070,88,12
449,595,169,11
450,610,169,11
451,565,169,11
452,1015,104,12
453,850,130,12
454,740,163,12
455,1260,55,12
456,955,112,12
457,1030,98,12
458,1100,82,12
459,875,131,12
460,1165,80,12
461,1060,94,12
462,1130,72,12
463,990,120,12
464,585,169,11
465,635,169,11
466,1125,84,12
467,940,126,12
468,1105,86,12
469,910,124,12
470,995,117,12
471,1105,80,12
472,910,127,12
473,855,141,12
474,855,140,12
475,920,130,12
476,765,159,12
477,910,128,12
478,845,139,12
479,965,115,12
480,910,133,12
481,1025,103,12
482,545,169,11
483,625,169,11
484,745,155,12
485,635,169,11
486,865,139,12
487,1155,71,12
488,645,169,11
489,595,169,11
490,1105,92,12
491,1040,94,12
492,600,169,11
493,1050,90,12
494,925,113,12
495,730,166,12
496,760,162,12
497,830,149,12
498,810,147,12
499,1015,100,12
500,1005,106,12
501,1150,73,12
502,665,169,11
503,1075,93,12
504,840,142,12
505,1250,50,12
506,585,169,11
507,900,131,12
508,1080,89,12
509,850,141,12
510,1040,98,12
511,1165,67,12
512,920,127,12
513,1150,72,12
514,770,158,12
515,595,169,11
516,1110,89,12
517,1035,99,12
518,930,123,12
519,590,169,11
520,925,117,12
521,1140,74,12
522,755,166,12
523,1030,104,12
524,1000,105,12
525,1020,98,12
526,620,169,11
527,930,122,12
528,1085,93,12
529,935,125,12
530,785,151,12
531,945,117,12
532,940,112,12
533,815,130,12
534,815,147,12
535,840,134,12
536,735,165,12
537,860,141,12
538,850,138,12
539,635,169,11
540,990,101,12
541,950,115,12
542,810,144,12
543,605,169,11
544,990,107,12
545,900,125,12
546,885,132,12
547,610,169,11
548,955,120,12
549,880,131,12
550,960,111,12
551,435,169,10
552,770,160,12
553,840,140,12
554,795,144,12
555,970,106,12
556,805,151,12
557,1090,94,12
558,955,121,12
559,925,122,12
560,1020,97,12
561,600,169,11
562,615,169,11
563,655,169,11
564,1120,82,12
565,1140,82,12
566,605,169,11
567,1090,91,12
568,995,103,12
569,955,122,12
570,1090,90,12
571,605,169,11
572,1005,107,12
573,945,125,12
574,1105,92,12
575,995,114,12
576,1135,80,12
577,830,136,12
578,990,107,12
579,905,131,12
580,1170,69,12
581,1055,101,12
582,765,157,12
583,960,122,12
584,835,145,12
585,880,137,12
586,1165,70,12
587,845,135,12
588,620,169,11
589,635,169,11
590,995,118,12
591,1010,108,12
592,625,169,11
593,795,156,12
594,800,149,12
595,655,169,11
596,995,103,12
597,1045,96,12
598,1010,107,12
599,840,150,12
600,1145,71,12
601,1110,80,12
602,920,120,12
603,900,122,12
604,1095,97,12
605,1125,81,12
606,1190,71,12
607,1080,82,12
608,910,125,12
609,970,112,12
610,940,116,12
611,875,138,12
612,1130,79,12
613,1045,89,12
614,1100,88,12
615,820,148,12
616,1000,126,12
617,1210,63,12
618,1010,115,12
619,1150,72,12
620,1160,70,12
621,1120,80,12
622,785,155,12
623,770,161,12
624,1125,71,12
625,1075,88,12
626,1010,109,12
627,1095,84,12
628,1040,86,12
629,1090,95,12
630,870,135,12
631,1115,82,12
632,790,159,12
633,895,131,12
634,1065,93,12
635,1040,98,12
636,810,148,12
637,870,131,12
638,995,112,12
639,1040,96,12
640,1130,77,12
641,650,169,11
642,1150,73,12
643,810,145,12
644,780,149,12
645,925,112,12
646,1040,98,12
647,920,120,12
648,1005,106,12
649,1110,80,12
650,935,112,12
651,805,144,12
652,1160,64,12
653,995,104,12
654,1015,95,12
655,985,112,12
656,1105,88,12
657,1080,91,12
658,1030,110,12
659,1115,79,12
660,1070,80,12
661,1145,65,12
662,1080,82,12
663,755,153,12
664,1200,62,12
665,820,138,12
666,1175,62,12
667,630,169,11
668,1095,75,12
669,780,155,12
670,595,169,11
671,1035,89,12
672,885,132,12
673,820,142,12
674,1130,80,12
675,1165,72,12
676,1060,90,12
677,960,108,12
678,1070,82,12
679,475,169,10
680,980,108,12
681,1075,88,12
682,1050,96,12
683,900,122,12
684,1040,86,12
685,860,139,12
686,1035,105,12
687,565,169,11
688,605,169,11
689,940,124,12
690,865,129,12
691,930,130,12
692,975,107,12
693,1115,81,12
694,1055,92,12
695,625,169,11
696,920,121,12
697,1090,82,12
698,765,161,12
699,1060,92,12
700,1180,64,12
701,625,169,11
702,1125,82,12
703,900,127,12
704,925,119,12
705,975,111,12
706,1130,76,12
707,1035,100,12
708,905,130,12
709,600,169,11
710,1030,106,12
711,1175,69,12
712,1050,94,12
713,960,117,12
714,1170,66,12
715,865,129,12
716,500,169,10
717,485,169,10
718,1220,57,12
719,1050,86,12
720,580,169,11
721,935,121,12
722,1180,62,12
723,990,114,12
724,910,130,12
725,945,122,12
726,875,142,12
727,1160,71,12
728,1085,93,12
729,745,161,12
730,975,109,12
731,775,158,12
732,1120,82,12
733,625,169,11
734,795,154,12
735,1045,90,12
736,645,169,11
737,965,105,12
738,920,137,12
739,1015,101,12
740,1000,109,12
741,605,169,11
742,1050,105,12
743,575,169,11
744,600,169,11
745,640,169,11
746,775,156,12
747,710,167,12
748,630,169,11
749,880,131,12
750,975,116,12
751,845,136,12
752,715,166,12
753,1065,89,12
754,575,169,11
755,745,168,12
756,920,133,12
757,630,169,11
758,880,134,12
759,745,162,12
760,915,128,12
761,615,169,11
762,915,119,12
763,885,129,12
764,1020,102,12
765,825,144,12
766,605,169,11
767,1050,98,12
768,980,108,12
769,645,169,11
770,985,103,12
771,930,131,12
772,820,146,12
773,830,151,12
774,990,105,12
775,655,169,11
776,915,128,12
777,800,152,12
778,1020,92,12
779,995,113,12
780,1225,65,12
781,925,125,12
782,615,169,11
783,1105,90,12
784,850,140,12
785,895,131,12
786,880,123,12
787,585,169,11
788,985,111,12
789,870,145,12
790,1080,86,12
791,1210,79,12
792,895,137,12
793,850,131,12
794,845,145,12
795,810,143,12
796,940,119,12
797,1080,91,12
798,650,169,11
799,1070,101,12
800,765,160,12
801,1030,101,12
802,940,132,12
803,1075,90,12
804,880,136,12
805,1130,72,12
806,885,137,12
807,880,134,12
808,1015,105,12
809,925,124,12
810,810,150,12
811,555,169,11
812,845,141,12
813,1095,83,12
814,885,134,12
815,990,127,12
816,1120,92,12
817,605,169,11
818,1020,104,12
819,505,169,10
820,980,119,12
821,1070,103,12
822,980,106,12
823,840,148,12
824,855,147,12
825,1060,101,12
826,1090,89,12
827,1085,96,12
828,1020,92,12
829,820,146,12
830,1140,75,12
831,1090,77,12
832,880,136,12
833,955,118,12
834,1185,67,12
835,750,159,12
836,1015,102,12
837,840,141,12
838,960,111,12
839,790,146,12
840,1050,95,12
841,875,131,12
842,1075,92,12
843,945,123,12
844,1060,95,12
845,885,128,12
846,960,117,12
847,1120,83,12
848,1140,86,12
849,765,153,12
850,990,117,12
851,1105,77,12
852,1055,96,12
853,1150,72,12
854,770,157,12
855,1015,101,12
856,610,169,11
857,1120,76,12
858,625,169,11
859,1065,97,12
860,595,169,11
861,610,169,11
862,1110,85,12
863,965,107,12
864,1150,68,12
865,1035,102,12
866,1000,105,12
867,580,169,11
868,1165,70,12
869,1165,59,12
870,1000,94,12
871,810,143,12
872,910,121,12
873,915,117,12
874,1140,77,12
875,1155,85,12
876,1075,85,12
877,610,169,11
878,1010,101,12
879,1065,97,12
880,1015,94,12
881,890,142,12
882,985,109,12
883,1010,94,12
884,1150,83,12
885,1095,81,12
886,930,119,12
887,1005,102,12
888,1070,103,12
889,1075,90,12
890,895,128,12
891,925,121,12
892,995,100,12
893,865,130,12
894,1160,69,12
895,855,134,12
896,1170,69,12
897,1025,104,12
898,1160,76,12
899,1155,69,12
900,1070,79,12
901,955,124,12
902,760,153,12
903,775,143,12
904,835,135,12
905,980,120,12
906,1010,101,12
907,1100,74,12
908,800,149,12
909,785,151,12
910,645,169,11
911,720,164,12
912,950,112,12
913,1105,83,12
914,790,150,12
915,630,169,11
916,600,169,11
917,810,152,12
918,1065,93,12
919,1145,81,12
920,860,140,12
921,1080,88,12
922,625,169,11
923,1100,74,12
924,990,105,12
925,840,135,12
926,990,111,12
927,820,140,12
928,1025,105,12
929,1100,86,12
930,850,137,12
931,935,119,12
932,755,148,12
933,1095,91,12
934,685,167,12
935,1140,73,12
936,790,150,12
937,885,120,12
938,985,112,12
939,1195,60,12
940,615,169,11
941,985,101,12
942,1145,76,12
943,890,131,12
944,795,154,12
945,1050,97,12
946,850,140,12
947,995,102,12
948,1090,87,12
949,950,112,12
950,1080,81,12
951,805,140,12
952,380,169,9
953,990,101,12
954,905,122,12
955,690,163,12
956,1150,75,12
957,560,169,11
958,745,152,12
959,765,151,12
960,1225,46,12
961,915,126,12
962,975,109,12
963,605,169,11
964,740,158,12
965,915,119,12
966,925,117,12
967,535,169,11
968,565,169,11
969,1085,75,12
970,580,169,11
971,1105,84,12
972,1070,94,12
973,1190,62,12
974,1090,79,12
975,920,118,12
976,960,107,12
977,935,124,12
978,1170,68,12
979,625,169,11
980,935,114,12
981,1120,68,12
982,1075,88,12
983,1010,101,12
984,920,126,12
985,610,169,11
986,1100,76,12
987,1080,80,12
988,1010,93,12
989,1055,91,12
990,980,104,12
991,1035,93,12
992,340,169,9
993,870,135,12
994,535,169,11
995,1045,88,12
996,995,97,12
997,760,150,12
998,70,169,7
999,545,169,11
