episode,reward,step,sensitive
0,-695,169,0
1,-200,169,3
2,-810,169,0
3,-790,169,0
4,-765,169,0
5,-650,169,0
6,-605,169,1
7,-565,169,1
8,-785,169,0
9,-250,169,3
10,-850,169,0
11,-525,169,1
12,-200,169,3
13,-220,169,3
14,-700,169,0
15,-605,169,1
16,-195,169,3
17,-850,169,0
18,-670,169,1
19,-800,169,0
20,-480,169,1
21,-705,169,0
22,-375,169,2
23,-290,169,2
24,-510,169,1
25,-170,169,3
26,-705,169,0
27,-445,169,2
28,-850,169,0
29,-260,169,3
30,-615,169,1
31,-245,169,3
32,-575,169,1
33,-380,169,2
34,-285,169,2
35,-790,169,0
36,-440,169,1
37,-630,169,1
38,-220,169,3
39,-815,169,0
40,-285,169,3
41,-250,169,3
42,-305,169,3
43,-800,169,0
44,-665,169,0
45,-640,169,1
46,-620,169,1
47,90,130,4
48,-825,169,0
49,-270,169,3
50,-190,169,3
51,-140,152,4
52,-390,169,2
53,-660,169,0
54,-205,169,3
55,-85,152,4
56,-250,169,3
57,-290,169,3
58,-610,169,1
59,-285,169,2
60,-55,165,4
61,205,116,4
62,-810,169,0
63,-850,169,0
64,-195,169,3
65,-390,169,2
66,-490,169,1
67,-815,169,0
68,-165,169,3
69,-355,169,3
70,-500,169,1
71,-390,169,2
72,-255,169,3
73,-645,169,1
74,15,143,4
75,-850,169,0
76,-20,150,4
77,-255,169,2
78,-360,169,2
79,-270,169,3
80,-420,169,2
81,-385,169,2
82,-170,169,3
83,-350,169,2
84,-305,169,2
85,70,132,4
86,-345,169,2
87,-70,154,4
88,155,102,4
89,-355,169,2
90,-390,169,2
91,240,79,4
92,-205,169,3
93,45,136,4
94,140,109,4
95,-205,169,3
96,-375,169,2
97,190,104,4
98,45,142,4
99,105,132,4
100,-315,169,2
101,190,111,4
102,150,118,4
103,290,78,4
104,-190,169,3
105,395,55,4
106,265,84,4
107,-105,163,4
108,225,97,4
109,135,104,4
110,90,117,4
111,130,115,4
112,200,88,4
113,215,99,4
114,130,113,4
115,120,114,4
116,200,90,4
117,280,72,4
118,35,131,4
119,90,133,4
120,235,88,4
121,325,69,4
122,315,79,4
123,340,60,4
124,110,106,4
125,180,101,4
126,25,117,4
127,355,66,4
128,180,108,4
129,305,61,4
130,280,72,4
131,215,74,4
132,210,95,4
133,185,107,4
134,440,32,4
135,450,38,4
136,360,53,4
137,450,36,4
138,460,38,4
139,385,52,4
140,320,71,4
141,265,74,4
142,170,89,4
143,35,123,4
144,315,69,4
145,265,76,4
146,-100,157,4
147,-105,162,4
148,200,95,4
149,345,54,4
150,440,34,4
151,375,43,4
152,330,53,4
153,325,62,4
154,320,65,4
155,370,43,4
156,420,37,4
157,190,86,4
158,205,85,4
159,380,38,4
160,275,67,4
161,235,71,4
162,220,85,4
163,380,38,4
164,245,76,4
165,-280,169,3
166,220,84,4
167,-310,169,3
168,-290,169,3
169,330,51,4
170,185,89,4
171,120,95,4
172,110,104,4
173,195,73,4
174,195,85,4
175,-320,169,3
176,-335,169,3
177,-775,169,0
178,370,43,4
179,205,78,4
180,235,72,4
181,200,84,4
182,365,41,4
183,355,43,4
184,195,90,4
185,240,74,4
186,400,42,4
187,430,27,4
188,125,98,4
189,455,31,4
190,335,54,4
191,195,82,4
192,255,75,4
193,480,20,4
194,475,19,4
195,315,63,4
196,265,66,4
197,405,36,4
198,445,21,4
199,375,41,4
200,445,27,4
201,230,71,4
202,365,43,4
203,235,63,4
204,305,51,4
205,330,42,4
206,0,112,4
207,265,60,4
208,-65,125,4
209,95,94,4
210,295,53,4
211,-220,161,4
212,215,67,4
213,325,43,4
214,460,13,4
215,385,37,4
216,410,28,4
217,215,69,4
218,395,26,4
219,350,48,4
220,385,36,4
221,395,35,4
222,405,27,4
223,450,20,4
224,380,29,4
225,85,99,4
226,250,63,4
227,355,34,4
228,310,50,4
229,385,31,4
230,200,70,4
231,420,29,4
232,405,24,4
233,245,59,4
234,325,40,4
235,410,26,4
236,235,61,4
237,275,50,4
238,350,38,4
239,280,53,4
240,140,82,4
241,295,46,4
242,295,46,4
243,365,37,4
244,265,57,4
245,-235,159,4
246,345,36,4
247,-120,136,4
248,285,50,4
249,220,61,4
250,210,66,4
251,250,57,4
252,215,67,4
253,-50,115,4
254,-135,139,4
255,95,89,4
256,200,65,4
257,225,66,4
258,40,102,4
259,395,26,4
260,250,55,4
261,340,37,4
262,165,76,4
263,170,76,4
264,265,52,4
265,445,19,4
266,170,78,4
267,225,63,4
268,370,34,4
269,250,55,4
270,195,71,4
271,385,28,4
272,315,44,4
273,455,14,4
274,295,46,4
275,305,44,4
276,385,30,4
277,410,25,4
278,260,56,4
279,440,17,4
280,400,25,4
281,425,22,4
282,320,41,4
283,405,24,4
284,365,32,4
285,390,27,4
286,360,36,4
287,325,43,4
288,350,35,4
289,435,21,4
290,390,27,4
291,350,35,4
292,305,47,4
293,280,52,4
294,200,67,4
295,-135,140,4
296,100,88,4
297,-825,169,0
298,300,45,4
299,-800,169,0
300,-40,116,4
301,-530,169,2
302,125,85,4
303,-285,162,4
304,-425,169,3
305,350,38,4
306,305,47,4
307,155,74,4
308,5,107,4
309,355,34,4
310,295,48,4
311,425,23,4
312,340,40,4
313,370,34,4
314,360,36,4
315,400,25,4
316,455,14,4
317,275,55,4
318,250,58,4
319,365,35,4
320,420,26,4
321,350,43,4
322,390,30,4
323,375,33,4
324,340,40,4
325,415,25,4
326,240,60,4
327,255,54,4
328,405,24,4
329,415,28,4
330,35,101,4
331,455,17,4
332,420,26,4
333,400,28,4
334,445,19,4
335,390,37,4
336,440,20,4
337,380,29,4
338,480,12,4
339,355,40,4
340,345,41,4
341,390,30,4
342,465,15,4
343,445,24,4
344,305,44,4
345,285,51,4
346,440,20,4
347,385,33,4
348,450,18,4
349,370,37,4
350,285,50,4
351,385,28,4
352,390,30,4
353,410,28,4
354,350,37,4
355,415,25,4
356,340,40,4
357,380,29,4
358,435,21,4
359,430,19,4
360,450,15,4
361,335,43,4
362,325,43,4
363,405,24,4
364,430,22,4
365,420,24,4
366,400,28,4
367,340,42,4
368,400,28,4
369,385,28,4
370,380,32,4
371,360,33,4
372,400,28,4
373,295,46,4
374,290,50,4
375,335,41,4
376,365,37,4
377,180,72,4
378,360,36,4
379,330,39,4
380,215,62,4
381,-105,131,4
382,225,62,4
383,-30,113,4
384,310,43,4
385,250,58,4
386,345,42,4
387,290,50,4
388,290,52,4
389,260,56,4
390,325,46,4
391,125,83,4
392,200,68,4
393,380,31,4
394,350,35,4
395,325,43,4
396,365,35,4
397,395,29,4
398,345,39,4
399,320,43,4
400,415,22,4
401,360,36,4
402,410,26,4
403,415,22,4
404,425,22,4
405,420,27,4
406,385,28,4
407,360,36,4
408,455,16,4
409,440,19,4
410,420,24,4
411,425,20,4
412,340,37,4
413,175,73,4
414,285,51,4
415,290,47,4
416,260,58,4
417,355,39,4
418,380,31,4
419,385,31,4
420,270,54,4
421,455,14,4
422,420,21,4
423,285,50,4
424,345,36,4
425,270,56,4
426,10,105,4
427,335,43,4
428,335,40,4
429,265,54,4
430,335,43,4
431,365,32,4
432,310,46,4
433,365,35,4
434,305,44,4
435,290,47,4
436,280,51,4
437,465,17,4
438,280,55,4
439,220,70,4
440,280,52,4
441,375,32,4
442,395,33,4
443,405,24,4
444,345,36,4
445,145,85,4
446,305,49,4
447,250,61,4
448,295,46,4
449,320,47,4
450,300,49,4
451,335,38,4
452,400,30,4
453,405,24,4
454,400,25,4
455,385,30,4
456,400,25,4
457,345,38,4
458,315,49,4
459,330,42,4
460,230,65,4
461,370,36,4
462,415,24,4
463,405,29,4
464,350,40,4
465,430,22,4
466,440,17,4
467,310,43,4
468,380,29,4
469,435,18,4
470,395,31,4
471,410,23,4
472,360,33,4
473,425,23,4
474,420,21,4
475,365,32,4
476,280,51,4
477,390,30,4
478,295,48,4
479,370,36,4
480,385,33,4
481,380,29,4
482,400,25,4
483,380,36,4
484,355,34,4
485,385,33,4
486,225,60,4
487,415,27,4
488,400,25,4
489,390,32,4
490,440,22,4
491,110,89,4
492,425,20,4
493,300,47,4
494,430,21,4
495,425,22,4
496,430,19,4
497,420,25,4
498,360,36,4
499,370,35,4
500,395,26,4
501,395,26,4
502,450,18,4
503,435,18,4
504,425,22,4
505,335,40,4
506,235,61,4
507,305,47,4
508,375,33,4
509,415,22,4
510,430,25,4
511,405,24,4
512,375,34,4
513,445,21,4
514,390,27,4
515,380,31,4
516,440,17,4
517,245,56,4
518,470,14,4
519,365,32,4
520,455,16,4
521,350,35,4
522,450,15,4
523,470,16,4
524,385,28,4
525,435,18,4
526,330,39,4
527,455,14,4
528,445,21,4
529,450,15,4
530,410,23,4
531,330,42,4
532,455,16,4
533,405,24,4
534,340,37,4
535,405,24,4
536,390,29,4
537,435,18,4
538,460,13,4
539,400,28,4
540,315,44,4
541,435,18,4
542,435,18,4
543,400,28,4
544,365,34,4
545,390,30,4
546,460,13,4
547,430,22,4
548,435,18,4
549,290,49,4
550,445,16,4
551,380,31,4
552,355,34,4
553,305,46,4
554,425,23,4
555,420,21,4
556,400,27,4
557,400,28,4
558,450,15,4
559,410,23,4
560,395,26,4
561,405,24,4
562,365,32,4
563,235,58,4
564,420,23,4
565,400,25,4
566,330,39,4
567,390,29,4
568,240,62,4
569,375,30,4
570,330,39,4
571,435,18,4
572,425,20,4
573,400,27,4
574,380,32,4
575,385,31,4
576,355,34,4
577,335,41,4
578,375,30,4
579,350,35,4
580,450,15,4
581,195,68,4
582,225,63,4
583,405,27,4
584,440,17,4
585,455,14,4
586,355,34,4
587,425,20,4
588,415,22,4
589,355,34,4
590,470,11,4
591,450,15,4
592,445,16,4
593,415,22,4
594,445,16,4
595,395,26,4
596,400,25,4
597,445,16,4
598,415,25,4
599,245,56,4
600,320,43,4
601,440,17,4
602,455,14,4
603,385,28,4
604,410,23,4
605,415,22,4
606,415,22,4
607,410,25,4
608,420,21,4
609,465,12,4
610,440,17,4
611,455,17,4
612,420,24,4
613,445,16,4
614,455,14,4
615,430,19,4
616,435,18,4
617,245,61,4
618,315,45,4
619,465,14,4
620,445,16,4
621,445,18,4
622,370,31,4
623,330,39,4
624,360,33,4
625,430,22,4
626,430,19,4
627,410,29,4
628,455,17,4
629,380,34,4
630,455,14,4
631,410,30,4
632,205,74,4
633,410,26,4
634,395,26,4
635,460,16,4
636,430,22,4
637,430,21,4
638,365,32,4
639,395,28,4
640,455,16,4
641,405,26,4
642,315,48,4
643,260,53,4
644,405,26,4
645,440,17,4
646,440,19,4
647,435,22,4
648,430,21,4
649,385,33,4
650,460,13,4
651,375,30,4
652,405,29,4
653,445,18,4
654,450,15,4
655,425,20,4
656,475,16,4
657,375,33,4
658,410,28,4
659,465,12,4
660,400,28,4
661,410,23,4
662,450,15,4
663,375,35,4
664,405,24,4
665,445,16,4
666,425,20,4
667,450,17,4
668,370,31,4
669,430,19,4
670,440,17,4
671,205,64,4
672,430,19,4
673,355,34,4
674,200,69,4
675,295,46,4
676,465,15,4
677,445,16,4
678,430,19,4
679,400,28,4
680,385,28,4
681,460,15,4
682,380,29,4
683,390,27,4
684,440,17,4
685,405,24,4
686,450,18,4
687,395,26,4
688,450,15,4
689,410,23,4
690,430,22,4
691,335,43,4
692,395,26,4
693,440,17,4
694,370,31,4
695,445,16,4
696,425,23,4
697,360,33,4
698,445,16,4
699,470,11,4
700,350,35,4
701,460,13,4
702,390,27,4
703,385,28,4
704,360,33,4
705,455,14,4
706,450,15,4
707,370,34,4
708,420,21,4
709,445,16,4
710,465,12,4
711,380,29,4
712,450,15,4
713,475,13,4
714,470,11,4
715,465,12,4
716,420,21,4
717,380,31,4
718,350,35,4
719,285,48,4
720,435,18,4
721,415,22,4
722,445,16,4
723,450,17,4
724,445,19,4
725,395,29,4
726,430,19,4
727,435,18,4
728,240,57,4
729,435,18,4
730,340,37,4
731,330,39,4
732,380,29,4
733,360,33,4
734,460,13,4
735,415,22,4
736,355,34,4
737,470,14,4
738,465,12,4
739,395,26,4
740,455,14,4
741,435,18,4
742,410,23,4
743,410,23,4
744,460,13,4
745,445,16,4
746,405,24,4
747,420,21,4
748,295,46,4
749,290,47,4
750,440,17,4
751,405,26,4
752,440,17,4
753,365,35,4
754,445,18,4
755,390,27,4
756,460,13,4
757,410,23,4
758,440,17,4
759,455,14,4
760,450,15,4
761,440,17,4
762,375,33,4
763,360,33,4
764,465,12,4
765,435,18,4
766,385,31,4
767,470,11,4
768,455,14,4
769,335,38,4
770,415,22,4
771,460,13,4
772,405,24,4
773,410,23,4
774,415,22,4
775,425,20,4
776,445,16,4
777,460,13,4
778,370,31,4
779,245,56,4
780,390,30,4
781,480,9,4
782,465,12,4
783,360,33,4
784,400,25,4
785,395,26,4
786,415,22,4
787,430,19,4
788,150,78,4
789,450,15,4
790,220,61,4
791,220,61,4
792,225,60,4
793,345,36,4
794,395,26,4
795,260,56,4
796,455,14,4
797,260,53,4
798,410,26,4
799,330,39,4
800,305,44,4
801,395,26,4
802,375,30,4
803,400,25,4
804,380,29,4
805,425,20,4
806,465,12,4
807,300,45,4
808,285,48,4
809,430,19,4
810,425,23,4
811,270,51,4
812,425,20,4
813,440,17,4
814,455,14,4
815,385,28,4
816,435,18,4
817,415,22,4
818,445,16,4
819,430,19,4
820,455,14,4
821,265,52,4
822,390,27,4
823,465,12,4
824,360,33,4
825,280,49,4
826,435,18,4
827,420,21,4
828,355,34,4
829,280,49,4
830,360,33,4
831,85,90,4
832,265,52,4
833,360,33,4
834,300,45,4
835,420,21,4
836,405,27,4
837,260,53,4
838,310,43,4
839,360,33,4
840,370,31,4
841,455,14,4
842,415,22,4
843,380,29,4
844,435,18,4
845,405,26,4
846,410,23,4
847,445,16,4
848,450,15,4
849,410,23,4
850,385,28,4
851,435,18,4
852,455,14,4
853,455,14,4
854,460,13,4
855,445,16,4
856,435,18,4
857,435,18,4
858,455,14,4
859,425,20,4
860,440,17,4
861,450,15,4
862,435,18,4
863,380,29,4
864,445,16,4
865,445,16,4
866,300,45,4
867,450,15,4
868,350,35,4
869,485,8,4
870,465,12,4
871,450,15,4
872,450,17,4
873,335,40,4
874,435,21,4
875,475,10,4
876,410,23,4
877,385,28,4
878,475,10,4
879,350,38,4
880,420,21,4
881,405,24,4
882,455,14,4
883,370,31,4
884,280,49,4
885,445,16,4
886,390,27,4
887,400,25,4
888,450,15,4
889,300,45,4
890,280,52,4
891,390,27,4
892,435,18,4
893,390,29,4
894,460,13,4
895,390,27,4
896,420,21,4
897,305,44,4
898,365,32,4
899,300,48,4
900,390,27,4
901,430,19,4
902,460,13,4
903,405,24,4
904,400,25,4
905,430,19,4
906,425,22,4
907,430,22,4
908,415,25,4
909,445,18,4
910,435,21,4
911,420,21,4
912,365,32,4
913,425,20,4
914,220,61,4
915,415,22,4
916,355,34,4
917,390,27,4
918,350,35,4
919,320,44,4
920,380,29,4
921,430,19,4
922,395,26,4
923,435,18,4
924,295,51,4
925,405,31,4
926,410,23,4
927,400,28,4
928,435,20,4
929,405,31,4
930,425,20,4
931,420,23,4
932,470,13,4
933,350,38,4
934,440,21,4
935,420,21,4
936,425,20,4
937,415,22,4
938,420,23,4
939,250,58,4
940,435,20,4
941,375,33,4
942,455,17,4
943,380,35,4
944,450,20,4
945,465,15,4
946,375,32,4
947,410,26,4
948,375,32,4
949,480,12,4
950,440,23,4
951,320,48,4
952,470,19,4
953,415,27,4
954,410,29,4
955,445,19,4
956,460,18,4
957,425,25,4
958,450,18,4
959,390,29,4
960,315,47,4
961,435,25,4
962,465,15,4
963,460,22,4
964,440,20,4
965,445,22,4
966,350,37,4
967,455,17,4
968,425,23,4
969,415,34,4
970,410,29,4
971,465,15,4
972,420,21,4
973,335,41,4
974,460,18,4
975,425,20,4
976,475,15,4
977,455,17,4
978,420,21,4
979,420,24,4
980,465,15,4
981,390,32,4
982,490,13,4
983,415,25,4
984,420,27,4
985,410,33,4
986,425,22,4
987,380,36,4
988,460,16,4
989,375,33,4
990,405,27,4
991,440,23,4
992,445,19,4
993,485,15,4
994,430,27,4
995,430,22,4
996,455,19,4
997,380,35,4
998,420,21,4
999,415,31,4
