episode,reward,step,sensitive
0,-1620,510,2
1,-1445,510,4
2,-2390,510,0
3,-2020,510,2
4,-1650,510,4
5,-1485,510,3
6,-1060,419,5
7,-1320,510,4
8,-330,315,5
9,-1785,510,3
10,-1415,510,4
11,-1950,510,3
12,-1860,510,3
13,-1895,510,3
14,-1455,510,4
15,-1420,510,4
16,-2005,510,2
17,-1970,510,3
18,-1315,499,5
19,-750,399,5
20,-670,296,5
21,-255,290,5
22,-1825,510,3
23,-1210,482,5
24,-1180,486,5
25,-585,348,5
26,-1150,456,5
27,-145,227,5
28,-565,340,5
29,-1040,444,5
30,-465,273,5
31,-1010,442,5
32,-1770,510,3
33,-1840,510,3
34,-435,289,5
35,-125,259,5
36,-795,403,5
37,-1460,510,4
38,-775,394,5
39,-1390,510,4
40,-375,245,5
41,-1460,510,4
42,-1265,510,4
43,-665,370,5
44,-125,261,5
45,-410,286,5
46,-575,330,5
47,-1390,510,4
48,-130,233,5
49,-85,248,5
50,-1320,510,4
51,-750,360,5
52,55,189,5
53,0,220,5
54,175,163,5
55,-1320,510,4
56,-515,339,5
57,-250,272,5
58,-110,196,5
59,-1685,510,4
60,-445,271,5
61,-1305,510,4
62,175,178,5
63,-1325,510,4
64,-1830,510,3
65,-1325,510,4
66,140,145,5
67,-780,401,5
68,-425,301,5
69,-1260,448,5
70,-350,311,5
71,-1795,510,3
72,-1900,510,3
73,95,157,5
74,-605,334,5
75,-525,311,5
76,-700,389,5
77,-550,364,5
78,-150,220,5
79,-1195,488,5
80,-1325,510,4
81,-410,302,5
82,-1275,510,4
83,-905,399,5
84,-1305,510,4
85,-340,279,5
86,-1075,404,5
87,-685,375,5
88,-15,230,5
89,225,150,5
90,60,176,5
91,-325,301,5
92,-435,319,5
93,-455,296,5
94,-1225,484,5
95,160,160,5
96,65,159,5
97,25,162,5
98,-20,172,5
99,-555,322,5
100,-325,275,5
101,-220,250,5
102,-1400,510,4
103,60,210,5
104,-1320,510,4
105,-250,256,5
106,-315,311,5
107,130,157,5
108,-805,370,5
109,-450,297,5
110,235,120,5
111,-555,309,5
112,-65,204,5
113,-1330,510,4
114,-495,302,5
115,65,181,5
116,-1405,484,5
117,-340,309,5
118,-125,192,5
119,65,145,5
120,150,179,5
121,-455,330,5
122,60,174,5
123,120,189,5
124,-1015,431,5
125,10,168,5
126,115,193,5
127,-90,223,5
128,-215,244,5
129,-405,314,5
130,-445,294,5
131,-995,459,5
132,-305,254,5
133,270,119,5
134,410,50,5
135,-705,331,5
136,-1325,463,5
137,-575,354,5
138,70,191,5
139,-1335,510,4
140,135,182,5
141,300,126,5
142,110,166,5
143,-365,259,5
144,-730,396,5
145,-160,265,5
146,-570,322,5
147,-1400,510,3
148,-25,207,5
149,310,128,5
150,-835,352,5
151,-1330,510,4
152,215,149,5
153,35,212,5
154,-565,330,5
155,-1060,490,5
156,-1315,483,5
157,75,194,5
158,-680,371,5
159,-195,264,5
160,-950,386,5
161,-780,427,5
162,-1385,510,4
163,-1425,510,4
164,-295,235,5
165,-180,237,5
166,-100,206,5
167,-145,228,5
168,30,198,5
169,260,95,5
170,-1330,510,4
171,-30,228,5
172,110,164,5
173,35,175,5
174,-585,348,5
175,210,149,5
176,-365,275,5
177,50,221,5
178,-835,385,5
179,-1000,432,5
180,-455,339,5
181,60,184,5
182,-1295,510,4
183,-95,251,5
184,-375,270,5
185,-305,233,5
186,-1305,510,4
187,-610,333,5
188,-300,304,5
189,-405,308,5
190,-490,328,5
191,-255,262,5
192,155,195,5
193,-105,238,5
194,-665,324,5
195,-140,259,5
196,95,191,5
197,-610,325,5
198,-815,402,5
199,195,127,5
200,-1410,510,4
201,-500,344,5
202,50,157,5
203,-695,359,5
204,-605,329,5
205,-235,216,5
206,-1005,426,5
207,-780,344,5
208,-1315,510,4
209,-1445,510,4
210,-820,395,5
211,-1355,510,4
212,-460,335,5
213,-370,318,5
214,-850,425,5
215,355,105,5
216,-310,299,5
217,145,146,5
218,95,148,5
219,-10,160,5
220,100,212,5
221,40,169,5
222,-1295,510,4
223,-845,416,5
224,-1315,510,4
225,-345,280,5
226,-135,243,5
227,-430,300,5
228,-175,256,5
229,-645,389,5
230,-280,260,5
231,60,172,5
232,-1350,510,4
233,115,212,5
234,-785,415,5
235,-390,314,5
236,-1290,510,4
237,145,167,5
238,90,209,5
239,-655,394,5
240,-50,227,5
241,-710,403,5
242,-295,299,5
243,15,169,5
244,140,181,5
245,-990,468,5
246,-235,265,5
247,-250,288,5
248,-115,264,5
249,-425,306,5
250,-110,265,5
251,245,107,5
252,-455,337,5
253,-90,231,5
254,-730,360,5
255,155,148,5
256,-330,264,5
257,80,175,5
258,15,199,5
259,-465,341,5
260,-415,275,5
261,260,119,5
262,-485,316,5
263,235,114,5
264,110,186,5
265,-1365,510,4
266,290,146,5
267,-390,264,5
268,290,114,5
269,-125,251,5
270,-410,270,5
271,-740,413,5
272,-570,338,5
273,-375,331,5
274,-760,399,5
275,225,145,5
276,-1145,481,5
277,-420,302,5
278,-85,270,5
279,-705,358,5
280,100,198,5
281,-755,351,5
282,-260,250,5
283,-1405,510,4
284,-65,193,5
285,-340,324,5
286,-5,223,5
287,115,173,5
288,360,112,5
289,-1105,418,5
290,-390,289,5
291,-110,251,5
292,105,160,5
293,-1135,496,5
294,125,190,5
295,60,215,5
296,90,148,5
297,125,162,5
298,-675,401,5
299,-945,438,5
300,-345,330,5
301,-125,257,5
302,-35,223,5
303,-215,232,5
304,195,163,5
305,-250,282,5
306,-1380,510,4
307,15,179,5
308,130,180,5
309,-120,267,5
310,290,154,5
311,-1290,469,5
312,50,220,5
313,-325,297,5
314,-540,356,5
315,205,152,5
316,-90,252,5
317,-10,200,5
318,-85,207,5
319,195,103,5
320,45,195,5
321,-595,380,5
322,-165,274,5
323,50,170,5
324,-325,285,5
325,-895,389,5
326,175,171,5
327,-215,279,5
328,-115,232,5
329,-600,333,5
330,-45,215,5
331,5,206,5
332,-190,273,5
333,-1355,510,4
334,-1345,510,4
335,65,169,5
336,-85,256,5
337,-170,285,5
338,-1360,510,4
339,-415,333,5
340,300,139,5
341,-480,336,5
342,-225,240,5
343,-270,233,5
344,-680,386,5
345,-675,367,5
346,50,221,5
347,-720,349,5
348,-460,312,5
349,-600,387,5
350,-1345,510,4
351,-1090,412,5
352,-450,340,5
353,-1410,510,4
354,-410,329,5
355,-1300,510,4
356,-365,300,5
357,395,95,5
358,-785,403,5
359,-810,369,5
360,-125,270,5
361,-10,181,5
362,-150,255,5
363,-370,300,5
364,15,204,5
365,325,114,5
366,-380,297,5
367,-690,406,5
368,-80,215,5
369,275,133,5
370,-285,266,5
371,135,179,5
372,-365,321,5
373,-870,425,5
374,75,195,5
375,-85,232,5
376,-495,348,5
377,-1195,505,5
378,-135,232,5
379,-300,277,5
380,-450,332,5
381,-65,188,5
382,80,195,5
383,-155,248,5
384,-1015,456,5
385,-1335,510,4
386,10,215,5
387,-625,339,5
388,-1345,510,4
389,-805,411,5
390,-50,207,5
391,-1345,510,4
392,-285,245,5
393,-250,211,5
394,-215,295,5
395,-150,250,5
396,80,200,5
397,-370,287,5
398,350,126,5
399,-460,347,5
400,-75,223,5
401,5,233,5
402,-380,309,5
403,-495,287,5
404,30,201,5
405,5,206,5
406,-790,413,5
407,-275,227,5
408,-515,340,5
409,165,144,5
410,-1315,510,4
411,-1400,510,4
412,290,93,5
413,-445,301,5
414,445,79,5
415,-255,224,5
416,-330,233,5
417,20,209,5
418,310,116,5
419,-255,240,5
420,-250,271,5
421,-1070,468,5
422,70,186,5
423,-540,323,5
424,-235,252,5
425,220,134,5
426,-30,204,5
427,-1315,510,4
428,-1265,510,4
429,-345,291,5
430,210,134,5
431,-65,206,5
432,145,157,5
433,230,124,5
434,355,103,5
435,-170,275,5
436,150,172,5
437,-920,442,5
438,125,139,5
439,-115,205,5
440,-1390,510,4
441,-1145,472,5
442,370,94,5
443,-505,345,5
444,-470,347,5
445,120,131,5
446,-20,230,5
447,-260,297,5
448,-1305,510,4
449,30,173,5
450,-1295,510,4
451,-1460,510,4
452,-835,398,5
453,100,187,5
454,-910,422,5
455,-1520,510,4
456,-65,212,5
457,-780,405,5
458,-730,390,5
459,-600,335,5
460,125,192,5
461,-110,242,5
462,-620,355,5
463,-675,330,5
464,-865,416,5
465,440,74,5
466,-520,346,5
467,285,136,5
468,260,129,5
469,-1025,468,5
470,-740,395,5
471,0,227,5
472,-605,348,5
473,335,80,5
474,-295,296,5
475,-405,327,5
476,-70,242,5
477,-195,270,5
478,-795,405,5
479,-825,395,5
480,105,198,5
481,-180,245,5
482,155,152,5
483,190,181,5
484,-690,344,5
485,-1365,510,4
486,-60,229,5
487,195,172,5
488,160,180,5
489,-430,310,5
490,-465,339,5
491,180,126,5
492,55,155,5
493,-275,255,5
494,-170,206,5
495,-365,298,5
496,-900,441,5
497,-405,293,5
498,55,198,5
499,45,208,5
500,-20,219,5
501,25,198,5
502,-1475,510,3
503,260,135,5
504,-710,318,5
505,80,150,5
506,350,114,5
507,-1445,510,4
508,-165,238,5
509,-85,220,5
510,-105,210,5
511,-380,302,5
512,-755,393,5
513,-870,419,5
514,-750,406,5
515,80,211,5
516,-435,305,5
517,195,143,5
518,-295,284,5
519,-210,257,5
520,-505,326,5
521,120,154,5
522,195,132,5
523,-680,376,5
524,-310,262,5
525,-220,247,5
526,10,177,5
527,-465,305,5
528,265,121,5
529,-470,301,5
530,5,215,5
531,-550,353,5
532,-260,284,5
533,-1385,510,4
534,35,225,5
535,-865,402,5
536,-1355,510,4
537,-105,250,5
538,70,169,5
539,-600,352,5
540,-95,205,5
541,-800,398,5
542,430,92,5
543,-50,187,5
544,-1170,491,5
545,375,92,5
546,-305,251,5
547,-380,273,5
548,-325,285,5
549,-430,323,5
550,-1155,461,5
551,-1055,460,5
552,-85,205,5
553,-130,239,5
554,-100,245,5
555,-575,308,5
556,115,193,5
557,-1410,510,4
558,225,112,5
559,-580,376,5
560,110,166,5
561,360,92,5
562,205,137,5
563,-185,220,5
564,95,175,5
565,-700,382,5
566,-160,272,5
567,-1370,510,4
568,-615,334,5
569,-1415,510,4
570,-15,194,5
571,-785,394,5
572,-15,229,5
573,-175,272,5
574,5,188,5
575,115,177,5
576,215,108,5
577,-385,303,5
578,-225,303,5
579,-1310,510,4
580,-825,406,5
581,-15,194,5
582,-1910,510,3
583,-85,254,5
584,-140,249,5
585,-1350,510,4
586,-300,270,5
587,-715,391,5
588,-1270,510,4
589,-555,359,5
590,400,82,5
591,385,92,5
592,-410,318,5
593,-885,438,5
594,-665,374,5
595,-325,324,5
596,-1385,510,4
597,-1400,510,4
598,260,94,5
599,-50,222,5
600,200,153,5
601,405,81,5
602,85,213,5
603,-300,263,5
604,-695,365,5
605,150,210,5
606,-90,224,5
607,-525,336,5
608,-55,207,5
609,230,130,5
610,180,176,5
611,-545,350,5
612,-705,346,5
613,-755,387,5
614,-810,396,5
615,-1360,510,4
616,-1360,510,4
617,-730,378,5
618,275,109,5
619,-1440,510,4
620,-565,319,5
621,110,152,5
622,255,133,5
623,-45,210,5
624,-885,420,5
625,-105,219,5
626,420,53,5
627,425,118,5
628,-70,227,5
629,-290,290,5
630,-1375,510,4
631,-75,185,5
632,245,145,5
633,-1050,453,5
634,-1195,455,5
635,-115,205,5
636,20,203,5
637,-1345,510,4
638,-1360,510,4
639,-70,209,5
640,-155,232,5
641,-315,299,5
642,-590,340,5
643,-800,421,5
644,-65,224,5
645,-1340,510,4
646,10,193,5
647,-410,318,5
648,-105,217,5
649,-665,385,5
650,425,77,5
651,-75,225,5
652,215,150,5
653,-1060,456,5
654,-1360,510,4
655,170,179,5
656,240,126,5
657,-330,305,5
658,-980,452,5
659,205,140,5
660,130,149,5
661,-10,204,5
662,145,152,5
663,-15,175,5
664,50,166,5
665,55,177,5
666,305,116,5
667,160,185,5
668,200,170,5
669,65,183,5
670,-75,217,5
671,360,102,5
672,-590,350,5
673,-1455,510,4
674,-145,235,5
675,-285,273,5
676,-290,293,5
677,-65,189,5
678,-595,376,5
679,-130,200,5
680,285,105,5
681,5,225,5
682,-1365,510,4
683,195,117,5
684,-1315,510,4
685,175,170,5
686,-215,281,5
687,95,187,5
688,-1355,510,4
689,-95,249,5
690,-115,233,5
691,-1340,510,4
692,105,192,5
693,190,171,5
694,-225,279,5
695,-35,190,5
696,-1180,497,5
697,-750,382,5
698,180,129,5
699,-1330,500,5
700,-135,264,5
701,-1070,473,5
702,-660,352,5
703,-95,217,5
704,-1350,510,4
705,-1085,470,5
706,-250,297,5
707,-35,180,5
708,115,140,5
709,-1130,483,5
710,-250,278,5
711,210,127,5
712,-720,400,5
713,-795,418,5
714,75,154,5
715,-415,283,5
716,-95,239,5
717,-555,353,5
718,-325,267,5
719,-735,361,5
720,-340,309,5
721,365,126,5
722,-210,241,5
723,-35,182,5
724,-125,196,5
725,190,136,5
726,90,200,5
727,-1370,510,4
728,-355,312,5
729,-20,193,5
730,-670,355,5
731,-155,228,5
732,190,141,5
733,-190,265,5
734,-1080,477,5
735,-1135,486,5
736,-425,330,5
737,-1380,510,4
738,-390,288,5
739,-1420,510,4
740,105,130,5
741,170,175,5
742,-50,202,5
743,-240,253,5
744,-460,314,5
745,-685,380,5
746,-1400,510,4
747,255,128,5
748,-175,251,5
749,-20,229,5
750,-1355,510,4
751,-370,311,5
752,-870,378,5
753,-285,270,5
754,345,95,5
755,-215,242,5
756,-530,334,5
757,-435,290,5
758,170,158,5
759,-790,404,5
760,-145,257,5
761,100,186,5
762,-295,270,5
763,-1345,510,4
764,-825,427,5
765,-60,224,5
766,-1090,472,5
767,-255,264,5
768,-990,420,5
769,140,185,5
770,285,126,5
771,-1350,510,4
772,-45,179,5
773,165,158,5
774,-795,411,5
775,-605,354,5
776,205,142,5
777,-455,311,5
778,-25,181,5
779,-130,199,5
780,-130,258,5
781,185,172,5
782,-700,348,5
783,255,119,5
784,-790,408,5
785,115,155,5
786,335,125,5
787,110,135,5
788,-120,194,5
789,360,83,5
790,110,175,5
791,-185,237,5
792,-105,210,5
793,-895,414,5
794,-330,280,5
795,55,163,5
796,355,80,5
797,-710,373,5
798,-250,227,5
799,-1290,508,5
800,-320,288,5
801,-905,422,5
802,145,150,5
803,-595,348,5
804,-1540,510,3
805,-120,207,5
806,-205,271,5
807,-1485,510,4
808,-1260,503,5
809,80,197,5
810,175,153,5
811,35,188,5
812,-1120,448,5
813,-1365,510,4
814,-295,281,5
815,40,196,5
816,135,161,5
817,-25,200,5
818,-585,346,5
819,-805,361,5
820,-80,210,5
821,-620,375,5
822,-245,281,5
823,-610,315,5
824,410,79,5
825,60,167,5
826,-610,358,5
827,-530,349,5
828,-1080,437,5
829,60,179,5
830,-195,243,5
831,-1455,510,4
832,-85,221,5
833,140,188,5
834,-1470,510,4
835,175,139,5
836,-420,324,5
837,-750,382,5
838,-1455,510,4
839,-520,328,5
840,-1385,510,4
841,-1495,510,4
842,-1020,452,5
843,-1325,509,5
844,-50,232,5
845,-140,194,5
846,-500,314,5
847,135,156,5
848,10,201,5
849,-115,227,5
850,-895,400,5
851,-50,233,5
852,-215,233,5
853,-880,381,5
854,255,138,5
855,-160,208,5
856,-165,234,5
857,-1565,510,3
858,-1445,510,4
859,-845,408,5
860,-1410,510,4
861,-270,268,5
862,330,95,5
863,-65,187,5
864,-1365,510,4
865,-345,267,5
866,445,68,5
867,-1395,510,4
868,-910,424,5
869,-230,271,5
870,-360,260,5
871,-135,211,5
872,310,107,5
873,255,132,5
874,-460,325,5
875,-790,400,5
876,-1420,510,4
877,-45,202,5
878,70,172,5
879,-1480,510,4
880,-340,285,5
881,125,149,5
882,-240,282,5
883,-20,236,5
884,-575,354,5
885,-150,231,5
886,30,188,5
887,400,98,5
888,-60,222,5
889,210,166,5
890,95,168,5
891,-105,217,5
892,-1445,510,4
893,-835,419,5
894,-1470,510,4
895,-225,246,5
896,-1465,510,4
897,-1355,510,4
898,-60,219,5
899,-265,278,5
900,-765,370,5
901,-1540,510,3
902,-1430,510,4
903,70,142,5
904,-610,358,5
905,-1000,424,5
906,-1150,467,5
907,-840,397,5
908,-340,259,5
909,285,97,5
910,-315,257,5
911,180,128,5
912,-630,341,5
913,-145,228,5
914,-440,281,5
915,-520,336,5
916,-1380,510,4
917,295,81,5
918,-85,213,5
919,-1215,486,5
920,-385,308,5
921,-385,316,5
922,-280,263,5
923,480,72,5
924,-190,266,5
925,385,85,5
926,-320,279,5
927,-665,351,5
928,390,98,5
929,50,150,5
930,-1445,510,4
931,-55,232,5
932,-1385,510,4
933,-355,284,5
934,365,81,5
935,495,68,5
936,-1465,510,4
937,-125,241,5
938,-280,264,5
939,-115,218,5
940,-525,338,5
941,200,161,5
942,-435,269,5
943,-440,320,5
944,65,207,5
945,-1180,428,5
946,-585,329,5
947,-1490,510,4
948,-285,246,5
949,-405,266,5
950,-310,247,5
951,-1035,440,5
952,-1350,510,4
953,-775,364,5
954,225,137,5
955,-1350,510,4
956,-1015,444,5
957,-465,290,5
958,-690,372,5
959,-1410,510,4
960,-205,247,5
961,-1010,451,5
962,-955,433,5
963,-360,287,5
964,-175,213,5
965,-1480,510,4
966,-545,277,5
967,-380,280,5
968,-1375,510,4
969,-360,277,5
970,-170,252,5
971,-85,233,5
972,-450,306,5
973,-1485,510,3
974,-845,393,5
975,20,184,5
976,-320,286,5
977,-265,283,5
978,-765,351,5
979,20,189,5
980,-1455,510,4
981,50,174,5
982,-395,298,5
983,-1415,510,4
984,-1020,442,5
985,-235,262,5
986,65,170,5
987,-275,263,5
988,-1395,510,4
989,30,194,5
990,-305,271,5
991,-1295,499,5
992,-70,214,5
993,-250,210,5
994,-1285,473,5
995,-505,351,5
996,-320,279,5
997,-1235,492,5
998,85,171,5
999,-1350,510,4
