episode,reward,step,sensitive
0,-815,170,0
1,-685,170,0
2,-600,170,1
3,-800,170,0
4,-620,170,1
5,-330,170,3
6,55,98,4
7,-855,170,0
8,-460,170,1
9,-720,170,0
10,-240,170,3
11,-350,170,2
12,100,99,4
13,-485,170,2
14,-40,133,4
15,-195,164,4
16,-230,170,3
17,-790,170,0
18,120,112,4
19,-320,170,2
20,-395,170,3
21,-570,170,1
22,-775,170,0
23,-155,144,4
24,-425,170,2
25,-635,170,1
26,-740,170,0
27,15,122,4
28,-735,170,0
29,-585,170,1
30,-830,170,0
31,-775,170,0
32,-515,170,1
33,-775,170,0
34,-155,155,4
35,95,94,4
36,-780,170,0
37,245,71,4
38,-530,170,1
39,-295,170,3
40,60,126,4
41,-775,170,0
42,-245,170,3
43,-330,170,3
44,-170,167,4
45,-20,135,4
46,-15,129,4
47,-815,170,0
48,130,112,4
49,-45,132,4
50,-475,170,2
51,-285,170,3
52,-445,170,2
53,50,128,4
54,-415,170,3
55,125,105,4
56,60,117,4
57,60,114,4
58,-855,170,0
59,-790,170,0
60,-240,170,4
61,-805,170,0
62,-435,170,2
63,-155,170,4
64,-45,128,4
65,-740,170,0
66,-610,170,1
67,-350,170,3
68,-295,170,3
69,-710,170,0
70,-25,118,4
71,-855,170,0
72,-330,170,3
73,-255,170,3
74,-290,170,3
75,45,126,4
76,-270,170,3
77,-260,170,3
78,-265,170,3
79,-435,170,2
80,-805,170,0
81,-440,170,2
82,220,74,4
83,0,121,4
84,210,68,4
85,-70,145,4
86,80,114,4
87,-855,170,0
88,395,43,4
89,-385,170,3
90,-105,154,4
91,75,115,4
92,-95,156,4
93,-185,160,4
94,-385,170,3
95,-280,170,3
96,-5,140,4
97,-175,160,4
98,70,118,4
99,-270,170,3
100,-530,170,2
101,-340,170,3
102,45,103,4
103,-240,170,3
104,-140,166,4
105,-285,170,3
106,-325,170,3
107,-140,163,4
108,-830,170,0
109,-620,170,1
110,30,113,4
111,-155,152,4
112,-395,170,2
113,215,84,4
114,180,93,4
115,-30,133,4
116,40,126,4
117,-430,170,2
118,-50,144,4
119,-5,138,4
120,-350,170,3
121,-855,170,0
122,95,96,4
123,70,118,4
124,-295,170,3
125,-270,170,3
126,-790,170,0
127,145,99,4
128,-800,170,0
129,60,113,4
130,170,94,4
131,330,61,4
132,-295,170,3
133,-200,165,4
134,-45,120,4
135,-135,152,4
136,-15,137,4
137,145,96,4
138,-100,135,4
139,-60,146,4
140,-215,168,4
141,-35,131,4
142,-295,170,4
143,95,95,4
144,-855,170,0
145,50,129,4
146,110,93,4
147,-45,138,4
148,-525,170,1
149,-35,132,4
150,-255,170,3
151,85,104,4
152,-215,170,4
153,-775,170,0
154,5,119,4
155,325,50,4
156,-275,170,3
157,140,94,4
158,-765,170,0
159,-800,170,0
160,55,126,4
161,205,97,4
162,-305,170,3
163,-815,170,0
164,-35,139,4
165,-45,129,4
166,-165,153,4
167,285,63,4
168,175,85,4
169,-855,170,0
170,-300,170,3
171,-75,146,4
172,-590,170,1
173,120,94,4
174,-415,170,2
175,-95,158,4
176,-540,170,1
177,145,103,4
178,-5,135,4
179,-235,170,3
180,-555,170,2
181,40,123,4
182,180,80,4
183,120,105,4
184,-830,170,0
185,-125,164,4
186,205,73,4
187,-120,137,4
188,-790,170,0
189,-265,170,3
190,-45,136,4
191,345,44,4
192,70,99,4
193,-70,148,4
194,-775,170,0
195,80,112,4
196,135,97,4
197,320,37,4
198,-290,170,3
199,-140,145,4
200,-740,170,0
201,-195,166,4
202,30,132,4
203,0,128,4
204,-275,170,3
205,-95,143,4
206,-70,143,4
207,-270,170,3
208,-20,133,4
209,-310,170,3
210,-510,170,2
211,90,108,4
212,100,108,4
213,305,67,4
214,45,95,4
215,135,82,4
216,75,114,4
217,-150,159,4
218,125,95,4
219,-360,170,3
220,255,54,4
221,155,93,4
222,-575,170,1
223,-255,170,3
224,-105,149,4
225,100,98,4
226,-55,149,4
227,265,74,4
228,-15,114,4
229,260,51,4
230,-60,119,4
231,-830,170,0
232,-180,158,4
233,-50,137,4
234,-250,170,3
235,-95,155,4
236,340,46,4
237,-140,161,4
238,10,141,4
239,-305,170,3
240,70,106,4
241,425,16,4
242,-235,170,3
243,-405,170,3
244,260,81,4
245,-220,148,4
246,20,142,4
247,-305,170,3
248,-100,134,4
249,-30,139,4
250,130,101,4
251,200,88,4
252,85,104,4
253,305,49,4
254,15,118,4
255,-165,156,4
256,235,83,4
257,-35,136,4
258,-195,158,4
259,-50,127,4
260,-35,139,4
261,-150,169,4
262,65,112,4
263,370,27,4
264,-305,170,3
265,135,100,4
266,195,72,4
267,40,114,4
268,200,78,4
269,-295,170,3
270,-220,170,3
271,130,87,4
272,265,64,4
273,-110,158,4
274,-830,170,0
275,-425,170,2
276,210,77,4
277,320,68,4
278,270,63,4
279,305,56,4
280,120,99,4
281,-255,170,3
282,75,115,4
283,-250,170,3
284,135,97,4
285,-255,170,3
286,120,124,4
287,-30,144,4
288,255,60,4
289,45,125,4
290,-25,126,4
291,-775,170,0
292,150,88,4
293,-170,154,4
294,70,104,4
295,-15,135,4
296,225,73,4
297,280,61,4
298,95,85,4
299,-315,170,3
300,65,125,4
301,-220,150,4
302,145,110,4
303,-15,141,4
304,-285,170,3
305,-350,170,3
306,300,48,4
307,315,48,4
308,-10,127,4
309,140,91,4
310,320,46,4
311,435,22,4
312,-30,120,4
313,70,95,4
314,300,66,4
315,260,84,4
316,-25,132,4
317,250,67,4
318,130,90,4
319,150,81,4
320,205,71,4
321,150,94,4
322,-445,170,2
323,120,87,4
324,185,86,4
325,-145,158,4
326,185,92,4
327,95,96,4
328,-370,170,3
329,390,23,4
330,105,110,4
331,60,124,4
332,325,56,4
333,-325,170,3
334,-25,129,4
335,-15,132,4
336,-155,160,4
337,-70,160,4
338,260,52,4
339,195,84,4
340,35,126,4
341,355,56,4
342,90,96,4
343,-40,126,4
344,-285,170,3
345,260,66,4
346,150,86,4
347,185,69,4
348,240,61,4
349,20,120,4
350,100,120,4
351,-245,170,3
352,200,75,4
353,245,89,4
354,300,53,4
355,-60,149,4
356,320,61,4
357,-35,141,4
358,-280,170,3
359,5,133,4
360,180,86,4
361,30,116,4
362,325,39,4
363,385,44,4
364,-230,170,3
365,280,67,4
366,200,69,4
367,35,121,4
368,135,105,4
369,20,128,4
370,-195,165,4
371,265,71,4
372,-30,126,4
373,65,116,4
374,-240,170,3
375,-15,145,4
376,280,53,4
377,-85,127,4
378,215,76,4
379,155,81,4
380,310,52,4
381,140,92,4
382,335,53,4
383,165,95,4
384,455,23,4
385,310,62,4
386,135,105,4
387,280,60,4
388,380,42,4
389,285,77,4
390,250,64,4
391,-150,160,4
392,185,93,4
393,335,57,4
394,-40,144,4
395,220,72,4
396,195,86,4
397,5,130,4
398,345,42,4
399,-75,137,4
400,275,66,4
401,10,123,4
402,10,114,4
403,220,71,4
404,295,63,4
405,190,99,4
406,-565,170,1
407,205,85,4
408,-780,170,0
409,-855,170,0
410,-855,170,0
411,-345,170,3
412,-775,170,0
413,-300,170,3
414,-855,170,0
415,-855,170,0
416,150,95,4
417,-855,170,0
418,-770,170,0
419,-540,170,2
420,-855,170,0
421,-855,170,0
422,-525,170,1
423,-325,170,3
424,-855,170,0
425,-855,170,0
426,-185,160,4
427,-855,170,0
428,-800,170,0
429,-335,170,3
430,-730,170,0
431,-305,170,3
432,-350,170,3
433,-590,170,1
434,10,111,4
435,-660,170,1
436,-645,170,1
437,-640,170,1
438,35,114,4
439,-855,170,0
440,-610,170,1
441,-645,170,1
442,-630,170,1
443,-400,170,3
444,-115,153,4
445,-75,119,4
446,-195,157,4
447,-220,161,4
448,100,106,4
449,-855,170,0
450,-150,157,4
451,-335,170,3
452,260,69,4
453,-60,148,4
454,-800,170,0
455,45,119,4
456,-160,153,4
457,-710,170,0
458,-130,170,4
459,215,64,4
460,70,105,4
461,60,99,4
462,-55,133,4
463,220,80,4
464,-760,170,0
465,140,101,4
466,-315,170,3
467,115,98,4
468,170,96,4
469,60,128,4
470,-130,169,4
471,-55,135,4
472,35,133,4
473,330,46,4
474,-415,170,2
475,0,125,4
476,-385,170,2
477,-20,136,4
478,385,46,4
479,345,53,4
480,125,90,4
481,300,56,4
482,-815,170,0
483,205,72,4
484,-175,160,4
485,255,66,4
486,30,105,4
487,-5,122,4
488,325,64,4
489,315,54,4
490,205,82,4
491,140,96,4
492,185,84,4
493,90,121,4
494,-245,170,4
495,-30,130,4
496,-750,170,0
497,85,103,4
498,210,77,4
499,280,66,4
500,-280,170,3
501,10,118,4
502,-95,161,4
503,5,132,4
504,185,72,4
505,20,122,4
506,0,129,4
507,190,84,4
508,-635,170,1
509,175,79,4
510,240,77,4
511,195,69,4
512,-330,170,3
513,-170,162,4
514,95,102,4
515,-110,152,4
516,155,89,4
517,225,80,4
518,120,98,4
519,40,124,4
520,-760,170,0
521,-580,170,1
522,20,135,4
523,220,91,4
524,295,62,4
525,-270,170,3
526,125,98,4
527,-130,143,4
528,125,99,4
529,-155,168,4
530,80,103,4
531,150,101,4
532,-160,162,4
533,-300,170,3
534,250,60,4
535,150,95,4
536,-175,161,4
537,60,112,4
538,185,96,4
539,-20,147,4
540,-230,170,3
541,-290,170,3
542,120,101,4
543,-370,170,2
544,-430,170,2
545,-740,170,0
546,-60,141,4
547,270,49,4
548,120,85,4
549,-250,170,3
550,250,75,4
551,165,93,4
552,120,115,4
553,-270,170,3
554,-35,129,4
555,125,87,4
556,30,118,4
557,-515,170,2
558,-735,170,0
559,45,106,4
560,-20,138,4
561,35,126,4
562,-290,170,3
563,-175,161,4
564,-245,170,3
565,15,121,4
566,230,80,4
567,110,101,4
568,245,73,4
569,-260,170,3
570,-60,130,4
571,-60,150,4
572,175,95,4
573,-300,170,3
574,75,117,4
575,15,106,4
576,-110,152,4
577,-250,170,3
578,140,99,4
579,35,130,4
580,230,68,4
581,230,79,4
582,-305,170,3
583,-25,124,4
584,170,88,4
585,-60,137,4
586,-15,129,4
587,235,77,4
588,100,108,4
589,255,68,4
590,95,115,4
591,-60,153,4
592,-275,170,3
593,0,133,4
594,-275,170,3
595,-305,170,3
596,105,92,4
597,-245,170,3
598,270,57,4
599,105,103,4
600,375,42,4
601,-30,123,4
602,300,64,4
603,-65,148,4
604,-330,170,3
605,-305,170,3
606,10,122,4
607,-45,142,4
608,-320,170,3
609,35,119,4
610,-320,170,3
611,-85,151,4
612,235,85,4
613,-285,170,3
614,95,113,4
615,95,102,4
616,5,125,4
617,100,106,4
618,-40,135,4
619,-55,151,4
620,-70,132,4
621,-235,170,3
622,-545,170,1
623,275,64,4
624,-365,170,3
625,-45,139,4
626,275,67,4
627,-125,164,4
628,-30,124,4
629,45,118,4
630,-240,170,3
631,235,72,4
632,240,81,4
633,-265,170,3
634,205,82,4
635,255,76,4
636,115,100,4
637,-10,134,4
638,135,92,4
639,280,74,4
640,25,131,4
641,220,73,4
642,210,88,4
643,375,36,4
644,-145,155,4
645,-40,143,4
646,-25,138,4
647,295,58,4
648,-755,170,0
649,160,86,4
650,235,79,4
651,-300,170,3
652,180,93,4
653,55,99,4
654,-345,170,2
655,-365,170,3
656,-305,170,3
657,170,98,4
658,-370,170,3
659,265,55,4
660,-150,165,4
661,245,71,4
662,-115,142,4
663,40,127,4
664,305,64,4
665,135,93,4
666,125,104,4
667,-320,170,3
668,160,85,4
669,-20,134,4
670,-25,142,4
671,65,126,4
672,-250,170,3
673,-85,156,4
674,125,104,4
675,-570,170,1
676,155,85,4
677,190,94,4
678,10,134,4
679,135,102,4
680,-235,170,3
681,125,105,4
682,-85,124,4
683,205,83,4
684,75,118,4
685,320,50,4
686,230,65,4
687,-35,134,4
688,225,74,4
689,60,109,4
690,50,123,4
691,325,61,4
692,-55,123,4
693,-775,170,0
694,200,94,4
695,285,77,4
696,-150,170,4
697,-320,170,3
698,235,62,4
699,-120,151,4
700,-160,166,4
701,-75,149,4
702,155,95,4
703,65,113,4
704,-565,170,1
705,0,122,4
706,0,117,4
707,-50,132,4
708,-105,143,4
709,-170,153,4
710,70,103,4
711,-260,170,3
712,110,90,4
713,-630,170,0
714,-590,170,1
715,-280,170,3
716,185,81,4
717,40,109,4
718,-350,170,2
719,440,33,4
720,160,94,4
721,145,96,4
722,-10,133,4
723,165,91,4
724,-410,170,2
725,-355,170,3
726,205,89,4
727,-260,170,3
728,125,99,4
729,40,117,4
730,-285,170,3
731,90,89,4
732,140,92,4
733,170,101,4
734,155,85,4
735,-775,170,0
736,85,95,4
737,55,118,4
738,-75,130,4
739,185,70,4
740,65,107,4
741,-115,157,4
742,40,110,4
743,-335,170,3
744,120,95,4
745,-85,143,4
746,240,70,4
747,245,63,4
748,175,74,4
749,315,61,4
750,-35,134,4
751,25,115,4
752,-55,132,4
753,-335,170,3
754,-10,108,4
755,-250,170,3
756,230,66,4
757,270,47,4
758,5,100,4
759,-255,170,3
760,225,74,4
761,60,122,4
762,335,42,4
763,-295,170,3
764,100,84,4
765,-150,150,4
766,405,36,4
767,-45,136,4
768,210,93,4
769,235,62,4
770,205,82,4
771,-260,170,3
772,200,97,4
773,355,44,4
774,-300,170,3
775,-300,170,3
776,-305,162,4
777,260,60,4
778,0,121,4
779,-250,170,3
780,-730,170,0
781,30,118,4
782,-255,170,3
783,155,93,4
784,275,68,4
785,270,53,4
786,95,120,4
787,-65,151,4
788,340,59,4
789,-775,170,0
790,275,66,4
791,210,70,4
792,-20,141,4
793,-25,128,4
794,80,126,4
795,10,115,4
796,-160,152,4
797,185,96,4
798,210,76,4
799,185,84,4
800,85,105,4
801,165,87,4
802,-110,134,4
803,-320,170,3
804,-285,170,3
805,-265,170,3
806,-285,170,3
807,-190,162,4
808,250,63,4
809,-170,165,4
810,315,67,4
811,150,78,4
812,-305,170,3
813,20,135,4
814,-275,170,3
815,260,57,4
816,195,88,4
817,5,124,4
818,35,118,4
819,115,108,4
820,210,70,4
821,40,113,4
822,-15,130,4
823,130,108,4
824,290,64,4
825,345,55,4
826,-80,149,4
827,10,130,4
828,320,65,4
829,-10,124,4
830,80,98,4
831,90,112,4
832,-20,121,4
833,210,72,4
834,205,79,4
835,10,122,4
836,105,102,4
837,105,95,4
838,-245,168,4
839,210,72,4
840,-145,159,4
841,-125,151,4
842,235,67,4
843,10,120,4
844,360,55,4
845,55,119,4
846,245,66,4
847,-390,170,2
848,-155,159,4
849,205,72,4
850,-655,170,0
851,-45,140,4
852,230,68,4
853,310,62,4
854,-395,170,2
855,-65,139,4
856,-110,149,4
857,50,110,4
858,-110,149,4
859,-305,170,3
860,15,125,4
861,300,56,4
862,400,26,4
863,80,113,4
864,15,126,4
865,-5,125,4
866,190,85,4
867,260,55,4
868,85,100,4
869,335,51,4
870,75,107,4
871,-160,160,4
872,100,91,4
873,115,113,4
874,-80,120,4
875,-385,170,2
876,-20,141,4
877,270,65,4
878,-110,150,4
879,-370,170,3
880,-260,170,3
881,100,96,4
882,125,113,4
883,-145,153,4
884,120,90,4
885,-5,131,4
886,65,112,4
887,65,102,4
888,30,118,4
889,95,84,4
890,265,56,4
891,45,89,4
892,-325,170,3
893,80,94,4
894,265,69,4
895,40,132,4
896,80,106,4
897,-420,170,2
898,-110,149,4
899,120,89,4
900,325,53,4
901,0,106,4
902,175,76,4
903,370,38,4
904,-365,170,3
905,-280,170,3
906,220,81,4
907,-235,169,4
908,-310,170,3
909,205,85,4
910,180,79,4
911,245,55,4
912,175,74,4
913,-175,169,4
914,-225,170,3
915,170,84,4
916,-280,170,3
917,0,130,4
918,320,47,4
919,375,31,4
920,15,119,4
921,70,104,4
922,140,84,4
923,-40,132,4
924,145,94,4
925,95,127,4
926,55,117,4
927,35,123,4
928,-5,130,4
929,165,83,4
930,-355,170,3
931,-185,168,4
932,280,72,4
933,25,111,4
934,-90,154,4
935,90,121,4
936,-460,170,2
937,-35,138,4
938,380,49,4
939,-25,140,4
940,180,88,4
941,140,100,4
942,200,88,4
943,-320,170,3
944,5,119,4
945,120,93,4
946,-350,170,3
947,270,67,4
948,-340,170,3
949,90,111,4
950,10,130,4
951,-280,170,3
952,325,72,4
953,115,103,4
954,-55,152,4
955,-260,170,3
956,220,90,4
957,185,75,4
958,135,98,4
959,-265,170,3
960,10,112,4
961,-60,117,4
962,-40,145,4
963,115,100,4
964,185,83,4
965,-320,170,3
966,-340,170,3
967,200,69,4
968,195,78,4
969,160,87,4
970,-90,137,4
971,70,93,4
972,-300,170,3
973,-855,170,0
974,125,92,4
975,-50,141,4
976,225,78,4
977,80,110,4
978,135,93,4
979,415,23,4
980,155,103,4
981,-110,146,4
982,-345,170,3
983,-150,156,4
984,140,89,4
985,-60,154,4
986,155,81,4
987,35,126,4
988,-250,170,3
989,-30,134,4
990,-245,170,3
991,250,73,4
992,50,114,4
993,-110,133,4
994,165,101,4
995,70,114,4
996,190,80,4
997,290,74,4
998,-150,166,4
999,125,109,4
