episode,reward,step,sensitive
0,-2000,649,3
1,-2275,649,1
2,-705,649,4
3,-135,649,7
4,-610,649,7
5,-935,649,3
6,-1830,649,3
7,-2040,649,3
8,-1675,649,2
9,-2255,649,3
10,-2060,649,2
11,-2595,649,1
12,-2205,649,3
13,-2120,649,2
14,-2140,649,2
15,-2735,649,0
16,-2165,649,2
17,-1450,649,3
18,-785,649,6
19,-1405,649,4
20,-250,649,6
21,-1630,649,2
22,-870,649,6
23,-1325,649,3
24,-1990,649,2
25,-1830,649,4
26,-1080,649,3
27,-2090,649,3
28,-515,649,5
29,-2680,649,1
30,-1605,649,2
31,-2485,649,1
32,-1535,649,1
33,-470,649,7
34,-430,649,6
35,-1100,649,4
36,-715,649,3
37,-3115,649,0
38,-1045,649,4
39,-180,649,7
40,-35,613,8
41,-925,649,4
42,-1490,649,3
43,-335,649,6
44,-750,649,5
45,-335,649,6
46,-470,649,6
47,-910,649,3
48,-130,649,7
49,-540,649,6
50,-2090,649,3
51,-350,649,6
52,315,502,8
53,-415,649,6
54,-240,649,7
55,-120,649,7
56,-180,649,8
57,215,450,8
58,-290,649,7
59,0,549,8
60,-280,649,6
61,-165,649,7
62,-205,643,8
63,-525,649,6
64,-435,649,6
65,-2145,649,2
66,-555,649,7
67,-310,649,7
68,-645,649,6
69,-595,649,6
70,-620,649,6
71,-795,649,5
72,-970,649,5
73,-990,649,6
74,-1315,649,4
75,-1220,649,4
76,-1260,649,6
77,-1375,649,5
78,-1480,649,5
79,-1610,649,4
80,-1795,649,3
81,-1945,649,4
82,-1865,649,4
83,-2235,649,2
84,-2100,649,3
85,-1995,649,3
86,-2070,649,4
87,-2310,649,2
88,-2160,649,3
89,-2415,649,2
90,-2420,649,2
91,-2460,649,2
92,-2430,649,1
93,-2435,649,2
94,-2615,649,1
95,-2650,649,1
96,-2660,649,1
97,-2740,649,0
98,-2600,649,2
99,-2995,649,0
100,-2625,649,1
101,-2830,649,1
102,-2770,649,0
103,-2695,649,1
104,-2670,649,1
105,-2650,649,1
106,-2730,649,1
107,-2700,649,2
108,-2595,649,2
109,-2730,649,1
110,-2675,649,2
111,-2640,649,2
112,-2780,649,1
113,-2885,649,0
114,-2790,649,1
115,-2770,649,1
116,-2800,649,2
117,-2970,649,0
118,-2820,649,1
119,-2685,649,2
120,-2800,649,1
121,-2770,649,1
122,-2790,649,1
123,-2820,649,1
124,-2935,649,0
125,-2770,649,1
126,-2610,649,2
127,-2855,649,1
128,-2795,649,1
129,-2945,649,0
130,-2640,649,2
131,-2620,649,2
132,-2750,649,2
133,-2880,649,1
134,-2610,649,2
135,-2630,649,2
136,-2775,649,1
137,-2695,649,2
138,-2595,649,2
139,-2745,649,1
140,-2595,649,2
141,-2570,649,2
142,-2760,649,1
143,-2830,649,1
144,-2535,649,2
145,-2740,649,1
146,-2615,649,2
147,-2790,649,1
148,-2865,649,0
149,-2685,649,2
150,-2825,649,1
151,-2800,649,1
152,-2675,649,1
153,-2820,649,1
154,-2570,649,2
155,-2700,649,1
156,-2585,649,2
157,-2635,649,2
158,-2770,649,1
159,-2595,649,2
160,-2915,649,0
161,-2980,649,0
162,-2700,649,1
163,-2715,649,1
164,-2575,649,2
165,-2750,649,1
166,-2690,649,1
167,-2695,649,1
168,-2585,649,2
169,-2730,649,1
170,-2625,649,2
171,-2690,649,1
172,-2595,649,2
173,-2710,649,1
174,-2565,649,2
175,-2615,649,2
176,-2785,649,1
177,-2720,649,1
178,-2740,649,1
179,-2645,649,2
180,-2545,649,2
181,-2615,649,2
182,-2565,649,2
183,-2570,649,2
184,-2650,649,2
185,-2690,649,1
186,-2755,649,1
187,-2575,649,2
188,-2615,649,2
189,-2560,649,2
190,-2645,649,2
191,-2710,649,1
192,-2575,649,2
193,-2755,649,1
194,-2655,649,2
195,-2725,649,1
196,-2695,649,1
197,-2760,649,1
198,-2635,649,2
199,-2550,649,2
200,-2715,649,1
201,-2700,649,2
202,-2690,649,1
203,-2740,649,1
204,-2735,649,1
205,-2785,649,1
206,-2825,649,1
207,-2600,649,2
208,-2490,649,2
209,-2550,649,2
210,-2555,649,2
211,-2625,649,1
212,-2575,649,2
213,-2640,649,2
214,-2700,649,1
215,-2925,649,0
216,-2890,649,1
217,-2500,649,2
218,-2705,649,1
219,-2525,649,2
220,-2510,649,2
221,-2555,649,2
222,-2500,649,2
223,-2610,649,2
224,-2625,649,2
225,-2535,649,2
226,-2500,649,2
227,-2550,649,2
228,-2585,649,2
229,-2680,649,1
230,-2550,649,2
231,-2775,649,1
232,-2850,649,1
233,-2790,649,1
234,-2510,649,2
235,-2480,649,2
236,-2550,649,2
237,-2865,649,0
238,-2515,649,2
239,-2595,649,2
240,-2615,649,2
241,-2490,649,2
242,-2505,649,2
243,-2555,649,2
244,-2620,649,2
245,-2610,649,2
246,-2805,649,1
247,-2605,649,1
248,-2540,649,2
249,-2490,649,2
250,-2575,649,1
251,-2465,649,2
252,-2445,649,2
253,-2495,649,2
254,-2570,649,2
255,-2540,649,2
256,-2475,649,2
257,-2580,649,2
258,-2475,649,2
259,-2500,649,2
260,-2560,649,2
261,-2560,649,2
262,-2570,649,2
263,-2530,649,2
264,-2520,649,2
265,-2515,649,2
266,-2540,649,2
267,-2635,649,2
268,-2435,649,2
269,-2495,649,2
270,-2500,649,2
271,-2485,649,2
272,-2510,649,2
273,-2725,649,1
274,-2545,649,2
275,-2455,649,2
276,-2510,649,2
277,-2535,649,2
278,-2785,649,1
279,-3030,649,0
280,-2550,649,2
281,-2670,649,1
282,-2435,649,2
283,-2465,649,2
284,-2510,649,2
285,-2540,649,2
286,-2475,649,2
287,-2655,649,2
288,-2505,649,2
289,-2520,649,2
290,-2500,649,2
291,-2505,649,2
292,-2500,649,2
293,-2560,649,2
294,-2555,649,2
295,-2480,649,2
296,-2475,649,2
297,-2450,649,2
298,-2735,649,1
299,-2645,649,2
300,-3000,649,0
301,-2665,649,2
302,-3050,649,0
303,-2660,649,2
304,-2750,649,1
305,-2460,649,2
306,-2725,649,1
307,-2450,649,2
308,-2510,649,2
309,-2655,649,2
310,-2830,649,1
311,-2650,649,2
312,-2770,649,0
313,-2550,649,2
314,-2695,649,2
315,-2465,649,2
316,-2345,649,2
317,-2640,649,2
318,-3075,649,0
319,-2510,649,2
320,-2505,649,2
321,-2665,649,1
322,-2480,649,2
323,-2515,649,2
324,-2430,649,2
325,-2520,649,2
326,-2650,649,1
327,-2405,649,2
328,-2865,649,0
329,-2455,649,2
330,-2550,649,2
331,-2375,649,2
332,-2450,649,2
333,-2585,649,2
334,-2510,649,1
335,-2540,649,1
336,-2440,649,2
337,-2540,649,2
338,-2440,649,2
339,-2450,649,2
340,-2490,649,2
341,-2420,649,2
342,-2890,649,0
343,-2540,649,2
344,-2460,649,2
345,-2430,649,2
346,-2325,649,2
347,-2565,649,1
348,-2535,649,1
349,-2360,649,2
350,-2545,649,2
351,-2665,649,1
352,-2410,649,2
353,-2495,649,2
354,-2445,649,2
355,-2640,649,2
356,-2515,649,2
357,-2995,649,0
358,-2585,649,2
359,-2495,649,2
360,-2465,649,2
361,-2465,649,2
362,-2450,649,2
363,-2435,649,2
364,-2770,649,0
365,-2740,649,1
366,-2505,649,2
367,-2960,649,0
368,-2465,649,2
369,-2380,649,2
370,-2480,649,2
371,-2440,649,2
372,-2605,649,1
373,-2460,649,2
374,-2520,649,2
375,-2530,649,2
376,-2550,649,1
377,-2665,649,1
378,-2540,649,2
379,-2525,649,2
380,-2410,649,2
381,-2785,649,0
382,-2445,649,2
383,-2940,649,0
384,-2510,649,2
385,-2410,649,2
386,-2565,649,2
387,-2700,649,1
388,-2600,649,1
389,-2555,649,1
390,-2445,649,2
391,-2875,649,0
392,-2530,649,2
393,-2700,649,0
394,-2495,649,2
395,-2440,649,2
396,-2495,649,2
397,-2460,649,2
398,-2540,649,1
399,-2650,649,1
400,-2545,649,2
401,-2400,649,2
402,-2640,649,2
403,-2465,649,2
404,-2755,649,0
405,-2455,649,2
406,-2555,649,1
407,-2465,649,2
408,-2670,649,1
409,-2770,649,1
410,-2555,649,2
411,-2475,649,2
412,-2520,649,2
413,-2585,649,2
414,-2430,649,2
415,-2755,649,1
416,-2485,649,2
417,-2500,649,2
418,-2530,649,2
419,-2740,649,1
420,-2475,649,2
421,-2500,649,2
422,-2555,649,2
423,-2540,649,2
424,-2660,649,1
425,-2450,649,2
426,-2485,649,2
427,-2440,649,2
428,-2495,649,2
429,-2615,649,2
430,-2435,649,2
431,-2410,649,2
432,-2450,649,2
433,-2495,649,2
434,-2540,649,2
435,-2470,649,2
436,-2490,649,2
437,-2525,649,2
438,-2485,649,2
439,-2545,649,2
440,-2490,649,2
441,-2615,649,2
442,-2610,649,2
443,-2660,649,2
444,-2615,649,2
445,-2680,649,1
446,-2575,649,2
447,-2565,649,2
448,-2600,649,2
449,-2600,649,2
450,-2675,649,2
451,-2595,649,2
452,-2595,649,2
453,-2665,649,2
454,-2495,649,2
455,-2725,649,1
456,-2490,649,2
457,-2665,649,1
458,-2590,649,1
459,-2655,649,1
460,-2760,649,1
461,-2660,649,2
462,-2570,649,2
463,-2470,649,2
464,-2475,649,2
465,-2455,649,2
466,-2535,649,2
467,-2475,649,2
468,-2575,649,2
469,-2620,649,2
470,-2775,649,2
471,-2640,649,2
472,-2505,649,2
473,-2745,649,2
474,-2670,649,1
475,-2820,649,1
476,-2675,649,1
477,-2700,649,1
478,-2625,649,2
479,-2670,649,1
480,-2745,649,1
481,-2705,649,1
482,-2585,649,2
483,-2830,649,1
484,-2680,649,1
485,-2695,649,1
486,-2770,649,1
487,-2850,649,1
488,-2735,649,1
489,-2795,649,1
490,-2785,649,1
491,-2950,649,1
492,-2800,649,1
493,-2840,649,1
494,-2910,649,1
495,-2805,649,1
496,-2920,649,1
497,-3070,649,0
498,-2810,649,1
499,-2895,649,1
500,-3085,649,0
501,-2780,649,1
502,-2960,649,1
503,-3125,649,0
504,-2880,649,1
505,-3010,649,0
506,-2835,649,1
507,-3250,649,0
508,-3250,649,0
509,-3250,649,0
510,-3250,649,0
511,-3250,649,0
512,-3250,649,0
513,-3225,649,0
514,-3250,649,0
515,-3250,649,0
516,-3065,649,0
517,-3250,649,0
518,-2985,649,0
519,-3005,649,0
520,-2950,649,1
521,-3250,649,0
522,-3250,649,0
523,-3250,649,0
524,-3250,649,0
525,-3250,649,0
526,-3250,649,0
527,-2950,649,1
528,-3250,649,0
529,-3250,649,0
530,-2875,649,1
531,-3250,649,0
532,-2855,649,1
533,-2920,649,0
534,-3015,649,0
535,-2920,649,1
536,-2895,649,1
537,-2690,649,2
538,-2730,649,1
539,-2750,649,1
540,-2905,649,0
541,-2765,649,1
542,-2820,649,1
543,-2885,649,0
544,-2870,649,0
545,-2870,649,1
546,-2820,649,0
547,-2760,649,1
548,-2745,649,1
549,-2910,649,0
550,-2615,649,2
551,-2710,649,1
552,-2755,649,1
553,-2760,649,1
554,-2795,649,1
555,-2680,649,2
556,-2795,649,1
557,-2855,649,1
558,-2765,649,1
559,-2750,649,1
560,-2810,649,1
561,-2730,649,1
562,-2720,649,2
563,-2705,649,1
564,-2745,649,1
565,-2755,649,1
566,-2910,649,0
567,-2730,649,1
568,-2720,649,1
569,-2840,649,1
570,-2920,649,0
571,-2755,649,1
572,-2775,649,1
573,-2860,649,1
574,-2935,649,0
575,-2920,649,0
576,-2785,649,1
577,-2770,649,1
578,-2905,649,0
579,-2705,649,1
580,-2750,649,1
581,-2835,649,1
582,-2890,649,0
583,-2785,649,1
584,-2790,649,1
585,-2955,649,0
586,-2790,649,1
587,-2895,649,0
588,-2775,649,1
589,-2805,649,1
590,-2770,649,1
591,-2840,649,1
592,-2950,649,0
593,-2855,649,1
594,-2885,649,1
595,-2830,649,1
596,-2925,649,0
597,-2970,649,0
598,-2990,649,0
599,-2910,649,0
600,-2970,649,0
601,-2890,649,1
602,-2925,649,0
603,-2760,649,1
604,-2910,649,1
605,-2840,649,1
606,-2975,649,0
607,-2980,649,0
608,-2870,649,1
609,-2935,649,0
610,-2950,649,0
611,-2985,649,0
612,-2845,649,1
613,-2970,649,0
614,-2815,649,1
615,-2900,649,1
616,-3000,649,0
617,-3040,649,0
618,-2980,649,0
619,-2980,649,0
620,-2795,649,1
621,-2955,649,0
622,-2980,649,0
623,-2900,649,0
624,-2775,649,1
625,-2885,649,0
626,-2740,649,1
627,-2835,649,1
628,-2880,649,0
629,-2970,649,0
630,-2860,649,1
631,-2940,649,0
632,-2955,649,0
633,-2970,649,0
634,-2985,649,0
635,-2840,649,1
636,-2915,649,1
637,-3065,649,0
638,-3050,649,0
639,-2970,649,1
640,-3060,649,0
641,-3000,649,0
642,-2860,649,1
643,-3015,649,0
644,-2970,649,1
645,-3105,649,0
646,-3090,649,0
647,-3055,649,0
648,-3000,649,0
649,-2980,649,1
650,-3025,649,0
651,-2980,649,1
652,-2950,649,0
653,-3000,649,0
654,-3055,649,0
655,-2995,649,1
656,-2965,649,0
657,-3025,649,0
658,-3065,649,0
659,-3090,649,0
660,-3095,649,0
661,-3040,649,0
662,-3115,649,0
663,-3005,649,0
664,-3070,649,0
665,-3080,649,0
666,-2865,649,1
667,-2870,649,1
668,-2955,649,0
669,-3065,649,0
670,-2895,649,1
671,-2875,649,1
672,-2905,649,1
673,-2780,649,1
674,-2880,649,1
675,-2910,649,1
676,-2860,649,1
677,-2830,649,1
678,-2810,649,1
679,-2875,649,1
680,-2835,649,1
681,-2870,649,1
682,-2855,649,1
683,-2820,649,1
684,-2760,649,1
685,-2870,649,1
686,-2765,649,2
687,-2980,649,0
688,-2840,649,1
689,-2790,649,1
690,-2895,649,1
691,-2940,649,1
692,-2810,649,1
693,-2805,649,1
694,-2845,649,1
695,-2800,649,1
696,-2830,649,1
697,-2965,649,0
698,-3065,649,0
699,-2860,649,1
700,-2965,649,0
701,-2845,649,1
702,-2960,649,0
703,-2810,649,1
704,-2835,649,1
705,-2920,649,1
706,-3020,649,0
707,-2790,649,1
708,-2800,649,1
709,-2900,649,1
710,-2980,649,0
711,-2930,649,0
712,-2910,649,0
713,-2775,649,1
714,-2900,649,0
715,-2925,649,0
716,-2825,649,1
717,-2970,649,0
718,-2805,649,1
719,-2775,649,1
720,-2660,649,1
721,-2825,649,1
722,-2885,649,0
723,-2765,649,1
724,-2685,649,1
725,-2900,649,0
726,-2770,649,1
727,-2910,649,0
728,-2795,649,1
729,-2875,649,1
730,-2775,649,1
731,-2725,649,1
732,-2745,649,1
733,-2710,649,1
734,-2715,649,1
735,-2960,649,0
736,-2700,649,1
737,-2750,649,1
738,-2755,649,1
739,-2735,649,1
740,-2755,649,1
741,-2735,649,1
742,-2745,649,1
743,-2725,649,1
744,-2800,649,1
745,-2850,649,1
746,-2780,649,1
747,-2815,649,1
748,-2810,649,1
749,-2795,649,1
750,-2890,649,0
751,-2770,649,1
752,-2805,649,1
753,-2795,649,1
754,-2665,649,2
755,-2780,649,1
756,-2725,649,1
757,-2720,649,1
758,-2845,649,1
759,-2825,649,1
760,-2850,649,1
761,-2810,649,1
762,-2765,649,1
763,-2785,649,1
764,-2780,649,1
765,-2850,649,1
766,-2800,649,1
767,-2820,649,1
768,-2825,649,1
769,-2770,649,1
770,-2845,649,1
771,-2775,649,1
772,-2855,649,1
773,-2785,649,1
774,-2770,649,1
775,-2880,649,1
776,-2775,649,1
777,-2885,649,1
778,-2785,649,1
779,-2790,649,1
780,-2790,649,1
781,-2790,649,1
782,-2770,649,1
783,-2785,649,1
784,-2780,649,1
785,-2795,649,1
786,-2870,649,0
787,-2810,649,1
788,-2735,649,1
789,-2830,649,1
790,-2940,649,0
791,-2840,649,1
792,-2850,649,1
793,-2895,649,1
794,-2900,649,1
795,-2955,649,0
796,-2760,649,1
797,-2765,649,1
798,-2770,649,1
799,-2810,649,1
800,-2775,649,1
801,-2775,649,1
802,-2785,649,1
803,-2750,649,1
804,-2805,649,1
805,-2810,649,1
806,-2725,649,1
807,-2770,649,1
808,-2745,649,1
809,-2715,649,1
810,-2805,649,1
811,-2750,649,1
812,-2790,649,1
813,-2760,649,1
814,-2770,649,1
815,-2780,649,1
816,-2795,649,1
817,-2850,649,1
818,-2810,649,1
819,-2790,649,1
820,-2840,649,1
821,-2845,649,1
822,-2790,649,1
823,-2825,649,1
824,-2825,649,1
825,-2720,649,1
826,-2775,649,1
827,-2815,649,1
828,-2735,649,1
829,-2750,649,1
830,-2780,649,1
831,-2770,649,1
832,-2760,649,1
833,-2710,649,1
834,-2825,649,1
835,-2775,649,1
836,-2830,649,1
837,-2795,649,1
838,-2870,649,1
839,-2780,649,1
840,-2695,649,1
841,-2790,649,1
842,-2940,649,0
843,-2825,649,1
844,-2730,649,1
845,-2775,649,1
846,-2705,649,1
847,-2670,649,1
848,-2750,649,1
849,-2950,649,0
850,-2710,649,1
851,-2845,649,1
852,-2755,649,1
853,-2850,649,0
854,-2800,649,0
855,-2755,649,1
856,-2730,649,1
857,-2815,649,1
858,-2775,649,1
859,-2760,649,1
860,-2765,649,1
861,-2725,649,1
862,-2810,649,1
863,-2880,649,0
864,-2690,649,1
865,-2745,649,1
866,-2785,649,1
867,-2795,649,0
868,-2715,649,1
869,-2690,649,1
870,-2725,649,1
871,-2775,649,1
872,-2765,649,1
873,-2750,649,1
874,-2805,649,1
875,-2785,649,1
876,-2790,649,1
877,-2765,649,1
878,-2865,649,1
879,-2745,649,1
880,-2785,649,1
881,-2855,649,1
882,-2790,649,1
883,-2770,649,1
884,-2800,649,1
885,-2800,649,1
886,-2785,649,1
887,-2755,649,1
888,-2730,649,1
889,-2795,649,1
890,-2790,649,1
891,-2770,649,1
892,-2750,649,1
893,-2790,649,1
894,-2780,649,1
895,-2805,649,1
896,-2800,649,1
897,-2755,649,1
898,-2875,649,0
899,-2775,649,1
900,-2785,649,1
901,-2780,649,1
902,-2785,649,1
903,-2765,649,1
904,-2720,649,1
905,-2710,649,1
906,-2720,649,1
907,-2745,649,1
908,-2730,649,1
909,-2790,649,1
910,-2765,649,1
911,-2755,649,1
912,-2660,649,2
913,-2730,649,1
914,-2760,649,1
915,-2805,649,1
916,-2745,649,1
917,-2740,649,1
918,-2820,649,1
919,-2810,649,1
920,-2800,649,1
921,-2780,649,1
922,-2870,649,1
923,-2825,649,1
924,-2890,649,1
925,-2885,649,1
926,-2955,649,1
927,-2895,649,1
928,-3065,649,0
929,-2895,649,1
930,-2900,649,1
931,-3020,649,0
932,-2880,649,1
933,-2840,649,1
934,-2870,649,1
935,-2870,649,1
936,-2905,649,1
937,-2835,649,1
938,-2885,649,1
939,-2840,649,1
940,-2775,649,1
941,-2830,649,1
942,-2855,649,1
943,-2830,649,1
944,-2755,649,2
945,-2785,649,1
946,-2780,649,1
947,-2880,649,1
948,-2775,649,1
949,-2770,649,1
950,-2805,649,1
951,-2780,649,1
952,-3250,649,0
953,-3250,649,0
954,-2865,649,1
955,-2855,649,1
956,-3250,649,0
957,-3250,649,0
958,-2830,649,1
959,-3035,649,0
960,-3250,649,0
961,-2855,649,1
962,-3140,649,0
963,-3250,649,0
964,-2870,649,1
965,-2860,649,1
966,-2845,649,1
967,-2860,649,1
968,-2945,649,1
969,-2890,649,1
970,-3250,649,0
971,-2920,649,1
972,-2925,649,1
973,-3250,649,0
974,-2925,649,1
975,-3250,649,0
976,-3250,649,0
977,-3250,649,0
978,-3250,649,0
979,-3090,649,0
980,-2940,649,1
981,-3250,649,0
982,-3160,649,0
983,-3065,649,0
984,-3250,649,0
985,-3250,649,0
986,-3250,649,0
987,-3250,649,0
988,-3250,649,0
989,-3250,649,0
990,-3250,649,0
991,-3250,649,0
992,-3250,649,0
993,-3250,649,0
994,-3250,649,0
995,-3250,649,0
996,-3250,649,0
997,-3250,649,0
998,-3250,649,0
999,-3250,649,0
