episode,reward,step,sensitive
0,-2455,490,0
1,-2270,490,0
2,-2265,490,0
3,-1980,490,0
4,-1975,490,0
5,-2175,490,0
6,-1725,490,0
7,-1905,490,1
8,-1900,490,0
9,-2315,490,0
10,-2150,490,0
11,-2150,490,0
12,-2120,490,0
13,-1835,490,1
14,-1975,490,0
15,-2265,490,0
16,-1690,490,0
17,-2055,490,0
18,-1775,490,1
19,-2065,490,0
20,-1845,490,0
21,-1725,490,1
22,-1970,490,0
23,-1385,428,2
24,-1670,490,1
25,-1800,490,1
26,-2205,490,0
27,-1735,490,1
28,-1880,490,0
29,-1900,490,0
30,-1855,490,0
31,-1845,490,0
32,-1840,490,1
33,-1905,490,0
34,-1885,490,0
35,-1925,490,1
36,-1675,490,1
37,-1840,490,0
38,-1990,490,0
39,-1765,490,1
40,-1935,490,0
41,-1760,490,1
42,-1700,490,1
43,-1910,490,1
44,-1810,490,0
45,-1710,490,1
46,-1650,490,1
47,-1685,490,1
48,-1670,490,1
49,-1650,490,1
50,-1510,490,1
51,-1845,490,0
52,-1700,490,1
53,-1670,490,1
54,-955,312,2
55,-1720,490,1
56,-985,374,2
57,-1635,490,1
58,-1640,490,1
59,-1685,490,1
60,-1900,490,0
61,-1875,490,0
62,-845,321,2
63,-1835,490,0
64,-1790,490,1
65,-1650,490,1
66,-1895,490,0
67,-1590,490,1
68,-1730,490,1
69,-1590,490,1
70,-1555,490,1
71,-1755,490,1
72,-1785,490,0
73,-1810,490,1
74,-1050,347,2
75,-1675,490,1
76,-1755,490,1
77,-1585,490,1
78,-1965,490,0
79,-1660,490,1
80,-1715,490,1
81,-1800,490,1
82,-1750,490,1
83,-1795,490,1
84,-1900,490,0
85,-1645,490,1
86,-1865,490,0
87,-1795,490,0
88,-1890,490,0
89,-1705,490,0
90,-1665,490,1
91,-1810,490,0
92,-1635,490,1
93,-1610,490,1
94,-1715,490,0
95,-1665,490,1
96,-600,260,2
97,-1760,490,1
98,-1755,490,1
99,-2020,490,0
100,-1720,490,1
101,-1720,490,0
102,-1750,490,1
103,-1710,490,1
104,-1845,490,1
105,-1750,490,1
106,-1825,490,1
107,-1605,490,1
108,-1615,490,1
109,-1680,490,1
110,-1655,490,1
111,-1590,490,1
112,-1580,490,1
113,-460,215,2
114,-210,152,2
115,-1950,490,0
116,-1945,490,1
117,-1800,490,0
118,-1800,490,0
119,-1775,490,1
120,-1840,490,0
121,-1790,490,0
122,-880,316,2
123,-1670,490,1
124,-1760,490,0
125,-1690,490,1
126,-1735,490,1
127,-1860,490,0
128,-1775,490,0
129,-1710,490,1
130,-1800,490,1
131,-1815,490,1
132,-1705,490,1
133,-1580,490,1
134,-1645,490,1
135,-1710,490,1
136,-1955,490,1
137,-1565,490,1
138,-1835,490,0
139,-1905,490,0
140,-1685,490,1
141,-1795,490,0
142,-1805,490,0
143,-1560,490,1
144,-1695,490,1
145,-1635,490,1
146,-505,236,2
147,-1650,490,1
148,-1610,490,1
149,-1710,490,1
150,-1695,490,1
151,-1995,490,0
152,-1750,490,1
153,-1670,490,1
154,-1200,418,2
155,-1620,490,1
156,-1910,490,1
157,-2045,490,0
158,-1615,490,1
159,-1745,490,1
160,-1750,490,1
161,-1835,490,0
162,-1875,490,0
163,-1700,490,1
164,-1745,490,1
165,-1850,490,0
166,-1045,333,2
167,-1915,490,0
168,-1825,490,1
169,-1575,481,2
170,-1185,430,2
171,-1680,490,1
172,-1680,490,1
173,-1140,371,2
174,-1810,490,1
175,-1795,490,0
176,-1625,473,2
177,-1650,490,1
178,-1795,490,0
179,-1685,490,1
180,-1925,490,0
181,-1875,490,0
182,-1805,490,1
183,-1830,490,0
184,-1795,490,0
185,-1995,490,0
186,-1675,490,1
187,-1830,490,0
188,-1710,490,1
189,-1775,490,0
190,-1945,490,0
191,-1780,490,0
192,-1735,490,1
193,-1965,490,0
194,-1805,490,1
195,-1715,490,1
196,-1640,490,1
197,-1100,390,2
198,-1780,490,1
199,-1625,490,1
200,-1885,490,0
201,-1625,490,1
202,-1585,490,1
203,-1740,490,0
204,-1750,490,1
205,-1965,490,0
206,-1790,490,1
207,-1760,490,1
208,-1235,403,2
209,-1635,490,1
210,-1720,490,1
211,-1680,490,1
212,-1775,490,1
213,-1710,490,1
214,-1660,490,1
215,-1865,490,0
216,-1725,490,1
217,-1575,490,1
218,-1730,490,1
219,-1720,490,1
220,-1715,490,1
221,-1825,490,0
222,-1820,490,0
223,-1640,490,1
224,-1985,490,0
225,-1710,490,1
226,-1090,381,2
227,-1640,490,1
228,-1715,490,1
229,-1840,490,0
230,-375,191,2
231,-1700,490,1
232,-1760,490,0
233,-1690,490,1
234,-1670,490,1
235,-1510,475,2
236,-1710,490,1
237,-1740,490,1
238,-1730,490,1
239,-1640,490,1
240,-1920,490,0
241,-1890,490,0
242,-1690,490,1
243,-1715,490,1
244,-1640,490,1
245,-1815,490,0
246,-1775,490,1
247,-1645,490,0
248,-1780,490,1
249,-1740,490,0
250,-1875,490,0
251,-1700,490,0
252,-1725,490,1
253,-1605,490,1
254,-1670,490,1
255,-1875,490,0
256,-1580,490,1
257,-1655,490,1
258,-1575,490,1
259,-1755,490,1
260,-1840,490,1
261,-1680,490,1
262,-1695,490,0
263,-970,348,2
264,-1410,484,2
265,-1940,490,0
266,-1770,490,1
267,-1820,490,0
268,-1675,490,1
269,-1805,490,1
270,-1835,490,0
271,-1570,490,1
272,-1220,396,2
273,-1695,490,1
274,-1840,490,0
275,-1820,490,0
276,-1735,490,1
277,-1840,490,1
278,-1635,490,1
279,-1740,490,1
280,-1850,490,1
281,-1735,490,0
282,-2030,490,0
283,-1685,490,0
284,-1175,378,2
285,-1720,490,1
286,-1625,490,1
287,-1100,380,2
288,-1715,490,1
289,-1235,409,2
290,-1730,490,1
291,-1790,490,1
292,-1490,480,2
293,-1830,490,1
294,-980,368,2
295,-1740,490,0
296,-1645,490,1
297,-1980,490,0
298,-1590,490,1
299,-1735,490,1
300,-1735,490,0
301,-1690,490,1
302,-1835,490,0
303,-1765,490,1
304,-1700,490,1
305,-1810,490,0
306,-1690,490,1
307,-1705,490,1
308,-1690,490,1
309,-1680,490,1
310,-1830,490,1
311,-1925,490,0
312,-1660,490,1
313,-1735,490,0
314,-1500,472,2
315,-1650,490,1
316,-1965,490,0
317,-1670,490,1
318,-770,281,2
319,-1085,358,2
320,-1680,490,1
321,-1790,490,1
322,-1180,403,2
323,-1650,490,1
324,-1800,490,1
325,-1800,490,1
326,-1575,490,1
327,-1890,490,0
328,-855,300,2
329,-1615,490,1
330,-1810,490,0
331,-1725,490,0
332,-1735,490,1
333,-1740,490,0
334,-1860,490,0
335,-1740,490,1
336,-1275,429,2
337,-1600,490,1
338,-1810,490,0
339,-1060,374,2
340,-1845,490,0
341,-1635,490,1
342,-1730,490,1
343,-1650,490,1
344,-1735,490,1
345,-1805,490,0
346,-1860,490,0
347,-1910,490,0
348,-1625,490,1
349,-1755,490,1
350,-1940,490,0
351,-1960,490,0
352,-1560,490,1
353,-1830,490,1
354,-1680,490,1
355,-1725,490,1
356,-1610,490,1
357,-1630,490,1
358,-1775,490,1
359,-1225,389,2
360,-1830,490,1
361,-1120,390,2
362,-1730,490,1
363,-1810,490,0
364,-945,343,2
365,-1450,450,2
366,-1665,490,1
367,-1780,490,1
368,-1650,490,1
369,-1670,490,0
370,-1680,490,1
371,-1705,490,1
372,-1790,490,1
373,-1705,490,1
374,-1855,490,0
375,-1860,490,0
376,-1805,490,0
377,-1720,490,1
378,-845,336,2
379,-1630,490,1
380,-1650,490,1
381,-1780,490,1
382,-1795,490,0
383,-730,285,2
384,-1635,490,1
385,-1660,490,1
386,-1580,490,1
387,-1645,490,1
388,-1635,490,1
389,-1735,490,1
390,-1600,490,1
391,-1740,490,0
392,-1960,490,0
393,-1755,490,1
394,-1785,490,0
395,-1915,490,0
396,-1775,490,0
397,-1655,490,1
398,-1665,490,1
399,-1665,490,1
400,-1990,490,0
401,-1690,490,1
402,-1850,490,0
403,-990,338,2
404,-1880,490,0
405,-1670,490,1
406,-1720,490,1
407,-1785,490,0
408,-1875,490,1
409,-1820,490,0
410,-1880,490,1
411,-1705,490,1
412,-1710,490,1
413,-1760,490,1
414,-1540,451,2
415,-1785,490,0
416,-1705,490,1
417,-1630,490,1
418,-1430,463,2
419,-1685,490,1
420,-1900,490,0
421,-1765,490,1
422,-1695,490,1
423,-1610,490,1
424,-1760,490,1
425,-1670,490,1
426,-1760,490,1
427,-1735,490,0
428,-1765,490,1
429,-1760,490,1
430,-1320,407,2
431,-1685,490,1
432,-1680,490,1
433,-1040,342,2
434,-1770,490,1
435,-625,264,2
436,-1740,490,1
437,-1730,490,1
438,-1925,490,0
439,-1705,490,1
440,-1700,490,1
441,-1940,490,0
442,-1575,484,2
443,-1660,490,1
444,-1975,490,0
445,-1660,490,1
446,-1805,490,0
447,-1870,490,0
448,-1760,490,1
449,-1620,490,1
450,-1930,490,0
451,-1795,490,1
452,-1755,490,1
453,-1820,490,1
454,-1995,490,0
455,-2055,490,0
456,-1770,490,1
457,-1790,490,1
458,-1695,490,1
459,-1985,490,0
460,-1945,490,0
461,-1745,490,1
462,-1725,490,1
463,-2005,490,0
464,-1730,490,1
465,-1890,490,0
466,-1645,490,1
467,-1485,429,2
468,-1905,490,0
469,-1550,467,2
470,-1925,490,1
471,-1775,490,1
472,-1840,490,1
473,-1960,490,0
474,-1750,490,1
475,-1770,490,1
476,-1880,490,0
477,-1890,490,0
478,-1440,458,2
479,-1865,490,1
480,-1990,490,0
481,-1750,490,1
482,-1825,490,1
483,-1890,490,0
484,-1690,490,1
485,-2000,490,0
486,-1990,490,0
487,-1675,490,1
488,-1695,490,1
489,-1645,490,1
490,-1750,490,1
491,-1850,490,0
492,-1745,490,1
493,-1825,490,1
494,-1940,490,0
495,-1785,490,1
496,-1940,490,1
497,-1725,490,1
498,-1980,490,0
499,-1800,490,1
500,-1830,490,1
501,-1895,490,0
502,-1805,490,1
503,-1915,490,1
504,-1865,490,0
505,-1660,490,1
506,-1835,490,0
507,-1890,490,1
508,-2050,490,0
509,-1905,490,1
510,-1690,490,1
511,-1825,490,1
512,-1745,490,1
513,-1905,490,0
514,-1990,490,0
515,-1880,490,1
516,-1850,490,1
517,-1775,490,0
518,-1750,490,1
519,-1855,490,0
520,-2045,490,0
521,-1865,490,1
522,-2035,490,0
523,-1675,490,1
524,-1995,490,0
525,-2035,490,0
526,-1875,490,0
527,-1010,333,2
528,-1935,490,0
529,-1615,490,1
530,-1895,490,0
531,-1715,490,1
532,-2035,490,0
533,-1965,490,0
534,-1910,490,0
535,-1700,490,1
536,-1835,490,1
537,-1855,490,0
538,-1730,490,1
539,-1935,490,1
540,-1780,490,1
541,-1775,490,1
542,-1840,490,1
543,-1920,490,0
544,-1930,490,1
545,-1820,490,1
546,-2005,490,0
547,-1855,490,1
548,-1760,490,1
549,-1925,490,0
550,-1630,490,1
551,-1780,490,1
552,-1750,490,1
553,-1825,490,1
554,-795,296,2
555,-1815,490,0
556,-1765,490,1
557,-1690,490,1
558,-1835,490,1
559,-1630,474,2
560,-1795,490,1
561,-1905,490,1
562,-1945,490,1
563,-1940,490,1
564,-1870,490,1
565,-1870,490,1
566,-1885,490,0
567,-1475,437,2
568,-1825,490,1
569,-1445,431,2
570,-1770,490,1
571,-1905,490,0
572,-1875,490,0
573,-1805,490,1
574,-530,203,2
575,-1870,490,1
576,-1780,490,1
577,-1995,490,0
578,-1925,490,1
579,-1925,490,1
580,-1895,490,0
581,-1835,490,1
582,-1895,490,0
583,-1730,490,1
584,-1910,490,0
585,-1740,484,2
586,-1810,490,1
587,-1885,490,0
588,-1935,490,1
589,-1970,490,1
590,-1850,490,0
591,-1845,490,0
592,-1790,490,1
593,-1930,490,0
594,-1995,490,0
595,-1960,490,1
596,-1815,490,1
597,-1765,490,1
598,-1875,490,0
599,-1520,490,1
600,-1485,434,2
601,-1820,490,1
602,-1880,490,1
603,-1925,490,0
604,-1975,490,1
605,-1655,490,1
606,-1905,490,0
607,-1950,490,0
608,-1920,490,0
609,-1855,490,1
610,-2020,490,0
611,-1730,490,1
612,-1885,490,0
613,-1685,490,1
614,-1990,490,1
615,-1685,490,1
616,-1850,490,0
617,-2030,490,0
618,-2070,490,0
619,-1935,490,0
620,-1815,490,0
621,-1740,490,1
622,-1915,490,1
623,-1925,490,0
624,-1890,490,1
625,-1740,490,1
626,-1230,398,2
627,-1960,490,0
628,-1805,490,1
629,-1965,490,0
630,-925,322,2
631,-1995,490,0
632,-2170,490,0
633,-1970,490,0
634,-1960,490,0
635,-1875,490,1
636,-2030,490,0
637,-1840,490,1
638,-1805,490,1
639,-1890,490,1
640,-2020,490,0
641,-1825,490,1
642,-1865,490,1
643,-1930,490,0
644,-1920,490,0
645,-1845,490,1
646,-2010,490,1
647,-1860,490,1
648,-1975,490,0
649,-1865,490,1
650,-1895,490,1
651,-1845,490,1
652,-2130,490,0
653,-1995,490,0
654,-1995,490,0
655,-2045,490,0
656,-1900,490,1
657,-2040,490,0
658,-1890,490,0
659,-1805,490,1
660,-2060,490,0
661,-2040,490,1
662,-1895,490,1
663,-1905,490,1
664,-1850,490,1
665,-1980,490,1
666,-1935,490,1
667,-1930,490,1
668,-1865,490,1
669,-1945,490,1
670,-1785,490,1
671,-1910,490,1
672,-2030,490,0
673,-1835,490,1
674,-1775,490,1
675,-2060,490,1
676,-1910,490,0
677,-2105,490,1
678,-2000,490,1
679,-1775,490,1
680,-1960,490,1
681,-1930,490,1
682,-1990,490,0
683,-2015,490,0
684,-1825,490,1
685,-1830,490,1
686,-1910,490,1
687,-1820,490,1
688,-1975,490,0
689,-1955,490,1
690,-1845,490,0
691,-1805,490,1
692,-2125,490,0
693,-1945,490,0
694,-850,300,2
695,-1930,490,1
696,-1990,490,1
697,-1970,490,1
698,-2110,490,0
699,-1930,490,0
700,-2125,490,0
701,-1835,490,0
702,-1995,490,0
703,-2165,490,0
704,-2075,490,0
705,-1745,490,1
706,-1775,490,1
707,-1955,490,0
708,-1840,490,1
709,-1890,490,1
710,-1980,490,0
711,-1495,424,2
712,-2085,490,0
713,-1905,490,1
714,-1965,490,1
715,-1950,490,1
716,-2055,490,0
717,-1965,490,0
718,-1845,490,1
719,-1795,490,1
720,-1785,490,1
721,-1960,490,0
722,-1865,490,1
723,-1865,490,1
724,-2030,490,0
725,-1825,490,1
726,-1935,490,1
727,-2035,490,0
728,-2245,490,0
729,-1765,490,1
730,-1910,490,1
731,-1910,490,1
732,-1935,490,1
733,-1990,490,0
734,-1895,490,0
735,-1955,490,0
736,-1815,490,1
737,-2025,490,0
738,-2010,490,0
739,-2025,490,0
740,-1900,490,1
741,-2035,490,1
742,-1770,490,1
743,-1940,490,1
744,-1910,490,0
745,-1960,490,0
746,-1880,490,1
747,-1840,490,2
748,-1980,490,0
749,-2035,490,0
750,-2230,490,0
751,-2010,490,0
752,-1830,490,1
753,-1310,386,2
754,-2040,490,0
755,-1870,490,1
756,-1900,490,1
757,-2020,490,1
758,-2020,490,0
759,-2080,490,0
760,-1825,490,1
761,-2025,490,1
762,-2110,490,0
763,-2075,490,0
764,-2130,490,0
765,-1940,490,0
766,-2075,490,1
767,-1920,490,1
768,-2110,490,0
769,-1950,490,1
770,-2095,490,0
771,-1940,490,0
772,-1425,414,2
773,-2170,490,0
774,-1980,490,1
775,-2090,490,0
776,-2105,490,0
777,-2170,490,0
778,-2000,490,0
779,-2150,490,0
780,-1840,490,1
781,-2110,490,0
782,-1995,490,0
783,-2085,490,0
784,-1850,490,1
785,-1955,490,0
786,-1850,490,1
787,-1995,490,0
788,-1910,490,0
789,-2095,490,0
790,-1975,490,0
791,-1945,490,1
792,-1895,490,1
793,-1980,490,0
794,-2125,490,0
795,-1900,490,1
796,-2170,490,0
797,-1950,490,0
798,-2070,490,0
799,-2120,490,0
800,-1995,490,1
801,-1860,490,1
802,-1975,490,0
803,-1945,490,0
804,-2155,490,0
805,-1985,490,0
806,-2005,490,0
807,-1915,490,1
808,-2055,490,0
809,-1910,490,1
810,-1835,490,1
811,-1825,490,1
812,-1970,490,0
813,-1820,490,1
814,-1950,490,1
815,-1955,490,0
816,-1885,490,1
817,-1955,490,0
818,-1945,490,0
819,-1875,490,0
820,-1970,490,0
821,-2005,490,0
822,-1995,490,0
823,-1890,490,1
824,-2065,490,0
825,-1730,490,1
826,-2020,490,0
827,-2030,490,0
828,-1895,490,1
829,-1955,490,1
830,-2025,490,0
831,-1845,490,1
832,-2200,490,0
833,-1860,490,1
834,-1830,490,1
835,-1850,490,1
836,-2120,490,0
837,-2080,490,0
838,-1915,490,1
839,-1880,490,1
840,-1980,490,0
841,-1930,490,1
842,-1915,490,1
843,-2090,490,0
844,-1940,490,1
845,-2170,490,0
846,-1975,490,1
847,-2020,490,0
848,-1975,490,0
849,-1880,490,0
850,-1940,490,1
851,-1870,490,1
852,-2175,490,0
853,-1895,490,0
854,-1980,490,0
855,-1950,490,1
856,-2010,490,0
857,-1140,360,2
858,-2000,490,1
859,-1835,490,1
860,-1960,490,0
861,-1915,490,0
862,-2070,490,0
863,-1930,490,1
864,-2050,490,0
865,-2105,490,0
866,-1965,490,0
867,-1445,417,2
868,-1850,490,1
869,-2085,490,0
870,-1965,490,0
871,-2005,490,0
872,-1835,490,1
873,-1850,490,1
874,-1945,490,1
875,-2055,490,0
876,-1850,490,1
877,-1920,490,0
878,-1955,490,1
879,-1775,477,2
880,-2245,490,0
881,-2000,490,1
882,-2075,490,0
883,-2065,490,0
884,-1825,490,1
885,-1895,490,0
886,-2065,490,0
887,-2030,490,0
888,-1860,490,1
889,-2005,490,1
890,-1990,490,0
891,-1965,490,0
892,-2015,490,0
893,-1810,490,1
894,-1950,490,1
895,-2005,490,0
896,-1915,490,1
897,-1985,490,0
898,-2045,490,0
899,-1980,490,1
900,-2100,490,0
901,-2180,490,0
902,-2190,490,0
903,-2050,490,1
904,-1915,490,1
905,-1830,490,1
906,-2110,490,0
907,-2075,490,0
908,-2060,490,0
909,-1940,490,1
910,-2055,490,0
911,-2050,490,0
912,-2025,490,0
913,-1965,490,1
914,-1950,490,1
915,-2125,490,0
916,-1930,490,1
917,-2015,490,1
918,-2005,490,1
919,-2145,490,0
920,-1865,490,1
921,-1960,490,1
922,-1980,490,1
923,-2005,490,0
924,-2115,490,0
925,-2065,490,0
926,-1920,490,1
927,-2060,490,0
928,-1865,490,1
929,-1970,490,0
930,-2060,490,0
931,-2070,490,0
932,-2030,490,0
933,-2045,490,0
934,-2105,490,0
935,-2135,490,0
936,-2000,490,1
937,-1995,490,1
938,-1950,490,1
939,-2075,490,0
940,-1970,490,1
941,-1925,490,1
942,-1930,490,1
943,-2115,490,0
944,-2055,490,0
945,-2055,490,0
946,-1930,490,1
947,-1940,490,0
948,-2030,490,0
949,-1960,490,1
950,-1870,490,1
951,-2120,490,0
952,-2020,490,1
953,-2105,490,0
954,-1895,490,1
955,-2070,490,0
956,-2155,490,0
957,-2005,490,0
958,-2185,490,0
959,-1995,490,1
960,-1945,490,1
961,-2185,490,0
962,-2040,490,0
963,-2005,490,0
964,-2095,490,0
965,-1960,490,1
966,-2050,490,0
967,-2080,490,0
968,-1965,490,1
969,-2205,490,0
970,-1955,490,0
971,-1990,490,0
972,-1995,490,1
973,-1970,490,0
974,-1815,490,1
975,-2135,490,0
976,-2120,490,0
977,-2040,490,0
978,-2105,490,0
979,-2125,490,0
980,-2035,490,1
981,-1995,490,1
982,-1945,490,1
983,-2040,490,0
984,-2215,490,0
985,-2200,490,0
986,-1805,490,1
987,-2200,490,0
988,-2085,490,0
989,-1945,490,1
990,-2095,490,0
991,-2060,490,1
992,-1955,490,1
993,-2025,490,0
994,-2095,490,1
995,-2185,490,0
996,-2005,490,1
997,-2225,490,0
998,-2130,490,0
999,-1940,490,1
