episode,reward,step,sensitive
0,-515,169,1
1,-335,169,1
2,-370,169,1
3,-630,169,1
4,-280,158,2
5,-670,169,1
6,-615,169,1
7,-665,169,1
8,-525,169,1
9,-380,169,1
10,-425,169,1
11,-340,169,1
12,-365,169,1
13,-695,169,1
14,-575,169,1
15,-605,169,1
16,30,72,2
17,-320,169,1
18,-375,169,1
19,-645,169,1
20,-50,117,2
21,-710,169,1
22,-380,169,1
23,-490,169,1
24,-440,169,1
25,-625,169,1
26,-345,165,2
27,-490,169,1
28,-130,131,2
29,-535,169,1
30,-600,169,1
31,-305,157,2
32,-585,169,1
33,-605,169,1
34,-325,169,1
35,-705,169,1
36,-305,161,2
37,-490,169,1
38,-365,169,1
39,-405,169,1
40,-340,169,1
41,-440,169,1
42,-120,144,2
43,-140,150,2
44,-160,149,2
45,-445,169,1
46,-400,169,1
47,-140,132,2
48,-325,169,1
49,-465,169,1
50,-185,136,2
51,-305,169,1
52,30,111,2
53,90,76,2
54,-445,169,1
55,-380,169,1
56,-175,150,2
57,-55,117,2
58,-360,169,1
59,155,86,2
60,-405,169,1
61,-380,169,1
62,-395,169,1
63,80,97,2
64,-635,169,1
65,105,96,2
66,-210,161,2
67,-550,169,1
68,-125,136,2
69,-530,169,1
70,-300,168,2
71,-415,169,1
72,-65,115,2
73,60,89,2
74,-520,169,1
75,185,69,2
76,-135,137,2
77,55,63,2
78,155,67,2
79,90,78,2
80,-330,169,1
81,-10,121,2
82,80,101,2
83,-10,119,2
84,45,87,2
85,120,94,2
86,145,72,2
87,50,87,2
88,100,88,2
89,185,46,2
90,205,41,2
91,5,103,2
92,95,82,2
93,175,61,2
94,200,35,2
95,55,99,2
96,245,58,2
97,15,98,2
98,10,120,2
99,-85,124,2
100,175,51,2
101,105,79,2
102,-55,109,2
103,170,66,2
104,-65,107,2
105,60,79,2
106,110,83,2
107,185,40,2
108,150,69,2
109,55,78,2
110,-70,123,2
111,105,85,2
112,15,102,2
113,105,65,2
114,170,65,2
115,140,66,2
116,45,90,2
117,175,53,2
118,130,70,2
119,135,61,2
120,60,89,2
121,150,66,2
122,70,68,2
123,20,71,2
124,135,69,2
125,110,83,2
126,-120,120,2
127,165,61,2
128,210,41,2
129,185,52,2
130,90,73,2
131,195,43,2
132,175,38,2
133,145,46,2
134,165,58,2
135,130,52,2
136,205,45,2
137,95,80,2
138,95,69,2
139,60,68,2
140,145,55,2
141,220,50,2
142,185,53,2
143,55,85,2
144,50,65,2
145,305,24,2
146,225,45,2
147,235,36,2
148,180,40,2
149,195,34,2
150,190,32,2
151,130,55,2
152,105,75,2
153,140,54,2
154,255,41,2
155,185,47,2
156,95,66,2
157,115,60,2
158,245,37,2
159,190,37,2
160,115,60,2
161,130,57,2
162,185,41,2
163,145,60,2
164,270,30,2
165,185,45,2
166,140,42,2
167,255,18,2
168,160,56,2
169,130,70,2
170,105,62,2
171,180,40,2
172,240,26,2
173,190,45,2
174,190,47,2
175,175,35,2
176,150,53,2
177,235,26,2
178,250,24,2
179,175,40,2
180,180,30,2
181,170,41,2
182,170,38,2
183,245,21,2
184,275,18,2
185,275,21,2
186,235,23,2
187,250,18,2
188,225,23,2
189,240,27,2
190,245,21,2
191,250,28,2
192,245,20,2
193,185,48,2
194,225,27,2
195,220,49,2
196,225,28,2
197,160,44,2
198,135,45,2
199,245,19,2
200,270,23,2
201,195,36,2
202,270,21,2
203,230,24,2
204,300,17,2
205,220,32,2
206,125,56,2
207,255,15,2
208,240,21,2
209,235,23,2
210,200,32,2
211,280,21,2
212,275,18,2
213,225,22,2
214,205,31,2
215,305,22,2
216,240,20,2
217,225,35,2
218,230,22,2
219,195,35,2
220,245,19,2
221,245,20,2
222,170,36,2
223,295,19,2
224,215,25,2
225,255,14,2
226,210,36,2
227,220,34,2
228,220,30,2
229,225,25,2
230,175,45,2
231,190,45,2
232,240,32,2
233,255,26,2
234,260,14,2
235,240,28,2
236,260,29,2
237,260,16,2
238,235,23,2
239,265,18,2
240,240,26,2
241,290,26,2
242,200,33,2
243,215,34,2
244,220,33,2
245,130,49,2
246,260,13,2
247,260,16,2
248,235,30,2
249,250,24,2
250,165,45,2
251,255,27,2
252,230,22,2
253,240,32,2
254,40,67,2
255,190,50,2
256,235,34,2
257,170,41,2
258,200,28,2
259,220,30,2
260,255,19,2
261,110,55,2
262,245,18,2
263,175,36,2
264,255,35,2
265,185,32,2
266,215,38,2
267,225,27,2
268,200,41,2
269,55,57,2
270,185,36,2
271,225,18,2
272,275,20,2
273,130,42,2
274,110,52,2
275,275,15,2
276,280,12,2
277,210,24,2
278,220,22,2
279,235,23,2
280,250,23,2
281,80,54,2
282,195,37,2
283,145,43,2
284,105,58,2
285,245,23,2
286,195,33,2
287,205,35,2
288,260,17,2
289,265,25,2
290,255,17,2
291,255,19,2
292,200,30,2
293,240,22,2
294,270,12,2
295,260,19,2
296,300,11,2
297,300,10,2
298,295,19,2
299,265,18,2
300,245,24,2
301,300,11,2
302,235,20,2
303,280,22,2
304,255,16,2
305,255,20,2
306,230,30,2
307,85,64,2
308,290,20,2
309,245,21,2
310,280,19,2
311,280,22,2
312,235,23,2
313,230,20,2
314,215,25,2
315,235,23,2
316,280,15,2
317,260,21,2
318,285,9,2
319,255,19,2
320,275,10,2
321,280,7,2
322,290,13,2
323,180,36,2
324,270,24,2
325,195,34,2
326,200,33,2
327,115,52,2
328,230,24,2
329,255,16,2
330,110,45,2
331,155,38,2
332,-620,169,1
333,175,37,2
334,265,20,2
335,220,29,2
336,215,27,2
337,290,8,2
338,185,29,2
339,215,27,2
340,235,20,2
341,260,21,2
342,260,21,2
343,235,22,2
344,245,18,2
345,210,25,2
346,250,16,2
347,280,12,2
348,240,23,2
349,260,11,2
350,260,20,2
351,260,16,2
352,210,34,2
353,285,19,2
354,155,42,2
355,245,22,2
356,270,15,2
357,180,42,2
358,190,33,2
359,290,13,2
360,265,15,2
361,275,16,2
362,255,21,2
363,290,8,2
364,275,10,2
365,280,14,2
366,240,23,2
367,235,24,2
368,225,18,2
369,235,26,2
370,270,14,2
371,220,25,2
372,290,13,2
373,270,21,2
374,245,16,2
375,170,44,2
376,140,42,2
377,210,23,2
378,225,24,2
379,250,20,2
380,250,19,2
381,285,16,2
382,205,32,2
383,90,56,2
384,165,37,2
385,235,19,2
386,230,27,2
387,80,55,2
388,185,29,2
389,240,25,2
390,210,34,2
391,240,17,2
392,200,26,2
393,285,6,2
394,260,14,2
395,235,16,2
396,260,23,2
397,290,14,2
398,275,19,2
399,260,18,2
400,270,19,2
401,245,21,2
402,290,15,2
403,260,18,2
404,250,23,2
405,255,21,2
406,240,17,2
407,275,18,2
408,250,21,2
409,245,22,2
410,295,9,2
411,225,30,2
412,205,30,2
413,285,9,2
414,275,16,2
415,260,16,2
416,260,16,2
417,185,38,2
418,295,14,2
419,240,23,2
420,250,23,2
421,265,22,2
422,275,20,2
423,275,8,2
424,105,48,2
425,110,49,2
426,225,25,2
427,200,31,2
428,235,24,2
429,290,13,2
430,190,35,2
431,265,20,2
432,285,14,2
433,295,12,2
434,285,14,2
435,250,25,2
436,265,25,2
437,250,21,2
438,260,18,2
439,280,7,2
440,245,24,2
441,235,21,2
442,290,14,2
443,300,8,2
444,255,14,2
445,250,23,2
446,245,19,2
447,240,25,2
448,210,23,2
449,220,22,2
450,155,42,2
451,280,14,2
452,245,16,2
453,240,20,2
454,235,19,2
455,15,77,2
456,65,60,2
457,225,26,2
458,55,55,2
459,175,35,2
460,275,11,2
461,-20,69,2
462,145,44,2
463,280,11,2
464,135,38,2
465,235,23,2
466,130,45,2
467,185,33,2
468,270,14,2
469,270,16,2
470,165,35,2
471,280,9,2
472,270,14,2
473,270,16,2
474,260,13,2
475,275,11,2
476,270,16,2
477,275,17,2
478,240,19,2
479,215,25,2
480,280,14,2
481,250,25,2
482,270,19,2
483,120,46,2
484,250,20,2
485,230,24,2
486,250,20,2
487,205,26,2
488,240,20,2
489,300,8,2
490,295,12,2
491,250,15,2
492,275,15,2
493,230,19,2
494,245,18,2
495,155,42,2
496,285,13,2
497,280,9,2
498,260,13,2
499,250,15,2
500,270,11,2
501,285,6,2
502,180,31,2
503,245,18,2
504,215,32,2
505,270,16,2
506,255,14,2
507,250,18,2
508,270,13,2
509,270,13,2
510,255,17,2
511,285,11,2
512,265,12,2
513,175,32,2
514,245,16,2
515,225,20,2
516,230,24,2
517,285,10,2
518,260,13,2
519,215,27,2
520,275,12,2
521,230,21,2
522,260,13,2
523,95,48,2
524,255,16,2
525,110,50,2
526,265,12,2
527,180,31,2
528,235,20,2
529,245,16,2
530,215,25,2
531,255,19,2
532,235,20,2
533,185,30,2
534,280,9,2
535,255,14,2
536,220,23,2
537,255,16,2
538,250,15,2
539,175,35,2
540,180,29,2
541,200,30,2
542,245,18,2
543,220,25,2
544,245,16,2
545,275,12,2
546,260,21,2
547,285,10,2
548,270,11,2
549,265,10,2
550,235,20,2
551,245,18,2
552,200,27,2
553,230,21,2
554,200,25,2
555,265,14,2
556,280,9,2
557,190,29,2
558,245,18,2
559,280,9,2
560,270,9,2
561,275,12,2
562,285,11,2
563,235,16,2
564,255,16,2
565,290,9,2
566,225,22,2
567,265,12,2
568,275,12,2
569,240,19,2
570,260,18,2
571,280,11,2
572,265,12,2
573,270,13,2
574,215,24,2
575,250,15,2
576,220,23,2
577,235,20,2
578,270,13,2
579,220,23,2
580,265,14,2
581,280,9,2
582,285,8,2
583,235,22,2
584,280,11,2
585,285,10,2
586,235,18,2
587,255,16,2
588,265,12,2
589,280,9,2
590,240,17,2
591,230,19,2
592,250,17,2
593,275,12,2
594,195,28,2
595,255,17,2
596,265,12,2
597,275,12,2
598,260,13,2
599,230,21,2
600,265,10,2
601,285,10,2
602,250,15,2
603,240,19,2
604,280,9,2
605,240,19,2
606,195,28,2
607,280,11,2
608,255,16,2
609,230,24,2
610,265,20,2
611,260,18,2
612,275,10,2
613,255,16,2
614,285,6,2
615,285,13,2
616,285,8,2
617,230,21,2
618,275,8,2
619,280,7,2
620,275,8,2
621,290,10,2
622,285,8,2
623,285,10,2
624,280,11,2
625,270,11,2
626,275,10,2
627,285,8,2
628,280,7,2
629,280,9,2
630,230,21,2
631,270,11,2
632,255,16,2
633,260,15,2
634,245,18,2
635,275,10,2
636,280,9,2
637,235,16,2
638,260,15,2
639,255,14,2
640,275,12,2
641,165,32,2
642,180,31,2
643,235,20,2
644,260,16,2
645,250,15,2
646,120,43,2
647,190,27,2
648,210,25,2
649,265,14,2
650,260,13,2
651,30,62,2
652,200,27,2
653,230,21,2
654,280,9,2
655,265,12,2
656,230,19,2
657,250,15,2
658,215,24,2
659,170,33,2
660,285,10,2
661,280,9,2
662,220,29,2
663,245,18,2
664,295,8,2
665,170,31,2
666,275,10,2
667,275,12,2
668,255,14,2
669,260,15,2
670,220,23,2
671,265,14,2
672,280,11,2
673,235,23,2
674,265,10,2
675,205,26,2
676,270,11,2
677,290,9,2
678,290,9,2
679,250,17,2
680,295,8,2
681,280,7,2
682,285,13,2
683,255,16,2
684,270,13,2
685,235,20,2
686,255,16,2
687,245,18,2
688,240,17,2
689,220,23,2
690,290,9,2
691,275,15,2
692,270,11,2
693,255,14,2
694,290,9,2
695,225,22,2
696,250,13,2
697,215,24,2
698,280,11,2
699,270,12,2
700,225,20,2
701,230,21,2
702,255,12,2
703,285,6,2
704,240,17,2
705,210,23,2
706,200,28,2
707,255,12,2
708,250,15,2
709,265,10,2
710,240,17,2
711,235,18,2
712,270,14,2
713,285,8,2
714,245,14,2
715,270,11,2
716,230,19,2
717,210,23,2
718,275,8,2
719,230,17,2
720,280,7,2
721,295,8,2
722,245,16,2
723,250,15,2
724,275,10,2
725,275,12,2
726,290,9,2
727,285,6,2
728,275,12,2
729,265,10,2
730,260,13,2
731,255,16,2
732,280,9,2
733,240,15,2
734,245,16,2
735,270,15,2
736,255,12,2
737,220,19,2
738,225,20,2
739,180,31,2
740,190,27,2
741,275,8,2
742,190,29,2
743,255,12,2
744,255,14,2
745,280,9,2
746,245,18,2
747,285,8,2
748,245,18,2
749,270,9,2
750,265,10,2
751,275,8,2
752,270,13,2
753,280,7,2
754,270,9,2
755,230,21,2
756,270,11,2
757,265,10,2
758,285,6,2
759,290,7,2
760,270,9,2
761,245,14,2
762,270,9,2
763,275,8,2
764,280,7,2
765,265,10,2
766,220,19,2
767,265,12,2
768,255,12,2
769,235,16,2
770,280,7,2
771,255,12,2
772,275,8,2
773,225,20,2
774,280,9,2
775,230,17,2
776,250,13,2
777,115,42,2
778,210,23,2
779,245,14,2
780,285,10,2
781,260,15,2
782,270,9,2
783,275,8,2
784,260,11,2
785,270,11,2
786,270,15,2
787,265,12,2
788,295,8,2
789,260,15,2
790,200,27,2
791,290,9,2
792,280,11,2
793,270,13,2
794,250,17,2
795,265,12,2
796,285,6,2
797,280,11,2
798,285,10,2
799,285,10,2
800,250,17,2
801,260,11,2
802,290,7,2
803,285,10,2
804,260,15,2
805,235,20,2
806,220,26,2
807,290,7,2
808,240,17,2
809,275,15,2
810,270,11,2
811,275,10,2
812,270,11,2
813,285,10,2
814,225,20,2
815,180,31,2
816,260,17,2
817,270,11,2
818,180,31,2
819,265,14,2
820,180,34,2
821,235,20,2
822,265,14,2
823,240,20,2
824,140,39,2
825,220,21,2
826,225,20,2
827,260,15,2
828,215,22,2
829,290,9,2
830,265,12,2
831,265,10,2
832,230,19,2
833,260,13,2
834,275,12,2
835,260,11,2
836,130,46,2
837,240,17,2
838,260,13,2
839,250,17,2
840,270,13,2
841,275,12,2
842,290,9,2
843,290,12,2
844,290,7,2
845,270,16,2
846,240,19,2
847,265,12,2
848,255,16,2
849,270,11,2
850,285,10,2
851,265,14,2
852,255,16,2
853,255,16,2
854,270,14,2
855,275,12,2
856,250,17,2
857,270,13,2
858,280,11,2
859,220,23,2
860,275,10,2
861,290,9,2
862,185,30,2
863,295,9,2
864,240,19,2
865,250,17,2
866,280,11,2
867,265,14,2
868,265,12,2
869,275,12,2
870,205,29,2
871,225,22,2
872,265,14,2
873,240,19,2
874,220,23,2
875,260,15,2
876,280,11,2
877,290,12,2
878,265,17,2
879,250,17,2
880,235,20,2
881,255,16,2
882,270,16,2
883,230,21,2
884,260,15,2
885,210,25,2
886,225,27,2
887,270,11,2
888,285,8,2
889,220,23,2
890,275,8,2
891,230,21,2
892,275,12,2
893,260,15,2
894,240,19,2
895,275,12,2
896,230,21,2
897,250,15,2
898,270,11,2
899,255,16,2
900,270,11,2
901,250,15,2
902,225,22,2
903,285,10,2
904,220,24,2
905,280,9,2
906,275,12,2
907,275,12,2
908,230,19,2
909,285,6,2
910,280,14,2
911,280,9,2
912,270,13,2
913,280,7,2
914,275,12,2
915,285,6,2
916,295,8,2
917,290,7,2
918,255,16,2
919,260,15,2
920,280,7,2
921,255,16,2
922,285,8,2
923,285,10,2
924,270,13,2
925,290,9,2
926,280,11,2
927,245,18,2
928,240,17,2
929,270,13,2
930,290,7,2
931,235,20,2
932,255,16,2
933,280,11,2
934,285,6,2
935,180,31,2
936,270,11,2
937,245,18,2
938,275,12,2
939,295,8,2
940,285,8,2
941,240,19,2
942,275,12,2
943,270,11,2
944,270,11,2
945,275,12,2
946,250,15,2
947,210,25,2
948,265,12,2
949,260,13,2
950,285,8,2
951,240,17,2
952,265,12,2
953,285,8,2
954,175,32,2
955,235,18,2
956,210,26,2
957,205,24,2
958,290,7,2
959,170,31,2
960,205,24,2
961,270,11,2
962,105,44,2
963,210,25,2
964,235,20,2
965,205,24,2
966,240,19,2
967,295,8,2
968,270,13,2
969,230,19,2
970,245,16,2
971,265,12,2
972,290,7,2
973,260,13,2
974,250,17,2
975,240,17,2
976,260,11,2
977,285,10,2
978,280,9,2
979,270,13,2
980,245,16,2
981,265,12,2
982,240,17,2
983,240,17,2
984,260,15,2
985,255,14,2
986,240,15,2
987,260,13,2
988,205,26,2
989,280,9,2
990,265,14,2
991,265,14,2
992,275,12,2
993,260,15,2
994,280,9,2
995,275,8,2
996,280,9,2
997,270,11,2
998,270,11,2
999,280,9,2
