episode,reward,step,sensitive
0,-1115,329,1
1,-1650,329,0
2,-1560,329,0
3,-1650,329,0
4,-1540,329,0
5,-1405,329,0
6,-1650,329,0
7,-1565,329,0
8,-1520,329,0
9,-1485,329,0
10,-1495,329,0
11,-1390,329,0
12,-1420,329,0
13,-1415,329,0
14,-1440,329,0
15,-1330,329,0
16,-1560,329,0
17,-1505,329,0
18,-1405,329,1
19,-1485,329,0
20,-1570,329,0
21,-1250,329,0
22,-1295,329,1
23,-1540,329,0
24,-1285,329,0
25,-1255,329,1
26,-1445,329,0
27,-1260,329,0
28,-1185,329,1
29,-1320,329,0
30,-1565,329,0
31,-1480,329,0
32,-1410,329,0
33,-1255,329,0
34,-1520,329,0
35,-1155,329,0
36,-1540,329,0
37,-1355,329,0
38,-1375,329,0
39,-1255,329,0
40,-1605,329,0
41,-1430,329,0
42,-1400,329,0
43,-1425,329,0
44,-1375,329,0
45,-1130,329,1
46,-1395,329,0
47,-995,292,2
48,-1480,329,0
49,-1255,329,0
50,-1255,329,1
51,-1440,329,0
52,-1400,329,0
53,-1505,329,0
54,-1295,329,0
55,-1420,329,0
56,-1220,329,0
57,-1540,329,0
58,-1535,329,0
59,-1410,329,0
60,-1345,329,0
61,-1350,329,0
62,-1375,329,0
63,-1415,329,0
64,-1460,329,0
65,-1425,329,0
66,-1330,329,0
67,-1430,329,0
68,-1395,329,1
69,-1465,329,0
70,-1550,329,0
71,-1405,329,0
72,-1400,329,0
73,-1405,329,0
74,-1300,329,0
75,-1650,329,0
76,-1345,329,0
77,-1540,329,0
78,-1570,329,0
79,-1490,329,0
80,-1365,329,0
81,-1380,329,0
82,-1495,329,0
83,-1470,329,0
84,-1480,329,0
85,-1445,329,0
86,-1345,329,0
87,-1400,329,0
88,-1385,329,0
89,-1345,329,0
90,-1235,329,0
91,-1230,329,0
92,-1250,329,0
93,-1325,329,0
94,-1410,329,0
95,-1165,329,0
96,-1310,329,0
97,-1335,329,0
98,-1400,329,0
99,-1420,329,0
100,-1410,329,0
101,-1180,329,0
102,-1470,329,0
103,-1205,329,0
104,-1435,329,0
105,-1375,329,0
106,-1375,329,0
107,-1490,329,0
108,-1395,329,0
109,-1355,329,0
110,-1415,329,0
111,-980,318,2
112,-1360,329,0
113,-1160,329,1
114,-1380,329,0
115,-1450,329,0
116,-1220,329,0
117,-1405,329,0
118,-1415,329,0
119,-1420,329,0
120,-1440,329,0
121,-1285,329,0
122,-1300,329,0
123,-1430,329,0
124,-1380,329,0
125,-1240,329,0
126,-1550,329,0
127,-1235,329,1
128,-1290,329,1
129,-1200,329,1
130,-1295,329,0
131,-1405,329,0
132,-1270,329,0
133,-1395,329,0
134,-1345,329,0
135,-1280,329,1
136,-1280,329,1
137,-1450,329,0
138,-1295,329,0
139,-1320,329,0
140,-1265,329,0
141,-1365,329,0
142,-1110,329,1
143,-1045,329,1
144,-1370,329,0
145,-1440,329,1
146,-1480,329,0
147,-1345,329,0
148,-1525,329,0
149,-1205,329,1
150,-1365,329,0
151,-1470,329,0
152,-1190,329,1
153,-1395,329,0
154,-1520,329,0
155,-1455,329,0
156,-1110,329,1
157,-1335,329,0
158,-1135,329,1
159,-1070,329,1
160,-1365,329,0
161,-1485,329,0
162,-1500,329,0
163,-1330,329,0
164,-1460,329,0
165,-1400,329,0
166,-1450,329,0
167,-1490,329,0
168,-1355,329,0
169,-1405,329,0
170,-1410,329,0
171,-1135,329,1
172,-1490,329,0
173,-1315,329,0
174,-1510,329,0
175,-1530,329,0
176,-1420,329,0
177,-1445,329,0
178,-1460,329,0
179,-1330,329,0
180,-1265,329,0
181,-1160,329,1
182,-1095,329,1
183,-1190,329,1
184,-1240,329,0
185,-1440,329,0
186,-1255,329,1
187,-1475,329,0
188,-1270,329,1
189,-1430,329,0
190,-1045,329,1
191,-1260,329,1
192,-1170,329,0
193,-1450,329,0
194,-1455,329,0
195,-1420,329,0
196,-1500,329,0
197,-1185,329,1
198,-1340,329,0
199,-1275,329,0
200,-1240,329,0
201,-1210,329,0
202,-1085,329,1
203,-1430,329,0
204,-1415,329,0
205,-1315,329,1
206,-1340,329,0
207,-1165,329,0
208,-1570,329,0
209,-1345,329,0
210,-1320,329,1
211,-1475,329,0
212,-1295,329,0
213,-1255,329,0
214,-1360,329,0
215,-1200,329,1
216,-1320,329,0
217,-1250,329,0
218,-1285,329,0
219,-1175,329,1
220,-735,251,2
221,-1055,329,1
222,-1240,329,0
223,-1245,329,1
224,-1185,329,1
225,-1295,329,0
226,-1435,329,0
227,-1255,329,0
228,-1190,329,1
229,-1385,329,0
230,-1425,329,0
231,-1365,329,0
232,-1165,329,1
233,-1180,329,0
234,-1265,329,0
235,-1295,329,0
236,-1225,329,0
237,-1395,329,0
238,-1065,329,1
239,-1360,329,0
240,-1100,329,1
241,-1220,329,0
242,-1410,329,0
243,-1430,329,0
244,-1320,329,0
245,-1085,329,2
246,-1170,329,1
247,-1215,329,0
248,-1465,329,0
249,-1360,329,0
250,-1315,329,0
251,-1410,329,0
252,-1435,329,0
253,-1445,329,0
254,-1120,329,1
255,-1460,329,0
256,-1350,329,0
257,-1080,329,1
258,-1255,329,1
259,-1310,329,0
260,-1080,329,1
261,-1350,329,0
262,-1415,329,0
263,-1360,329,0
264,-1240,329,1
265,-1365,329,1
266,-1030,307,2
267,-1480,329,0
268,-1365,329,0
269,-1230,329,0
270,-1345,329,0
271,-1395,329,0
272,-1110,329,1
273,-1120,329,1
274,-1275,329,0
275,-1285,329,0
276,-1390,329,0
277,-1315,329,0
278,-1265,329,0
279,-1420,329,0
280,-1230,329,0
281,-1185,329,1
282,-1220,329,1
283,-1365,329,0
284,-1320,329,0
285,-1225,329,1
286,-1380,329,0
287,-1300,329,0
288,-1375,329,0
289,-1275,329,0
290,-1315,329,0
291,-1090,329,1
292,-1435,329,0
293,-1245,329,1
294,-1395,329,0
295,-1345,329,0
296,-1105,329,1
297,-1215,329,1
298,-1095,329,1
299,-1200,329,1
300,-1125,329,1
301,-1255,329,0
302,-1300,329,0
303,-1320,329,0
304,-1225,329,1
305,-670,233,2
306,-1315,329,0
307,-1215,329,0
308,-1455,329,0
309,-1300,329,0
310,-1260,329,0
311,-1370,329,0
312,-1445,329,0
313,-1400,329,0
314,-1250,329,0
315,-1385,329,0
316,-1090,329,1
317,-1260,329,1
318,-1205,329,1
319,-1295,329,1
320,-1385,329,0
321,-1125,329,1
322,-1070,322,2
323,-1470,329,0
324,-1155,329,1
325,-1295,329,0
326,-1230,329,1
327,-1140,329,1
328,-1360,329,0
329,-1380,329,0
330,-1265,329,0
331,-1170,329,1
332,-1305,329,0
333,-1355,329,0
334,-1245,329,0
335,-1425,329,0
336,-1395,329,0
337,-1355,329,0
338,-1155,329,1
339,-685,256,2
340,-1440,329,0
341,-1420,329,0
342,-1345,329,0
343,-1215,329,0
344,-1150,329,1
345,-1490,329,0
346,-1375,329,0
347,-1415,329,0
348,-1285,329,0
349,-1260,329,0
350,-1415,329,0
351,-1245,329,0
352,-1250,329,1
353,-1380,329,0
354,-1365,329,0
355,-1305,329,0
356,-1325,329,0
357,-1210,329,1
358,-1505,329,0
359,-1205,329,1
360,-1350,329,0
361,-1280,329,0
362,-705,247,2
363,-1075,320,2
364,-1120,329,1
365,-1205,329,1
366,-1375,329,0
367,-1340,329,0
368,-1375,329,0
369,-1385,329,0
370,-1270,329,1
371,-1120,329,1
372,-1185,329,1
373,-695,255,2
374,-1320,329,1
375,-1230,329,1
376,-1100,329,1
377,-1400,329,0
378,-1435,329,0
379,-1205,329,1
380,-1335,329,0
381,-1430,329,1
382,-1145,329,1
383,-1240,329,0
384,-1335,329,0
385,-1355,329,0
386,-1245,329,1
387,-1175,329,1
388,-1280,329,0
389,-1175,329,1
390,-1175,329,1
391,-1260,329,1
392,-525,201,2
393,-1410,329,0
394,-1205,329,1
395,-1285,329,0
396,-1200,329,1
397,-1170,329,0
398,-1375,329,0
399,-1535,329,0
400,-1165,329,1
401,-1260,329,1
402,-1330,329,0
403,-1325,329,0
404,-1355,329,0
405,-1425,329,0
406,-1390,329,0
407,-1230,329,1
408,-1260,329,1
409,-1120,329,1
410,-1170,329,1
411,-1375,329,0
412,-1180,329,1
413,-490,217,2
414,-1275,329,0
415,-1255,329,1
416,-1370,329,0
417,-1225,329,1
418,-1330,329,0
419,-1370,329,0
420,-1160,329,1
421,-1185,329,1
422,-1375,329,0
423,-1500,329,0
424,-1190,329,1
425,-1305,329,0
426,-1270,329,0
427,-1165,329,1
428,-1445,329,1
429,-1425,329,0
430,-1360,329,0
431,-1615,329,0
432,-1465,329,0
433,-1465,329,0
434,-1200,329,1
435,-1435,329,0
436,-1200,329,1
437,-1475,329,0
438,-1170,329,1
439,-1250,329,1
440,-1130,329,1
441,-1235,329,0
442,-1355,329,0
443,-1315,329,0
444,-1210,329,0
445,-1350,329,0
446,-1260,329,0
447,-1400,329,0
448,-1470,329,0
449,-1400,329,0
450,-635,235,2
451,-1220,329,0
452,-1320,329,0
453,-1415,329,0
454,-710,252,2
455,-1310,329,0
456,-1290,329,0
457,-1200,329,1
458,-1475,329,0
459,-1335,329,0
460,-1465,329,0
461,-1130,329,1
462,-720,236,2
463,-1200,329,1
464,-1235,329,0
465,-1125,329,1
466,-1170,329,1
467,-350,178,2
468,-875,267,2
469,-1275,329,0
470,-1150,329,1
471,-1185,329,0
472,-1325,329,0
473,-1195,329,1
474,-1265,329,0
475,-1385,329,0
476,-1515,329,0
477,-1365,329,0
478,-1460,329,0
479,-1330,329,1
480,-1345,329,0
481,-1150,329,0
482,-1360,329,0
483,-1375,329,0
484,-1330,329,0
485,-1305,329,1
486,-1415,329,0
487,-1370,329,0
488,-1115,329,1
489,-1205,329,1
490,-1055,329,1
491,-1275,329,0
492,-1280,329,0
493,-1340,329,0
494,-1430,329,0
495,-1505,329,0
496,-1270,329,1
497,-1470,329,1
498,-1325,329,0
499,-1210,329,1
500,-1120,329,1
501,-1445,329,0
502,-1150,329,1
503,-1375,329,0
504,-1435,329,0
505,-1650,329,0
506,-1455,329,0
507,-1300,329,0
508,-1275,329,1
509,-1550,329,0
510,-1340,329,0
511,-1250,329,1
512,-1105,329,1
513,-1395,329,0
514,-1195,329,1
515,-1315,329,0
516,-1220,329,1
517,-1505,329,0
518,-1175,329,1
519,-1250,329,1
520,-1265,329,1
521,-1525,329,0
522,-1340,329,0
523,-1235,329,0
524,-1260,329,0
525,-1490,329,0
526,-1270,329,0
527,-1330,329,0
528,-1130,329,1
529,-1255,329,1
530,-1555,329,0
531,-1355,329,0
532,-1270,329,0
533,-1445,329,0
534,-1470,329,0
535,-1255,329,0
536,-1170,329,1
537,-1270,329,0
538,-1320,329,0
539,-1470,329,0
540,-1330,329,0
541,-1355,329,0
542,-1355,329,0
543,-1320,329,0
544,-1355,329,0
545,-1165,329,1
546,-735,244,2
547,-1225,329,0
548,-1395,329,0
549,-1355,329,0
550,-1485,329,0
551,-1500,329,0
552,-1355,329,0
553,-1505,329,0
554,-1375,329,0
555,-1340,329,0
556,-1265,329,1
557,-1560,329,0
558,-1300,329,0
559,-1400,329,0
560,-1170,329,1
561,-1185,329,1
562,-1340,329,0
563,-1300,329,0
564,-1355,329,0
565,-1275,329,0
566,-1220,329,1
567,-1330,329,1
568,-1285,329,1
569,-1340,329,0
570,-1335,329,0
571,-1195,329,1
572,-1355,329,0
573,-1275,329,0
574,-1345,329,0
575,-1195,329,1
576,-1190,329,1
577,-1580,329,0
578,-1190,329,1
579,-850,286,2
580,-1350,329,0
581,-1350,329,0
582,-1575,329,0
583,-1340,329,0
584,-1365,329,0
585,-1455,329,0
586,-1370,329,0
587,-1475,329,0
588,-1460,329,0
589,-1595,329,0
590,-1290,329,1
591,-1430,329,0
592,-1465,329,0
593,-1455,329,0
594,-1315,329,0
595,-1625,329,0
596,-1580,329,0
597,-1390,329,0
598,-1395,329,0
599,-1500,329,0
600,-1370,329,0
601,-1410,329,0
602,-1650,329,0
603,-1370,329,0
604,-1650,329,0
605,-1515,329,0
606,-1650,329,0
607,-1605,329,0
608,-1560,329,0
609,-1550,329,0
610,-1625,329,0
611,-1615,329,0
612,-1625,329,0
613,-1650,329,0
614,-1540,329,0
615,-1555,329,0
616,-1560,329,0
617,-1455,329,0
618,-1570,329,0
619,-1575,329,0
620,-1650,329,0
621,-1185,329,1
622,-1470,329,0
623,-1590,329,0
624,-1530,329,0
625,-1650,329,0
626,-1330,329,0
627,-1575,329,0
628,-1275,329,1
629,-1605,329,0
630,-1425,329,0
631,-1360,329,0
632,-1560,329,0
633,-1555,329,0
634,-1545,329,0
635,-1650,329,0
636,-1500,329,0
637,-1575,329,0
638,-1580,329,0
639,-1650,329,0
640,-1650,329,0
641,-1650,329,0
642,-1650,329,0
643,-1650,329,0
644,-1650,329,0
645,-1650,329,0
646,-1650,329,0
647,-1650,329,0
648,-1650,329,0
649,-1650,329,0
650,-1650,329,0
651,-1650,329,0
652,-1650,329,0
653,-1650,329,0
654,-1650,329,0
655,-1650,329,0
656,-1650,329,0
657,-1650,329,0
658,-1650,329,0
659,-1650,329,0
660,-1650,329,0
661,-1650,329,0
662,-1650,329,0
663,-1650,329,0
664,-1650,329,0
665,-1650,329,0
666,-1650,329,0
667,-1650,329,0
668,-1650,329,0
669,-1650,329,0
670,-1650,329,0
671,-1650,329,0
672,-1650,329,0
673,-1650,329,0
674,-1650,329,0
675,-1650,329,0
676,-1650,329,0
677,-1650,329,0
678,-1650,329,0
679,-1650,329,0
680,-1650,329,0
681,-1650,329,0
682,-1650,329,0
683,-1650,329,0
684,-1650,329,0
685,-1650,329,0
686,-1650,329,0
687,-1650,329,0
688,-1650,329,0
689,-1650,329,0
690,-1650,329,0
691,-1650,329,0
692,-1650,329,0
693,-1650,329,0
694,-1650,329,0
695,-1650,329,0
696,-1650,329,0
697,-1650,329,0
698,-1650,329,0
699,-1650,329,0
700,-1650,329,0
701,-1650,329,0
702,-1650,329,0
703,-1650,329,0
704,-1650,329,0
705,-1650,329,0
706,-1650,329,0
707,-1650,329,0
708,-1650,329,0
709,-1650,329,0
710,-1650,329,0
711,-1650,329,0
712,-1650,329,0
713,-1650,329,0
714,-1650,329,0
715,-1650,329,0
716,-1650,329,0
717,-1650,329,0
718,-1615,329,0
719,-1650,329,0
720,-1650,329,0
721,-1650,329,0
722,-1650,329,0
723,-1650,329,0
724,-1650,329,0
725,-1650,329,0
726,-1650,329,0
727,-1650,329,0
728,-1650,329,0
729,-1650,329,0
730,-1650,329,0
731,-1650,329,0
732,-1650,329,0
733,-1650,329,0
734,-1650,329,0
735,-1650,329,0
736,-1650,329,0
737,-1650,329,0
738,-1650,329,0
739,-1650,329,0
740,-1650,329,0
741,-1650,329,0
742,-1650,329,0
743,-1650,329,0
744,-1650,329,0
745,-1650,329,0
746,-1650,329,0
747,-1650,329,0
748,-1650,329,0
749,-1650,329,0
750,-1650,329,0
751,-1650,329,0
752,-1650,329,0
753,-1650,329,0
754,-1650,329,0
755,-1650,329,0
756,-1650,329,0
757,-1650,329,0
758,-1650,329,0
759,-1650,329,0
760,-1650,329,0
761,-1650,329,0
762,-1650,329,0
763,-1650,329,0
764,-1650,329,0
765,-1650,329,0
766,-1650,329,0
767,-1650,329,0
768,-1650,329,0
769,-1650,329,0
770,-1650,329,0
771,-1650,329,0
772,-1650,329,0
773,-1650,329,0
774,-1650,329,0
775,-1650,329,0
776,-1650,329,0
777,-1650,329,0
778,-1650,329,0
779,-1650,329,0
780,-1650,329,0
781,-1650,329,0
782,-1650,329,0
783,-1650,329,0
784,-1650,329,0
785,-1650,329,0
786,-1650,329,0
787,-1650,329,0
788,-1650,329,0
789,-1650,329,0
790,-1650,329,0
791,-1650,329,0
792,-1650,329,0
793,-1650,329,0
794,-1650,329,0
795,-1650,329,0
796,-1650,329,0
797,-1650,329,0
798,-1650,329,0
799,-1650,329,0
800,-1650,329,0
801,-1650,329,0
802,-1650,329,0
803,-1650,329,0
804,-1650,329,0
805,-1650,329,0
806,-1650,329,0
807,-1650,329,0
808,-1650,329,0
809,-1650,329,0
810,-1650,329,0
811,-1650,329,0
812,-1650,329,0
813,-1650,329,0
814,-1650,329,0
815,-1650,329,0
816,-1650,329,0
817,-1650,329,0
818,-1650,329,0
819,-1650,329,0
820,-1650,329,0
821,-1650,329,0
822,-1650,329,0
823,-1650,329,0
824,-1650,329,0
825,-1650,329,0
826,-1650,329,0
827,-1650,329,0
828,-1650,329,0
829,-1650,329,0
830,-1650,329,0
831,-1650,329,0
832,-1650,329,0
833,-1650,329,0
834,-1650,329,0
835,-1650,329,0
836,-1650,329,0
837,-1650,329,0
838,-1650,329,0
839,-1650,329,0
840,-1650,329,0
841,-1650,329,0
842,-1650,329,0
843,-1650,329,0
844,-1650,329,0
845,-1650,329,0
846,-1650,329,0
847,-1650,329,0
848,-1650,329,0
849,-1650,329,0
850,-1650,329,0
851,-1650,329,0
852,-1650,329,0
853,-1650,329,0
854,-1650,329,0
855,-1650,329,0
856,-1650,329,0
857,-1650,329,0
858,-1650,329,0
859,-1650,329,0
860,-1650,329,0
861,-1650,329,0
862,-1650,329,0
863,-1650,329,0
864,-1650,329,0
865,-1650,329,0
866,-1650,329,0
867,-1650,329,0
868,-1650,329,0
869,-1650,329,0
870,-1650,329,0
871,-1650,329,0
872,-1650,329,0
873,-1650,329,0
874,-1650,329,0
875,-1650,329,0
876,-1650,329,0
877,-1650,329,0
878,-1650,329,0
879,-1650,329,0
880,-1650,329,0
881,-1650,329,0
882,-1650,329,0
883,-1650,329,0
884,-1650,329,0
885,-1650,329,0
886,-1650,329,0
887,-1650,329,0
888,-1650,329,0
889,-1650,329,0
890,-1650,329,0
891,-1650,329,0
892,-1650,329,0
893,-1650,329,0
894,-1650,329,0
895,-1650,329,0
896,-1650,329,0
897,-1650,329,0
898,-1650,329,0
899,-1650,329,0
900,-1650,329,0
901,-1650,329,0
902,-1650,329,0
903,-1650,329,0
904,-1650,329,0
905,-1650,329,0
906,-1650,329,0
907,-1650,329,0
908,-1650,329,0
909,-1650,329,0
910,-1650,329,0
911,-1650,329,0
912,-1650,329,0
913,-1650,329,0
914,-1650,329,0
915,-1545,329,0
916,-1650,329,0
917,-1650,329,0
918,-1585,329,0
919,-1650,329,0
920,-1650,329,0
921,-1650,329,0
922,-1650,329,0
923,-1650,329,0
924,-1650,329,0
925,-1650,329,0
926,-1650,329,0
927,-1650,329,0
928,-1650,329,0
929,-1650,329,0
930,-1405,329,0
931,-1550,329,0
932,-1650,329,0
933,-1540,329,0
934,-1505,329,0
935,-1440,329,0
936,-1470,329,0
937,-1345,329,0
938,-1405,329,0
939,-1255,329,1
940,-1445,329,0
941,-1395,329,0
942,-1470,329,0
943,-1410,329,0
944,-1265,329,0
945,-525,205,2
946,-1390,329,0
947,-1200,329,0
948,-1115,329,1
949,-885,260,2
950,-1220,329,1
951,-1130,327,2
952,-1305,329,0
953,-1470,329,0
954,-1375,329,0
955,-1375,329,0
956,-1345,329,1
957,-1340,329,0
958,-1440,329,0
959,-1075,327,2
960,-1285,329,0
961,-1215,329,0
962,-1300,329,1
963,-1130,329,1
964,-1230,329,1
965,-1365,329,0
966,-1255,329,1
967,-1315,329,0
968,-1270,329,0
969,-1330,329,0
970,-1365,329,0
971,-1235,329,1
972,-1145,329,1
973,-1400,329,0
974,-1395,329,0
975,-1210,329,0
976,-1350,329,1
977,-1395,329,0
978,-1415,329,0
979,-1295,329,0
980,-1440,329,0
981,-1305,329,0
982,-1325,329,0
983,-1310,329,0
984,-1420,329,0
985,-1350,329,0
986,-1240,329,0
987,-1390,329,0
988,-1510,329,0
989,-1165,329,1
990,-1320,329,0
991,-1235,329,0
992,-1420,329,0
993,-1190,329,1
994,-1335,329,0
995,-1185,329,1
996,-1145,329,1
997,-1435,329,0
998,-1395,329,0
999,-1310,329,0
