episode,reward,step,sensitive
0,-1605,330,0
1,-520,211,2
2,-1330,330,0
3,-1315,330,0
4,-1395,330,0
5,-1525,330,0
6,-1305,330,0
7,-1310,330,1
8,-1545,330,0
9,-1205,330,1
10,-1545,330,0
11,-1570,330,0
12,-1235,330,1
13,-1465,330,0
14,-1500,330,0
15,-1410,330,0
16,-1175,330,1
17,-1490,330,0
18,-1615,330,0
19,-1255,330,1
20,-1185,330,1
21,-1220,330,1
22,-1190,330,1
23,-1175,330,1
24,-1095,330,1
25,-1595,330,0
26,-1565,330,0
27,-1190,330,1
28,-1325,330,1
29,-1225,330,1
30,-1190,330,1
31,-1180,330,1
32,-1175,330,1
33,-1300,330,1
34,-1520,330,0
35,-1165,330,1
36,-1165,330,1
37,-1200,330,1
38,-1115,330,1
39,-800,267,2
40,-1155,330,1
41,-1150,330,1
42,-1155,330,1
43,-470,207,2
44,-1355,330,0
45,-480,216,2
46,-1215,330,1
47,-955,317,2
48,-1260,330,0
49,-1340,330,1
50,-1160,330,1
51,-1190,330,1
52,-1185,330,1
53,-710,243,2
54,-1180,330,1
55,-1205,330,1
56,-690,247,2
57,-1180,330,1
58,-275,170,2
59,-1365,330,0
60,-1040,318,2
61,-1255,330,1
62,-1210,330,1
63,-895,300,2
64,-1300,330,1
65,-1200,330,1
66,-1145,330,1
67,-1125,330,1
68,-1255,330,1
69,-1115,330,1
70,-1160,330,1
71,-930,302,2
72,-1500,330,0
73,-1535,330,0
74,-1230,330,1
75,-445,187,2
76,-1170,330,1
77,-1170,330,1
78,-1145,330,1
79,-1260,330,1
80,-1155,330,1
81,-1180,330,1
82,-1130,330,1
83,-1050,330,2
84,-1160,330,1
85,-1320,330,1
86,-1095,330,1
87,-650,223,2
88,-860,288,2
89,-300,169,2
90,-1125,330,1
91,-1225,330,1
92,-585,228,2
93,-575,234,2
94,-355,176,2
95,-1045,322,2
96,-1150,330,1
97,-550,215,2
98,-780,259,2
99,-770,262,2
100,-1105,330,1
101,-1170,330,1
102,-1315,330,0
103,-1180,330,1
104,-1120,330,1
105,-1490,330,0
106,-1155,330,1
107,-1120,330,1
108,-265,151,2
109,-1095,330,1
110,-1065,330,1
111,-1655,330,0
112,-1175,330,1
113,-880,306,2
114,-1245,330,1
115,-1015,321,2
116,-1035,315,2
117,-1070,330,1
118,-1230,330,1
119,-290,150,2
120,-580,235,2
121,-1160,330,1
122,-1125,330,1
123,-1255,330,1
124,-1135,330,1
125,-1135,330,1
126,-640,233,2
127,-500,218,2
128,-1185,330,1
129,-1255,330,1
130,-670,244,2
131,-1240,330,1
132,-660,254,2
133,-705,257,2
134,-1045,327,2
135,-1075,330,1
136,-1130,330,1
137,-395,182,2
138,-805,266,2
139,-1185,330,1
140,-1135,330,1
141,-1150,330,1
142,-755,254,2
143,-1150,330,1
144,-425,180,2
145,-375,174,2
146,-1135,330,1
147,-1140,330,1
148,-1130,330,1
149,-805,272,2
150,-1135,330,1
151,-1125,330,1
152,-1170,330,1
153,-1045,322,2
154,-635,236,2
155,-855,292,2
156,-575,232,2
157,-1065,330,1
158,-1215,330,1
159,-335,176,2
160,-1165,330,1
161,-1125,330,1
162,-1280,330,1
163,-1310,330,1
164,-1085,330,1
165,-1185,330,1
166,-1145,330,1
167,-765,274,2
168,-1200,330,1
169,-995,301,2
170,-1130,330,1
171,-820,279,2
172,-880,291,2
173,-310,163,2
174,-1325,330,1
175,-1170,330,1
176,-1185,330,1
177,-735,265,2
178,-1160,330,1
179,-1180,330,1
180,-1260,330,1
181,-430,202,2
182,-1090,330,1
183,-460,203,2
184,-540,223,2
185,-1125,330,1
186,-1130,330,1
187,-990,321,2
188,-680,255,2
189,-540,210,2
190,-995,304,2
191,-335,182,2
192,-745,258,2
193,-460,211,2
194,-1195,330,1
195,-1175,330,1
196,-515,197,2
197,-1135,330,1
198,-835,289,2
199,-925,284,2
200,-5,101,2
201,-1210,330,1
202,-450,196,2
203,-255,150,2
204,-1270,330,1
205,-205,124,2
206,-1125,330,1
207,-750,269,2
208,-1130,330,1
209,-890,301,2
210,-1130,330,1
211,-940,314,2
212,-1150,330,1
213,-1155,330,1
214,-1085,330,1
215,-1180,330,1
216,-935,300,2
217,-1150,330,1
218,-915,314,2
219,-1165,330,1
220,-1145,330,1
221,-1160,330,1
222,-545,223,2
223,-1155,330,1
224,-1160,330,1
225,-710,263,2
226,-1045,330,2
227,-1190,330,1
228,-1135,330,1
229,-1200,330,1
230,-1160,330,1
231,-405,186,2
232,-1165,330,1
233,-1125,330,1
234,-1125,330,1
235,-560,233,2
236,-180,140,2
237,-1160,330,1
238,-950,308,2
239,-1145,330,1
240,-1235,330,1
241,-535,217,2
242,-1150,330,1
243,-1140,330,1
244,-1155,330,1
245,-1160,330,1
246,-1220,330,1
247,-1115,330,1
248,-1150,330,1
249,-670,260,2
250,-1185,330,1
251,-1215,330,1
252,-615,244,2
253,-1150,330,1
254,-1130,330,1
255,-970,311,2
256,-1110,330,1
257,-1245,330,1
258,-660,244,2
259,-365,184,2
260,-835,274,2
261,-335,159,2
262,-1180,330,1
263,-1310,330,0
264,-320,175,2
265,-465,195,2
266,-1130,330,1
267,-1110,330,1
268,80,62,2
269,-770,257,2
270,-165,128,2
271,-1145,330,1
272,-190,134,2
273,-1190,330,1
274,-655,250,2
275,-45,99,2
276,-1100,330,1
277,-1045,330,1
278,-695,246,2
279,-310,168,2
280,-440,193,2
281,-1160,330,1
282,-215,132,2
283,-765,265,2
284,-425,186,2
285,-790,258,2
286,-1145,330,1
287,-595,229,2
288,-370,166,2
289,-1120,330,1
290,-135,118,2
291,-1025,319,2
292,-755,256,2
293,-1195,330,1
294,-1130,330,1
295,-555,218,2
296,-1075,330,1
297,-1140,330,1
298,-555,220,2
299,-715,268,2
300,-990,328,2
301,-1160,330,1
302,-835,284,2
303,-1160,330,1
304,-365,175,2
305,-865,286,2
306,-535,221,2
307,-1200,330,1
308,-1255,330,1
309,-1245,330,1
310,-1180,330,1
311,-1200,330,1
312,-925,310,2
313,-1210,330,1
314,-1190,330,1
315,-750,264,2
316,-325,179,2
317,-1110,330,1
318,-1145,330,1
319,-1115,330,1
320,-570,228,2
321,-1175,330,1
322,-855,286,2
323,-1145,330,1
324,-1185,330,1
325,-1165,330,1
326,-1140,330,1
327,-1125,323,2
328,-625,247,2
329,-1290,330,0
330,-645,230,2
331,-575,242,2
332,-915,309,2
333,-1165,330,1
334,-710,244,2
335,-1135,330,1
336,-1145,330,1
337,-290,164,2
338,-1150,330,1
339,-525,214,2
340,-1160,330,1
341,-410,193,2
342,-485,223,2
343,-1145,330,1
344,-1155,330,1
345,-710,273,2
346,-660,237,2
347,-1140,330,1
348,-1165,330,1
349,-1185,330,1
350,-1220,330,1
351,-1110,330,1
352,-1145,330,1
353,-185,139,2
354,-1220,330,1
355,-1150,330,1
356,-960,315,2
357,-1170,330,1
358,-750,262,2
359,-1145,330,1
360,-1200,330,1
361,-1125,330,1
362,-1195,330,1
363,-1105,330,1
364,-905,306,2
365,-1140,330,1
366,-175,141,2
367,-655,259,2
368,-1110,330,1
369,-1115,330,1
370,-340,166,2
371,-1125,330,1
372,-385,173,2
373,-315,161,2
374,-320,166,2
375,-565,252,2
376,-1045,329,2
377,-1305,330,1
378,-1165,330,1
379,-1170,330,1
380,-1045,324,2
381,-1120,330,1
382,-1110,330,1
383,-1160,330,1
384,-1010,319,2
385,-1125,330,1
386,-255,179,2
387,-1190,330,1
388,-180,146,2
389,-355,172,2
390,-1185,330,1
391,-820,288,2
392,-1015,324,2
393,-380,199,2
394,-445,193,2
395,-1155,330,1
396,-1145,330,1
397,-270,169,2
398,-1300,330,0
399,-1260,330,1
400,-290,148,2
401,-1150,330,1
402,-1165,330,1
403,-1245,330,1
404,-340,164,2
405,-245,146,2
406,-1120,330,1
407,-1210,330,1
408,-1130,330,1
409,-1130,330,1
410,-195,144,2
411,-1160,330,1
412,-1110,330,1
413,-720,263,2
414,-550,217,2
415,-1170,330,1
416,-940,312,2
417,-855,293,2
418,-245,156,2
419,-875,298,2
420,-445,198,2
421,-760,269,2
422,-210,141,2
423,-245,146,2
424,-880,286,2
425,-1170,330,1
426,-1250,330,1
427,-520,208,2
428,-940,310,2
429,-1050,330,1
430,-1230,330,1
431,-1215,330,1
432,-1150,330,1
433,-845,298,2
434,-565,222,2
435,-580,227,2
436,-590,229,2
437,-915,297,2
438,-470,208,2
439,-280,160,2
440,-900,298,2
441,-1160,330,1
442,-1230,330,1
443,-755,250,2
444,-1155,330,1
445,-500,195,2
446,-1195,330,1
447,-525,212,2
448,-845,286,2
449,-705,246,2
450,-1205,330,1
451,-140,129,2
452,-1170,330,1
453,-920,302,2
454,-690,263,2
455,-865,281,2
456,-1080,330,1
457,-1180,330,1
458,-230,138,2
459,-1180,330,1
460,-455,202,2
461,-1355,330,0
462,-1130,330,1
463,-1250,330,1
464,-1220,330,1
465,-1205,330,1
466,-1170,330,1
467,-705,232,2
468,-1340,330,0
469,-1170,330,1
470,-1170,330,1
471,-1070,323,2
472,-1325,330,0
473,-1030,317,2
474,-665,254,2
475,-1220,330,1
476,-540,220,2
477,-1165,330,1
478,-1125,330,1
479,-1210,330,1
480,-525,223,2
481,-1125,330,1
482,-770,246,2
483,-1120,330,1
484,-1110,330,1
485,-1195,330,1
486,-1210,330,1
487,-750,249,2
488,-1155,330,1
489,-505,206,2
490,-1165,330,1
491,-1330,330,0
492,-440,200,2
493,-980,310,2
494,-175,122,2
495,-560,218,2
496,-455,191,2
497,-1125,330,1
498,-1155,330,1
499,-1170,330,1
500,-1180,330,1
501,-1320,330,0
502,-1360,330,0
503,-660,240,2
504,-1210,330,1
505,-1165,330,1
506,-1225,330,1
507,-850,288,2
508,-1190,330,1
509,-1155,330,1
510,-1120,330,1
511,-570,228,2
512,-1140,330,1
513,-1320,330,0
514,-1170,330,1
515,-690,248,2
516,-875,302,2
517,-1255,330,1
518,-635,230,2
519,-890,306,2
520,-625,246,2
521,-1180,330,1
522,-1335,330,0
523,-270,155,2
524,-240,160,2
525,-1315,330,0
526,-795,249,2
527,-1150,330,1
528,-1030,320,2
529,-1180,330,1
530,-565,205,2
531,-455,194,2
532,-1025,324,2
533,-35,97,2
534,-530,219,2
535,-930,297,2
536,-1170,330,1
537,-1215,330,1
538,-490,191,2
539,-1140,330,1
540,-1040,319,2
541,-1210,330,1
542,-805,279,2
543,-1115,330,1
544,-610,251,2
545,-1105,330,1
546,-1200,330,1
547,-1195,330,1
548,-335,180,2
549,-1315,330,0
550,-735,254,2
551,-890,301,2
552,-1185,330,1
553,-750,272,2
554,-110,131,2
555,-1145,330,1
556,-275,149,2
557,-1115,330,1
558,-1185,330,1
559,-235,143,2
560,-1185,330,1
561,-500,222,2
562,-745,252,2
563,-785,267,2
564,-1085,325,2
565,-845,304,2
566,-310,167,2
567,-960,305,2
568,-280,160,2
569,-1170,330,1
570,-1200,330,1
571,-1145,330,1
572,-370,172,2
573,-430,187,2
574,-1185,330,1
575,-1010,326,2
576,-1150,330,1
577,-295,160,2
578,-1230,330,1
579,-720,254,2
580,-1080,330,1
581,-1175,330,1
582,-100,127,2
583,-1155,330,1
584,-1165,330,1
585,-1165,330,1
586,-1210,330,1
587,-1215,330,1
588,-800,268,2
589,-1240,330,1
590,-1345,330,0
591,-430,192,2
592,-1175,330,1
593,-410,193,2
594,-695,253,2
595,-1165,330,1
596,-610,213,2
597,-540,197,2
598,-950,303,2
599,-660,240,2
600,-470,192,2
601,-555,220,2
602,-1125,330,1
603,-1165,330,1
604,-800,265,2
605,-695,255,2
606,-565,209,2
607,-1225,330,1
608,-1225,330,1
609,-1310,330,0
610,-1185,330,1
611,-1145,330,1
612,-1275,330,1
613,-915,288,2
614,-1140,330,1
615,-380,184,2
616,-370,174,2
617,-645,241,2
618,-835,286,2
619,-930,314,2
620,-1140,330,1
621,-1145,330,1
622,-1380,330,0
623,-805,272,2
624,-1200,330,1
625,-965,312,2
626,-680,255,2
627,-495,201,2
628,-820,268,2
629,-1285,330,1
630,-900,285,2
631,-1165,330,1
632,-1020,305,2
633,-1130,330,1
634,-1115,330,1
635,-1185,330,1
636,-985,309,2
637,-1180,330,1
638,-305,161,2
639,-1040,328,2
640,-1175,330,1
641,-855,287,2
642,-1260,330,1
643,-1220,330,1
644,-1130,330,1
645,-1210,330,1
646,-905,302,2
647,-1300,330,0
648,-550,200,2
649,-195,138,2
650,-1150,330,1
651,-1195,330,1
652,-1285,330,0
653,-540,222,2
654,-1250,330,1
655,-1160,330,1
656,-1355,330,0
657,-865,274,2
658,-1205,330,1
659,-900,302,2
660,-1030,318,2
661,-1165,330,1
662,-585,231,2
663,-1470,330,0
664,-1195,330,1
665,-1010,320,2
666,-1160,330,1
667,-1140,330,1
668,-975,317,2
669,-1185,330,1
670,-1145,330,1
671,-1205,330,1
672,-1205,330,1
673,-665,256,2
674,-1140,330,1
675,-1185,330,1
676,-1190,330,1
677,-960,312,2
678,-1200,330,1
679,-330,169,2
680,-1225,330,1
681,-675,254,2
682,-1130,330,1
683,-1315,330,0
684,-1140,330,1
685,-1300,330,0
686,-1220,330,1
687,-1145,330,1
688,-230,154,2
689,-960,305,2
690,-335,167,2
691,-1230,330,1
692,-1175,330,1
693,-1180,330,1
694,-720,256,2
695,-1185,330,1
696,-1200,330,1
697,-1210,330,1
698,-535,209,2
699,-500,199,2
700,-1205,330,1
701,-1085,314,2
702,-700,251,2
703,-1185,330,1
704,-910,298,2
705,-1010,318,2
706,-1160,330,1
707,-1110,330,1
708,-1445,330,0
709,-885,293,2
710,-1190,330,1
711,-230,148,2
712,-1185,330,1
713,-710,254,2
714,-1045,329,2
715,-1130,330,1
716,-1205,330,1
717,-1185,330,1
718,-550,212,2
719,-1400,330,0
720,-1155,330,1
721,-1275,330,1
722,-1175,330,1
723,-1175,330,1
724,-360,183,2
725,-820,273,2
726,-905,306,2
727,-795,267,2
728,-1100,330,1
729,-705,239,2
730,-1140,330,1
731,-1200,330,1
732,-1135,330,1
733,-615,227,2
734,-1200,330,1
735,-1230,330,1
736,-260,163,2
737,-1225,330,1
738,-710,255,2
739,-510,211,2
740,-865,286,2
741,-1425,330,0
742,-865,292,2
743,-1215,330,1
744,-825,283,2
745,-1270,330,1
746,-1175,330,1
747,-1225,330,1
748,-1215,330,1
749,-750,252,2
750,-730,256,2
751,-935,302,2
752,-1330,330,0
753,-935,296,2
754,-1135,330,1
755,-1220,330,1
756,-935,299,2
757,-1270,330,1
758,-255,152,2
759,-1240,330,1
760,-1370,330,0
761,-575,216,2
762,-1355,330,0
763,-955,298,2
764,-1335,330,0
765,-1220,330,1
766,-1300,330,0
767,-1365,330,0
768,-1305,330,0
769,-1245,330,0
770,-1330,330,0
771,-1415,330,0
772,-1325,330,0
773,-1190,330,1
774,-1375,330,0
775,-1220,330,1
776,-1320,330,0
777,-1265,330,1
778,-1225,330,1
779,-1155,320,2
780,-1125,330,1
781,-1320,330,0
782,-1220,330,1
783,-815,289,2
784,-995,312,2
785,-710,256,2
786,-1230,330,1
787,-1225,330,1
788,-1385,330,0
789,-1390,330,0
790,-1360,330,0
791,-1060,315,2
792,-1205,330,1
793,-1315,330,0
794,-590,214,2
795,-1160,330,1
796,-1150,330,1
797,-1230,330,1
798,-1375,330,0
799,-1385,330,0
800,-1465,330,0
801,-1375,330,0
802,-1455,330,0
803,-1260,330,1
804,-1370,330,0
805,-1350,330,0
806,-1370,330,0
807,-1350,330,0
808,-1355,330,0
809,-1240,330,1
810,-1355,330,0
811,-1435,330,0
812,-775,270,2
813,-1205,330,1
814,-1390,330,0
815,-1250,330,1
816,-1350,330,0
817,-1435,330,0
818,-1330,330,0
819,-1300,330,0
820,-1390,330,0
821,-1300,330,0
822,-650,231,2
823,-1210,330,1
824,-1245,330,1
825,-1255,330,1
826,-725,259,2
827,-1195,330,1
828,-1315,330,0
829,-1355,330,0
830,-1200,330,1
831,-1340,330,0
832,-1245,330,1
833,-1220,330,1
834,-1350,330,0
835,-1270,330,1
836,-1160,330,1
837,-1330,330,0
838,-1305,330,0
839,-1495,330,0
840,-1210,330,1
841,-1425,330,0
842,-770,249,2
843,-1240,330,1
844,-1370,330,0
845,-1380,330,0
846,-1370,330,0
847,-1370,330,0
848,-1075,327,2
849,-1325,330,0
850,-1340,330,0
851,-1410,330,0
852,-1265,330,0
853,-1225,330,1
854,-1335,330,0
855,-1185,330,1
856,-1360,330,0
857,-1275,330,1
858,-1365,330,0
859,-1345,330,0
860,-1215,330,1
861,-1385,330,0
862,-1415,330,0
863,-1410,330,0
864,-1025,306,2
865,-1240,330,1
866,-1320,330,0
867,-1395,330,0
868,-1215,330,1
869,-1270,330,1
870,-1200,330,1
871,-1405,330,0
872,-1385,330,0
873,-1450,330,0
874,-1300,330,0
875,-1235,330,1
876,-1345,330,0
877,-1450,330,0
878,-1330,330,0
879,-1380,330,0
880,-1235,330,1
881,-1240,330,1
882,-1345,330,0
883,-1390,330,0
884,-1340,330,0
885,-1355,330,0
886,-1260,330,1
887,-1370,330,0
888,-440,209,2
889,-1370,330,0
890,-1370,330,0
891,-1385,330,0
892,-1425,330,0
893,-1245,330,1
894,-1390,330,0
895,-1215,330,1
896,-1395,330,0
897,-1255,330,1
898,-1480,330,0
899,-1340,330,0
900,-1315,330,1
901,-1300,330,0
902,-1320,330,0
903,-1280,330,1
904,-1350,330,0
905,-1480,330,0
906,-1370,330,0
907,-1340,330,0
908,-1380,330,0
909,-1370,330,0
910,-1235,330,1
911,-1490,330,0
912,-1345,330,0
913,-1415,330,0
914,-1540,330,0
915,-1245,330,1
916,-1395,330,0
917,-1395,330,0
918,-1420,330,0
919,-1260,330,1
920,-785,253,2
921,-1380,330,0
922,-1520,330,0
923,-1290,330,1
924,-1360,330,0
925,-1515,330,0
926,-1425,330,0
927,-1405,330,0
928,-1275,330,1
929,-1330,330,0
930,-1280,330,1
931,-1435,330,0
932,-1655,330,0
933,-1430,330,0
934,-1395,330,0
935,-1430,330,0
936,-1425,330,0
937,-1430,330,0
938,-1410,330,0
939,-1410,330,0
940,-1470,330,0
941,-1480,330,0
942,-1440,330,0
943,-1335,330,0
944,-1510,330,0
945,-1380,330,0
946,-1210,330,1
947,-1405,330,0
948,-1420,330,0
949,-1590,330,0
950,-1445,330,0
951,-1340,330,0
952,-1400,330,0
953,-1240,330,1
954,-1410,330,0
955,-1280,330,1
956,-1475,330,0
957,-1335,330,0
958,-1220,330,1
959,-1365,330,0
960,-1300,330,1
961,-1385,330,0
962,-940,292,2
963,-1365,330,0
964,-1295,330,1
965,-1340,330,0
966,-1310,330,0
967,-1495,330,0
968,-1385,330,0
969,-1360,330,0
970,-1435,330,0
971,-450,176,2
972,-1385,330,0
973,-1440,330,0
974,-1410,330,0
975,-1585,330,0
976,-1420,330,0
977,-1430,330,0
978,-1480,330,0
979,-1470,330,0
980,-1420,330,0
981,-1370,330,0
982,-1400,330,0
983,-1430,330,0
984,-1450,330,0
985,-1590,330,0
986,-1445,330,0
987,-1410,330,0
988,-1460,330,0
989,-1390,330,0
990,-1430,330,0
991,-1365,330,0
992,-1340,330,1
993,-1410,330,0
994,-1400,330,0
995,-1390,330,0
996,-1415,330,0
997,-1390,330,0
998,-1310,330,0
999,-1495,330,0
