episode,reward,step,sensitive
0,2040,559,10
1,-1530,888,10
2,2105,600,10
3,845,539,10
4,-1520,1009,9
5,-1250,1009,7
6,390,963,10
7,1945,595,10
8,-95,756,10
9,30,740,10
10,1890,582,10
11,2095,468,10
12,430,780,10
13,2350,549,10
14,1505,505,10
15,600,691,10
16,-330,1009,8
17,1505,699,10
18,870,794,10
19,1835,610,10
20,2035,628,10
21,815,902,10
22,2260,498,10
23,1565,671,10
24,1735,534,10
25,1955,627,10
26,740,827,10
27,1515,751,10
28,1405,721,10
29,1770,676,10
30,1810,630,10
31,2140,467,10
32,280,1009,9
33,1530,639,10
34,2025,478,10
35,1155,793,10
36,1975,636,10
37,1425,690,10
38,1995,504,10
39,1900,572,10
40,1595,757,10
41,1895,429,10
42,1935,634,10
43,1895,360,10
44,2270,495,10
45,1780,662,10
46,1875,585,10
47,2065,561,10
48,2045,581,10
49,2105,399,10
50,1585,720,10
51,1865,566,10
52,1845,604,10
53,2130,484,10
54,2020,632,10
55,2200,464,10
56,1860,617,10
57,815,867,10
58,2165,453,10
59,1770,700,10
60,1750,659,10
61,2115,585,10
62,2060,598,10
63,910,763,10
64,1930,580,10
65,2080,572,10
66,2115,511,10
67,745,899,10
68,2170,504,10
69,1740,624,10
70,2160,514,10
71,1155,810,10
72,1665,714,10
73,1675,723,10
74,1975,549,10
75,1745,645,10
76,1450,689,10
77,1965,581,10
78,-555,1009,8
79,1985,538,10
80,2070,512,10
81,1570,735,10
82,1615,643,10
83,1950,598,10
84,1605,669,10
85,525,970,10
86,2010,556,10
87,1825,638,10
88,1615,693,10
89,1925,515,10
90,890,861,10
91,905,888,10
92,750,902,10
93,1040,842,10
94,1865,623,10
95,1240,707,10
96,1285,748,10
97,1680,714,10
98,860,829,10
99,1520,713,10
100,770,891,10
101,955,812,10
102,1235,784,10
103,1245,764,10
104,1400,750,10
105,1510,661,10
106,1435,728,10
107,1150,787,10
108,1390,754,10
109,635,909,10
110,1460,740,10
111,1645,672,10
112,1180,776,10
113,1345,763,10
114,570,911,10
115,1635,642,10
116,1800,630,10
117,1865,548,10
118,1585,688,10
119,1525,712,10
120,1430,751,10
121,1475,652,10
122,1435,755,10
123,1355,753,10
124,895,839,10
125,960,816,10
126,605,934,10
127,1800,427,10
128,225,1005,10
129,1210,661,10
130,1005,823,10
131,1310,748,10
132,1320,730,10
133,1970,608,10
134,830,896,10
135,200,1009,9
136,920,911,10
137,-10,1009,9
138,335,1009,9
139,1265,799,10
140,40,1009,9
141,-150,1009,9
142,285,964,10
143,-190,1009,9
144,-160,1009,9
145,-305,1009,9
146,-850,1009,8
147,-805,1009,8
148,-1185,1009,6
149,-850,1009,9
150,-1025,1009,7
151,-1230,1009,7
152,-1355,1009,8
153,-1765,1009,7
154,-2295,1009,5
155,-1750,1009,8
156,-2945,1009,4
157,-2260,1009,5
158,-2605,1009,5
159,-2950,1009,5
160,-3420,1009,2
161,-3750,1009,2
162,-3490,1009,3
163,-3575,1009,2
164,-3675,1009,1
165,-3620,1009,1
166,-3735,1009,1
167,-3630,1009,2
168,-3325,1009,2
169,-3420,1009,2
170,-3605,1009,2
171,-3510,1009,2
172,-3630,1009,2
173,-3555,1009,3
174,-3720,1009,2
175,-3850,1009,2
176,-4040,1009,1
177,-3900,1009,2
178,-4020,1009,1
179,-3935,1009,2
180,-3920,1009,2
181,-4045,1009,1
182,-4070,1009,1
183,-4145,1009,1
184,-4470,1009,0
185,-4500,1009,0
186,-4475,1009,0
187,-4720,1009,0
188,-5050,1009,0
189,-5050,1009,0
190,-5050,1009,0
191,-5050,1009,0
192,-5050,1009,0
193,-5050,1009,0
194,-5050,1009,0
195,-5050,1009,0
196,-5050,1009,0
197,-5050,1009,0
198,-5050,1009,0
199,-5050,1009,0
200,-5050,1009,0
201,-5050,1009,0
202,-5050,1009,0
203,-5050,1009,0
204,-5050,1009,0
205,-5050,1009,0
206,-5050,1009,0
207,-5050,1009,0
208,-5050,1009,0
209,-5050,1009,0
210,-5050,1009,0
211,-5050,1009,0
212,-5050,1009,0
213,-5050,1009,0
214,-5050,1009,0
215,-5050,1009,0
216,-5050,1009,0
217,-5050,1009,0
218,-5050,1009,0
219,-5050,1009,0
220,-5050,1009,0
221,-5050,1009,0
222,-5050,1009,0
223,-5050,1009,0
224,-5050,1009,0
225,-5050,1009,0
226,-5050,1009,0
227,-5050,1009,0
228,-5050,1009,0
229,-5050,1009,0
230,-5050,1009,0
231,-5050,1009,0
232,-5050,1009,0
233,-5050,1009,0
234,-5050,1009,0
235,-5050,1009,0
236,-5050,1009,0
237,-5050,1009,0
238,-5050,1009,0
239,-5050,1009,0
240,-5050,1009,0
241,-5050,1009,0
242,-5050,1009,0
243,-5050,1009,0
244,-5050,1009,0
245,-5050,1009,0
246,-5050,1009,0
247,-5050,1009,0
248,-5050,1009,0
249,-5050,1009,0
250,-5050,1009,0
251,-5050,1009,0
252,-5050,1009,0
253,-5050,1009,0
254,-5050,1009,0
255,-5050,1009,0
256,-5050,1009,0
257,-5050,1009,0
258,-5050,1009,0
259,-5050,1009,0
260,-5050,1009,0
261,-5050,1009,0
262,-5050,1009,0
263,-5050,1009,0
264,-5050,1009,0
265,-5050,1009,0
266,-5050,1009,0
267,-5050,1009,0
268,-5050,1009,0
269,-5050,1009,0
270,-5050,1009,0
271,-5050,1009,0
272,-5050,1009,0
273,-5050,1009,0
274,-5050,1009,0
275,-5050,1009,0
276,-5050,1009,0
277,-5050,1009,0
278,-5050,1009,0
279,-5050,1009,0
280,-5050,1009,0
281,-5050,1009,0
282,-5050,1009,0
283,-5050,1009,0
284,-5050,1009,0
285,-5050,1009,0
286,-5050,1009,0
287,-5050,1009,0
288,-5050,1009,0
289,-5050,1009,0
290,-5050,1009,0
291,-5050,1009,0
292,-5050,1009,0
293,-5050,1009,0
294,-5050,1009,0
295,-5050,1009,0
296,-5050,1009,0
297,-5050,1009,0
298,-5050,1009,0
299,-5050,1009,0
300,-5050,1009,0
301,-5050,1009,0
302,-5050,1009,0
303,-5050,1009,0
304,-5050,1009,0
305,-5050,1009,0
306,-5050,1009,0
307,-5050,1009,0
308,-5050,1009,0
309,-5050,1009,0
310,-5050,1009,0
311,-5050,1009,0
312,-5050,1009,0
313,-5050,1009,0
314,-5050,1009,0
315,-5050,1009,0
316,-5050,1009,0
317,-5050,1009,0
318,-5050,1009,0
319,-5050,1009,0
320,-5050,1009,0
321,-5050,1009,0
322,-5050,1009,0
323,-5050,1009,0
324,-5050,1009,0
325,-5050,1009,0
326,-5050,1009,0
327,-5050,1009,0
328,-5050,1009,0
329,-5050,1009,0
330,-5050,1009,0
331,-5050,1009,0
332,-5050,1009,0
333,-5050,1009,0
334,-5050,1009,0
335,-5050,1009,0
336,-5050,1009,0
337,-5050,1009,0
338,-5050,1009,0
339,-5050,1009,0
340,-5050,1009,0
341,-5050,1009,0
342,-5050,1009,0
343,-5050,1009,0
344,-5050,1009,0
345,-5050,1009,0
346,-5050,1009,0
347,-5050,1009,0
348,-5050,1009,0
349,-5050,1009,0
350,-5050,1009,0
351,-5050,1009,0
352,-5050,1009,0
353,-5050,1009,0
354,-5050,1009,0
355,-5050,1009,0
356,-5050,1009,0
357,-5050,1009,0
358,-5050,1009,0
359,-5050,1009,0
360,-5050,1009,0
361,-5050,1009,0
362,-5050,1009,0
363,-5050,1009,0
364,-5050,1009,0
365,-5050,1009,0
366,-5050,1009,0
367,-5050,1009,0
368,-5050,1009,0
369,-5050,1009,0
370,-5050,1009,0
371,-5050,1009,0
372,-5050,1009,0
373,-5050,1009,0
374,-5050,1009,0
375,-5050,1009,0
376,-5050,1009,0
377,-5050,1009,0
378,-5050,1009,0
379,-5050,1009,0
380,-5050,1009,0
381,-5050,1009,0
382,-5050,1009,0
383,-5050,1009,0
384,-5050,1009,0
385,-5050,1009,0
386,-5050,1009,0
387,-5050,1009,0
388,-5050,1009,0
389,-5050,1009,0
390,-5050,1009,0
391,-5050,1009,0
392,-5050,1009,0
393,-5050,1009,0
394,-5050,1009,0
395,-5050,1009,0
396,-5050,1009,0
397,-5050,1009,0
398,-5050,1009,0
399,-5050,1009,0
400,-5050,1009,0
401,-5050,1009,0
402,-5050,1009,0
403,-5050,1009,0
404,-5050,1009,0
405,-5050,1009,0
406,-5050,1009,0
407,-5050,1009,0
408,-5050,1009,0
409,-5050,1009,0
410,-5050,1009,0
411,-5050,1009,0
412,-5050,1009,0
413,-5050,1009,0
414,-5050,1009,0
415,-5050,1009,0
416,-5050,1009,0
417,-5050,1009,0
418,-5050,1009,0
419,-5050,1009,0
420,-5050,1009,0
421,-5050,1009,0
422,-5050,1009,0
423,-5050,1009,0
424,-5050,1009,0
425,-5050,1009,0
426,-5050,1009,0
427,-5050,1009,0
428,-5050,1009,0
429,-5050,1009,0
430,-5050,1009,0
431,-5050,1009,0
432,-5050,1009,0
433,-5050,1009,0
434,-5050,1009,0
435,-5050,1009,0
436,-5050,1009,0
437,-5050,1009,0
438,-5050,1009,0
439,-5050,1009,0
440,-5050,1009,0
441,-5050,1009,0
442,-5050,1009,0
443,-5050,1009,0
444,-5050,1009,0
445,-5050,1009,0
446,-5050,1009,0
447,-5050,1009,0
448,-5050,1009,0
449,-5050,1009,0
450,-5050,1009,0
451,-5050,1009,0
452,-5050,1009,0
453,-5050,1009,0
454,-5050,1009,0
455,-5050,1009,0
456,-5050,1009,0
457,-5050,1009,0
458,-5050,1009,0
459,-5050,1009,0
460,-5050,1009,0
461,-5050,1009,0
462,-5050,1009,0
463,-5050,1009,0
464,-5050,1009,0
465,-5050,1009,0
466,-5050,1009,0
467,-5050,1009,0
468,-5050,1009,0
469,-5050,1009,0
470,-5050,1009,0
471,-5050,1009,0
472,-5050,1009,0
473,-5050,1009,0
474,-5050,1009,0
475,-5050,1009,0
476,-5050,1009,0
477,-5050,1009,0
478,-5050,1009,0
479,-5050,1009,0
480,-5050,1009,0
481,-5050,1009,0
482,-5050,1009,0
483,-5050,1009,0
484,-5050,1009,0
485,-5050,1009,0
486,-5050,1009,0
487,-5050,1009,0
488,-5050,1009,0
489,-5050,1009,0
490,-5050,1009,0
491,-5050,1009,0
492,-5050,1009,0
493,-5050,1009,0
494,-5050,1009,0
495,-5050,1009,0
496,-5050,1009,0
497,-5050,1009,0
498,-5050,1009,0
499,-5050,1009,0
500,-5050,1009,0
501,-5050,1009,0
502,-5050,1009,0
503,-5050,1009,0
504,-5050,1009,0
505,-5050,1009,0
506,-5050,1009,0
507,-5050,1009,0
508,-5050,1009,0
509,-5050,1009,0
510,-5050,1009,0
511,-5050,1009,0
512,-5050,1009,0
513,-5050,1009,0
514,-5050,1009,0
515,-5050,1009,0
516,-5050,1009,0
517,-5050,1009,0
518,-5050,1009,0
519,-5050,1009,0
520,-5050,1009,0
521,-5050,1009,0
522,-5050,1009,0
523,-5050,1009,0
524,-5050,1009,0
525,-5050,1009,0
526,-5050,1009,0
527,-5050,1009,0
528,-5050,1009,0
529,-5050,1009,0
530,-5050,1009,0
531,-5050,1009,0
532,-5050,1009,0
533,-5050,1009,0
534,-5050,1009,0
535,-5050,1009,0
536,-5050,1009,0
537,-5050,1009,0
538,-5050,1009,0
539,-5050,1009,0
540,-5050,1009,0
541,-5050,1009,0
542,-5050,1009,0
543,-5050,1009,0
544,-5050,1009,0
545,-5050,1009,0
546,-5050,1009,0
547,-5050,1009,0
548,-5050,1009,0
549,-5050,1009,0
550,-5050,1009,0
551,-5050,1009,0
552,-5050,1009,0
553,-5050,1009,0
554,-5050,1009,0
555,-5050,1009,0
556,-5050,1009,0
557,-5050,1009,0
558,-5050,1009,0
559,-5050,1009,0
560,-5050,1009,0
561,-5050,1009,0
562,-5050,1009,0
563,-5050,1009,0
564,-5050,1009,0
565,-5050,1009,0
566,-5050,1009,0
567,-5050,1009,0
568,-5050,1009,0
569,-5050,1009,0
570,-5050,1009,0
571,-5050,1009,0
572,-5050,1009,0
573,-5050,1009,0
574,-5050,1009,0
575,-5050,1009,0
576,-5050,1009,0
577,-5050,1009,0
578,-5050,1009,0
579,-5050,1009,0
580,-5050,1009,0
581,-5050,1009,0
582,-5050,1009,0
583,-5050,1009,0
584,-5050,1009,0
585,-5050,1009,0
586,-5050,1009,0
587,-5050,1009,0
588,-5050,1009,0
589,-5050,1009,0
590,-5050,1009,0
591,-5050,1009,0
592,-5050,1009,0
593,-5050,1009,0
594,-5050,1009,0
595,-5050,1009,0
596,-5050,1009,0
597,-5050,1009,0
598,-5050,1009,0
599,-5050,1009,0
600,-5050,1009,0
601,-5050,1009,0
602,-5050,1009,0
603,-5050,1009,0
604,-5050,1009,0
605,-5050,1009,0
606,-5050,1009,0
607,-5050,1009,0
608,-5050,1009,0
609,-5050,1009,0
610,-5050,1009,0
611,-5050,1009,0
612,-5050,1009,0
613,-5050,1009,0
614,-5050,1009,0
615,-5050,1009,0
616,-5050,1009,0
617,-5050,1009,0
618,-5050,1009,0
619,-5050,1009,0
620,-5050,1009,0
621,-5050,1009,0
622,-5050,1009,0
623,-5050,1009,0
624,-5050,1009,0
625,-5050,1009,0
626,-5050,1009,0
627,-5050,1009,0
628,-5050,1009,0
629,-5050,1009,0
630,-5050,1009,0
631,-5050,1009,0
632,-5050,1009,0
633,-5050,1009,0
634,-5050,1009,0
635,-5050,1009,0
636,-5050,1009,0
637,-5050,1009,0
638,-5050,1009,0
639,-5050,1009,0
640,-5050,1009,0
641,-5050,1009,0
642,-5050,1009,0
643,-5050,1009,0
644,-5050,1009,0
645,-5050,1009,0
646,-5050,1009,0
647,-5050,1009,0
648,-5050,1009,0
649,-5050,1009,0
650,-5050,1009,0
651,-5050,1009,0
652,-5050,1009,0
653,-5050,1009,0
654,-5050,1009,0
655,-5050,1009,0
656,-5050,1009,0
657,-5050,1009,0
658,-5050,1009,0
659,-5050,1009,0
660,-5050,1009,0
661,-5050,1009,0
662,-5050,1009,0
663,-5050,1009,0
664,-5050,1009,0
665,-5050,1009,0
666,-5050,1009,0
667,-5050,1009,0
668,-5050,1009,0
669,-5050,1009,0
670,-5050,1009,0
671,-5050,1009,0
672,-5050,1009,0
673,-5050,1009,0
674,-5050,1009,0
675,-5050,1009,0
676,-5050,1009,0
677,-5050,1009,0
678,-5050,1009,0
679,-5050,1009,0
680,-5050,1009,0
681,-5050,1009,0
682,-5050,1009,0
683,-5050,1009,0
684,-5050,1009,0
685,-5050,1009,0
686,-5050,1009,0
687,-5050,1009,0
688,-5050,1009,0
689,-5050,1009,0
690,-5050,1009,0
691,-5050,1009,0
692,-5050,1009,0
693,-5050,1009,0
694,-5050,1009,0
695,-5050,1009,0
696,-5050,1009,0
697,-5050,1009,0
698,-5050,1009,0
699,-5050,1009,0
700,-5050,1009,0
701,-5050,1009,0
702,-5050,1009,0
703,-5050,1009,0
704,-5050,1009,0
705,-5050,1009,0
706,-5050,1009,0
707,-5050,1009,0
708,-5050,1009,0
709,-5050,1009,0
710,-5050,1009,0
711,-5050,1009,0
712,-5050,1009,0
713,-5050,1009,0
714,-5050,1009,0
715,-5050,1009,0
716,-5050,1009,0
717,-5050,1009,0
718,-5050,1009,0
719,-5050,1009,0
720,-5050,1009,0
721,-5050,1009,0
722,-5050,1009,0
723,-5050,1009,0
724,-5050,1009,0
725,-5050,1009,0
726,-5050,1009,0
727,-5050,1009,0
728,-5050,1009,0
729,-5050,1009,0
730,-5050,1009,0
731,-5050,1009,0
732,-5050,1009,0
733,-5050,1009,0
734,-5050,1009,0
735,-5050,1009,0
736,-5050,1009,0
737,-5050,1009,0
738,-5050,1009,0
739,-5050,1009,0
740,-5050,1009,0
741,-5050,1009,0
742,-5050,1009,0
743,-5050,1009,0
744,-5050,1009,0
745,-5050,1009,0
746,-5050,1009,0
747,-5050,1009,0
748,-5050,1009,0
749,-5050,1009,0
750,-5050,1009,0
751,-5050,1009,0
752,-5050,1009,0
753,-5050,1009,0
754,-5050,1009,0
755,-5050,1009,0
756,-5050,1009,0
757,-5050,1009,0
758,-5050,1009,0
759,-5050,1009,0
760,-5050,1009,0
761,-5050,1009,0
762,-5050,1009,0
763,-5050,1009,0
764,-5050,1009,0
765,-5050,1009,0
766,-5050,1009,0
767,-5050,1009,0
768,-5050,1009,0
769,-5050,1009,0
770,-5050,1009,0
771,-5050,1009,0
772,-5050,1009,0
773,-5050,1009,0
774,-5050,1009,0
775,-5050,1009,0
776,-5050,1009,0
777,-5050,1009,0
778,-5050,1009,0
779,-5050,1009,0
780,-5050,1009,0
781,-5050,1009,0
782,-5050,1009,0
783,-5050,1009,0
784,-5050,1009,0
785,-5050,1009,0
786,-5050,1009,0
787,-5050,1009,0
788,-5050,1009,0
789,-5050,1009,0
790,-5050,1009,0
791,-5050,1009,0
792,-5050,1009,0
793,-5050,1009,0
794,-5050,1009,0
795,-5050,1009,0
796,-5050,1009,0
797,-5050,1009,0
798,-5050,1009,0
799,-5050,1009,0
800,-5050,1009,0
801,-5050,1009,0
802,-5050,1009,0
803,-5050,1009,0
804,-5050,1009,0
805,-5050,1009,0
806,-5050,1009,0
807,-5050,1009,0
808,-5050,1009,0
809,-5050,1009,0
810,-5050,1009,0
811,-5050,1009,0
812,-5050,1009,0
813,-5050,1009,0
814,-5050,1009,0
815,-5050,1009,0
816,-5050,1009,0
817,-5050,1009,0
818,-5050,1009,0
819,-5050,1009,0
820,-5050,1009,0
821,-5050,1009,0
822,-5050,1009,0
823,-5050,1009,0
824,-5050,1009,0
825,-5050,1009,0
826,-5050,1009,0
827,-5050,1009,0
828,-5050,1009,0
829,-5050,1009,0
830,-5050,1009,0
831,-5050,1009,0
832,-5050,1009,0
833,-5050,1009,0
834,-5050,1009,0
835,-5050,1009,0
836,-5050,1009,0
837,-5050,1009,0
838,-5050,1009,0
839,-5050,1009,0
840,-5050,1009,0
841,-5050,1009,0
842,-5050,1009,0
843,-5050,1009,0
844,-5050,1009,0
845,-5050,1009,0
846,-5050,1009,0
847,-5050,1009,0
848,-5050,1009,0
849,-5050,1009,0
850,-5050,1009,0
851,-5050,1009,0
852,-5050,1009,0
853,-5050,1009,0
854,-5050,1009,0
855,-5050,1009,0
856,-5050,1009,0
857,-5050,1009,0
858,-5050,1009,0
859,-5050,1009,0
860,-5050,1009,0
861,-5050,1009,0
862,-5050,1009,0
863,-5050,1009,0
864,-5050,1009,0
865,-5050,1009,0
866,-5050,1009,0
867,-5050,1009,0
868,-5050,1009,0
869,-5050,1009,0
870,-5050,1009,0
871,-5050,1009,0
872,-5050,1009,0
873,-5050,1009,0
874,-5050,1009,0
875,-5050,1009,0
876,-5050,1009,0
877,-5050,1009,0
878,-5050,1009,0
879,-5050,1009,0
880,-5050,1009,0
881,-5050,1009,0
882,-5050,1009,0
883,-5050,1009,0
884,-5050,1009,0
885,-5050,1009,0
886,-5050,1009,0
887,-5050,1009,0
888,-5050,1009,0
889,-5050,1009,0
890,-5050,1009,0
891,-5050,1009,0
892,-5050,1009,0
893,-5050,1009,0
894,-5050,1009,0
895,-5050,1009,0
896,-5050,1009,0
897,-5050,1009,0
898,-5050,1009,0
899,-5050,1009,0
900,-5050,1009,0
901,-5050,1009,0
902,-5050,1009,0
903,-5050,1009,0
904,-5050,1009,0
905,-5050,1009,0
906,-5050,1009,0
907,-5050,1009,0
908,-5050,1009,0
909,-5050,1009,0
910,-5050,1009,0
911,-5050,1009,0
912,-5050,1009,0
913,-5050,1009,0
914,-5050,1009,0
915,-5050,1009,0
916,-5050,1009,0
917,-5050,1009,0
918,-5050,1009,0
919,-5050,1009,0
920,-5050,1009,0
921,-5050,1009,0
922,-5050,1009,0
923,-5050,1009,0
924,-5050,1009,0
925,-5050,1009,0
926,-5050,1009,0
927,-5050,1009,0
928,-5050,1009,0
929,-5050,1009,0
930,-5050,1009,0
931,-5050,1009,0
932,-5050,1009,0
933,-5050,1009,0
934,-5050,1009,0
935,-5050,1009,0
936,-5050,1009,0
937,-5050,1009,0
938,-5050,1009,0
939,-5050,1009,0
940,-5050,1009,0
941,-5050,1009,0
942,-5050,1009,0
943,-5050,1009,0
944,-5050,1009,0
945,-5050,1009,0
946,-5050,1009,0
947,-5050,1009,0
948,-5050,1009,0
949,-5050,1009,0
950,-5050,1009,0
951,-5050,1009,0
952,-5050,1009,0
953,-5050,1009,0
954,-5050,1009,0
955,-5050,1009,0
956,-5050,1009,0
957,-5050,1009,0
958,-5050,1009,0
959,-5050,1009,0
960,-5050,1009,0
961,-5050,1009,0
962,-5050,1009,0
963,-5050,1009,0
964,-5050,1009,0
965,-5050,1009,0
966,-5050,1009,0
967,-5050,1009,0
968,-5050,1009,0
969,-5050,1009,0
970,-5050,1009,0
971,-5050,1009,0
972,-5050,1009,0
973,-5050,1009,0
974,-5050,1009,0
975,-5050,1009,0
976,-5050,1009,0
977,-5050,1009,0
978,-5050,1009,0
979,-5050,1009,0
980,-5050,1009,0
981,-5050,1009,0
982,-5050,1009,0
983,-5050,1009,0
984,-5050,1009,0
985,-5050,1009,0
986,-5050,1009,0
987,-5050,1009,0
988,-5050,1009,0
989,-5050,1009,0
990,-5050,1009,0
991,-5050,1009,0
992,-5050,1009,0
993,-5050,1009,0
994,-5050,1009,0
995,-5050,1009,0
996,-5050,1009,0
997,-5050,1009,0
998,-5050,1009,0
999,-5050,1009,0
