episode,reward,step,sensitive
0,355,74,2
1,265,65,2
2,275,89,2
3,380,74,2
4,285,80,2
5,385,40,2
6,380,77,2
7,415,44,2
8,275,105,2
9,415,77,2
10,405,77,2
11,335,84,2
12,305,57,2
13,335,55,2
14,370,66,2
15,305,61,2
16,495,79,2
17,325,99,2
18,320,53,2
19,280,78,2
20,420,70,2
21,390,54,2
22,350,45,2
23,320,38,2
24,440,81,2
25,390,41,2
26,400,42,2
27,350,96,2
28,395,31,2
29,405,67,2
30,445,75,2
31,350,46,2
32,430,51,2
33,410,59,2
34,365,35,2
35,395,81,2
36,450,66,2
37,445,94,2
38,415,53,2
39,295,52,2
40,330,27,2
41,380,38,2
42,365,30,2
43,405,60,2
44,340,96,2
45,375,58,2
46,325,49,2
47,405,46,2
48,355,41,2
49,320,100,2
50,395,49,2
51,175,84,2
52,325,81,2
53,375,68,2
54,220,48,2
55,305,34,2
56,450,55,2
57,160,79,2
58,370,45,2
59,390,67,2
60,440,79,2
61,450,71,2
62,380,38,2
63,340,40,2
64,415,54,2
65,320,81,2
66,315,92,2
67,355,40,2
68,405,46,2
69,330,57,2
70,385,88,2
71,350,55,2
72,375,36,2
73,295,72,2
74,215,100,2
75,315,95,2
76,225,74,2
77,220,46,2
78,340,83,2
79,290,80,2
80,280,71,2
81,245,104,2
82,365,39,2
83,130,90,2
84,70,108,2
85,240,71,2
86,385,36,2
87,325,86,2
88,340,51,2
89,335,33,2
90,320,73,2
91,395,44,2
92,390,45,2
93,440,49,2
94,360,39,2
95,330,53,2
96,370,37,2
97,260,73,2
98,365,68,2
99,380,62,2
100,370,53,2
101,390,29,2
102,285,85,2
103,340,20,2
104,365,24,2
105,360,32,2
106,385,48,2
107,370,58,2
108,290,59,2
109,320,47,2
110,260,59,2
111,360,38,2
112,255,35,2
113,240,77,2
114,250,34,2
115,350,59,2
116,365,45,2
117,330,18,2
118,210,59,2
119,325,37,2
120,350,34,2
121,290,61,2
122,300,46,2
123,360,39,2
124,250,51,2
125,330,26,2
126,310,23,2
127,300,43,2
128,295,52,2
129,360,34,2
130,215,43,2
131,255,67,2
132,355,43,2
133,320,75,2
134,260,42,2
135,225,80,2
136,355,32,2
137,300,69,2
138,295,52,2
139,275,51,2
140,335,31,2
141,315,51,2
142,280,78,2
143,315,51,2
144,345,48,2
145,295,52,2
146,310,67,2
147,350,33,2
148,305,77,2
149,330,51,2
150,355,48,2
151,305,31,2
152,320,61,2
153,335,40,2
154,360,57,2
155,360,52,2
156,360,47,2
157,360,57,2
158,340,37,2
159,320,51,2
160,360,64,2
161,355,49,2
162,340,35,2
163,340,58,2
164,285,27,2
165,330,22,2
166,335,55,2
167,290,49,2
168,220,126,2
169,335,68,2
170,365,45,2
171,340,50,2
172,325,81,2
173,370,34,2
174,365,51,2
175,260,68,2
176,325,78,2
177,295,34,2
178,350,33,2
179,300,37,2
180,280,72,2
181,295,47,2
182,360,45,2
183,280,22,2
184,280,61,2
185,325,41,2
186,300,69,2
187,300,56,2
188,330,45,2
189,275,64,2
190,150,75,2
191,250,57,2
192,305,47,2
193,340,46,2
194,315,47,2
195,325,49,2
196,310,50,2
197,245,71,2
198,370,33,2
199,300,31,2
200,355,46,2
201,305,52,2
202,305,66,2
203,365,55,2
204,325,17,2
205,340,30,2
206,365,53,2
207,350,33,2
208,280,61,2
209,295,83,2
210,345,30,2
211,385,26,2
212,335,24,2
213,315,46,2
214,320,44,2
215,245,88,2
216,395,45,2
217,365,34,2
218,335,41,2
219,325,70,2
220,320,52,2
221,305,50,2
222,345,27,2
223,305,17,2
224,295,42,2
225,340,43,2
226,345,26,2
227,360,32,2
228,370,46,2
229,320,38,2
230,330,37,2
231,370,36,2
232,365,42,2
233,330,31,2
234,360,43,2
235,275,42,2
236,275,48,2
237,230,71,2
238,275,48,2
239,330,42,2
240,360,49,2
241,235,84,2
242,320,37,2
243,320,41,2
244,330,39,2
245,280,32,2
246,290,95,2
247,345,21,2
248,280,49,2
249,345,37,2
250,350,43,2
251,280,87,2
252,320,50,2
253,320,48,2
254,280,45,2
255,315,31,2
256,305,46,2
257,285,42,2
258,310,68,2
259,335,51,2
260,240,79,2
261,290,48,2
262,55,148,2
263,345,39,2
264,-65,128,2
265,175,80,2
266,215,63,2
267,315,27,2
268,365,44,2
269,310,44,2
270,305,38,2
271,350,39,2
272,235,72,2
273,330,42,2
274,280,60,2
275,245,92,2
276,370,40,2
277,335,67,2
278,330,77,2
279,315,27,2
280,375,41,2
281,275,85,2
282,320,44,2
283,355,43,2
284,305,51,2
285,295,64,2
286,320,63,2
287,345,68,2
288,350,72,2
289,305,13,2
290,260,72,2
291,270,74,2
292,300,72,2
293,300,41,2
294,335,71,2
295,300,28,2
296,310,102,2
297,355,63,2
298,235,89,2
299,330,44,2
300,335,64,2
301,355,54,2
302,330,25,2
303,355,56,2
304,345,73,2
305,335,43,2
306,345,42,2
307,320,59,2
308,320,83,2
309,310,69,2
310,345,58,2
311,300,68,2
312,285,81,2
313,345,45,2
314,375,37,2
315,320,32,2
316,310,62,2
317,325,83,2
318,280,73,2
319,360,46,2
320,355,47,2
321,355,51,2
322,280,79,2
323,300,36,2
324,340,78,2
325,330,42,2
326,320,67,2
327,320,33,2
328,320,39,2
329,330,22,2
330,320,30,2
331,350,68,2
332,330,41,2
333,270,98,2
334,310,54,2
335,325,32,2
336,305,77,2
337,345,73,2
338,255,100,2
339,360,64,2
340,310,55,2
341,345,75,2
342,385,49,2
343,340,50,2
344,340,33,2
345,320,49,2
346,315,53,2
347,105,119,2
348,310,78,2
349,220,100,2
350,300,54,2
351,295,48,2
352,240,106,2
353,340,73,2
354,300,81,2
355,310,86,2
356,325,25,2
357,325,41,2
358,305,55,2
359,295,39,2
360,335,38,2
361,275,48,2
362,245,78,2
363,295,62,2
364,320,49,2
365,360,53,2
366,230,77,2
367,250,109,2
368,215,89,2
369,320,56,2
370,305,72,2
371,300,53,2
372,225,68,2
373,330,57,2
374,355,43,2
375,335,54,2
376,140,92,2
377,310,38,2
378,255,76,2
379,285,63,2
380,280,49,2
381,270,92,2
382,315,39,2
383,210,88,2
384,280,34,2
385,320,26,2
386,170,110,2
387,250,72,2
388,330,46,2
389,200,61,2
390,320,40,2
391,300,43,2
392,290,23,2
393,270,32,2
394,330,63,2
395,295,59,2
396,190,86,2
397,-90,162,2
398,270,54,2
399,265,65,2
400,305,74,2
401,250,38,2
402,315,56,2
403,260,36,2
404,225,103,2
405,290,47,2
406,275,49,2
407,315,23,2
408,285,58,2
409,295,22,2
410,220,74,2
411,305,38,2
412,275,46,2
413,180,94,2
414,230,40,2
415,215,94,2
416,330,48,2
417,305,46,2
418,300,62,2
419,245,56,2
420,325,29,2
421,190,91,2
422,300,62,2
423,260,40,2
424,280,53,2
425,330,41,2
426,320,42,2
427,275,48,2
428,255,55,2
429,290,38,2
430,245,89,2
431,200,83,2
432,280,58,2
433,250,79,2
434,280,59,2
435,295,33,2
436,340,54,2
437,295,51,2
438,305,44,2
439,310,16,2
440,295,44,2
441,290,58,2
442,220,79,2
443,315,31,2
444,295,70,2
445,325,30,2
446,245,51,2
447,305,47,2
448,280,28,2
449,265,45,2
450,335,25,2
451,225,76,2
452,290,37,2
453,165,97,2
454,265,52,2
455,270,33,2
456,295,61,2
457,290,41,2
458,255,32,2
459,300,22,2
460,230,57,2
461,305,29,2
462,305,15,2
463,265,31,2
464,290,22,2
465,265,34,2
466,305,23,2
467,270,36,2
468,285,29,2
469,325,19,2
470,310,14,2
471,320,22,2
472,305,31,2
473,305,31,2
474,155,65,2
475,275,27,2
476,190,69,2
477,245,41,2
478,265,37,2
479,295,23,2
480,305,27,2
481,230,42,2
482,280,32,2
483,320,28,2
484,290,28,2
485,235,50,2
486,295,29,2
487,280,35,2
488,295,35,2
489,310,20,2
490,300,26,2
491,255,49,2
492,280,36,2
493,290,32,2
494,270,55,2
495,265,45,2
496,255,49,2
497,245,37,2
498,330,37,2
499,310,38,2
500,175,67,2
501,290,28,2
502,240,57,2
503,300,32,2
504,310,32,2
505,225,53,2
506,285,44,2
507,255,39,2
508,290,41,2
509,285,47,2
510,290,37,2
511,290,28,2
512,275,58,2
513,80,116,2
514,-140,160,2
515,310,56,2
516,310,47,2
517,305,36,2
518,280,44,2
519,225,66,2
520,270,42,2
521,270,38,2
522,325,49,2
523,330,28,2
524,320,20,2
525,270,38,2
526,235,58,2
527,300,38,2
528,280,49,2
529,285,45,2
530,260,50,2
531,295,29,2
532,265,35,2
533,315,37,2
534,315,41,2
535,305,30,2
536,340,29,2
537,290,42,2
538,305,27,2
539,285,33,2
540,320,41,2
541,190,77,2
542,295,35,2
543,285,49,2
544,250,64,2
545,290,46,2
546,290,40,2
547,205,56,2
548,245,61,2
549,275,53,2
550,295,25,2
551,295,42,2
552,255,40,2
553,280,46,2
554,265,37,2
555,260,50,2
556,310,22,2
557,315,27,2
558,305,27,2
559,120,103,2
560,250,56,2
561,305,37,2
562,275,35,2
563,240,36,2
564,270,40,2
565,260,55,2
566,285,32,2
567,140,88,2
568,310,32,2
569,200,64,2
570,230,42,2
571,290,36,2
572,290,24,2
573,220,68,2
574,325,19,2
575,275,44,2
576,15,121,2
577,290,16,2
578,245,43,2
579,260,41,2
580,185,67,2
581,255,43,2
582,310,16,2
583,295,25,2
584,330,14,2
585,250,43,2
586,-10,125,2
587,315,27,2
588,255,43,2
589,270,44,2
590,230,31,2
591,120,88,2
592,300,22,2
593,220,33,2
594,325,23,2
595,115,86,2
596,220,49,2
597,305,33,2
598,125,52,2
599,240,49,2
600,305,19,2
601,250,28,2
602,300,24,2
603,265,20,2
604,250,25,2
605,260,32,2
606,290,27,2
607,295,23,2
608,215,38,2
609,255,39,2
610,240,38,2
611,260,24,2
612,225,48,2
613,230,48,2
614,225,36,2
615,205,41,2
616,65,90,2
617,265,45,2
618,250,29,2
619,245,30,2
620,190,45,2
621,240,32,2
622,305,39,2
623,230,38,2
624,250,57,2
625,120,61,2
626,235,41,2
627,35,78,2
628,245,43,2
629,-25,133,2
630,155,72,2
631,255,39,2
632,310,22,2
633,145,63,2
634,60,92,2
635,315,23,2
636,290,32,2
637,300,33,2
638,285,38,2
639,280,34,2
640,295,31,2
641,265,39,2
642,320,16,2
643,255,50,2
644,290,30,2
645,285,31,2
646,265,35,2
647,185,62,2
648,230,42,2
649,210,63,2
650,250,40,2
651,265,52,2
652,260,34,2
653,330,20,2
654,295,36,2
655,140,78,2
656,260,38,2
657,265,43,2
658,-255,173,2
659,320,30,2
660,235,50,2
661,320,16,2
662,290,41,2
663,175,68,2
664,285,21,2
665,275,46,2
666,275,35,2
667,235,56,2
668,190,69,2
669,265,37,2
670,315,29,2
671,245,59,2
672,305,20,2
673,225,65,2
674,280,45,2
675,255,53,2
676,295,27,2
677,290,40,2
678,60,105,2
679,290,26,2
680,275,32,2
681,315,23,2
682,315,21,2
683,265,41,2
684,225,35,2
685,280,30,2
686,250,56,2
687,200,42,2
688,300,24,2
689,230,46,2
690,305,23,2
691,285,29,2
692,265,35,2
693,-95,134,2
694,240,39,2
695,200,42,2
696,290,34,2
697,285,41,2
698,125,62,2
699,265,37,2
700,335,23,2
701,310,22,2
702,275,33,2
703,300,26,2
704,305,15,2
705,275,39,2
706,305,17,2
707,295,41,2
708,245,49,2
709,230,54,2
710,265,26,2
711,290,26,2
712,305,27,2
713,280,13,2
714,-85,136,2
715,255,35,2
716,285,21,2
717,310,33,2
718,310,30,2
719,245,41,2
720,165,60,2
721,300,24,2
722,300,27,2
723,225,47,2
724,305,15,2
725,310,27,2
726,275,23,2
727,235,38,2
728,135,55,2
729,310,24,2
730,270,32,2
731,200,46,2
732,255,51,2
733,260,36,2
734,175,50,2
735,200,59,2
736,155,61,2
737,215,28,2
738,150,60,2
739,205,44,2
740,185,47,2
741,235,35,2
742,225,33,2
743,-40,87,2
744,280,24,2
745,235,33,2
746,205,62,2
747,270,30,2
748,70,82,2
749,215,50,2
750,305,17,2
751,205,47,2
752,210,40,2
753,180,58,2
754,245,29,2
755,130,66,2
756,255,24,2
757,275,27,2
758,260,22,2
759,265,27,2
760,260,28,2
761,285,38,2
762,275,31,2
763,290,28,2
764,265,25,2
765,315,29,2
766,255,29,2
767,210,46,2
768,260,32,2
769,265,23,2
770,185,49,2
771,285,25,2
772,310,23,2
773,270,24,2
774,220,51,2
775,270,26,2
776,295,23,2
777,300,26,2
778,290,24,2
779,305,23,2
780,130,58,2
781,325,23,2
782,275,34,2
783,290,20,2
784,295,28,2
785,305,19,2
786,315,27,2
787,265,32,2
788,305,34,2
789,310,24,2
790,305,21,2
791,335,19,2
792,-45,122,2
793,320,16,2
794,300,28,2
795,280,26,2
796,-120,144,2
797,245,43,2
798,255,50,2
799,110,73,2
800,300,32,2
801,275,37,2
802,205,51,2
803,295,23,2
804,230,44,2
805,295,31,2
806,245,47,2
807,270,33,2
808,260,40,2
809,210,50,2
810,320,18,2
811,195,59,2
812,325,29,2
813,255,50,2
814,315,25,2
815,205,51,2
816,310,24,2
817,210,54,2
818,265,33,2
819,295,21,2
820,250,50,2
821,345,21,2
822,260,44,2
823,270,28,2
824,230,42,2
825,270,28,2
826,225,54,2
827,305,32,2
828,180,66,2
829,300,30,2
830,295,35,2
831,260,26,2
832,275,29,2
833,340,22,2
834,295,31,2
835,285,32,2
836,300,16,2
837,320,36,2
838,265,36,2
839,260,28,2
840,315,25,2
841,300,32,2
842,235,41,2
843,295,33,2
844,210,56,2
845,295,17,2
846,290,28,2
847,330,27,2
848,295,32,2
849,310,18,2
850,265,48,2
851,290,26,2
852,230,42,2
853,275,31,2
854,275,33,2
855,290,36,2
856,285,42,2
857,245,46,2
858,250,55,2
859,275,46,2
860,295,31,2
861,280,24,2
862,300,32,2
863,330,25,2
864,340,29,2
865,305,31,2
866,290,36,2
867,280,36,2
868,295,33,2
869,285,31,2
870,235,44,2
871,235,47,2
872,325,17,2
873,285,31,2
874,335,21,2
875,190,67,2
876,285,31,2
877,230,48,2
878,270,44,2
879,270,42,2
880,310,24,2
881,230,50,2
882,250,47,2
883,320,22,2
884,295,31,2
885,105,85,2
886,345,21,2
887,185,73,2
888,250,48,2
889,80,91,2
890,230,55,2
891,275,35,2
892,330,24,2
893,140,67,2
894,290,33,2
895,295,31,2
896,275,39,2
897,270,44,2
898,235,48,2
899,200,65,2
900,295,21,2
901,290,32,2
902,310,42,2
903,145,75,2
904,200,67,2
905,300,32,2
906,280,32,2
907,145,66,2
908,240,40,2
909,120,77,2
910,155,68,2
911,280,42,2
912,295,27,2
913,275,38,2
914,215,65,2
915,210,49,2
916,315,27,2
917,215,58,2
918,295,23,2
919,300,35,2
920,165,80,2
921,290,20,2
922,305,29,2
923,280,39,2
924,165,59,2
925,205,57,2
926,265,41,2
927,285,37,2
928,260,30,2
929,305,27,2
930,210,57,2
931,265,45,2
932,220,44,2
933,325,21,2
934,255,34,2
935,280,26,2
936,280,45,2
937,290,22,2
938,305,28,2
939,255,31,2
940,300,33,2
941,235,48,2
942,295,27,2
943,300,33,2
944,315,25,2
945,235,46,2
946,275,31,2
947,265,33,2
948,300,24,2
949,305,28,2
950,255,36,2
951,65,94,2
952,270,30,2
953,185,54,2
954,300,24,2
955,265,31,2
956,145,62,2
957,195,64,2
958,310,24,2
959,295,32,2
960,285,23,2
961,260,42,2
962,235,41,2
963,260,31,2
964,245,42,2
965,265,44,2
966,205,56,2
967,230,51,2
968,295,19,2
969,265,36,2
970,210,50,2
971,290,28,2
972,285,36,2
973,190,54,2
974,125,63,2
975,275,31,2
976,295,25,2
977,260,41,2
978,280,39,2
979,215,41,2
980,270,34,2
981,265,37,2
982,280,40,2
983,310,22,2
984,275,36,2
985,305,25,2
986,235,47,2
987,260,30,2
988,295,19,2
989,265,37,2
990,255,38,2
991,280,22,2
992,320,18,2
993,295,33,2
994,305,27,2
995,270,28,2
996,285,27,2
997,275,27,2
998,275,27,2
999,200,56,2
