episode,reward,step,sensitive
0,-2125,458,0
1,-1990,458,1
2,-1815,458,2
3,-2295,458,0
4,-2130,458,0
5,-2015,458,1
6,-1960,458,1
7,-1880,458,1
8,-670,207,2
9,-1955,458,1
10,-2260,458,0
11,-1955,458,1
12,-1315,363,2
13,-2045,458,0
14,-1275,356,2
15,-1875,458,1
16,-2140,458,0
17,-1910,458,1
18,-2230,458,0
19,-2125,458,0
20,-1865,458,1
21,-1945,458,1
22,-2240,458,0
23,-1905,454,2
24,-2185,458,0
25,-2125,458,0
26,-2295,458,0
27,-2010,458,1
28,-2165,458,0
29,-1780,457,2
30,-1960,458,1
31,-1940,458,1
32,-1985,458,1
33,-1945,458,1
34,-2205,458,0
35,-1905,458,1
36,-2295,458,0
37,-2060,458,1
38,-2045,458,0
39,-1955,458,1
40,-1895,458,1
41,-2255,458,0
42,-1885,458,1
43,-2030,458,1
44,-1925,458,1
45,-2260,458,0
46,-2165,458,0
47,-995,277,2
48,-1935,458,1
49,-1975,458,1
50,-1965,458,1
51,-2050,458,1
52,-2115,458,0
53,-1545,420,2
54,-1590,431,2
55,-1960,458,1
56,-2075,458,0
57,-1995,458,1
58,-2045,458,1
59,-1920,458,1
60,-1320,365,2
61,-1890,458,1
62,-2045,458,1
63,-2095,458,0
64,-1060,310,2
65,-2295,458,0
66,-1440,387,2
67,-1880,458,1
68,-2115,458,1
69,-2000,458,1
70,-1890,458,1
71,-2210,458,0
72,-400,162,2
73,-2120,458,0
74,-1905,458,1
75,-2100,458,0
76,-1910,458,1
77,-1090,309,2
78,-1010,266,2
79,-1960,458,1
80,-685,227,2
81,-1820,448,2
82,-2235,458,0
83,-1845,458,1
84,-1935,458,1
85,-1955,458,1
86,-2255,458,0
87,-2270,458,0
88,-1975,458,1
89,-1965,458,1
90,-1940,458,1
91,-2010,458,1
92,-2140,458,0
93,-350,160,2
94,-1930,458,1
95,-830,256,2
96,-2020,458,1
97,-1560,425,2
98,-1960,458,1
99,-1745,450,2
100,-985,298,2
101,-855,262,2
102,-2270,458,0
103,-2065,458,1
104,-1590,406,2
105,-2295,458,0
106,-1735,435,2
107,-1860,458,1
108,-1890,458,1
109,-1415,375,2
110,-1875,458,1
111,-1120,314,2
112,-1685,422,2
113,-2140,458,0
114,-740,217,2
115,-1785,458,1
116,-1430,367,2
117,-2190,458,0
118,-1780,446,2
119,-1935,458,1
120,-1925,458,1
121,-1910,458,1
122,-2215,458,0
123,-1650,435,2
124,-1180,347,2
125,-2105,458,0
126,-1895,458,1
127,-1040,310,2
128,-2180,458,0
129,-1240,348,2
130,-1855,458,1
131,-2120,458,0
132,-2140,458,0
133,-2070,458,0
134,-1880,458,1
135,-1995,458,1
136,-1890,458,1
137,-1895,458,1
138,-1910,458,1
139,-785,235,2
140,-2270,458,0
141,-695,218,2
142,-250,119,2
143,-720,210,2
144,-1950,458,1
145,-1850,458,1
146,-1195,344,2
147,-1975,458,1
148,-1930,458,1
149,-700,211,2
150,-1570,405,2
151,-1680,432,2
152,-2295,458,0
153,-2120,458,0
154,-1845,458,1
155,-650,224,2
156,-1890,458,1
157,-2030,458,1
158,-1980,458,1
159,-2025,458,1
160,-2240,458,0
161,-570,188,2
162,-1965,458,1
163,-1880,458,1
164,-800,236,2
165,-2005,458,1
166,-1125,324,2
167,-740,240,2
168,-2000,458,1
169,-1015,304,2
170,-1960,458,1
171,-2035,458,1
172,-1080,317,2
173,-1960,458,1
174,-1930,458,1
175,-420,158,2
176,-1100,321,2
177,-1530,384,2
178,-1855,458,1
179,-1915,458,1
180,-1825,457,2
181,-1565,415,2
182,-1865,458,1
183,-2040,458,1
184,-2000,458,0
185,-1955,458,1
186,-2295,458,0
187,-2270,458,0
188,-645,220,2
189,-1810,454,2
190,-1965,458,1
191,-1670,434,2
192,-1035,310,2
193,-2215,458,0
194,-1065,297,2
195,-2040,458,1
196,-1300,365,2
197,-2055,458,1
198,-1935,458,1
199,-1930,458,1
200,-2120,458,0
201,-2140,458,0
202,-1315,349,2
203,-1865,458,1
204,-1295,365,2
205,-1420,379,2
206,-1940,458,1
207,-805,242,2
208,-315,135,2
209,-1860,458,1
210,-635,221,2
211,-160,94,2
212,-1000,264,2
213,-1070,327,2
214,-1495,402,2
215,-2105,458,0
216,-2255,458,0
217,-2155,458,0
218,-1175,310,2
219,-830,249,2
220,-360,158,2
221,-2270,458,0
222,-1910,458,1
223,-1175,327,2
224,-2240,458,0
225,-1965,458,1
226,-1825,458,1
227,-1570,416,2
228,-890,256,2
229,-1955,458,1
230,-1415,383,2
231,-1245,348,2
232,-1000,305,2
233,-2295,458,0
234,-1660,433,2
235,-2295,458,0
236,-1940,458,1
237,-1895,458,1
238,-1925,458,1
239,-530,201,2
240,-2115,458,0
241,-830,256,2
242,-1400,371,2
243,-1885,458,1
244,-2180,458,0
245,-1570,417,2
246,-1375,358,2
247,-1640,437,2
248,-2075,458,0
249,-1845,458,1
250,-1475,398,2
251,-1675,397,2
252,-1925,458,1
253,-1330,373,2
254,-1855,446,2
255,-1450,394,2
256,-1270,355,2
257,-1910,458,1
258,-1555,409,2
259,-2175,458,0
260,-1920,458,1
261,-1455,380,2
262,-815,267,2
263,-1500,405,2
264,-810,256,2
265,-460,170,2
266,-1875,458,1
267,-1955,458,1
268,-1970,458,1
269,-1960,458,1
270,-1205,353,2
271,-1635,423,2
272,-1435,383,2
273,-1020,283,2
274,-1870,458,1
275,-1385,352,2
276,-1910,458,1
277,-330,147,2
278,-520,169,2
279,-1625,428,2
280,-1945,458,1
281,-1430,390,2
282,-2085,458,1
283,-1715,447,2
284,-1895,458,1
285,-1610,417,2
286,-1920,458,1
287,-1390,389,2
288,-850,237,2
289,-1860,458,1
290,-2125,458,0
291,-1940,458,1
292,-2120,458,0
293,-430,153,2
294,-2105,458,0
295,-1325,369,2
296,-1860,458,1
297,-1855,458,1
298,-1425,351,2
299,-1940,458,1
300,-725,234,2
301,-1905,458,1
302,-1935,458,1
303,-2105,458,1
304,-1935,458,1
305,-2295,458,0
306,-1765,440,2
307,-2005,458,1
308,-2135,458,0
309,-1930,458,1
310,-1955,458,1
311,-1410,386,2
312,-940,283,2
313,-80,109,2
314,-870,254,2
315,-2130,458,0
316,-995,268,2
317,-1165,318,2
318,-730,213,2
319,-575,203,2
320,-465,188,2
321,-1070,320,2
322,-1865,458,1
323,-1000,292,2
324,-1905,458,1
325,-1990,458,1
326,-1560,405,2
327,-2090,458,1
328,-1995,458,1
329,-730,236,2
330,-2080,458,1
331,-1355,361,2
332,-1915,458,1
333,-1665,437,2
334,-905,275,2
335,-420,170,2
336,-1825,458,1
337,-105,88,2
338,-1420,381,2
339,-1965,458,1
340,-1160,320,2
341,-1490,396,2
342,-1275,362,2
343,-2190,458,0
344,-1060,293,2
345,-415,152,2
346,-2095,458,1
347,-1950,458,1
348,-1930,458,1
349,-1605,403,2
350,-1935,458,1
351,-1980,458,1
352,-1875,458,1
353,-1035,307,2
354,-2005,458,1
355,-525,198,2
356,-1040,304,2
357,-1915,458,1
358,-1990,458,1
359,-1160,337,2
360,-655,237,2
361,-1975,458,1
362,-1945,458,1
363,-1620,417,2
364,-1850,458,1
365,-1620,423,2
366,-2030,458,1
367,-1430,390,2
368,-2070,458,1
369,-1940,458,1
370,-1200,335,2
371,-1575,384,2
372,-2080,458,1
373,-1775,428,2
374,-1895,458,1
375,-1815,458,1
376,-935,253,2
377,-995,271,2
378,-420,162,2
379,-1940,458,1
380,-1070,291,2
381,-1970,458,1
382,-1090,302,2
383,-745,218,2
384,-860,247,2
385,-595,200,2
386,-1060,312,2
387,-1535,408,2
388,-600,208,2
389,-1730,444,2
390,-1980,458,1
391,-1925,458,1
392,-1460,365,2
393,-1365,366,2
394,-1345,370,2
395,-1180,333,2
396,-2055,458,0
397,-1895,458,1
398,-2100,458,1
399,-2115,458,0
400,-1845,458,1
401,-495,204,2
402,-1935,458,1
403,-2025,458,1
404,-1965,458,1
405,-1955,458,1
406,-780,247,2
407,-910,265,2
408,-2165,458,0
409,-1890,458,1
410,-620,206,2
411,-1815,458,1
412,-1985,458,1
413,-1910,458,1
414,-740,250,2
415,-2110,458,0
416,-1515,388,2
417,-1125,332,2
418,-1450,388,2
419,-1945,458,1
420,-1015,281,2
421,-1055,320,2
422,-1910,458,1
423,-1525,409,2
424,-890,258,2
425,-1070,298,2
426,-1475,394,2
427,-1630,390,2
428,-1345,366,2
429,-1700,435,2
430,-1215,341,2
431,-665,218,2
432,-975,284,2
433,-2050,458,1
434,-1125,330,2
435,-2055,458,0
436,-100,79,2
437,-1755,440,2
438,-1960,458,1
439,-1615,417,2
440,-1605,426,2
441,-1295,350,2
442,-1925,458,1
443,-1920,458,1
444,-2295,458,0
445,-1470,391,2
446,-685,223,2
447,-1895,458,1
448,-1335,334,2
449,-715,223,2
450,-1225,344,2
451,-1120,327,2
452,-1940,458,1
453,-1000,294,2
454,-1900,458,1
455,-1995,458,1
456,-820,242,2
457,-1955,458,1
458,-1365,369,2
459,-780,239,2
460,-1650,418,2
461,-625,224,2
462,-1490,397,2
463,-1990,458,1
464,-2255,458,0
465,-1630,428,2
466,-2055,458,0
467,-1165,341,2
468,-1030,312,2
469,-670,220,2
470,-2110,458,0
471,-1825,454,2
472,-1250,352,2
473,-1310,368,2
474,-1890,458,1
475,-1885,458,1
476,-210,105,2
477,-2140,458,1
478,-1885,458,1
479,-1810,458,2
480,-1305,348,2
481,-1815,458,1
482,-1670,438,2
483,-2185,458,0
484,-2050,458,0
485,-1835,458,1
486,-725,231,2
487,-1845,458,1
488,-1980,458,1
489,-1970,458,1
490,-1865,458,1
491,-2295,458,0
492,-1915,458,1
493,-1910,458,1
494,-1525,394,2
495,-360,167,2
496,-725,247,2
497,-1750,457,2
498,-650,224,2
499,-1960,458,1
500,-2155,458,0
501,-1885,458,1
502,-1895,458,1
503,-350,137,2
504,-725,238,2
505,-2000,458,1
506,-2295,458,0
507,-1675,439,2
508,-2215,458,0
509,-2110,458,1
510,-1125,324,2
511,-1215,333,2
512,-1855,458,1
513,-515,167,2
514,-1180,338,2
515,-2295,458,0
516,-1670,447,2
517,-1590,419,2
518,-1900,458,1
519,-1050,290,2
520,-1965,458,1
521,-1360,383,2
522,-1985,458,1
523,-1025,286,2
524,-1900,458,1
525,-1865,458,1
526,-1500,400,2
527,-1310,358,2
528,-605,195,2
529,-1500,400,2
530,-1865,458,1
531,-1945,458,1
532,-945,276,2
533,-1415,379,2
534,-1895,458,1
535,-2190,458,0
536,-2115,458,0
537,-440,168,2
538,-2120,458,0
539,-1955,458,1
540,-700,204,2
541,-1270,338,2
542,-2295,458,0
543,-340,149,2
544,-1945,458,1
545,-905,264,2
546,-230,110,2
547,-2120,458,0
548,-1745,449,2
549,-1985,458,1
550,-1175,327,2
551,-915,278,2
552,-910,270,2
553,-1585,405,2
554,-1875,458,1
555,-1475,378,2
556,-1240,338,2
557,-2075,458,1
558,-2295,458,0
559,-1550,415,2
560,-400,161,2
561,-180,92,2
562,-1440,376,2
563,-1005,297,2
564,-370,150,2
565,-1930,458,1
566,-1840,458,1
567,-1005,296,2
568,-200,99,2
569,-1040,280,2
570,-1230,313,2
571,-1715,440,2
572,-1265,364,2
573,-1900,458,1
574,-1585,405,2
575,-1945,458,1
576,-2065,458,0
577,-2035,458,1
578,-780,226,2
579,-2115,458,0
580,-305,139,2
581,-1680,418,2
582,-2120,458,0
583,-1150,308,2
584,-1175,294,2
585,-2175,458,0
586,-380,148,2
587,-1100,316,2
588,-1680,432,2
589,-900,265,2
590,-1880,458,1
591,-1850,458,1
592,-1535,382,2
593,-1320,344,2
594,-2295,458,0
595,-1335,365,2
596,-2270,458,0
597,-2050,458,1
598,-245,145,2
599,-2235,458,0
600,-1180,337,2
601,-870,263,2
602,-405,160,2
603,-2260,458,0
604,-910,251,2
605,-1895,458,1
606,-2130,458,0
607,-2190,458,0
608,-1450,375,2
609,-1335,374,2
610,-850,247,2
611,-1590,403,2
612,-2040,458,0
613,-1720,433,2
614,-1960,458,1
615,-2255,458,0
616,-1640,421,2
617,-1945,458,1
618,-610,201,2
619,-735,221,2
620,-1790,446,2
621,-1925,458,1
622,-1165,325,2
623,-715,227,2
624,-1010,288,2
625,-2125,458,0
626,-1845,458,1
627,-1960,458,1
628,-1950,458,1
629,-1510,399,2
630,-500,187,2
631,-1915,458,1
632,-1420,383,2
633,-1170,341,2
634,-1290,349,2
635,-1430,383,2
636,-2105,458,0
637,-2020,458,1
638,-300,127,2
639,-280,121,2
640,-1895,458,1
641,-1405,379,2
642,-1990,458,1
643,-1635,424,2
644,-225,113,2
645,-2095,458,0
646,-1930,458,1
647,-1945,458,1
648,-1140,317,2
649,-1730,443,2
650,-1995,458,1
651,-1680,431,2
652,-1915,458,1
653,-1925,458,1
654,-305,146,2
655,-1085,290,2
656,-1735,441,2
657,-1925,458,1
658,-1925,458,1
659,-1890,458,1
660,-1960,458,1
661,-665,219,2
662,-1055,298,2
663,-1690,446,2
664,-1360,375,2
665,-1910,458,1
666,-1120,302,2
667,-1850,458,1
668,-1915,458,1
669,-825,234,2
670,-920,271,2
671,-1940,458,1
672,-2245,458,0
673,-1930,458,1
674,-1560,421,2
675,-1095,315,2
676,-1900,458,1
677,-1945,458,1
678,-1690,434,2
679,-1875,458,1
680,-1495,368,2
681,-1475,395,2
682,-150,91,2
683,-580,192,2
684,-1920,458,1
685,-1895,458,1
686,-1485,392,2
687,-2100,458,0
688,-2135,458,0
689,-1585,403,2
690,-1005,287,2
691,-1340,373,2
692,-1940,458,1
693,-1935,458,1
694,-1290,325,2
695,-1890,458,1
696,-1920,458,1
697,-1110,308,2
698,-560,204,2
699,-820,251,2
700,-1055,300,2
701,-865,264,2
702,-2295,458,0
703,-190,117,2
704,-1920,458,1
705,-1665,445,2
706,-1865,458,1
707,-1975,458,1
708,-555,202,2
709,-1245,315,2
710,-1640,426,2
711,-1555,377,2
712,-765,247,2
713,-1860,458,1
714,-1940,458,1
715,-1880,458,1
716,-2260,458,0
717,-2095,458,1
718,-865,256,2
719,-1915,458,1
720,-2295,458,0
721,-1110,298,2
722,-1720,421,2
723,-1360,361,2
724,-1085,286,2
725,-1655,428,2
726,-2085,458,0
727,-2115,458,0
728,-1895,458,1
729,-2085,458,1
730,-1990,458,1
731,-2015,458,1
732,-1415,368,2
733,-2220,458,0
734,-1975,458,1
735,-780,231,2
736,-1950,458,1
737,-1855,458,1
738,-1045,293,2
739,-2195,458,0
740,-1560,405,2
741,-760,251,2
742,-1915,458,1
743,-1930,458,1
744,-2295,458,0
745,-1475,397,2
746,-1220,329,2
747,-2110,458,1
748,-470,160,2
749,-895,256,2
750,-2070,458,0
751,-1885,458,1
752,-2065,458,1
753,-1970,458,1
754,-1965,458,1
755,-1150,313,2
756,-1035,296,2
757,-1335,342,2
758,-1045,302,2
759,-1925,458,1
760,-1945,458,1
761,-1730,433,2
762,-1405,366,2
763,-670,213,2
764,-1610,413,2
765,-2295,458,0
766,-1445,401,2
767,-2015,458,1
768,-1965,458,1
769,-1330,366,2
770,-2200,458,0
771,-1415,372,2
772,-1935,458,1
773,-650,194,2
774,-1885,458,1
775,-1840,458,1
776,-490,176,2
777,-1525,380,2
778,-2055,458,1
779,-2055,458,0
780,-1920,458,1
781,-1850,458,1
782,-880,275,2
783,-1920,458,1
784,-1965,458,1
785,-2115,458,0
786,-2135,458,0
787,-380,139,2
788,-1995,458,1
789,-2185,458,0
790,-2055,458,0
791,-1985,458,1
792,-1905,458,1
793,-2110,458,0
794,-1520,393,2
795,-2115,458,1
796,-1915,458,1
797,-990,300,2
798,-1895,458,1
799,-590,188,2
800,-1525,408,2
801,-1950,458,1
802,-1335,357,2
803,-1990,458,1
804,-1930,458,1
805,-995,278,2
806,-2115,458,0
807,-1950,458,1
808,-845,258,2
809,-1895,458,1
810,-1665,411,2
811,-695,228,2
812,-1495,385,2
813,-1945,458,1
814,-1890,458,1
815,-1715,442,2
816,-1110,308,2
817,-2240,458,0
818,-1980,458,1
819,-2235,458,0
820,-1940,458,1
821,-2095,458,0
822,-1900,458,1
823,-1395,385,2
824,-2170,458,0
825,-1930,458,1
826,-2095,458,0
827,-2295,458,0
828,-1290,333,2
829,-2145,458,0
830,-1115,319,2
831,-1950,458,1
832,-1805,451,2
833,-2205,458,0
834,-2015,458,1
835,-2205,458,0
836,-1930,458,1
837,-620,214,2
838,-120,111,2
839,-1935,458,1
840,-1605,416,2
841,-1865,458,1
842,-1905,458,1
843,-1085,316,2
844,-1980,458,1
845,-830,242,2
846,-1940,458,1
847,-655,211,2
848,-1995,458,1
849,-1260,350,2
850,-1455,370,2
851,-1870,458,1
852,-1630,407,2
853,-2175,458,0
854,-190,115,2
855,-1555,386,2
856,-1300,352,2
857,-1075,289,2
858,-1010,288,2
859,-1515,410,2
860,-1035,300,2
861,-1795,451,2
862,-550,185,2
863,-1990,458,1
864,-1945,458,1
865,-1960,458,1
866,-1640,394,2
867,-2035,458,1
868,-1970,458,1
869,-1770,446,2
870,-1910,458,1
871,-2075,458,1
872,-2230,458,0
873,-850,254,2
874,-1940,458,1
875,-2145,458,0
876,-460,187,2
877,-2055,458,0
878,-1960,458,1
879,-2080,458,0
880,-2205,458,0
881,-2055,458,1
882,-2060,458,1
883,-1520,393,2
884,-2245,458,0
885,-1905,458,1
886,-2295,458,0
887,-1210,326,2
888,-1435,378,2
889,-1945,458,1
890,-1440,353,2
891,-1985,458,1
892,-2245,458,0
893,-930,250,2
894,-1560,404,2
895,-1975,458,1
896,-2220,458,0
897,-1625,416,2
898,-1910,458,1
899,-1285,358,2
900,-965,276,2
901,-305,125,2
902,-1620,406,2
903,-1885,458,1
904,-1820,452,2
905,-345,144,2
906,-1925,458,1
907,-1895,458,1
908,-1195,327,2
909,-1400,377,2
910,-1915,458,1
911,-2000,458,1
912,-685,227,2
913,-1945,458,1
914,-1860,458,1
915,-615,185,2
916,-855,241,2
917,-1430,383,2
918,-1940,458,1
919,-2175,458,0
920,-1730,438,2
921,-1580,405,2
922,-830,241,2
923,-2005,458,1
924,-2200,458,0
925,-2130,458,0
926,-1420,357,2
927,-1945,458,1
928,-685,204,2
929,-1895,458,1
930,-700,230,2
931,-1230,331,2
932,-1950,458,1
933,-800,245,2
934,-2295,458,0
935,-1870,458,1
936,-1960,458,1
937,-1930,458,1
938,-1875,458,1
939,-2160,458,0
940,-920,257,2
941,-1105,312,2
942,-1905,458,1
943,-1915,458,1
944,-2150,458,0
945,-1770,446,2
946,-1910,458,1
947,-2270,458,0
948,-1415,373,2
949,-2015,458,1
950,-2255,458,0
951,-825,253,2
952,-865,251,2
953,-2095,458,0
954,-1945,458,1
955,-940,286,2
956,-1980,458,1
957,-1900,458,1
958,-1950,458,1
959,-1150,325,2
960,-2295,458,0
961,-1945,458,1
962,-1765,447,2
963,-885,254,2
964,-1885,458,1
965,-2050,458,1
966,-1595,397,2
967,-2060,458,1
968,-1345,364,2
969,-1665,419,2
970,-885,250,2
971,-1225,345,2
972,-1100,301,2
973,-2295,458,0
974,-915,269,2
975,-2125,458,0
976,-1885,458,1
977,-2260,458,0
978,-2020,458,1
979,-2110,458,0
980,-2110,458,0
981,-1985,458,1
982,-1275,343,2
983,-1960,458,1
984,-705,240,2
985,-2165,458,0
986,-2215,458,0
987,-2115,458,0
988,-2255,458,0
989,-935,263,2
990,-895,253,2
991,-1240,315,2
992,-2000,458,1
993,-1940,458,1
994,-820,226,2
995,-2150,458,0
996,-1995,458,1
997,-1900,458,1
998,-1580,392,2
999,-1950,458,1
