episode,reward,step,sensitive
0,805,169,14
1,280,169,9
2,-850,169,0
3,-405,169,3
4,-450,169,3
5,355,169,10
6,-80,169,6
7,-50,169,6
8,-35,169,7
9,-580,169,2
10,-115,169,6
11,-90,169,6
12,805,169,14
13,-605,169,2
14,280,169,9
15,-130,169,6
16,-20,169,7
17,-230,169,5
18,-245,169,5
19,-45,169,7
20,230,169,9
21,510,169,11
22,-290,169,4
23,0,169,7
24,155,169,8
25,495,169,11
26,340,169,10
27,-440,169,3
28,-460,169,3
29,510,169,11
30,475,169,11
31,105,169,8
32,475,169,11
33,835,169,14
34,550,169,11
35,875,169,14
36,665,169,12
37,105,169,8
38,385,169,10
39,145,169,8
40,-245,169,5
41,235,169,9
42,280,169,9
43,370,169,10
44,20,169,7
45,80,169,7
46,310,169,9
47,350,169,10
48,625,169,12
49,575,169,12
50,80,169,7
51,835,169,14
52,690,169,13
53,720,169,13
54,750,169,13
55,260,169,9
56,380,169,10
57,510,169,11
58,540,169,11
59,560,169,12
60,130,169,8
61,625,169,12
62,480,169,11
63,595,169,12
64,940,169,15
65,630,169,12
66,615,169,12
67,625,169,12
68,385,169,10
69,690,169,13
70,665,169,13
71,385,169,10
72,405,169,10
73,700,169,13
74,585,169,12
75,145,169,8
76,595,169,12
77,690,169,13
78,510,169,11
79,720,169,13
80,710,169,13
81,960,169,15
82,825,169,14
83,490,169,11
84,490,169,11
85,690,169,13
86,60,169,7
87,825,169,14
88,595,169,12
89,900,169,15
90,815,169,14
91,500,169,11
92,585,169,12
93,520,169,11
94,480,169,11
95,465,169,11
96,675,169,13
97,825,169,14
98,825,169,14
99,595,169,12
100,720,169,13
101,710,169,13
102,595,169,12
103,510,169,11
104,500,169,11
105,740,169,13
106,595,169,12
107,825,169,14
108,490,169,11
109,815,169,14
110,720,169,13
111,385,169,10
112,520,169,11
113,615,169,12
114,700,169,13
115,805,169,14
116,375,169,10
117,815,169,14
118,720,169,13
119,930,169,15
120,815,169,14
121,710,169,13
122,1195,139,16
123,815,169,14
124,700,169,13
125,900,169,15
126,710,169,13
127,805,169,14
128,595,169,12
129,795,169,14
130,605,169,12
131,920,169,15
132,855,169,14
133,710,169,13
134,815,169,14
135,805,169,14
136,690,169,13
137,805,169,14
138,615,169,12
139,825,169,14
140,805,169,14
141,805,169,14
142,710,169,13
143,795,169,14
144,815,169,14
145,775,169,14
146,795,169,14
147,940,169,15
148,500,169,11
149,805,169,14
150,700,169,13
151,585,169,12
152,680,169,13
153,940,169,15
154,710,169,13
155,835,169,14
156,815,169,14
157,1325,111,16
158,680,169,13
159,680,169,13
160,1130,150,16
161,670,169,13
162,710,169,13
163,815,169,14
164,910,169,15
165,690,169,13
166,710,169,13
167,585,169,12
168,920,169,15
169,805,169,14
170,825,169,14
171,680,169,13
172,805,169,14
173,1190,132,16
174,595,169,12
175,690,169,13
176,690,169,13
177,910,169,15
178,520,169,11
179,700,169,13
180,595,169,12
181,700,169,13
182,805,169,14
183,490,169,11
184,795,169,14
185,805,169,14
186,720,169,13
187,685,169,13
188,490,169,11
189,795,169,14
190,680,169,13
191,785,169,14
192,585,169,12
193,690,169,13
194,805,169,14
195,710,169,13
196,910,169,15
197,805,169,14
198,910,169,15
199,825,169,14
200,595,169,12
201,800,169,14
202,690,169,13
203,940,169,15
204,490,169,11
205,805,169,14
206,245,169,9
207,805,169,14
208,920,169,15
209,500,169,11
210,795,169,14
211,480,169,11
212,910,169,15
213,700,169,13
214,815,169,14
215,805,169,14
216,500,169,11
217,920,169,15
218,595,169,12
219,775,169,14
220,835,169,14
221,480,169,11
222,690,169,13
223,680,169,13
224,490,169,11
225,805,169,14
226,825,169,14
227,585,169,12
228,785,169,14
229,940,169,15
230,700,169,13
231,595,169,12
232,920,169,15
233,845,169,14
234,795,169,14
235,795,169,14
236,910,169,15
237,910,169,15
238,605,169,12
239,815,169,14
240,700,169,13
241,910,169,15
242,605,169,12
243,900,169,15
244,785,169,14
245,760,169,14
246,920,169,15
247,910,169,15
248,710,169,13
249,920,169,15
250,795,169,14
251,805,169,14
252,795,169,14
253,920,169,15
254,665,169,13
255,835,169,14
256,890,169,15
257,665,169,13
258,730,169,13
259,880,169,15
260,815,169,14
261,900,169,15
262,710,169,13
263,805,169,14
264,920,169,15
265,910,169,15
266,795,169,14
267,710,169,13
268,890,169,15
269,690,169,13
270,1185,137,16
271,1140,152,16
272,385,169,10
273,920,169,15
274,815,169,14
275,920,169,15
276,890,169,15
277,805,169,14
278,785,169,14
279,920,169,15
280,900,169,15
281,910,169,15
282,920,169,15
283,1145,145,16
284,815,169,14
285,900,169,15
286,690,169,13
287,825,169,14
288,1075,159,16
289,900,169,15
290,785,169,14
291,815,169,14
292,690,169,13
293,805,169,14
294,920,169,15
295,900,169,15
296,910,169,15
297,785,169,14
298,815,169,14
299,910,169,15
300,815,169,14
301,920,169,15
302,910,169,15
303,795,169,14
304,930,169,15
305,795,169,14
306,615,169,12
307,795,169,14
308,1190,140,16
309,1025,165,16
310,825,169,14
311,900,169,15
312,785,169,14
313,1410,88,16
314,795,169,14
315,900,169,15
316,805,169,14
317,920,169,15
318,805,169,14
319,785,169,14
320,900,169,15
321,615,169,12
322,900,169,15
323,805,169,14
324,900,169,15
325,795,169,14
326,570,169,12
327,1220,128,16
328,920,169,15
329,690,169,13
330,685,169,13
331,680,169,13
332,465,169,11
333,805,169,14
334,595,169,12
335,690,169,13
336,795,169,14
337,910,169,15
338,815,169,14
339,805,169,14
340,795,169,14
341,930,169,15
342,930,169,15
343,690,169,13
344,1145,145,16
345,700,169,13
346,615,169,12
347,585,169,12
348,920,169,15
349,465,169,11
350,560,169,12
351,375,169,10
352,900,169,15
353,900,169,15
354,1200,134,16
355,805,169,14
356,825,169,14
357,35,169,7
358,795,169,14
359,775,169,14
360,690,169,13
361,-360,169,4
362,795,169,14
363,550,169,12
364,1050,160,16
365,1055,161,16
366,910,169,15
367,900,169,15
368,910,169,15
369,585,169,12
370,1075,155,16
371,805,169,14
372,920,169,15
373,940,169,15
374,1045,161,16
375,720,169,13
376,1005,169,16
377,795,169,14
378,595,169,12
379,785,169,14
380,700,169,13
381,890,169,15
382,795,169,14
383,930,169,15
384,700,169,13
385,900,169,15
386,795,169,14
387,690,169,13
388,585,169,12
389,595,169,12
390,690,169,13
391,615,169,12
392,470,169,11
393,685,169,13
394,910,169,15
395,575,169,12
396,910,169,15
397,785,169,14
398,900,169,15
399,805,169,14
400,585,169,12
401,900,169,15
402,795,169,14
403,690,169,13
404,575,169,12
405,575,169,12
406,490,169,11
407,340,169,10
408,700,169,13
409,690,169,13
410,455,169,11
411,375,169,10
412,690,169,13
413,690,169,13
414,900,169,15
415,700,169,13
416,805,169,14
417,795,169,14
418,775,169,14
419,900,169,15
420,670,169,13
421,605,169,12
422,900,169,15
423,890,169,15
424,680,169,13
425,480,169,11
426,680,169,13
427,785,169,14
428,690,169,13
429,690,169,13
430,680,169,13
431,680,169,13
432,680,169,13
433,460,169,11
434,710,169,13
435,680,169,13
436,920,169,15
437,680,169,13
438,565,169,12
439,785,169,14
440,900,169,15
441,750,169,14
442,900,169,15
443,1220,126,16
444,775,169,14
445,775,169,14
446,340,169,10
447,880,169,15
448,785,169,14
449,690,169,13
450,805,169,14
451,890,169,15
452,875,169,15
453,900,169,15
454,1080,154,16
455,710,169,13
456,910,169,15
457,795,169,14
458,785,169,14
459,880,169,15
460,690,169,13
461,1050,160,16
462,890,169,15
463,670,169,13
464,710,169,13
465,700,169,13
466,900,169,15
467,775,169,14
468,575,169,12
469,1195,131,16
470,900,169,15
471,775,169,14
472,1155,141,16
473,880,169,15
474,1195,129,16
475,785,169,14
476,670,169,13
477,1340,106,16
478,795,169,14
479,700,169,13
480,900,169,15
481,1010,166,16
482,920,169,15
483,795,169,14
484,890,169,15
485,1005,169,16
486,900,169,15
487,875,169,15
488,920,169,15
489,1025,169,16
490,890,169,15
491,1275,119,16
492,690,169,13
493,890,169,15
494,800,169,14
495,885,169,15
496,900,169,15
497,680,169,13
498,910,169,15
499,1255,121,16
500,680,169,13
501,1135,143,16
502,1435,83,16
503,1230,124,16
504,1370,100,16
505,815,169,14
506,910,169,15
507,910,169,15
508,1155,139,16
509,815,169,14
510,1065,157,16
511,900,169,15
512,910,169,15
513,1120,148,16
514,785,169,14
515,900,169,15
516,900,169,15
517,675,169,13
518,1130,144,16
519,910,169,15
520,825,169,14
521,1060,160,16
522,1260,120,16
523,890,169,15
524,805,169,14
525,785,169,14
526,1205,133,16
527,770,169,14
528,795,169,14
529,940,169,15
530,1040,164,16
531,910,169,15
532,795,169,14
533,900,169,15
534,825,169,14
535,795,169,14
536,785,169,14
537,595,169,12
538,585,169,12
539,575,169,12
540,1280,114,16
541,805,169,14
542,-110,169,6
543,-285,169,4
544,690,169,13
545,-850,169,0
546,920,169,15
547,350,169,10
548,245,169,9
549,910,169,15
550,675,169,13
551,585,169,12
552,645,169,13
553,835,169,14
554,595,169,12
555,1315,109,16
556,680,169,13
557,805,169,14
558,900,169,15
559,785,169,14
560,470,169,11
561,680,169,13
562,655,169,13
563,930,169,15
564,890,169,15
565,825,169,14
566,595,169,12
567,550,169,12
568,815,169,14
569,575,169,12
570,645,169,13
571,900,169,15
572,880,169,15
573,1260,118,16
574,720,169,13
575,890,169,15
576,1095,153,16
577,795,169,14
578,1300,116,16
579,605,169,12
580,510,169,11
581,565,169,12
582,565,169,12
583,785,169,14
584,805,169,14
585,1065,159,16
586,920,169,15
587,900,169,15
588,1185,135,16
589,920,169,15
590,775,169,14
591,795,169,14
592,910,169,15
593,930,169,15
594,900,169,15
595,930,169,15
596,785,169,14
597,795,169,14
598,1090,152,16
599,585,169,12
600,1140,142,16
601,1375,97,16
602,910,169,15
603,910,169,15
604,1055,161,16
605,890,169,15
606,890,169,15
607,815,169,14
608,890,169,15
609,1275,117,16
610,805,169,14
611,920,169,15
612,1170,138,16
613,1070,160,16
614,910,169,15
615,920,169,15
616,805,169,14
617,910,169,15
618,795,169,14
619,910,169,15
620,1115,147,16
621,900,169,15
622,805,169,14
623,1275,117,16
624,920,169,15
625,1245,123,16
626,805,169,14
627,910,169,15
628,880,169,15
629,1145,145,16
630,920,169,15
631,815,169,14
632,920,169,15
633,910,169,15
634,805,169,14
635,900,169,15
636,1295,109,16
637,930,169,15
638,900,169,15
639,1325,111,16
640,1090,152,16
641,795,169,14
642,1040,162,16
643,680,169,13
644,900,169,15
645,900,169,15
646,1170,138,16
647,890,169,15
648,1285,115,16
649,785,169,14
650,930,169,15
651,795,169,14
652,795,169,14
653,900,169,15
654,1205,131,16
655,920,169,15
656,805,169,14
657,1065,163,16
658,890,169,15
659,1310,110,16
660,940,169,15
661,890,169,15
662,910,169,15
663,930,169,15
664,825,169,14
665,900,169,15
666,680,169,13
667,1095,157,16
668,825,169,14
669,890,169,15
670,585,169,12
671,1025,163,16
672,910,169,15
673,920,169,15
674,775,169,14
675,930,169,15
676,805,169,14
677,805,169,14
678,700,169,13
679,900,169,15
680,910,169,15
681,1065,163,16
682,910,169,15
683,1080,158,16
684,920,169,15
685,900,169,15
686,795,169,14
687,920,169,15
688,1070,158,16
689,805,169,14
690,900,169,15
691,700,169,13
692,1140,140,16
693,1325,107,16
694,805,169,14
695,1175,137,16
696,920,169,15
697,900,169,15
698,1040,166,16
699,1045,159,16
700,690,169,13
701,785,169,14
702,1010,168,16
703,900,169,15
704,920,169,15
705,1025,169,16
706,1105,149,16
707,1135,145,16
708,930,169,15
709,910,169,15
710,900,169,15
711,900,169,15
712,700,169,13
713,1025,167,16
714,910,169,15
715,890,169,15
716,890,169,15
717,805,169,14
718,900,169,15
719,795,169,14
720,805,169,14
721,880,169,15
722,795,169,14
723,900,169,15
724,805,169,14
725,910,169,15
726,900,169,15
727,1195,133,16
728,815,169,14
729,1345,99,16
730,565,169,12
731,795,169,14
732,910,169,15
733,910,169,15
734,890,169,15
735,785,169,14
736,690,169,13
737,910,169,15
738,900,169,15
739,900,169,15
740,785,169,14
741,1215,127,16
742,660,169,13
743,910,169,15
744,815,169,14
745,1105,151,16
746,890,169,15
747,1105,149,16
748,825,169,14
749,1055,161,16
750,1120,146,16
751,900,169,15
752,910,169,15
753,795,169,14
754,815,169,14
755,1220,134,16
756,1130,144,16
757,1280,114,16
758,1090,152,16
759,890,169,15
760,1170,136,16
761,910,169,15
762,910,169,15
763,690,169,13
764,1130,144,16
765,680,169,13
766,585,169,12
767,785,169,14
768,1125,143,16
769,900,169,15
770,900,169,15
771,910,169,15
772,900,169,15
773,1085,153,16
774,1165,137,16
775,1180,136,16
776,805,169,14
777,1160,140,16
778,910,169,15
779,775,169,14
780,900,169,15
781,1160,138,16
782,1335,103,16
783,1105,147,16
784,1025,163,16
785,1360,102,16
786,1160,142,16
787,920,169,15
788,890,169,15
789,785,169,14
790,920,169,15
791,785,169,14
792,900,169,15
793,910,169,15
794,900,169,15
795,890,169,15
796,900,169,15
797,1155,139,16
798,1180,132,16
799,795,169,14
800,1295,111,16
801,1200,130,16
802,1235,127,16
803,815,169,14
804,775,169,14
805,1210,126,16
806,680,169,13
807,1130,144,16
808,900,169,15
809,775,169,14
810,1275,113,16
811,785,169,14
812,1015,165,16
813,1050,160,16
814,775,169,14
815,1035,163,16
816,1150,140,16
817,775,169,14
818,775,169,14
819,1075,155,16
820,875,169,15
821,880,169,15
822,680,169,13
823,670,169,13
824,1195,129,16
825,890,169,15
826,1040,162,16
827,1340,100,16
828,890,169,15
829,900,169,15
830,900,169,15
831,1090,150,16
832,785,169,14
833,760,169,14
834,890,169,15
835,890,169,15
836,880,169,15
837,1095,149,16
838,900,169,15
839,690,169,13
840,890,169,15
841,1010,168,16
842,775,169,14
843,700,169,13
844,1015,165,16
845,890,169,15
846,900,169,15
847,890,169,15
848,890,169,15
849,1165,135,16
850,1130,144,16
851,890,169,15
852,890,169,15
853,1200,128,16
854,1230,126,16
855,900,169,15
856,1105,147,16
857,875,169,15
858,805,169,14
859,1240,122,16
860,1175,135,16
861,1295,111,16
862,1340,102,16
863,890,169,15
864,890,169,15
865,1035,163,16
866,910,169,15
867,900,169,15
868,1330,106,16
869,910,169,15
870,1185,135,16
871,1090,154,16
872,1095,149,16
873,805,169,14
874,890,169,15
875,805,169,14
876,890,169,15
877,930,169,15
878,1130,146,16
879,805,169,14
880,910,169,15
881,1080,152,16
882,1050,166,16
883,1120,146,16
884,1215,125,16
885,880,169,15
886,805,169,14
887,1140,140,16
888,1040,164,16
889,795,169,14
890,795,169,14
891,900,169,15
892,900,169,15
893,900,169,15
894,865,169,15
895,1185,131,16
896,700,169,13
897,920,169,15
898,910,169,15
899,900,169,15
900,720,169,13
901,760,169,14
902,1115,149,16
903,1260,120,16
904,875,169,15
905,900,169,15
906,900,169,15
907,900,169,15
908,1160,140,16
909,1235,123,16
910,910,169,15
911,1110,152,16
912,900,169,15
913,890,169,15
914,1160,138,16
915,1515,69,16
916,890,169,15
917,1470,76,16
918,795,169,14
919,910,169,15
920,1295,111,16
921,900,169,15
922,1395,91,16
923,890,169,15
924,1405,89,16
925,1300,112,16
926,1350,100,16
927,920,169,15
928,1380,94,16
929,900,169,15
930,900,169,15
931,1095,149,16
932,910,169,15
933,1290,110,16
934,1110,150,16
935,760,169,14
936,910,169,15
937,1350,98,16
938,1425,91,16
939,1140,142,16
940,1330,106,16
941,1495,73,16
942,1065,161,16
943,895,169,15
944,690,169,13
945,1135,149,16
946,1385,91,16
947,920,169,15
948,1125,147,16
949,910,169,15
950,1045,165,16
951,1180,138,16
952,1170,138,16
953,1060,164,16
954,1205,133,16
955,920,169,15
956,1175,139,16
957,910,169,15
958,1155,141,16
959,940,169,15
960,1260,122,16
961,1095,151,16
962,920,169,15
963,930,169,15
964,900,169,15
965,1110,154,16
966,900,169,15
967,900,169,15
968,900,169,15
969,1030,168,16
970,1110,146,16
971,1345,101,16
972,920,169,15
973,1235,131,16
974,1135,151,16
975,1110,152,16
976,1145,143,16
977,880,169,15
978,1010,168,16
979,795,169,14
980,1105,153,16
981,1165,135,16
982,920,169,15
983,825,169,14
984,910,169,15
985,875,169,15
986,1135,145,16
987,805,169,14
988,900,169,15
989,920,169,15
990,1230,124,16
991,1250,124,16
992,900,169,15
993,1035,165,16
994,890,169,15
995,1280,118,16
996,1125,151,16
997,910,169,15
998,890,169,15
999,1035,167,16
