episode,reward,step,sensitive
0,900,169,15
1,-850,169,0
2,510,169,11
3,-30,169,6
4,405,169,10
5,-90,169,6
6,-325,169,4
7,185,169,8
8,95,169,8
9,-220,169,5
10,-440,169,3
11,760,169,13
12,635,169,12
13,960,169,15
14,730,169,13
15,720,169,13
16,310,169,9
17,615,169,12
18,805,169,14
19,490,169,11
20,165,169,8
21,740,169,13
22,140,169,8
23,825,169,14
24,720,169,13
25,340,169,10
26,645,169,12
27,845,169,14
28,855,169,14
29,25,169,7
30,900,169,15
31,280,169,9
32,595,169,12
33,950,169,15
34,920,169,15
35,1225,127,16
36,605,169,12
37,625,169,12
38,710,169,13
39,565,169,12
40,920,169,15
41,1115,153,16
42,815,169,14
43,405,169,10
44,730,169,13
45,500,169,11
46,595,169,12
47,940,169,15
48,720,169,13
49,375,169,10
50,880,169,15
51,655,169,12
52,940,169,15
53,760,169,13
54,930,169,15
55,710,169,13
56,510,169,11
57,690,169,13
58,805,169,14
59,475,169,11
60,1110,148,16
61,1075,159,16
62,930,169,15
63,825,169,14
64,920,169,15
65,1280,114,16
66,825,169,14
67,1070,158,16
68,920,169,15
69,920,169,15
70,825,169,14
71,920,169,15
72,1100,154,16
73,700,169,13
74,910,169,15
75,960,169,15
76,835,169,14
77,845,169,14
78,785,169,14
79,930,169,15
80,815,169,14
81,815,169,14
82,930,169,15
83,880,169,15
84,910,169,15
85,805,169,14
86,700,169,13
87,795,169,14
88,1210,128,16
89,930,169,15
90,690,169,13
91,775,169,14
92,900,169,15
93,795,169,14
94,680,169,13
95,585,169,12
96,785,169,14
97,575,169,12
98,795,169,14
99,710,169,13
100,680,169,13
101,585,169,12
102,690,169,13
103,700,169,13
104,480,169,11
105,690,169,13
106,375,169,10
107,355,169,10
108,680,169,13
109,680,169,13
110,805,169,14
111,585,169,12
112,825,169,14
113,785,169,14
114,795,169,14
115,480,169,11
116,795,169,14
117,795,169,14
118,815,169,14
119,585,169,12
120,690,169,13
121,785,169,14
122,690,169,13
123,680,169,13
124,690,169,13
125,680,169,13
126,385,169,10
127,595,169,12
128,680,169,13
129,480,169,11
130,690,169,13
131,510,169,11
132,605,169,12
133,720,169,13
134,595,169,12
135,710,169,13
136,585,169,12
137,575,169,12
138,775,169,14
139,775,169,14
140,805,169,14
141,785,169,14
142,670,169,13
143,250,169,9
144,615,169,12
145,795,169,14
146,575,169,12
147,375,169,10
148,775,169,14
149,805,169,14
150,775,169,14
151,900,169,15
152,890,169,15
153,700,169,13
154,670,169,13
155,785,169,14
156,775,169,14
157,765,169,14
158,775,169,14
159,765,169,14
160,700,169,13
161,890,169,15
162,1370,98,16
163,680,169,13
164,690,169,13
165,690,169,13
166,815,169,14
167,785,169,14
168,785,169,14
169,775,169,14
170,805,169,14
171,890,169,15
172,900,169,15
173,910,169,15
174,680,169,13
175,900,169,15
176,890,169,15
177,795,169,14
178,775,169,14
179,1040,166,16
180,690,169,13
181,805,169,14
182,890,169,15
183,880,169,15
184,690,169,13
185,805,169,14
186,575,169,12
187,575,169,12
188,785,169,14
189,775,169,14
190,700,169,13
191,585,169,12
192,575,169,12
193,575,169,12
194,585,169,12
195,670,169,13
196,555,169,12
197,555,169,12
198,555,169,12
199,575,169,12
200,775,169,14
201,815,169,14
202,890,169,15
203,775,169,14
204,565,169,12
205,880,169,15
206,680,169,13
207,490,169,11
208,670,169,13
209,690,169,13
210,785,169,14
211,775,169,14
212,670,169,13
213,670,169,13
214,795,169,14
215,890,169,15
216,795,169,14
217,565,169,12
218,765,169,14
219,680,169,13
220,690,169,13
221,585,169,12
222,765,169,14
223,555,169,12
224,680,169,13
225,775,169,14
226,660,169,13
227,440,169,11
228,565,169,12
229,545,169,12
230,670,169,13
231,775,169,14
232,670,169,13
233,670,169,13
234,890,169,15
235,890,169,15
236,670,169,13
237,785,169,14
238,555,169,12
239,655,169,13
240,540,169,12
241,555,169,12
242,450,169,11
243,765,169,14
244,565,169,12
245,660,169,13
246,670,169,13
247,775,169,14
248,890,169,15
249,775,169,14
250,785,169,14
251,710,169,13
252,880,169,15
253,775,169,14
254,765,169,14
255,890,169,15
256,910,169,15
257,890,169,15
258,890,169,15
259,670,169,13
260,880,169,15
261,765,169,14
262,680,169,13
263,680,169,13
264,900,169,15
265,775,169,14
266,775,169,14
267,670,169,13
268,660,169,13
269,880,169,15
270,775,169,14
271,880,169,15
272,670,169,13
273,680,169,13
274,815,169,14
275,775,169,14
276,900,169,15
277,795,169,14
278,785,169,14
279,775,169,14
280,890,169,15
281,575,169,12
282,785,169,14
283,670,169,13
284,890,169,15
285,900,169,15
286,880,169,15
287,670,169,13
288,775,169,14
289,670,169,13
290,765,169,14
291,775,169,14
292,555,169,12
293,785,169,14
294,785,169,14
295,555,169,12
296,670,169,13
297,345,169,10
298,900,169,15
299,680,169,13
300,675,169,13
301,660,169,13
302,775,169,14
303,760,169,14
304,765,169,14
305,785,169,14
306,680,169,13
307,880,169,15
308,670,169,13
309,890,169,15
310,575,169,12
311,890,169,15
312,805,169,14
313,785,169,14
314,655,169,13
315,795,169,14
316,775,169,14
317,680,169,13
318,900,169,15
319,1145,143,16
320,900,169,15
321,890,169,15
322,890,169,15
323,785,169,14
324,795,169,14
325,910,169,15
326,785,169,14
327,785,169,14
328,995,169,16
329,910,169,15
330,795,169,14
331,880,169,15
332,785,169,14
333,775,169,14
334,805,169,14
335,890,169,15
336,900,169,15
337,900,169,15
338,690,169,13
339,900,169,15
340,890,169,15
341,775,169,14
342,900,169,15
343,900,169,15
344,880,169,15
345,805,169,14
346,785,169,14
347,910,169,15
348,775,169,14
349,920,169,15
350,890,169,15
351,900,169,15
352,795,169,14
353,910,169,15
354,785,169,14
355,910,169,15
356,875,169,15
357,880,169,15
358,890,169,15
359,795,169,14
360,785,169,14
361,900,169,15
362,785,169,14
363,900,169,15
364,1180,134,16
365,910,169,15
366,795,169,14
367,880,169,15
368,795,169,14
369,920,169,15
370,795,169,14
371,900,169,15
372,815,169,14
373,900,169,15
374,900,169,15
375,805,169,14
376,795,169,14
377,470,169,11
378,890,169,15
379,1235,123,16
380,795,169,14
381,880,169,15
382,815,169,14
383,880,169,15
384,785,169,14
385,920,169,15
386,785,169,14
387,730,169,13
388,680,169,13
389,775,169,14
390,785,169,14
391,880,169,15
392,815,169,14
393,805,169,14
394,900,169,15
395,890,169,15
396,1050,160,16
397,900,169,15
398,1285,115,16
399,920,169,15
400,890,169,15
401,910,169,15
402,910,169,15
403,795,169,14
404,655,169,13
405,1070,156,16
406,785,169,14
407,900,169,15
408,815,169,14
409,910,169,15
410,785,169,14
411,690,169,13
412,900,169,15
413,1170,136,16
414,900,169,15
415,900,169,15
416,805,169,14
417,890,169,15
418,880,169,15
419,900,169,15
420,825,169,14
421,805,169,14
422,720,169,13
423,700,169,13
424,845,169,14
425,1010,168,16
426,795,169,14
427,500,169,11
428,805,169,14
429,1300,112,16
430,785,169,14
431,795,169,14
432,920,169,15
433,900,169,15
434,795,169,14
435,900,169,15
436,805,169,14
437,1170,138,16
438,765,169,14
439,1060,160,16
440,1085,155,16
441,795,169,14
442,880,169,15
443,805,169,14
444,920,169,15
445,900,169,15
446,1275,121,16
447,910,169,15
448,910,169,15
449,680,169,13
450,585,169,12
451,795,169,14
452,785,169,14
453,785,169,14
454,785,169,14
455,920,169,15
456,15,169,7
457,805,169,14
458,785,169,14
459,880,169,15
460,910,169,15
461,890,169,15
462,815,169,14
463,720,169,13
464,805,169,14
465,920,169,15
466,795,169,14
467,690,169,13
468,680,169,13
469,805,169,14
470,1115,149,16
471,720,169,13
472,795,169,14
473,900,169,15
474,805,169,14
475,805,169,14
476,710,169,13
477,795,169,14
478,930,169,15
479,805,169,14
480,795,169,14
481,795,169,14
482,795,169,14
483,680,169,13
484,795,169,14
485,785,169,14
486,910,169,15
487,700,169,13
488,785,169,14
489,775,169,14
490,795,169,14
491,805,169,14
492,710,169,13
493,775,169,14
494,940,169,15
495,690,169,13
496,930,169,15
497,825,169,14
498,700,169,13
499,595,169,12
500,690,169,13
501,1095,153,16
502,795,169,14
503,605,169,12
504,680,169,13
505,795,169,14
506,700,169,13
507,700,169,13
508,720,169,13
509,815,169,14
510,605,169,12
511,825,169,14
512,910,169,15
513,1170,136,16
514,-65,169,6
515,700,169,13
516,900,169,15
517,920,169,15
518,900,169,15
519,940,169,15
520,700,169,13
521,805,169,14
522,910,169,15
523,680,169,13
524,1240,124,16
525,1080,154,16
526,890,169,15
527,910,169,15
528,1050,164,16
529,1285,115,16
530,825,169,14
531,1165,141,16
532,805,169,14
533,890,169,15
534,805,169,14
535,880,169,15
536,700,169,13
537,1095,153,16
538,920,169,15
539,900,169,15
540,920,169,15
541,1240,124,16
542,1135,149,16
543,900,169,15
544,815,169,14
545,825,169,14
546,805,169,14
547,785,169,14
548,710,169,13
549,900,169,15
550,690,169,13
551,805,169,14
552,785,169,14
553,815,169,14
554,795,169,14
555,805,169,14
556,930,169,15
557,785,169,14
558,920,169,15
559,1035,163,16
560,910,169,15
561,1185,135,16
562,1055,169,16
563,815,169,14
564,900,169,15
565,805,169,14
566,920,169,15
567,815,169,14
568,775,169,14
569,900,169,15
570,825,169,14
571,900,169,15
572,805,169,14
573,825,169,14
574,805,169,14
575,910,169,15
576,1070,160,16
577,775,169,14
578,1080,156,16
579,825,169,14
580,910,169,15
581,890,169,15
582,910,169,15
583,900,169,15
584,795,169,14
585,690,169,13
586,815,169,14
587,680,169,13
588,805,169,14
589,910,169,15
590,910,169,15
591,1105,147,16
592,660,169,13
593,900,169,15
594,930,169,15
595,690,169,13
596,805,169,14
597,690,169,13
598,910,169,15
599,595,169,12
600,710,169,13
601,910,169,15
602,805,169,14
603,700,169,13
604,880,169,15
605,785,169,14
606,785,169,14
607,910,169,15
608,910,169,15
609,710,169,13
610,920,169,15
611,815,169,14
612,775,169,14
613,270,169,9
614,690,169,13
615,920,169,15
616,910,169,15
617,585,169,12
618,795,169,14
619,890,169,15
620,940,169,15
621,700,169,13
622,595,169,12
623,680,169,13
624,1040,162,16
625,1315,113,16
626,805,169,14
627,815,169,14
628,625,169,12
629,700,169,13
630,825,169,14
631,785,169,14
632,680,169,13
633,805,169,14
634,805,169,14
635,825,169,14
636,910,169,15
637,805,169,14
638,940,169,15
639,930,169,15
640,700,169,13
641,585,169,12
642,1270,116,16
643,910,169,15
644,900,169,15
645,900,169,15
646,1255,123,16
647,815,169,14
648,1105,149,16
649,940,169,15
650,815,169,14
651,1060,164,16
652,910,169,15
653,910,169,15
654,1165,141,16
655,1090,160,16
656,1235,127,16
657,930,169,15
658,1065,161,16
659,1090,156,16
660,910,169,15
661,1225,133,16
662,1350,104,16
663,1415,91,16
664,1305,109,16
665,900,169,15
666,1240,130,16
667,1110,152,16
668,930,169,15
669,1070,162,16
670,1210,134,16
671,920,169,15
672,1265,125,16
673,1155,145,16
674,805,169,14
675,950,169,15
676,805,169,14
677,920,169,15
678,740,169,13
679,1075,159,16
680,900,169,15
681,815,169,14
682,900,169,15
683,1310,110,16
684,1230,134,16
685,1085,155,16
686,1175,137,16
687,1120,154,16
688,910,169,15
689,915,169,15
690,900,169,15
691,1255,125,16
692,1305,109,16
693,1035,167,16
694,940,169,15
695,1370,100,16
696,1315,111,16
697,1275,123,16
698,1190,136,16
699,1335,109,16
700,920,169,15
701,1345,111,16
702,1315,113,16
703,940,169,15
704,905,169,15
705,1335,107,16
706,1085,159,16
707,1095,157,16
708,1080,160,16
709,950,169,15
710,920,169,15
711,900,169,15
712,920,169,15
713,1065,161,16
714,1190,134,16
715,950,169,15
716,920,169,15
717,930,169,15
718,785,169,14
719,1055,163,16
720,1410,92,16
721,890,169,15
722,910,169,15
723,890,169,15
724,825,169,14
725,920,169,15
726,910,169,15
727,910,169,15
728,1135,145,16
729,805,169,14
730,785,169,14
731,815,169,14
732,930,169,15
733,900,169,15
734,815,169,14
735,1205,133,16
736,1010,168,16
737,910,169,15
738,1085,155,16
739,910,169,15
740,920,169,15
741,1020,166,16
742,890,169,15
743,710,169,13
744,1250,122,16
745,1125,147,16
746,1070,156,16
747,1220,126,16
748,920,169,15
749,1195,131,16
750,805,169,14
751,835,169,14
752,890,169,15
753,920,169,15
754,930,169,15
755,920,169,15
756,700,169,13
757,795,169,14
758,805,169,14
759,835,169,14
760,805,169,14
761,920,169,15
762,900,169,15
763,595,169,12
764,805,169,14
765,900,169,15
766,695,169,13
767,940,169,15
768,710,169,13
769,1160,144,16
770,825,169,14
771,920,169,15
772,1015,169,16
773,1295,117,16
774,1110,152,16
775,690,169,13
776,805,169,14
777,910,169,15
778,815,169,14
779,920,169,15
780,815,169,14
781,885,169,15
782,700,169,13
783,710,169,13
784,910,169,15
785,940,169,15
786,690,169,13
787,1070,164,16
788,1035,163,16
789,1090,162,16
790,825,169,14
791,940,169,15
792,920,169,15
793,805,169,14
794,680,169,13
795,890,169,15
796,625,169,12
797,795,169,14
798,815,169,14
799,585,169,12
800,910,169,15
801,920,169,15
802,815,169,14
803,940,169,15
804,1025,165,16
805,1190,136,16
806,845,169,14
807,825,169,14
808,1200,134,16
809,1060,164,16
810,795,169,14
811,920,169,15
812,930,169,15
813,900,169,15
814,910,169,15
815,1330,110,16
816,895,169,15
817,805,169,14
818,815,169,14
819,930,169,15
820,825,169,14
821,940,169,15
822,950,169,15
823,1055,165,16
824,815,169,14
825,805,169,14
826,825,169,14
827,815,169,14
828,910,169,15
829,930,169,15
830,920,169,15
831,790,169,14
832,800,169,14
833,940,169,15
834,815,169,14
835,815,169,14
836,930,169,15
837,950,169,15
838,815,169,14
839,900,169,15
840,810,169,14
841,900,169,15
842,815,169,14
843,795,169,14
844,890,169,15
845,825,169,14
846,925,169,15
847,1265,125,16
848,815,169,14
849,695,169,13
850,700,169,13
851,910,169,15
852,790,169,14
853,920,169,15
854,1285,127,16
855,910,169,15
856,780,169,14
857,1025,165,16
858,920,169,15
859,1170,140,16
860,720,169,13
861,700,169,13
862,930,169,15
863,910,169,15
864,1215,137,16
865,910,169,15
866,930,169,15
867,795,169,14
868,930,169,15
869,1235,129,16
870,910,169,15
871,1100,154,16
872,815,169,14
873,920,169,15
874,415,169,10
875,1155,147,16
876,900,169,15
877,910,169,15
878,720,169,13
879,825,169,14
880,1065,167,16
881,1085,155,16
882,815,169,14
883,1100,156,16
884,595,169,12
885,1155,145,16
886,835,169,14
887,1280,124,16
888,920,169,15
889,1225,131,16
890,705,169,13
891,930,169,15
892,1225,131,16
893,815,169,14
894,1180,140,16
895,390,169,10
896,910,169,15
897,1055,167,16
898,900,169,15
899,1295,117,16
900,910,169,15
901,1130,152,16
902,920,169,15
903,710,169,13
904,940,169,15
905,595,169,12
906,930,169,15
907,470,169,11
908,920,169,15
909,795,169,14
910,910,169,15
911,940,169,15
912,720,169,13
913,950,169,15
914,700,169,13
915,950,169,15
916,1160,138,16
917,710,169,13
918,825,169,14
919,910,169,15
920,900,169,15
921,1235,125,16
922,1055,159,16
923,805,169,14
924,1225,129,16
925,1045,163,16
926,900,169,15
927,920,169,15
928,1085,159,16
929,910,169,15
930,930,169,15
931,1210,130,16
932,910,169,15
933,720,169,13
934,920,169,15
935,1185,143,16
936,940,169,15
937,1035,165,16
938,815,169,14
939,1510,72,16
940,940,169,15
941,920,169,15
942,1370,102,16
943,930,169,15
944,920,169,15
945,920,169,15
946,930,169,15
947,900,169,15
948,1355,99,16
949,940,169,15
950,1100,152,16
951,930,169,15
952,1240,124,16
953,1235,131,16
954,1130,146,16
955,1485,79,16
956,930,169,15
957,1125,157,16
958,815,169,14
959,1385,97,16
960,910,169,15
961,1110,154,16
962,960,169,15
963,1035,167,16
964,805,169,14
965,815,169,14
966,910,169,15
967,1260,120,16
968,920,169,15
969,805,169,14
970,960,169,15
971,910,169,15
972,950,169,15
973,920,169,15
974,805,169,14
975,1145,145,16
976,1050,166,16
977,1045,163,16
978,1390,98,16
979,930,169,15
980,1055,167,16
981,950,169,15
982,1040,168,16
983,920,169,15
984,930,169,15
985,1235,125,16
986,930,169,15
987,900,169,15
988,825,169,14
989,1360,104,16
990,1100,156,16
991,815,169,14
992,920,169,15
993,1215,129,16
994,1240,128,16
995,1240,126,16
996,1060,164,16
997,1095,151,16
998,910,169,15
999,1235,127,16
