episode,reward,step,sensitive
0,-2955,618,0
1,-3005,618,0
2,-2920,618,0
3,-3095,618,0
4,-2830,618,0
5,-2835,618,1
6,-2780,618,1
7,-2715,618,1
8,-2985,618,0
9,-2770,618,1
10,-2920,618,0
11,-3095,618,0
12,-2880,618,0
13,-2695,618,1
14,-2630,618,1
15,-2955,618,0
16,-2930,618,0
17,-2920,618,0
18,-3095,618,0
19,-2780,618,0
20,-2945,618,0
21,-2870,618,0
22,-2645,618,1
23,-2930,618,0
24,-2715,618,0
25,-2955,618,0
26,-2915,618,0
27,-2650,618,1
28,-2630,618,1
29,-2040,529,2
30,-2705,618,1
31,-2660,618,1
32,-2795,618,1
33,-2680,618,1
34,-2660,618,1
35,-2875,618,0
36,-2775,618,0
37,-2730,618,1
38,-1880,486,2
39,-2765,618,0
40,-2705,618,1
41,-2835,618,0
42,-2655,618,1
43,-2680,618,1
44,-2580,618,1
45,-2620,618,1
46,-2585,618,1
47,-2735,618,0
48,-2675,618,1
49,-2635,618,1
50,-2655,618,1
51,-1330,361,2
52,-2635,618,1
53,-2800,618,1
54,-2600,618,1
55,-2810,618,0
56,-3095,618,0
57,-2615,618,1
58,-1350,379,2
59,-1405,385,2
60,-2755,618,0
61,-3025,618,0
62,-2615,618,1
63,-2705,618,1
64,-2895,618,0
65,-2690,618,1
66,-2570,618,1
67,-1480,399,2
68,-2620,618,1
69,-2650,618,1
70,-1455,391,2
71,-2625,618,1
72,-2680,618,1
73,-1650,439,2
74,-2930,618,0
75,-2570,618,1
76,-2605,618,1
77,-2120,533,2
78,-2690,618,1
79,-2640,618,1
80,-2790,618,0
81,-2690,618,1
82,-2695,618,1
83,-2865,618,0
84,-2635,618,1
85,-2710,618,1
86,-2565,618,1
87,-2070,538,2
88,-2375,584,2
89,-2640,618,1
90,-2605,618,1
91,-1470,394,2
92,-2655,618,1
93,-2595,618,1
94,-2870,618,0
95,-2560,618,1
96,-2745,618,0
97,-695,238,2
98,-2670,618,1
99,-2245,560,2
100,-2645,618,1
101,-2655,618,1
102,-2750,618,0
103,-2615,618,1
104,-785,251,2
105,-1980,512,2
106,-1325,365,2
107,-2975,618,0
108,-2650,618,1
109,-2630,618,1
110,-2755,618,1
111,-1005,301,2
112,-2820,618,0
113,-1020,310,2
114,-2650,618,1
115,-2620,618,1
116,-2595,618,1
117,-2670,618,1
118,-2765,618,0
119,-2640,618,1
120,-2635,618,1
121,-2600,618,1
122,-2655,618,1
123,-1390,389,2
124,-2640,618,1
125,-2615,618,1
126,-2190,554,2
127,-2770,618,0
128,-2400,595,2
129,-2075,526,2
130,-2465,617,2
131,-2610,618,1
132,-1160,332,2
133,-2705,618,0
134,-2580,618,1
135,-1755,455,2
136,-2865,618,0
137,-2605,618,1
138,-2665,618,1
139,-2625,618,1
140,-2160,545,2
141,-2600,618,1
142,-1650,425,2
143,-1350,385,2
144,-1285,355,2
145,-2675,618,1
146,-2605,618,1
147,-2590,618,1
148,-2700,618,1
149,-2615,618,1
150,-1925,500,2
151,-2405,586,2
152,-2625,618,1
153,-1315,361,2
154,-1945,508,2
155,-2665,618,1
156,-1850,483,2
157,-2685,618,1
158,-2625,618,1
159,-2675,618,1
160,-2575,618,1
161,-2635,618,1
162,-1655,439,2
163,-2600,618,1
164,-1670,450,2
165,-2190,549,2
166,-1515,414,2
167,-1365,361,2
168,-1650,450,2
169,-2605,618,1
170,-2665,618,1
171,-965,300,2
172,-1175,347,2
173,-2615,618,1
174,-2370,592,2
175,-2605,618,1
176,-425,183,2
177,-450,175,2
178,-780,241,2
179,-2360,587,2
180,-2545,618,1
181,-2630,618,1
182,-1930,496,2
183,-2645,618,1
184,-1990,518,2
185,-1660,459,2
186,-1890,496,2
187,-2705,618,1
188,-2580,618,1
189,-1025,301,2
190,-2570,618,1
191,-925,282,2
192,-2095,535,2
193,-1050,319,2
194,-2595,618,1
195,-855,269,2
196,-2660,618,1
197,-2165,541,2
198,-1585,425,2
199,-2445,613,2
200,-690,241,2
201,-185,124,2
202,-475,178,2
203,-2620,618,1
204,-2645,618,1
205,-2635,618,1
206,-2660,618,1
207,-2625,618,1
208,-2085,537,2
209,-2605,618,1
210,-2590,618,1
211,-1850,479,2
212,-540,197,2
213,-2630,618,1
214,-2625,618,1
215,-1765,441,2
216,-2010,510,2
217,-2600,618,1
218,-2615,618,1
219,-1780,461,2
220,-930,282,2
221,-2655,618,1
222,-1590,424,2
223,-2625,618,1
224,-545,206,2
225,-1400,387,2
226,-2615,618,1
227,-2665,618,1
228,-1325,359,2
229,-2580,618,1
230,-975,301,2
231,-2040,522,2
232,-2890,618,0
233,-2175,555,2
234,-2610,618,1
235,-2570,618,1
236,-2585,618,1
237,-1275,369,2
238,-2565,618,1
239,-1425,407,2
240,-1390,390,2
241,-910,268,2
242,-2645,618,1
243,-1440,403,2
244,-1035,296,2
245,-2125,545,2
246,-590,229,2
247,-2135,549,2
248,-2650,618,1
249,-2000,519,2
250,-1120,337,2
251,-2165,547,2
252,-2660,618,1
253,-1460,398,2
254,-2555,618,1
255,-880,272,2
256,-555,213,2
257,-2595,618,1
258,-795,262,2
259,-1165,344,2
260,-2470,615,2
261,-2595,618,1
262,-1790,466,2
263,-1790,469,2
264,-2620,618,1
265,-1090,315,2
266,-2605,618,1
267,-1600,450,2
268,-2705,618,1
269,-2620,618,1
270,-2580,618,1
271,-1285,373,2
272,-2630,618,1
273,-2655,618,1
274,-2630,618,1
275,-435,185,2
276,-1280,374,2
277,-1865,470,2
278,-1355,384,2
279,-2595,618,1
280,-2610,618,1
281,-2650,618,1
282,-2635,618,1
283,-300,143,2
284,-1930,506,2
285,-2640,618,1
286,-2645,618,1
287,-2405,598,2
288,-2660,618,1
289,-2255,563,2
290,-2595,618,1
291,-2640,618,1
292,-2640,618,1
293,-1795,471,2
294,-1090,313,2
295,-1685,453,2
296,-565,211,2
297,-2045,534,2
298,-2665,618,1
299,-1550,420,2
300,-2595,618,1
301,-1120,341,2
302,-2540,618,1
303,-2585,618,1
304,-555,205,2
305,-2645,618,1
306,-1340,363,2
307,-2645,618,1
308,-2595,618,1
309,-1950,503,2
310,-470,198,2
311,-160,121,2
312,-2600,618,1
313,-1875,491,2
314,-1310,374,2
315,-2630,618,1
316,-640,220,2
317,-2590,618,1
318,-420,165,2
319,-2310,588,2
320,-2465,611,2
321,-790,246,2
322,-2645,618,1
323,-1255,358,2
324,-2270,571,2
325,-2590,618,1
326,-865,275,2
327,-745,241,2
328,-2595,618,1
329,-2580,618,1
330,-2365,596,2
331,-2620,618,1
332,-2150,551,2
333,-2590,618,1
334,-1720,447,2
335,-2620,618,1
336,-1560,426,2
337,-2605,618,1
338,-2085,527,2
339,-1895,496,2
340,-1590,427,2
341,-1745,473,2
342,-2570,618,1
343,-1550,407,2
344,-1070,307,2
345,-2570,618,1
346,-1520,416,2
347,-660,226,2
348,-2590,618,1
349,-470,181,2
350,-2645,618,1
351,-915,282,2
352,-2590,618,1
353,-2590,618,1
354,-2590,618,1
355,-2630,618,1
356,-1785,476,2
357,-380,156,2
358,-2605,618,1
359,-2460,611,2
360,-915,288,2
361,-2595,618,1
362,-2690,618,1
363,-2155,554,2
364,-1345,372,2
365,-1820,481,2
366,-2550,618,1
367,-1205,357,2
368,-790,260,2
369,-2600,618,1
370,-1805,490,2
371,-2485,608,2
372,-975,311,2
373,-790,255,2
374,-1535,421,2
375,-385,172,2
376,-220,132,2
377,-1300,364,2
378,-1980,519,2
379,-1615,430,2
380,-695,246,2
381,-795,266,2
382,-2735,618,1
383,-2645,618,1
384,-2300,580,2
385,-1285,364,2
386,-1930,513,2
387,-2590,618,1
388,-2595,618,1
389,-2585,618,1
390,-760,275,2
391,-320,154,2
392,-2620,618,1
393,-1595,446,2
394,-2625,618,1
395,-1430,405,2
396,-2570,618,1
397,-1535,424,2
398,-2580,618,1
399,-115,104,2
400,-2455,598,2
401,-2595,618,1
402,-920,276,2
403,-885,255,2
404,-970,303,2
405,-2585,618,1
406,-1285,372,2
407,-2620,618,1
408,-1815,478,2
409,-2620,618,1
410,-1615,439,2
411,-2570,618,1
412,-2560,618,1
413,-2640,618,1
414,-800,249,2
415,-2560,618,1
416,-605,210,2
417,-2590,618,1
418,-2390,598,2
419,-1010,297,2
420,-1870,467,2
421,-945,274,2
422,-2595,618,1
423,-1055,304,2
424,-1540,407,2
425,-785,255,2
426,-2020,514,2
427,-2615,618,1
428,-2595,618,1
429,-2420,604,2
430,-2630,618,1
431,-275,147,2
432,-2665,618,1
433,-670,242,2
434,-1575,438,2
435,-2595,618,1
436,-2595,618,1
437,-2635,618,1
438,-1875,485,2
439,-425,191,2
440,-1330,378,2
441,-2415,600,2
442,-335,165,2
443,-2605,618,1
444,-2570,618,1
445,-2575,618,1
446,-2605,618,1
447,-2580,618,1
448,-2560,618,1
449,-1240,352,2
450,-2590,618,1
451,-1865,493,2
452,-2600,618,1
453,-2535,618,1
454,-990,310,2
455,-515,215,2
456,-2105,541,2
457,-2600,618,1
458,-2570,618,1
459,-2645,618,1
460,-1550,432,2
461,-2590,618,1
462,-2500,615,2
463,-2570,618,1
464,-310,151,2
465,-2395,579,2
466,-2555,618,1
467,-2625,618,1
468,-2600,618,1
469,-2580,618,1
470,-2620,618,1
471,-1705,456,2
472,-165,126,2
473,-780,274,2
474,-2300,563,2
475,-2605,618,1
476,-2630,618,1
477,-1740,455,2
478,-2545,618,1
479,-2620,618,1
480,-1425,395,2
481,-2535,618,1
482,-595,214,2
483,-1095,334,2
484,-1665,460,2
485,-2170,554,2
486,-2590,618,1
487,-2270,572,2
488,-2605,618,1
489,-1955,507,2
490,-1020,294,2
491,-2590,618,1
492,-2625,618,1
493,-1605,446,2
494,-2655,618,1
495,-2585,618,1
496,-1240,367,2
497,-950,306,2
498,-2580,618,1
499,-2300,565,2
500,-2600,618,1
501,-1105,323,2
502,-1310,367,2
503,-1190,352,2
504,-2595,618,1
505,-1240,361,2
506,-2545,618,1
507,-1160,338,2
508,-585,222,2
509,-2610,618,1
510,-2590,618,1
511,-1425,402,2
512,-2680,618,1
513,-1070,328,2
514,-2590,618,1
515,-1835,477,2
516,-2615,618,1
517,-2655,618,1
518,-690,252,2
519,-2600,618,1
520,-2600,618,1
521,-2495,618,2
522,-2280,580,2
523,-755,249,2
524,-2180,549,2
525,-1425,393,2
526,-2105,537,2
527,-1865,487,2
528,-2395,597,2
529,-2205,547,2
530,-2245,572,2
531,-2475,610,2
532,-2400,592,2
533,-460,189,2
534,-395,157,2
535,-2575,618,1
536,-2555,618,1
537,-1495,406,2
538,-2595,618,1
539,-2650,618,1
540,-2365,599,2
541,-2610,618,1
542,-1685,436,2
543,-455,183,2
544,-2615,618,1
545,-1590,436,2
546,-1640,437,2
547,-2250,561,2
548,-500,208,2
549,-2615,618,1
550,-2600,618,1
551,-1425,386,2
552,-2115,533,2
553,-660,222,2
554,-475,198,2
555,-2590,618,1
556,-2565,618,1
557,-1845,484,2
558,-1185,357,2
559,-595,209,2
560,-1695,460,2
561,-2600,618,1
562,-1995,502,2
563,-2600,618,1
564,-945,295,2
565,-2575,618,1
566,-1515,415,2
567,-1055,330,2
568,-2630,618,1
569,-1440,386,2
570,-2580,618,1
571,-2560,618,1
572,-1110,333,2
573,-465,180,2
574,-435,180,2
575,-1860,478,2
576,-2570,618,1
577,-2555,618,1
578,-2630,618,1
579,-665,237,2
580,-1225,361,2
581,-2605,618,1
582,-2000,519,2
583,-1145,340,2
584,-2655,618,1
585,-480,197,2
586,-2580,618,1
587,-175,117,2
588,-650,222,2
589,-1415,402,2
590,-2590,618,1
591,-2625,618,1
592,-2615,618,1
593,-1495,417,2
594,-1630,436,2
595,-2315,571,2
596,-1165,332,2
597,-2455,607,2
598,-1630,438,2
599,-1870,487,2
600,-2565,618,1
601,-1495,412,2
602,-2585,618,1
603,-1950,505,2
604,-2595,618,1
605,-1035,309,2
606,-2635,618,1
607,-1285,366,2
608,-540,193,2
609,-2630,618,1
610,-2365,585,2
611,-2595,618,1
612,-2585,618,1
613,-1470,399,2
614,-2610,618,1
615,-1765,466,2
616,-2595,618,1
617,-2660,618,1
618,-1370,395,2
619,-2590,618,1
620,-2575,618,1
621,-2600,618,1
622,-1530,417,2
623,-460,183,2
624,-610,229,2
625,-1660,455,2
626,-2630,618,1
627,-2570,618,1
628,-1940,503,2
629,-2640,618,1
630,-465,198,2
631,-2620,618,1
632,-2050,531,2
633,-1320,361,2
634,-1325,377,2
635,-1330,385,2
636,-1480,407,2
637,-430,195,2
638,-2200,553,2
639,-2650,618,1
640,-905,298,2
641,-1530,417,2
642,-1660,438,2
643,-2545,618,1
644,-445,186,2
645,-2560,618,1
646,-2420,604,2
647,-1740,465,2
648,-2595,618,1
649,-2200,546,2
650,-2580,618,1
651,-2605,618,1
652,-440,172,2
653,-825,278,2
654,-2625,618,1
655,-1580,444,2
656,-620,226,2
657,-2135,538,2
658,-2605,618,1
659,-2605,618,1
660,-2615,618,1
661,-1000,290,2
662,-625,224,2
663,-2320,588,2
664,-470,194,2
665,-2100,539,2
666,-1615,429,2
667,-2580,618,1
668,-2605,618,1
669,-240,149,2
670,-2605,618,1
671,-2240,560,2
672,-1735,457,2
673,-985,307,2
674,-1760,467,2
675,-2655,618,1
676,-2315,580,2
677,-1050,292,2
678,-35,97,2
679,-1305,368,2
680,-1965,505,2
681,-650,239,2
682,-415,164,2
683,-1505,414,2
684,-2005,509,2
685,-2605,618,1
686,-2615,618,1
687,-2570,618,1
688,-2605,618,1
689,-2580,618,1
690,-2565,618,1
691,-1860,485,2
692,-1790,485,2
693,-1190,351,2
694,-1525,420,2
695,-1450,395,2
696,-2565,618,1
697,-1605,417,2
698,-590,222,2
699,-2325,580,2
700,-1510,404,2
701,-2510,617,2
702,-1665,448,2
703,-2535,618,1
704,-910,291,2
705,-2600,618,1
706,-470,184,2
707,-900,280,2
708,-2145,540,2
709,-1105,327,2
710,-1275,365,2
711,-2620,618,1
712,-580,234,2
713,-2090,525,2
714,-2575,618,1
715,-1820,483,2
716,-1445,418,2
717,-1205,329,2
718,-565,200,2
719,-2615,618,1
720,-785,261,2
721,-1030,300,2
722,-1910,509,2
723,-2345,583,2
724,-1440,405,2
725,-1565,428,2
726,-2375,605,2
727,-1135,341,2
728,-2630,618,1
729,-1180,355,2
730,-1710,463,2
731,-2190,555,2
732,-775,247,2
733,-2615,618,1
734,-2630,618,1
735,-2625,618,1
736,-2185,552,2
737,-1285,343,2
738,-1875,489,2
739,-2605,618,1
740,-2290,579,2
741,-2620,618,1
742,-2625,618,1
743,-1220,356,2
744,-950,294,2
745,-2605,618,1
746,-895,281,2
747,-1945,512,2
748,-2555,618,1
749,-1525,420,2
750,-1630,439,2
751,-795,262,2
752,-920,281,2
753,-1970,515,2
754,-2580,618,1
755,-2615,618,1
756,-2625,618,1
757,-1880,487,2
758,-1935,492,2
759,-205,129,2
760,-2655,618,1
761,-2610,618,1
762,-210,144,2
763,-2675,618,1
764,-2590,618,1
765,-2640,618,1
766,-2615,618,1
767,-265,139,2
768,-465,201,2
769,-2650,618,1
770,-1735,458,2
771,-2520,599,2
772,-2635,618,1
773,-2505,612,2
774,-2650,618,1
775,-2585,618,1
776,-2635,618,1
777,-2070,535,2
778,-2620,618,1
779,-2610,618,1
780,-620,219,2
781,-2645,618,1
782,-860,270,2
783,-2030,518,2
784,-1700,465,2
785,-2120,548,2
786,-1465,406,2
787,-2310,572,2
788,-750,256,2
789,-2635,618,1
790,-1285,354,2
791,35,81,2
792,-2590,618,1
793,-1230,350,2
794,-2620,618,1
795,-2305,574,2
796,-1390,381,2
797,-2170,558,2
798,-2570,618,1
799,-345,151,2
800,-1455,400,2
801,-1280,363,2
802,-1415,386,2
803,-125,125,2
804,-1840,477,2
805,-840,275,2
806,-2030,522,2
807,-2030,510,2
808,-2590,618,1
809,-1795,476,2
810,-2590,618,1
811,-1855,471,2
812,-850,274,2
813,-1195,336,2
814,-2600,618,1
815,-1450,397,2
816,-1865,482,2
817,-2615,618,1
818,-2030,527,2
819,-715,241,2
820,-2590,618,1
821,-2565,618,1
822,-2090,537,2
823,-2160,550,2
824,-1705,457,2
825,-1675,456,2
826,-1005,307,2
827,-1705,456,2
828,-2605,618,1
829,-2635,618,1
830,-2630,618,1
831,-2585,618,1
832,-2585,618,1
833,-445,194,2
834,-1785,461,2
835,-2315,580,2
836,-1735,475,2
837,-2675,618,1
838,-1035,319,2
839,-2085,528,2
840,-2095,536,2
841,-2265,574,2
842,-1875,490,2
843,-2595,618,1
844,-1230,354,2
845,-1170,346,2
846,-2160,548,2
847,-2620,618,1
848,-2160,554,2
849,-840,253,2
850,-785,258,2
851,-2275,577,2
852,-1295,374,2
853,-915,283,2
854,-2600,618,1
855,-485,193,2
856,-1160,329,2
857,-980,301,2
858,-2480,617,2
859,-2650,618,1
860,-990,309,2
861,-1545,427,2
862,-1615,425,2
863,-1420,380,2
864,-2435,614,2
865,-1400,380,2
866,-2640,618,1
867,-2655,618,1
868,-2610,618,1
869,-1460,400,2
870,-1855,484,2
871,-1380,380,2
872,-2430,610,2
873,-155,126,2
874,-1025,295,2
875,-605,215,2
876,-2670,618,1
877,-2640,618,1
878,-2590,618,1
879,-2600,618,1
880,-1950,506,2
881,-2620,618,1
882,-890,284,2
883,-1120,334,2
884,-1855,492,2
885,-175,138,2
886,-1735,454,2
887,-480,193,2
888,-2515,603,2
889,-595,208,2
890,-1960,510,2
891,-370,154,2
892,-1330,386,2
893,-1525,416,2
894,-1200,346,2
895,-1110,316,2
896,-2155,540,2
897,-1645,441,2
898,-2625,618,1
899,-1705,445,2
900,-1610,437,2
901,-2610,618,1
902,-1755,458,2
903,-1355,375,2
904,-540,193,2
905,-2645,618,1
906,-2590,618,1
907,-2600,618,1
908,-520,215,2
909,-2615,618,1
910,-2185,556,2
911,-1870,493,2
912,-85,109,2
913,-2635,618,1
914,-1240,353,2
915,-2610,618,1
916,-2205,548,2
917,-935,284,2
918,-2675,618,1
919,-2595,618,1
920,-1440,399,2
921,-1945,508,2
922,-1130,331,2
923,-1240,351,2
924,-1730,459,2
925,-2185,551,2
926,-2615,618,1
927,-750,244,2
928,-2580,618,1
929,-2690,618,1
930,-2225,561,2
931,-820,278,2
932,-1260,363,2
933,-2570,618,1
934,-2590,618,1
935,-1375,378,2
936,-2615,618,1
937,-915,273,2
938,-2605,618,1
939,-2495,617,2
940,-2625,618,1
941,-2650,618,1
942,-2595,618,1
943,-2595,618,1
944,-1315,379,2
945,-780,253,2
946,-2610,618,1
947,-410,167,2
948,-610,232,2
949,-995,306,2
950,-2160,557,2
951,-2580,618,1
952,-2635,618,1
953,-1155,341,2
954,-370,174,2
955,-1510,413,2
956,-2650,618,1
957,-1805,459,2
958,-2650,618,1
959,-1925,513,2
960,-2595,618,1
961,-775,247,2
962,-2610,618,1
963,-2585,618,1
964,-2400,590,2
965,-1250,344,2
966,-1170,337,2
967,-2165,543,2
968,-1935,509,2
969,-2620,618,1
970,-645,226,2
971,-1990,516,2
972,-2645,618,1
973,-2080,520,2
974,-2625,618,1
975,-2610,618,1
976,-900,281,2
977,-1130,342,2
978,-720,248,2
979,-2285,578,2
980,-1510,411,2
981,-1430,391,2
982,-360,166,2
983,-660,235,2
984,-2415,603,2
985,-2605,618,1
986,-1155,335,2
987,-2645,618,1
988,-260,144,2
989,-1040,322,2
990,-2580,618,1
991,-1710,453,2
992,-1035,312,2
993,-2170,557,2
994,-2680,618,1
995,-2675,618,1
996,-1780,460,2
997,-2615,618,1
998,-2620,618,1
999,-670,218,2
