episode,reward,step,sensitive
0,-3065,650,0
1,-3255,650,0
2,-3140,650,0
3,-2945,650,0
4,-3010,650,0
5,-3005,650,0
6,-2770,650,0
7,-3150,650,0
8,-2955,650,0
9,-2915,650,0
10,-2865,650,0
11,-3135,650,0
12,-2735,650,0
13,-3100,650,0
14,-3255,650,0
15,-2965,650,0
16,-3005,650,0
17,-2820,650,0
18,-2685,650,0
19,-2905,650,0
20,-2945,650,0
21,-2940,650,0
22,-3230,650,0
23,-3075,650,0
24,-2995,650,0
25,-3075,650,0
26,-3155,650,0
27,-2875,650,0
28,-3060,650,0
29,-2855,650,0
30,-2840,650,0
31,-2970,650,0
32,-2740,650,0
33,-2840,650,0
34,-2680,650,0
35,-2690,650,0
36,-2845,650,0
37,-2650,650,1
38,-2920,650,0
39,-2800,650,0
40,-2905,650,0
41,-2895,650,0
42,-2785,650,0
43,-3015,650,0
44,-2915,650,0
45,-2750,650,0
46,-2665,650,0
47,-3045,650,0
48,-2880,650,0
49,-2640,650,1
50,-2790,650,0
51,-2570,650,1
52,-2815,650,0
53,-2515,650,1
54,-2700,650,0
55,-2835,650,0
56,-2780,650,0
57,-2765,650,0
58,-2890,650,0
59,-2820,650,0
60,-2750,650,0
61,-2590,650,1
62,-2780,650,0
63,-2625,650,0
64,-3035,650,0
65,-2805,650,0
66,-2930,650,0
67,-2805,650,0
68,-2660,650,1
69,-2745,650,0
70,-2745,650,0
71,-2785,650,0
72,-2735,650,0
73,-2735,650,0
74,-2755,650,1
75,-2700,650,0
76,-2780,650,0
77,-2655,650,1
78,-2725,650,0
79,-2690,650,0
80,-2745,650,1
81,-2695,650,0
82,-2725,650,0
83,-2745,650,1
84,-2850,650,0
85,-2625,650,1
86,-2740,650,1
87,-2740,650,1
88,-2750,650,1
89,-2795,650,0
90,-2545,650,1
91,-2705,650,1
92,-2720,650,1
93,-2765,650,0
94,-2675,650,0
95,-2700,650,1
96,-2680,650,0
97,-2655,650,1
98,-2765,650,1
99,-2625,650,1
100,-2575,650,1
101,-2790,650,0
102,-2615,650,1
103,-2670,650,1
104,-2695,650,1
105,-2710,650,0
106,-2665,650,1
107,-2790,650,0
108,-2630,650,1
109,-2675,650,0
110,-2775,650,0
111,-2620,650,1
112,-2570,650,1
113,-2740,650,1
114,-2915,650,0
115,-2770,650,0
116,-2720,650,0
117,-2765,650,0
118,-2670,650,0
119,-2595,650,1
120,-2690,650,1
121,-2820,650,0
122,-2820,650,0
123,-2860,650,0
124,-2710,650,0
125,-2785,650,1
126,-2555,650,1
127,-2745,650,1
128,-2660,650,1
129,-2780,650,0
130,-2630,650,0
131,-2765,650,0
132,-2535,650,1
133,-2715,650,1
134,-2665,650,0
135,-2700,650,1
136,-2850,650,0
137,-2820,650,0
138,-2605,650,0
139,-2580,650,1
140,-2880,650,0
141,-2610,650,1
142,-2710,650,0
143,-2555,650,1
144,-2640,650,1
145,-2695,650,1
146,-2570,650,1
147,-2600,650,1
148,-2865,650,0
149,-2715,650,0
150,-2760,650,1
151,-2530,650,1
152,-2910,650,1
153,-2835,650,0
154,-2745,650,0
155,-2665,650,1
156,-2740,650,0
157,-2880,650,1
158,-2655,650,0
159,-2870,650,0
160,-2550,650,1
161,-2715,650,0
162,-2565,650,1
163,-2620,650,1
164,-2625,650,1
165,-2805,650,0
166,-2665,650,0
167,-2735,650,0
168,-2770,650,0
169,-2905,650,0
170,-2580,650,1
171,-2710,650,0
172,-2590,650,1
173,-2765,650,0
174,-2755,650,0
175,-2620,650,1
176,-2610,650,1
177,-2630,650,1
178,-2650,650,1
179,-2895,650,0
180,-2550,650,1
181,-2675,650,1
182,-2940,650,1
183,-2860,650,0
184,-2810,650,0
185,-2860,650,0
186,-2615,650,1
187,-2700,650,0
188,-2910,650,0
189,-2815,650,0
190,-2795,650,0
191,-2770,650,0
192,-2800,650,0
193,-2685,650,0
194,-2875,650,0
195,-2785,650,1
196,-2600,650,1
197,-2770,650,0
198,-2800,650,0
199,-2655,650,1
200,-2760,650,1
201,-2740,650,0
202,-2690,650,1
203,-2685,650,0
204,-2745,650,0
205,-2705,650,1
206,-2660,650,1
207,-2655,650,1
208,-2735,650,0
209,-2670,650,1
210,-2730,650,1
211,-2590,650,1
212,-2760,650,0
213,-2550,650,1
214,-2620,650,1
215,-2635,650,1
216,-2800,650,1
217,-2890,650,0
218,-2760,650,1
219,-2750,650,0
220,-2750,650,0
221,-2750,650,1
222,-2735,650,0
223,-2550,650,1
224,-2655,650,0
225,-2555,650,1
226,-2720,650,0
227,-2755,650,0
228,-2685,650,1
229,-2895,650,0
230,-2620,650,1
231,-2680,650,0
232,-2830,650,0
233,-2720,650,0
234,-2595,650,1
235,-2555,650,1
236,-2705,650,1
237,-2695,650,0
238,-2675,650,1
239,-2700,650,1
240,-2630,650,0
241,-2605,650,1
242,-2805,650,1
243,-2525,650,1
244,-2525,650,1
245,-2960,650,0
246,-2885,650,0
247,-2745,650,0
248,-2685,650,0
249,-2790,650,1
250,-2465,650,1
251,-2870,650,0
252,-2670,650,1
253,-2615,650,1
254,-2715,650,1
255,-2695,650,1
256,-2855,650,0
257,-2655,650,1
258,-2735,650,0
259,-2520,650,1
260,-2725,650,1
261,-2845,650,0
262,-2620,650,1
263,-2555,650,1
264,-2810,650,0
265,-2785,650,0
266,-2765,650,1
267,-2640,650,1
268,-2510,650,1
269,-2615,650,0
270,-2645,650,1
271,-2635,650,0
272,-2780,650,0
273,-3170,650,0
274,-2745,650,0
275,-2680,650,1
276,-2790,650,0
277,-2665,650,1
278,-2645,650,1
279,-2635,650,1
280,-2710,650,1
281,-2765,650,1
282,-2680,650,0
283,-2620,650,1
284,-2560,650,1
285,-2695,650,1
286,-2785,650,0
287,-2960,650,0
288,-2720,650,0
289,-2990,650,0
290,-2700,650,1
291,-2785,650,0
292,-2880,650,0
293,-2520,650,1
294,-2765,650,0
295,-2700,650,1
296,-2685,650,1
297,-2575,650,1
298,-2815,650,0
299,-2615,650,1
300,-2565,650,1
301,-2580,650,1
302,-2670,650,1
303,-2810,650,1
304,-2520,650,1
305,-2800,650,0
306,-2820,650,0
307,-2770,650,0
308,-2605,650,0
309,-2805,650,0
310,-2500,650,1
311,-2685,650,1
312,-2625,650,1
313,-2885,650,0
314,-2665,650,0
315,-2495,650,1
316,-2730,650,1
317,-2690,650,0
318,-2740,650,0
319,-2685,650,1
320,-2605,650,1
321,-2635,650,0
322,-2795,650,1
323,-2730,650,0
324,-2585,650,1
325,-3110,650,0
326,-2890,650,0
327,-2740,650,1
328,-2725,650,1
329,-2470,650,1
330,-2645,650,1
331,-2765,650,0
332,-2630,650,1
333,-2760,650,0
334,-2710,650,1
335,-3015,650,0
336,-2690,650,0
337,-2770,650,1
338,-2600,650,1
339,-2675,650,1
340,-2830,650,0
341,-2675,650,1
342,-2725,650,0
343,-2615,650,1
344,-2725,650,1
345,-2740,650,1
346,-2640,650,1
347,-2705,650,0
348,-2590,650,1
349,-2920,650,0
350,-2880,650,0
351,-2910,650,0
352,-2725,650,0
353,-2920,650,0
354,-2770,650,0
355,-2645,650,0
356,-2800,650,0
357,-2700,650,1
358,-2710,650,1
359,-2650,650,1
360,-2645,650,0
361,-2690,650,0
362,-2695,650,1
363,-2720,650,0
364,-2695,650,0
365,-2725,650,1
366,-2670,650,0
367,-2600,650,1
368,-2665,650,1
369,-2690,650,1
370,-2820,650,0
371,-2690,650,0
372,-2545,650,1
373,-2660,650,1
374,-2715,650,1
375,-2695,650,1
376,-2905,650,0
377,-2635,650,1
378,-2695,650,0
379,-2655,650,1
380,-2675,650,1
381,-2645,650,1
382,-2660,650,0
383,-2800,650,0
384,-2770,650,0
385,-2775,650,0
386,-2580,650,1
387,-3065,650,0
388,-2625,650,1
389,-2620,650,1
390,-2550,650,1
391,-2695,650,1
392,-2795,650,1
393,-2740,650,1
394,-2615,650,1
395,-2515,650,1
396,-2785,650,0
397,-2575,650,1
398,-2685,650,1
399,-2700,650,0
400,-2625,650,1
401,-2690,650,1
402,-2855,650,1
403,-2690,650,1
404,-2765,650,0
405,-2540,650,1
406,-2760,650,1
407,-2490,650,1
408,-2565,650,1
409,-2805,650,0
410,-2630,650,1
411,-2650,650,1
412,-2865,650,0
413,-2980,650,0
414,-2595,650,1
415,-2645,650,1
416,-2800,650,0
417,-2770,650,1
418,-2655,650,0
419,-2795,650,0
420,-2620,650,1
421,-2645,650,1
422,-2795,650,0
423,-2745,650,0
424,-2790,650,0
425,-2770,650,0
426,-2830,650,0
427,-2675,650,1
428,-2750,650,0
429,-2510,650,1
430,-3020,650,0
431,-2725,650,0
432,-2615,650,1
433,-2795,650,0
434,-2825,650,1
435,-2875,650,0
436,-2545,650,1
437,-2755,650,0
438,-2665,650,1
439,-2785,650,0
440,-2620,650,1
441,-3220,650,0
442,-2800,650,0
443,-2690,650,0
444,-2575,650,1
445,-2835,650,0
446,-2810,650,0
447,-2830,650,0
448,-2735,650,0
449,-2780,650,1
450,-2645,650,0
451,-2800,650,0
452,-2690,650,1
453,-2740,650,0
454,-2905,650,0
455,-2645,650,0
456,-2605,650,1
457,-2715,650,0
458,-2575,650,1
459,-2880,650,0
460,-2775,650,0
461,-2560,650,1
462,-2910,650,0
463,-2570,650,1
464,-2660,650,1
465,-2640,650,1
466,-2785,650,0
467,-2660,650,0
468,-2805,650,0
469,-2765,650,0
470,-2720,650,1
471,-2590,650,1
472,-2800,650,1
473,-2860,650,0
474,-2625,650,1
475,-2775,650,0
476,-2770,650,0
477,-2820,650,0
478,-2680,650,1
479,-2830,650,0
480,-2600,650,1
481,-2660,650,1
482,-2710,650,0
483,-2560,650,1
484,-2610,650,1
485,-2625,650,1
486,-2720,650,0
487,-2715,650,0
488,-2790,650,0
489,-2740,650,1
490,-2685,650,1
491,-2765,650,0
492,-2915,650,0
493,-2825,650,1
494,-2760,650,1
495,-2695,650,0
496,-2895,650,0
497,-2555,650,1
498,-2805,650,0
499,-2785,650,0
500,-2835,650,0
501,-2805,650,0
502,-2765,650,0
503,-2710,650,0
504,-2805,650,0
505,-2720,650,1
506,-2845,650,0
507,-2680,650,1
508,-2820,650,0
509,-2715,650,1
510,-2875,650,0
511,-2645,650,1
512,-2670,650,1
513,-2765,650,0
514,-2580,650,1
515,-2705,650,0
516,-2775,650,0
517,-2725,650,0
518,-2645,650,1
519,-2885,650,0
520,-2735,650,0
521,-2815,650,0
522,-2625,650,1
523,-2805,650,1
524,-2835,650,0
525,-2555,650,1
526,-2765,650,0
527,-2790,650,0
528,-2885,650,0
529,-2835,650,0
530,-2780,650,0
531,-2680,650,1
532,-2885,650,1
533,-2980,650,0
534,-2995,650,0
535,-2875,650,0
536,-2810,650,1
537,-2770,650,0
538,-2945,650,0
539,-2895,650,1
540,-2710,650,0
541,-2640,650,0
542,-2535,650,1
543,-2625,650,1
544,-2765,650,1
545,-2790,650,0
546,-2685,650,0
547,-2665,650,1
548,-2670,650,1
549,-2725,650,1
550,-3020,650,0
551,-2840,650,0
552,-2820,650,0
553,-2560,650,1
554,-2900,650,0
555,-2740,650,0
556,-2735,650,1
557,-2645,650,1
558,-2840,650,0
559,-2635,650,1
560,-2735,650,1
561,-2665,650,1
562,-2785,650,1
563,-2865,650,0
564,-2690,650,1
565,-2810,650,1
566,-2660,650,1
567,-2750,650,0
568,-2755,650,1
569,-2680,650,1
570,-2690,650,1
571,-2935,650,0
572,-2720,650,1
573,-2750,650,0
574,-2705,650,0
575,-2710,650,1
576,-2585,650,0
577,-2795,650,1
578,-2775,650,0
579,-2905,650,0
580,-2650,650,1
581,-2770,650,0
582,-2800,650,0
583,-2775,650,0
584,-2870,650,1
585,-2835,650,0
586,-2790,650,1
587,-2895,650,1
588,-2595,650,1
589,-2530,650,1
590,-2700,650,1
591,-2705,650,0
592,-2705,650,0
593,-2925,650,0
594,-2830,650,1
595,-2810,650,1
596,-2760,650,1
597,-2820,650,0
598,-2830,650,0
599,-2855,650,1
600,-2795,650,0
601,-2680,650,1
602,-2715,650,1
603,-2695,650,1
604,-2790,650,0
605,-2805,650,1
606,-2860,650,0
607,-2695,650,1
608,-2715,650,1
609,-2840,650,0
610,-2825,650,0
611,-2685,650,1
612,-2845,650,0
613,-2730,650,1
614,-2715,650,1
615,-2735,650,1
616,-2915,650,0
617,-2580,650,1
618,-2640,650,1
619,-2745,650,0
620,-2665,650,1
621,-2950,650,0
622,-2870,650,0
623,-2800,650,0
624,-2915,650,0
625,-2860,650,1
626,-2925,650,0
627,-2895,650,0
628,-2820,650,0
629,-2635,650,1
630,-2970,650,0
631,-2810,650,1
632,-2805,650,0
633,-2765,650,1
634,-2740,650,0
635,-2870,650,0
636,-3010,650,0
637,-2915,650,0
638,-2835,650,0
639,-2895,650,0
640,-2905,650,0
641,-2835,650,0
642,-2955,650,0
643,-2770,650,1
644,-2900,650,0
645,-2855,650,0
646,-2655,650,1
647,-2880,650,1
648,-2715,650,0
649,-2765,650,1
650,-2795,650,0
651,-2595,650,1
652,-2715,650,0
653,-2975,650,0
654,-2870,650,0
655,-2890,650,0
656,-2890,650,0
657,-2925,650,1
658,-2955,650,0
659,-2755,650,1
660,-2855,650,0
661,-2915,650,0
662,-2880,650,0
663,-2750,650,0
664,-2890,650,0
665,-2835,650,0
666,-2845,650,0
667,-2915,650,0
668,-2815,650,0
669,-2825,650,0
670,-2585,650,1
671,-2650,650,1
672,-2750,650,1
673,-2760,650,1
674,-2920,650,0
675,-2895,650,0
676,-2895,650,0
677,-2860,650,0
678,-2750,650,1
679,-2845,650,0
680,-2825,650,1
681,-2605,650,1
682,-2705,650,1
683,-2945,650,0
684,-2970,650,0
685,-2750,650,0
686,-2655,650,1
687,-2915,650,0
688,-2895,650,0
689,-2825,650,1
690,-2865,650,0
691,-2880,650,0
692,-2700,650,1
693,-2690,650,1
694,-2660,650,1
695,-3000,650,0
696,-2835,650,0
697,-2900,650,0
698,-2710,650,0
699,-2890,650,0
700,-2770,650,0
701,-2645,650,0
702,-2980,650,0
703,-2890,650,0
704,-2675,650,1
705,-2575,650,1
706,-2800,650,0
707,-2890,650,0
708,-2990,650,0
709,-2735,650,1
710,-2660,650,1
711,-2855,650,0
712,-2865,650,0
713,-2805,650,0
714,-2925,650,0
715,-2655,650,1
716,-2870,650,0
717,-2810,650,0
718,-2750,650,1
719,-2820,650,0
720,-2720,650,1
721,-2670,650,0
722,-2725,650,1
723,-2750,650,1
724,-2815,650,0
725,-2850,650,1
726,-2775,650,0
727,-2730,650,1
728,-2750,650,1
729,-2670,650,1
730,-2725,650,1
731,-2895,650,0
732,-2900,650,0
733,-2870,650,0
734,-2740,650,1
735,-2675,650,0
736,-2770,650,0
737,-2955,650,0
738,-2860,650,0
739,-2665,650,1
740,-2970,650,1
741,-2970,650,0
742,-2790,650,1
743,-2810,650,1
744,-2925,650,0
745,-2835,650,0
746,-2950,650,0
747,-2925,650,0
748,-2710,650,0
749,-2745,650,1
750,-2685,650,1
751,-2920,650,0
752,-2675,650,1
753,-2895,650,0
754,-2755,650,1
755,-3080,650,0
756,-2750,650,0
757,-2865,650,1
758,-2855,650,1
759,-2740,650,1
760,-3075,650,0
761,-2960,650,0
762,-2785,650,0
763,-2795,650,0
764,-2985,650,0
765,-2935,650,0
766,-3020,650,0
767,-2845,650,0
768,-2775,650,1
769,-2885,650,0
770,-2785,650,1
771,-2710,650,0
772,-3020,650,0
773,-2845,650,0
774,-2655,650,1
775,-2715,650,1
776,-2805,650,0
777,-2880,650,1
778,-2855,650,0
779,-2965,650,0
780,-2920,650,0
781,-2850,650,1
782,-2890,650,0
783,-2980,650,0
784,-2935,650,0
785,-2800,650,1
786,-2855,650,0
787,-2965,650,0
788,-3060,650,0
789,-3005,650,0
790,-3035,650,0
791,-2635,650,1
792,-3005,650,0
793,-2890,650,0
794,-2915,650,0
795,-2960,650,0
796,-2925,650,0
797,-2835,650,0
798,-2820,650,1
799,-2855,650,0
800,-3070,650,0
801,-2725,650,1
802,-2930,650,0
803,-2945,650,0
804,-2765,650,1
805,-2890,650,0
806,-2940,650,0
807,-2840,650,1
808,-2800,650,1
809,-3030,650,0
810,-2815,650,1
811,-2950,650,0
812,-2930,650,0
813,-2795,650,1
814,-2970,650,0
815,-2815,650,1
816,-2970,650,0
817,-2695,650,1
818,-2820,650,1
819,-2855,650,0
820,-2780,650,1
821,-2840,650,0
822,-2995,650,0
823,-2880,650,0
824,-3030,650,0
825,-2870,650,0
826,-2815,650,0
827,-2835,650,1
828,-2715,650,1
829,-2885,650,0
830,-2910,650,0
831,-2815,650,0
832,-2735,650,1
833,-2870,650,0
834,-3115,650,0
835,-2875,650,1
836,-2985,650,0
837,-2830,650,0
838,-2695,650,1
839,-2905,650,1
840,-2940,650,0
841,-2870,650,0
842,-2870,650,1
843,-3020,650,0
844,-2930,650,0
845,-2655,650,1
846,-2920,650,0
847,-2790,650,1
848,-2835,650,0
849,-3000,650,0
850,-2885,650,1
851,-2840,650,1
852,-2895,650,0
853,-2735,650,1
854,-2735,650,1
855,-2960,650,0
856,-2775,650,1
857,-2985,650,1
858,-3020,650,0
859,-2780,650,1
860,-2965,650,0
861,-2810,650,1
862,-2925,650,0
863,-2950,650,0
864,-2820,650,1
865,-2960,650,0
866,-3065,650,0
867,-2815,650,1
868,-3080,650,0
869,-2860,650,1
870,-2810,650,0
871,-2805,650,0
872,-2715,650,1
873,-2850,650,0
874,-2950,650,0
875,-2740,650,0
876,-2760,650,1
877,-2825,650,0
878,-2980,650,0
879,-2895,650,0
880,-2735,650,1
881,-2750,650,1
882,-3010,650,0
883,-2830,650,1
884,-2755,650,0
885,-2790,650,0
886,-2905,650,1
887,-2780,650,1
888,-2960,650,0
889,-3095,650,0
890,-2770,650,0
891,-2885,650,0
892,-2895,650,1
893,-2875,650,0
894,-2800,650,0
895,-2905,650,0
896,-2870,650,0
897,-2885,650,0
898,-2900,650,0
899,-2625,650,1
900,-2975,650,0
901,-2930,650,0
902,-2905,650,1
903,-3135,650,0
904,-2635,650,1
905,-3065,650,0
906,-2800,650,0
907,-2860,650,0
908,-2970,650,0
909,-2940,650,0
910,-2975,650,0
911,-2845,650,1
912,-2780,650,1
913,-2735,650,1
914,-2990,650,0
915,-3000,650,0
916,-2925,650,0
917,-2855,650,0
918,-2900,650,0
919,-3005,650,0
920,-3175,650,0
921,-2760,650,1
922,-2930,650,0
923,-3170,650,0
924,-2910,650,0
925,-2865,650,1
926,-2720,650,1
927,-3030,650,0
928,-2990,650,0
929,-2920,650,0
930,-3035,650,0
931,-2970,650,0
932,-2960,650,0
933,-3010,650,0
934,-2945,650,0
935,-2750,650,1
936,-2895,650,0
937,-2860,650,1
938,-2775,650,1
939,-2815,650,0
940,-2995,650,0
941,-2790,650,1
942,-3075,650,0
943,-2730,650,1
944,-2860,650,0
945,-3045,650,0
946,-2750,650,1
947,-2990,650,0
948,-2820,650,0
949,-2970,650,0
950,-2890,650,1
951,-2940,650,0
952,-3135,650,0
953,-2970,650,0
954,-2965,650,0
955,-2910,650,0
956,-2840,650,0
957,-3035,650,0
958,-3015,650,0
959,-2900,650,0
960,-2860,650,1
961,-3030,650,0
962,-2910,650,1
963,-2940,650,0
964,-2980,650,0
965,-2805,650,1
966,-2925,650,0
967,-2945,650,0
968,-3015,650,0
969,-2770,650,1
970,-2980,650,0
971,-2945,650,0
972,-2690,650,1
973,-2915,650,0
974,-2880,650,0
975,-2865,650,1
976,-3025,650,0
977,-2820,650,0
978,-2910,650,1
979,-2955,650,0
980,-2920,650,0
981,-2900,650,0
982,-2815,650,1
983,-2895,650,0
984,-2960,650,0
985,-3080,650,0
986,-2980,650,0
987,-2935,650,0
988,-2910,650,0
989,-3020,650,0
990,-3120,650,0
991,-2905,650,0
992,-2885,650,1
993,-2665,650,1
994,-3085,650,0
995,-2910,650,0
996,-2895,650,0
997,-2875,650,1
998,-3035,650,0
999,-2980,650,0
