episode,reward,step,sensitive
0,-615,509,3
1,-590,509,2
2,-490,509,2
3,-640,509,3
4,-480,509,3
5,-1745,509,0
6,-1245,509,1
7,-2005,509,1
8,-1780,509,0
9,-2550,509,0
10,-590,509,2
11,-2085,509,0
12,-1625,509,1
13,-2550,509,0
14,-350,509,4
15,-480,509,3
16,-1520,509,1
17,-955,509,2
18,-1655,509,0
19,-880,509,0
20,-1685,509,0
21,-435,509,3
22,-520,509,4
23,-695,509,2
24,-1390,509,0
25,-2110,509,0
26,-945,509,2
27,-780,509,2
28,-565,509,3
29,-915,509,2
30,-655,509,3
31,-735,509,2
32,-890,509,4
33,-390,509,3
34,-595,509,2
35,-750,509,2
36,-375,492,5
37,-420,509,3
38,-1035,509,3
39,-630,509,3
40,-575,509,4
41,-780,509,2
42,-550,509,3
43,-700,509,4
44,-725,509,1
45,-635,509,3
46,-1010,509,2
47,-575,509,2
48,-700,509,2
49,-775,509,2
50,-645,509,3
51,-890,509,2
52,-925,509,2
53,-790,509,2
54,-795,509,3
55,-1205,509,2
56,-1410,509,2
57,-1295,509,1
58,-1140,509,2
59,-1430,509,1
60,-1405,509,2
61,-1440,509,2
62,-1340,509,3
63,-1450,509,2
64,-1720,509,1
65,-1535,509,2
66,-1605,509,2
67,-1605,509,2
68,-1680,509,1
69,-1690,509,1
70,-1710,509,1
71,-1690,509,2
72,-1805,509,1
73,-1770,509,2
74,-1820,509,1
75,-1810,509,1
76,-1805,509,1
77,-1800,509,1
78,-1870,509,1
79,-1845,509,1
80,-1835,509,1
81,-1795,509,2
82,-1835,509,1
83,-1950,509,1
84,-1995,509,0
85,-1970,509,1
86,-2065,509,0
87,-1920,509,1
88,-2075,509,0
89,-2045,509,0
90,-2015,509,0
91,-2020,509,0
92,-2075,509,0
93,-2055,509,0
94,-2450,509,0
95,-2470,509,0
96,-2515,509,0
97,-2515,509,0
98,-2515,509,0
99,-2515,509,0
100,-2550,509,0
101,-2550,509,0
102,-2550,509,0
103,-2550,509,0
104,-2550,509,0
105,-2515,509,0
106,-2550,509,0
107,-2550,509,0
108,-2515,509,0
109,-2490,509,0
110,-2505,509,0
111,-2490,509,0
112,-2480,509,0
113,-2470,509,0
114,-2460,509,0
115,-2460,509,0
116,-2470,509,0
117,-2450,509,0
118,-2470,509,0
119,-2470,509,0
120,-2470,509,0
121,-2460,509,0
122,-2470,509,0
123,-2470,509,0
124,-2460,509,0
125,-2470,509,0
126,-2460,509,0
127,-2440,509,0
128,-2425,509,0
129,-2450,509,0
130,-2420,509,0
131,-2450,509,0
132,-2450,509,0
133,-2430,509,0
134,-2235,509,0
135,-2440,509,0
136,-2410,509,0
137,-2420,509,0
138,-2180,509,0
139,-2180,509,0
140,-2210,509,0
141,-2400,509,0
142,-2190,509,0
143,-2365,509,0
144,-2170,509,0
145,-2250,509,0
146,-2275,509,0
147,-2365,509,0
148,-2375,509,0
149,-2195,509,0
150,-2335,509,0
151,-2145,509,0
152,-2155,509,0
153,-2230,509,0
154,-2210,509,0
155,-2240,509,0
156,-2180,509,0
157,-2170,509,0
158,-2225,509,0
159,-2220,509,0
160,-2265,509,0
161,-2225,509,0
162,-2215,509,0
163,-2240,509,0
164,-2245,509,0
165,-2225,509,0
166,-2250,509,0
167,-2290,509,0
168,-2205,509,0
169,-2280,509,0
170,-2275,509,0
171,-2285,509,0
172,-2200,509,0
173,-2270,509,0
174,-2285,509,0
175,-2235,509,0
176,-2270,509,0
177,-2260,509,0
178,-2240,509,0
179,-2225,509,0
180,-2210,509,0
181,-2205,509,0
182,-2235,509,0
183,-2215,509,0
184,-2265,509,0
185,-2210,509,0
186,-2220,509,0
187,-2160,509,0
188,-2150,509,0
189,-2170,509,0
190,-2135,509,0
191,-2160,509,0
192,-2170,509,0
193,-2225,509,0
194,-2210,509,0
195,-2235,509,0
196,-2255,509,0
197,-2200,509,0
198,-2150,509,0
199,-2185,509,0
200,-2170,509,0
201,-2280,509,0
202,-2160,509,0
203,-2215,509,0
204,-2150,509,0
205,-2185,509,0
206,-2170,509,0
207,-2195,509,0
208,-2140,509,0
209,-2170,509,0
210,-2155,509,0
211,-2120,509,0
212,-2225,509,0
213,-2135,509,0
214,-2130,509,0
215,-2170,509,0
216,-2255,509,0
217,-2130,509,0
218,-2155,509,0
219,-2155,509,0
220,-2135,509,0
221,-2140,509,0
222,-2115,509,0
223,-2110,509,0
224,-2140,509,0
225,-2105,509,0
226,-2100,509,0
227,-2105,509,0
228,-2095,509,0
229,-2135,509,0
230,-2085,509,0
231,-2085,509,0
232,-2100,509,0
233,-2020,509,0
234,-2125,509,0
235,-2045,509,0
236,-2000,509,0
237,-2095,509,0
238,-2060,509,0
239,-1970,509,0
240,-1990,509,0
241,-1980,509,0
242,-2005,509,0
243,-2045,509,0
244,-1935,509,0
245,-1845,509,1
246,-2035,509,0
247,-1950,509,0
248,-1975,509,0
249,-1860,509,1
250,-1940,509,0
251,-1855,509,1
252,-1985,509,0
253,-2165,509,0
254,-1955,509,0
255,-1965,509,0
256,-1825,509,1
257,-2010,509,0
258,-2005,509,0
259,-2005,509,1
260,-2155,509,0
261,-1950,509,0
262,-2180,509,0
263,-1950,509,0
264,-2175,509,0
265,-2155,509,0
266,-1990,509,0
267,-2050,509,1
268,-2065,509,0
269,-2030,509,0
270,-2060,509,0
271,-2035,509,0
272,-2040,509,0
273,-2030,509,0
274,-2030,509,0
275,-1985,509,0
276,-2200,509,0
277,-1990,509,0
278,-1965,509,0
279,-1985,509,0
280,-2195,509,0
281,-2190,509,0
282,-2020,509,0
283,-2175,509,0
284,-1995,509,0
285,-1865,509,1
286,-1925,509,1
287,-1845,509,1
288,-2155,509,0
289,-2190,509,0
290,-1820,509,1
291,-1955,509,0
292,-2180,509,0
293,-1945,509,0
294,-2160,509,0
295,-1910,509,0
296,-2060,509,1
297,-1865,509,1
298,-2065,509,0
299,-2155,509,0
300,-2145,509,0
301,-1840,509,1
302,-1945,509,0
303,-1785,509,1
304,-1815,509,1
305,-1830,509,1
306,-2030,509,1
307,-1795,509,1
308,-1795,509,1
309,-1840,509,1
310,-2215,509,0
311,-1930,509,0
312,-2185,509,0
313,-2230,509,0
314,-1850,509,1
315,-1940,509,0
316,-2075,509,1
317,-1815,509,1
318,-1945,509,0
319,-1815,509,1
320,-1875,509,0
321,-2135,509,1
322,-1895,509,1
323,-1715,509,2
324,-1910,509,0
325,-2085,509,1
326,-1800,509,1
327,-1965,509,0
328,-2065,509,1
329,-2180,509,0
330,-1855,509,1
331,-2095,509,1
332,-1980,509,0
333,-2175,509,0
334,-2200,509,0
335,-2075,509,1
336,-2065,509,1
337,-2170,509,0
338,-1870,509,1
339,-1930,509,0
340,-2155,509,0
341,-2150,509,0
342,-1995,509,0
343,-1975,509,0
344,-1920,509,1
345,-1900,509,1
346,-1860,509,1
347,-1855,509,1
348,-1970,509,0
349,-1955,509,0
350,-2015,509,0
351,-2055,509,0
352,-1930,509,1
353,-2015,509,0
354,-2015,509,0
355,-1835,509,1
356,-2020,509,0
357,-1965,509,0
358,-1945,509,0
359,-1965,509,0
360,-1945,509,0
361,-1950,509,0
362,-1840,509,0
363,-1940,509,0
364,-1830,509,1
365,-1945,509,0
366,-1965,509,0
367,-1860,509,1
368,-1835,509,1
369,-1945,509,0
370,-2130,509,0
371,-1960,509,0
372,-1980,509,0
373,-1975,509,0
374,-1965,509,0
375,-1980,509,0
376,-2030,509,1
377,-2000,509,1
378,-2110,509,0
379,-1990,509,0
380,-1935,509,0
381,-1960,509,0
382,-2150,509,0
383,-1850,509,1
384,-2040,509,0
385,-2065,509,0
386,-1945,509,0
387,-1900,509,0
388,-2010,509,1
389,-2010,509,1
390,-1950,509,0
391,-1805,509,1
392,-1800,509,1
393,-1950,509,0
394,-1775,509,1
395,-1785,509,1
396,-1930,509,0
397,-1800,509,1
398,-1790,509,1
399,-1795,509,1
400,-1780,509,1
401,-1890,509,0
402,-1800,509,1
403,-1835,509,0
404,-1740,509,1
405,-1865,509,0
406,-1890,509,0
407,-2135,509,0
408,-2100,509,0
409,-1945,509,0
410,-1990,509,0
411,-2010,509,0
412,-2000,509,0
413,-1995,509,0
414,-1990,509,0
415,-2010,509,0
416,-1910,509,1
417,-2045,509,1
418,-1930,509,0
419,-1990,509,1
420,-1875,509,0
421,-1870,509,0
422,-1780,509,1
423,-2065,509,0
424,-1935,509,0
425,-1975,509,0
426,-2110,509,0
427,-1920,509,0
428,-2100,509,0
429,-1980,509,0
430,-1965,509,0
431,-2120,509,0
432,-1935,509,0
433,-1930,509,0
434,-1920,509,0
435,-1905,509,0
436,-1905,509,0
437,-1970,509,0
438,-1890,509,1
439,-1935,509,0
440,-1900,509,0
441,-1970,509,0
442,-1990,509,0
443,-1945,509,0
444,-1795,509,1
445,-1740,509,1
446,-1945,509,0
447,-1985,509,0
448,-1900,509,1
449,-1820,509,1
450,-1970,509,0
451,-1935,509,0
452,-1990,509,0
453,-1830,509,1
454,-1965,509,0
455,-1915,509,0
456,-1730,509,1
457,-1940,509,0
458,-1930,509,0
459,-1935,509,0
460,-2015,509,0
461,-2005,509,0
462,-1825,509,1
463,-2025,509,0
464,-1975,509,0
465,-2035,509,0
466,-1885,509,1
467,-1970,509,0
468,-1975,509,0
469,-2065,509,0
470,-1970,509,0
471,-2055,509,0
472,-2020,509,0
473,-2025,509,0
474,-2015,509,0
475,-2055,509,0
476,-2000,509,0
477,-2135,509,0
478,-2075,509,0
479,-1975,509,1
480,-2040,509,0
481,-2015,509,0
482,-2000,509,0
483,-2030,509,0
484,-2260,509,0
485,-2085,509,0
486,-2145,509,0
487,-2115,509,0
488,-2155,509,0
489,-2135,509,0
490,-2275,509,0
491,-2175,509,0
492,-2145,509,0
493,-2180,509,0
494,-2155,509,0
495,-2155,509,0
496,-2190,509,0
497,-2120,509,0
498,-1915,509,2
499,-2155,509,0
500,-2115,509,0
501,-2160,509,0
502,-2085,509,0
503,-2120,509,0
504,-2110,509,0
505,-2125,509,0
506,-2130,509,0
507,-2215,509,0
508,-2075,509,0
509,-2055,509,0
510,-2150,509,0
511,-2165,509,0
512,-2240,509,0
513,-2060,509,0
514,-2155,509,0
515,-2115,509,0
516,-2420,509,0
517,-2260,509,0
518,-2085,509,0
519,-2290,509,0
520,-2420,509,0
521,-2430,509,0
522,-2220,509,0
523,-2225,509,0
524,-2375,509,0
525,-2395,509,0
526,-2440,509,0
527,-2265,509,0
528,-2365,509,0
529,-2400,509,0
530,-2225,509,0
531,-2405,509,0
532,-2155,509,0
533,-2430,509,0
534,-2155,509,0
535,-2070,509,1
536,-2340,509,0
537,-2410,509,0
538,-2360,509,0
539,-2390,509,0
540,-2290,509,0
541,-2340,509,0
542,-2410,509,0
543,-2160,509,0
544,-2135,509,0
545,-2175,509,0
546,-2015,509,1
547,-2140,509,0
548,-2390,509,0
549,-2100,509,0
550,-2150,509,0
551,-2175,509,0
552,-2205,509,0
553,-2145,509,0
554,-2295,509,0
555,-2155,509,0
556,-1990,509,1
557,-2375,509,0
558,-2145,509,0
559,-2015,509,1
560,-2145,509,0
561,-2195,509,0
562,-2115,509,0
563,-2100,509,0
564,-2135,509,0
565,-2050,509,0
566,-2180,509,0
567,-2250,509,0
568,-2035,509,0
569,-2380,509,0
570,-2060,509,0
571,-2110,509,0
572,-2085,509,0
573,-2110,509,0
574,-2085,509,1
575,-2130,509,0
576,-2030,509,0
577,-1915,509,1
578,-2045,509,0
579,-1895,509,1
580,-2065,509,0
581,-2050,509,0
582,-2115,509,0
583,-2000,509,0
584,-2025,509,1
585,-1940,509,1
586,-2045,509,0
587,-1860,509,2
588,-2035,509,0
589,-2095,509,0
590,-2050,509,0
591,-1995,509,1
592,-2130,509,0
593,-1930,509,1
594,-1850,509,2
595,-2060,509,0
596,-2055,509,0
597,-2120,509,0
598,-2080,509,0
599,-1895,509,2
600,-2090,509,0
601,-2110,509,0
602,-2135,509,0
603,-2095,509,0
604,-2115,509,0
605,-2170,509,0
606,-2165,509,0
607,-2085,509,0
608,-2030,509,1
609,-2085,509,0
610,-2020,509,1
611,-2015,509,1
612,-2120,509,0
613,-2020,509,1
614,-2015,509,1
615,-2095,509,0
616,-2125,509,0
617,-2130,509,0
618,-2050,509,1
619,-2070,509,0
620,-1965,509,1
621,-2155,509,0
622,-2155,509,0
623,-2175,509,0
624,-2030,509,1
625,-1945,509,1
626,-2080,509,1
627,-1895,509,2
628,-1990,509,1
629,-1925,509,2
630,-2045,509,1
631,-2035,509,1
632,-1905,509,2
633,-1995,509,1
634,-1920,509,1
635,-2090,509,0
636,-2005,509,1
637,-2105,509,0
638,-2195,509,0
639,-2210,509,0
640,-2190,509,0
641,-2230,509,0
642,-2090,509,1
643,-2240,509,0
644,-2080,509,1
645,-2175,509,0
646,-1950,509,1
647,-2140,509,0
648,-2175,509,0
649,-2140,509,0
650,-2135,509,0
651,-2055,509,0
652,-2020,509,1
653,-2015,509,1
654,-2000,509,1
655,-2035,509,1
656,-2020,509,1
657,-1985,509,1
658,-1995,509,1
659,-2160,509,0
660,-2185,509,0
661,-2150,509,0
662,-2200,509,0
663,-2200,509,0
664,-2275,509,0
665,-2290,509,0
666,-2305,509,0
667,-2100,509,1
668,-2195,509,0
669,-2110,509,0
670,-2155,509,0
671,-2155,509,0
672,-2120,509,0
673,-2025,509,1
674,-2025,509,1
675,-2045,509,1
676,-2110,509,0
677,-2040,509,1
678,-2080,509,0
679,-2140,509,0
680,-2170,509,0
681,-2130,509,0
682,-2140,509,0
683,-2155,509,0
684,-2120,509,0
685,-2180,509,0
686,-2120,509,0
687,-2140,509,0
688,-2100,509,0
689,-2150,509,0
690,-2140,509,0
691,-2120,509,0
692,-2160,509,0
693,-2140,509,0
694,-2150,509,0
695,-2085,509,0
696,-2095,509,0
697,-2160,509,0
698,-2120,509,0
699,-2110,509,0
700,-2140,509,0
701,-2080,509,0
702,-2120,509,0
703,-2100,509,0
704,-2120,509,0
705,-2095,509,0
706,-2130,509,0
707,-2105,509,0
708,-2140,509,0
709,-2140,509,0
710,-2080,509,0
711,-2140,509,0
712,-2080,509,0
713,-2125,509,0
714,-2155,509,0
715,-2120,509,0
716,-2130,509,0
717,-2060,509,0
718,-2140,509,0
719,-2120,509,0
720,-2165,509,0
721,-2110,509,0
722,-2140,509,0
723,-2145,509,0
724,-2110,509,0
725,-2110,509,0
726,-2100,509,0
727,-2110,509,0
728,-2150,509,0
729,-2125,509,0
730,-2100,509,0
731,-2185,509,0
732,-2105,509,0
733,-2120,509,0
734,-2130,509,0
735,-2145,509,0
736,-2175,509,0
737,-2165,509,0
738,-2135,509,0
739,-2085,509,0
740,-2145,509,0
741,-2075,509,0
742,-2130,509,0
743,-2145,509,0
744,-2100,509,0
745,-2175,509,0
746,-2155,509,0
747,-2135,509,0
748,-2100,509,0
749,-2140,509,0
750,-2130,509,0
751,-2130,509,0
752,-2160,509,0
753,-2020,509,1
754,-2155,509,0
755,-2135,509,0
756,-2145,509,0
757,-2120,509,0
758,-2175,509,0
759,-2155,509,0
760,-2140,509,0
761,-2195,509,0
762,-2165,509,0
763,-2130,509,0
764,-2100,509,0
765,-2175,509,0
766,-2240,509,0
767,-2250,509,0
768,-2205,509,0
769,-2150,509,0
770,-2215,509,0
771,-2250,509,0
772,-2155,509,0
773,-2250,509,0
774,-2230,509,0
775,-2135,509,0
776,-2280,509,0
777,-2270,509,0
778,-2130,509,0
779,-2230,509,0
780,-2220,509,0
781,-2100,509,0
782,-2215,509,0
783,-2140,509,0
784,-2135,509,0
785,-2270,509,0
786,-2100,509,0
787,-2110,509,0
788,-2220,509,0
789,-2090,509,0
790,-2140,509,0
791,-2230,509,0
792,-2230,509,0
793,-2105,509,0
794,-2210,509,0
795,-2110,509,0
796,-2240,509,0
797,-2205,509,0
798,-2105,509,0
799,-2125,509,0
800,-2090,509,0
801,-2135,509,0
802,-1960,509,1
803,-2095,509,0
804,-2125,509,0
805,-2080,509,0
806,-2105,509,0
807,-2145,509,0
808,-2080,509,0
809,-2110,509,0
810,-2175,509,0
811,-2080,509,0
812,-2120,509,0
813,-2100,509,0
814,-2125,509,0
815,-2095,509,0
816,-2085,509,0
817,-2060,509,0
818,-2085,509,0
819,-2085,509,0
820,-2055,509,0
821,-2055,509,0
822,-2045,509,0
823,-2055,509,0
824,-2025,509,0
825,-2030,509,0
826,-2065,509,0
827,-2055,509,0
828,-2055,509,0
829,-2100,509,0
830,-2060,509,0
831,-2055,509,0
832,-2090,509,0
833,-2120,509,0
834,-2080,509,0
835,-2075,509,0
836,-2070,509,0
837,-2115,509,0
838,-2100,509,0
839,-2040,509,0
840,-2095,509,0
841,-2110,509,0
842,-2105,509,0
843,-2050,509,0
844,-2085,509,0
845,-1975,509,1
846,-2095,509,0
847,-2080,509,0
848,-2070,509,0
849,-2105,509,0
850,-2080,509,0
851,-2125,509,0
852,-2080,509,0
853,-2115,509,0
854,-2075,509,0
855,-2145,509,0
856,-2125,509,0
857,-2115,509,0
858,-2145,509,0
859,-2185,509,0
860,-2125,509,0
861,-2105,509,0
862,-2175,509,0
863,-2195,509,0
864,-2195,509,0
865,-2145,509,0
866,-2235,509,0
867,-2185,509,0
868,-2195,509,0
869,-2195,509,0
870,-2195,509,0
871,-2245,509,0
872,-2275,509,0
873,-2265,509,0
874,-2285,509,0
875,-2265,509,0
876,-2295,509,0
877,-2285,509,0
878,-2285,509,0
879,-2285,509,0
880,-2295,509,0
881,-2265,509,0
882,-2305,509,0
883,-2255,509,0
884,-2305,509,0
885,-2285,509,0
886,-2295,509,0
887,-2255,509,0
888,-2335,509,0
889,-2295,509,0
890,-2305,509,0
891,-2265,509,0
892,-2265,509,0
893,-2305,509,0
894,-2325,509,0
895,-2345,509,0
896,-2295,509,0
897,-2325,509,0
898,-2280,509,0
899,-2305,509,0
900,-2285,509,0
901,-2305,509,0
902,-2325,509,0
903,-2295,509,0
904,-2305,509,0
905,-2305,509,0
906,-2325,509,0
907,-2295,509,0
908,-2295,509,0
909,-2255,509,0
910,-2305,509,0
911,-2285,509,0
912,-2275,509,0
913,-2295,509,0
914,-2295,509,0
915,-2285,509,0
916,-2285,509,0
917,-2295,509,0
918,-2255,509,0
919,-2315,509,0
920,-2275,509,0
921,-2275,509,0
922,-2275,509,0
923,-2255,509,0
924,-2275,509,0
925,-2265,509,0
926,-2275,509,0
927,-2265,509,0
928,-2235,509,0
929,-2235,509,0
930,-2195,509,0
931,-2245,509,0
932,-2265,509,0
933,-2205,509,0
934,-2215,509,0
935,-2265,509,0
936,-2205,509,0
937,-2245,509,0
938,-2245,509,0
939,-2195,509,0
940,-2185,509,0
941,-2235,509,0
942,-2145,509,0
943,-2185,509,0
944,-2210,509,0
945,-2205,509,0
946,-2245,509,0
947,-2225,509,0
948,-2185,509,0
949,-2195,509,0
950,-2165,509,0
951,-2135,509,0
952,-2185,509,0
953,-2205,509,0
954,-2185,509,0
955,-2195,509,0
956,-2165,509,0
957,-2175,509,0
958,-2125,509,0
959,-2135,509,0
960,-2175,509,0
961,-2035,509,1
962,-2155,509,0
963,-2155,509,0
964,-2145,509,0
965,-2165,509,0
966,-2165,509,0
967,-2185,509,0
968,-2205,509,0
969,-2195,509,0
970,-2185,509,0
971,-2195,509,0
972,-2165,509,0
973,-2165,509,0
974,-2125,509,0
975,-2155,509,0
976,-2155,509,0
977,-2165,509,0
978,-2165,509,0
979,-2155,509,0
980,-2085,509,0
981,-2175,509,0
982,-2155,509,0
983,-2160,509,0
984,-2165,509,0
985,-2155,509,0
986,-2165,509,0
987,-2135,509,0
988,-2165,509,0
989,-2155,509,0
990,-2165,509,0
991,-2135,509,0
992,-2135,509,0
993,-2145,509,0
994,-2195,509,0
995,-2205,509,0
996,-2155,509,0
997,-2225,509,0
998,-2215,509,0
999,-2195,509,0
