episode,reward,step,sensitive
0,-1790,459,2
1,-2625,553,0
2,-2650,553,0
3,-2660,553,0
4,-2525,553,0
5,-2125,536,2
6,-1820,458,2
7,-1580,408,2
8,-2020,507,2
9,-1955,496,2
10,-2660,553,0
11,-2540,553,0
12,-1775,464,2
13,-2630,553,0
14,-2445,553,1
15,-420,191,2
16,-2650,553,0
17,-2130,530,2
18,-540,193,2
19,-2465,553,1
20,-1060,289,2
21,-2640,553,0
22,-2630,553,0
23,-1880,463,2
24,-1320,371,2
25,-2025,500,2
26,-2380,553,1
27,-860,260,2
28,-1620,427,2
29,-2650,553,0
30,-705,215,2
31,-2465,553,1
32,-2555,553,0
33,-2445,553,1
34,-870,275,2
35,-1530,405,2
36,-950,272,2
37,-2390,553,1
38,-1935,499,2
39,-2660,553,0
40,-2695,553,0
41,-2565,553,0
42,-2650,553,0
43,-1070,301,2
44,-605,205,2
45,-635,213,2
46,-1165,353,2
47,-2450,553,1
48,-2510,553,0
49,-2650,553,0
50,-2525,553,0
51,-1390,373,2
52,-2650,553,0
53,-1090,309,2
54,-635,206,2
55,-1660,427,2
56,-900,273,2
57,-585,197,2
58,-2410,553,1
59,-930,274,2
60,-1490,395,2
61,30,70,2
62,-480,162,2
63,-1170,323,2
64,-645,223,2
65,-1325,376,2
66,-2365,553,1
67,-750,238,2
68,-1310,371,2
69,-2345,553,1
70,-2565,553,1
71,-2730,553,0
72,-2770,553,0
73,-2730,553,0
74,-1320,354,2
75,-2300,553,1
76,-2665,553,0
77,-2670,553,0
78,-2600,553,0
79,-2605,553,0
80,-2310,553,1
81,-2670,553,0
82,-2615,553,0
83,-1465,399,2
84,-2730,553,0
85,-2730,553,0
86,-2730,553,0
87,-2730,553,0
88,-2615,553,0
89,-2730,553,0
90,-2730,553,0
91,-2705,553,0
92,-2595,553,0
93,-2705,553,0
94,-1555,406,2
95,-1670,447,2
96,-2680,553,0
97,-625,230,2
98,-1320,375,2
99,-2590,553,0
100,-2665,553,0
101,-2595,553,0
102,-1615,421,2
103,-2675,553,0
104,-2650,553,0
105,-2555,553,0
106,-2015,509,2
107,-2420,553,1
108,-2665,553,0
109,-1290,351,2
110,-2665,553,0
111,-2675,553,0
112,-2690,553,0
113,-2690,553,0
114,-2690,553,0
115,-2745,553,0
116,-2770,553,0
117,-2770,553,0
118,-2770,553,0
119,-2770,553,0
120,-2770,553,0
121,-2770,553,0
122,-2745,553,0
123,-2770,553,0
124,-2770,553,0
125,-2770,553,0
126,-2770,553,0
127,-2770,553,0
128,-2770,553,0
129,-2770,553,0
130,-2770,553,0
131,-2770,553,0
132,-2770,553,0
133,-2770,553,0
134,-2770,553,0
135,-2770,553,0
136,-2770,553,0
137,-2770,553,0
138,-2770,553,0
139,-2770,553,0
140,-2770,553,0
141,-2770,553,0
142,-2770,553,0
143,-2770,553,0
144,-2770,553,0
145,-2770,553,0
146,-2770,553,0
147,-2770,553,0
148,-2770,553,0
149,-2770,553,0
150,-2770,553,0
151,-2770,553,0
152,-2770,553,0
153,-2770,553,0
154,-2770,553,0
155,-2770,553,0
156,-2770,553,0
157,-2770,553,0
158,-2770,553,0
159,-2770,553,0
160,-2770,553,0
161,-2770,553,0
162,-2770,553,0
163,-2770,553,0
164,-2770,553,0
165,-2770,553,0
166,-2770,553,0
167,-2770,553,0
168,-2770,553,0
169,-2770,553,0
170,-2770,553,0
171,-2770,553,0
172,-2770,553,0
173,-2770,553,0
174,-2770,553,0
175,-2770,553,0
176,-2770,553,0
177,-2770,553,0
178,-2770,553,0
179,-2770,553,0
180,-2770,553,0
181,-2770,553,0
182,-2770,553,0
183,-2770,553,0
184,-2770,553,0
185,-2770,553,0
186,-2770,553,0
187,-2770,553,0
188,-2770,553,0
189,-2770,553,0
190,-2770,553,0
191,-2770,553,0
192,-2770,553,0
193,-2770,553,0
194,-2770,553,0
195,-2770,553,0
196,-2770,553,0
197,-2770,553,0
198,-2770,553,0
199,-2770,553,0
200,-2770,553,0
201,-2770,553,0
202,-2770,553,0
203,-2770,553,0
204,-2770,553,0
205,-2770,553,0
206,-2770,553,0
207,-2770,553,0
208,-2770,553,0
209,-2770,553,0
210,-2770,553,0
211,-2770,553,0
212,-2770,553,0
213,-2770,553,0
214,-2770,553,0
215,-2770,553,0
216,-2770,553,0
217,-2770,553,0
218,-2770,553,0
219,-2770,553,0
220,-2770,553,0
221,-2770,553,0
222,-2770,553,0
223,-2770,553,0
224,-2770,553,0
225,-2770,553,0
226,-2770,553,0
227,-2770,553,0
228,-2770,553,0
229,-2770,553,0
230,-2770,553,0
231,-2770,553,0
232,-2770,553,0
233,-2770,553,0
234,-2770,553,0
235,-2770,553,0
236,-2770,553,0
237,-2770,553,0
238,-2770,553,0
239,-2770,553,0
240,-2770,553,0
241,-2770,553,0
242,-2770,553,0
243,-2770,553,0
244,-2770,553,0
245,-2770,553,0
246,-2770,553,0
247,-2770,553,0
248,-2770,553,0
249,-2770,553,0
250,-2770,553,0
251,-2770,553,0
252,-2770,553,0
253,-2770,553,0
254,-2770,553,0
255,-2770,553,0
256,-2770,553,0
257,-2770,553,0
258,-2770,553,0
259,-2770,553,0
260,-2770,553,0
261,-2770,553,0
262,-2770,553,0
263,-2770,553,0
264,-2770,553,0
265,-2770,553,0
266,-2770,553,0
267,-2770,553,0
268,-2770,553,0
269,-2770,553,0
270,-2770,553,0
271,-2770,553,0
272,-2770,553,0
273,-2770,553,0
274,-2770,553,0
275,-2770,553,0
276,-2770,553,0
277,-2770,553,0
278,-2770,553,0
279,-2770,553,0
280,-2770,553,0
281,-2770,553,0
282,-2745,553,0
283,-2770,553,0
284,-2770,553,0
285,-2770,553,0
286,-2770,553,0
287,-2770,553,0
288,-2770,553,0
289,-2770,553,0
290,-2770,553,0
291,-2770,553,0
292,-2770,553,0
293,-2770,553,0
294,-2770,553,0
295,-2770,553,0
296,-2770,553,0
297,-2770,553,0
298,-2770,553,0
299,-2770,553,0
300,-2770,553,0
301,-2770,553,0
302,-2770,553,0
303,-2770,553,0
304,-2770,553,0
305,-2770,553,0
306,-2770,553,0
307,-2745,553,0
308,-2770,553,0
309,-2770,553,0
310,-2770,553,0
311,-2770,553,0
312,-2770,553,0
313,-2770,553,0
314,-2770,553,0
315,-2770,553,0
316,-2770,553,0
317,-2770,553,0
318,-2770,553,0
319,-2770,553,0
320,-2770,553,0
321,-2770,553,0
322,-2770,553,0
323,-2770,553,0
324,-2770,553,0
325,-2770,553,0
326,-2770,553,0
327,-2770,553,0
328,-2770,553,0
329,-2770,553,0
330,-2770,553,0
331,-2770,553,0
332,-2770,553,0
333,-2770,553,0
334,-2770,553,0
335,-2745,553,0
336,-2770,553,0
337,-2770,553,0
338,-2770,553,0
339,-2770,553,0
340,-2770,553,0
341,-2770,553,0
342,-2770,553,0
343,-2770,553,0
344,-2770,553,0
345,-2770,553,0
346,-2770,553,0
347,-2770,553,0
348,-2770,553,0
349,-2770,553,0
350,-2770,553,0
351,-2770,553,0
352,-2770,553,0
353,-2770,553,0
354,-2770,553,0
355,-2770,553,0
356,-2770,553,0
357,-2770,553,0
358,-2770,553,0
359,-2770,553,0
360,-2770,553,0
361,-2770,553,0
362,-2770,553,0
363,-2770,553,0
364,-2770,553,0
365,-2770,553,0
366,-2770,553,0
367,-2770,553,0
368,-2770,553,0
369,-2770,553,0
370,-2770,553,0
371,-2770,553,0
372,-2770,553,0
373,-2770,553,0
374,-2770,553,0
375,-2770,553,0
376,-2770,553,0
377,-2770,553,0
378,-2770,553,0
379,-2770,553,0
380,-2770,553,0
381,-2770,553,0
382,-2770,553,0
383,-2770,553,0
384,-2770,553,0
385,-2770,553,0
386,-2770,553,0
387,-2770,553,0
388,-2770,553,0
389,-2770,553,0
390,-2770,553,0
391,-2770,553,0
392,-2770,553,0
393,-2770,553,0
394,-2770,553,0
395,-2770,553,0
396,-2770,553,0
397,-2770,553,0
398,-2770,553,0
399,-2770,553,0
400,-2770,553,0
401,-2770,553,0
402,-2770,553,0
403,-2770,553,0
404,-2770,553,0
405,-2770,553,0
406,-2770,553,0
407,-2770,553,0
408,-2770,553,0
409,-2770,553,0
410,-2770,553,0
411,-2770,553,0
412,-2770,553,0
413,-2770,553,0
414,-2770,553,0
415,-2770,553,0
416,-2770,553,0
417,-2770,553,0
418,-2770,553,0
419,-2770,553,0
420,-2770,553,0
421,-2770,553,0
422,-2770,553,0
423,-2770,553,0
424,-2770,553,0
425,-2770,553,0
426,-2770,553,0
427,-2770,553,0
428,-2770,553,0
429,-2770,553,0
430,-2770,553,0
431,-2770,553,0
432,-2770,553,0
433,-2770,553,0
434,-2770,553,0
435,-2770,553,0
436,-2770,553,0
437,-2770,553,0
438,-2770,553,0
439,-2770,553,0
440,-2770,553,0
441,-2770,553,0
442,-2770,553,0
443,-2770,553,0
444,-2770,553,0
445,-2770,553,0
446,-2770,553,0
447,-2770,553,0
448,-2770,553,0
449,-2770,553,0
450,-2770,553,0
451,-2770,553,0
452,-2770,553,0
453,-2770,553,0
454,-2770,553,0
455,-2770,553,0
456,-2770,553,0
457,-2770,553,0
458,-2770,553,0
459,-2770,553,0
460,-2770,553,0
461,-2770,553,0
462,-2770,553,0
463,-2770,553,0
464,-2770,553,0
465,-2770,553,0
466,-2770,553,0
467,-2770,553,0
468,-2770,553,0
469,-2770,553,0
470,-2770,553,0
471,-2770,553,0
472,-2770,553,0
473,-2770,553,0
474,-2770,553,0
475,-2770,553,0
476,-2770,553,0
477,-2770,553,0
478,-2770,553,0
479,-2770,553,0
480,-2770,553,0
481,-2770,553,0
482,-2770,553,0
483,-2770,553,0
484,-2770,553,0
485,-2770,553,0
486,-2770,553,0
487,-2770,553,0
488,-2770,553,0
489,-2770,553,0
490,-2770,553,0
491,-2770,553,0
492,-2770,553,0
493,-2770,553,0
494,-2770,553,0
495,-2770,553,0
496,-2770,553,0
497,-2770,553,0
498,-2770,553,0
499,-2770,553,0
500,-2770,553,0
501,-2770,553,0
502,-2770,553,0
503,-2770,553,0
504,-2770,553,0
505,-2770,553,0
506,-2770,553,0
507,-2770,553,0
508,-2770,553,0
509,-2770,553,0
510,-2770,553,0
511,-2770,553,0
512,-2770,553,0
513,-2770,553,0
514,-2770,553,0
515,-2770,553,0
516,-2770,553,0
517,-2770,553,0
518,-2770,553,0
519,-2770,553,0
520,-2770,553,0
521,-2770,553,0
522,-2770,553,0
523,-2770,553,0
524,-2770,553,0
525,-2770,553,0
526,-2770,553,0
527,-2770,553,0
528,-2745,553,0
529,-2770,553,0
530,-2770,553,0
531,-2770,553,0
532,-2770,553,0
533,-2770,553,0
534,-2770,553,0
535,-2770,553,0
536,-2770,553,0
537,-2770,553,0
538,-2770,553,0
539,-2770,553,0
540,-2770,553,0
541,-2770,553,0
542,-2770,553,0
543,-2770,553,0
544,-2770,553,0
545,-2770,553,0
546,-2770,553,0
547,-2770,553,0
548,-2770,553,0
549,-2770,553,0
550,-2770,553,0
551,-2770,553,0
552,-2770,553,0
553,-2770,553,0
554,-2770,553,0
555,-2770,553,0
556,-2770,553,0
557,-2770,553,0
558,-2770,553,0
559,-2770,553,0
560,-2770,553,0
561,-2770,553,0
562,-2770,553,0
563,-2770,553,0
564,-2770,553,0
565,-2770,553,0
566,-2770,553,0
567,-2770,553,0
568,-2770,553,0
569,-2770,553,0
570,-2770,553,0
571,-2770,553,0
572,-2770,553,0
573,-2770,553,0
574,-2770,553,0
575,-2770,553,0
576,-2770,553,0
577,-2770,553,0
578,-2770,553,0
579,-2770,553,0
580,-2770,553,0
581,-2770,553,0
582,-2770,553,0
583,-2770,553,0
584,-2770,553,0
585,-2770,553,0
586,-2770,553,0
587,-2770,553,0
588,-2770,553,0
589,-2770,553,0
590,-2770,553,0
591,-2770,553,0
592,-2770,553,0
593,-2770,553,0
594,-2770,553,0
595,-2770,553,0
596,-2770,553,0
597,-2770,553,0
598,-2770,553,0
599,-2770,553,0
600,-2770,553,0
601,-2770,553,0
602,-2770,553,0
603,-2770,553,0
604,-2770,553,0
605,-2770,553,0
606,-2770,553,0
607,-2770,553,0
608,-2770,553,0
609,-2770,553,0
610,-2770,553,0
611,-2770,553,0
612,-2770,553,0
613,-2770,553,0
614,-2770,553,0
615,-2770,553,0
616,-2770,553,0
617,-2770,553,0
618,-2770,553,0
619,-2770,553,0
620,-2770,553,0
621,-2770,553,0
622,-2770,553,0
623,-2770,553,0
624,-2770,553,0
625,-2770,553,0
626,-2770,553,0
627,-2770,553,0
628,-2770,553,0
629,-2770,553,0
630,-2770,553,0
631,-2770,553,0
632,-2770,553,0
633,-2770,553,0
634,-2770,553,0
635,-2770,553,0
636,-2770,553,0
637,-2770,553,0
638,-2770,553,0
639,-2770,553,0
640,-2770,553,0
641,-2770,553,0
642,-2770,553,0
643,-2770,553,0
644,-2770,553,0
645,-2770,553,0
646,-2770,553,0
647,-2770,553,0
648,-2770,553,0
649,-2770,553,0
650,-2770,553,0
651,-2770,553,0
652,-2770,553,0
653,-2770,553,0
654,-2770,553,0
655,-2770,553,0
656,-2770,553,0
657,-2770,553,0
658,-2770,553,0
659,-2770,553,0
660,-2770,553,0
661,-2770,553,0
662,-2770,553,0
663,-2770,553,0
664,-2770,553,0
665,-2770,553,0
666,-2770,553,0
667,-2730,553,0
668,-2730,553,0
669,-2770,553,0
670,-2730,553,0
671,-2730,553,0
672,-2730,553,0
673,-2730,553,0
674,-2730,553,0
675,-2770,553,0
676,-2770,553,0
677,-2770,553,0
678,-2770,553,0
679,-2770,553,0
680,-2770,553,0
681,-2770,553,0
682,-2770,553,0
683,-2770,553,0
684,-2770,553,0
685,-2770,553,0
686,-2770,553,0
687,-2770,553,0
688,-2770,553,0
689,-2770,553,0
690,-2770,553,0
691,-2770,553,0
692,-2770,553,0
693,-2770,553,0
694,-2770,553,0
695,-2770,553,0
696,-2770,553,0
697,-2770,553,0
698,-2770,553,0
699,-2770,553,0
700,-2770,553,0
701,-2770,553,0
702,-2770,553,0
703,-2770,553,0
704,-2770,553,0
705,-2770,553,0
706,-2770,553,0
707,-2770,553,0
708,-2770,553,0
709,-2770,553,0
710,-2770,553,0
711,-2770,553,0
712,-2770,553,0
713,-2770,553,0
714,-2770,553,0
715,-2770,553,0
716,-2770,553,0
717,-2770,553,0
718,-2770,553,0
719,-2770,553,0
720,-2770,553,0
721,-2770,553,0
722,-2770,553,0
723,-2770,553,0
724,-2770,553,0
725,-2770,553,0
726,-2770,553,0
727,-2770,553,0
728,-2770,553,0
729,-2770,553,0
730,-2770,553,0
731,-2770,553,0
732,-2770,553,0
733,-2770,553,0
734,-2770,553,0
735,-2770,553,0
736,-2770,553,0
737,-2770,553,0
738,-2770,553,0
739,-2770,553,0
740,-2770,553,0
741,-2770,553,0
742,-2770,553,0
743,-2770,553,0
744,-2770,553,0
745,-2770,553,0
746,-2770,553,0
747,-2770,553,0
748,-2770,553,0
749,-2770,553,0
750,-2770,553,0
751,-2770,553,0
752,-2770,553,0
753,-2770,553,0
754,-2770,553,0
755,-2770,553,0
756,-2770,553,0
757,-2770,553,0
758,-2770,553,0
759,-2770,553,0
760,-2770,553,0
761,-2770,553,0
762,-2770,553,0
763,-2770,553,0
764,-2770,553,0
765,-2770,553,0
766,-2770,553,0
767,-2770,553,0
768,-2770,553,0
769,-2770,553,0
770,-2770,553,0
771,-2770,553,0
772,-2770,553,0
773,-2770,553,0
774,-2770,553,0
775,-2770,553,0
776,-2770,553,0
777,-2770,553,0
778,-2770,553,0
779,-2770,553,0
780,-2770,553,0
781,-2770,553,0
782,-2770,553,0
783,-2770,553,0
784,-2770,553,0
785,-2770,553,0
786,-2770,553,0
787,-2770,553,0
788,-2770,553,0
789,-2770,553,0
790,-2770,553,0
791,-2770,553,0
792,-2770,553,0
793,-2770,553,0
794,-2770,553,0
795,-2770,553,0
796,-2770,553,0
797,-2770,553,0
798,-2770,553,0
799,-2770,553,0
800,-2770,553,0
801,-2770,553,0
802,-2770,553,0
803,-2770,553,0
804,-2770,553,0
805,-2770,553,0
806,-2770,553,0
807,-2770,553,0
808,-2770,553,0
809,-2770,553,0
810,-2770,553,0
811,-2770,553,0
812,-2770,553,0
813,-2770,553,0
814,-2770,553,0
815,-2770,553,0
816,-2770,553,0
817,-2770,553,0
818,-2770,553,0
819,-2770,553,0
820,-2770,553,0
821,-2770,553,0
822,-2770,553,0
823,-2770,553,0
824,-2770,553,0
825,-2770,553,0
826,-2770,553,0
827,-2770,553,0
828,-2770,553,0
829,-2770,553,0
830,-2770,553,0
831,-2770,553,0
832,-2770,553,0
833,-2770,553,0
834,-2770,553,0
835,-2770,553,0
836,-2770,553,0
837,-2770,553,0
838,-2770,553,0
839,-2770,553,0
840,-2770,553,0
841,-2770,553,0
842,-2770,553,0
843,-2770,553,0
844,-2770,553,0
845,-2770,553,0
846,-2770,553,0
847,-2770,553,0
848,-2770,553,0
849,-2770,553,0
850,-2770,553,0
851,-2770,553,0
852,-2770,553,0
853,-2770,553,0
854,-2770,553,0
855,-2770,553,0
856,-2770,553,0
857,-2770,553,0
858,-2770,553,0
859,-2770,553,0
860,-2770,553,0
861,-2770,553,0
862,-2770,553,0
863,-2770,553,0
864,-2770,553,0
865,-2770,553,0
866,-2770,553,0
867,-2770,553,0
868,-2770,553,0
869,-2770,553,0
870,-2770,553,0
871,-2770,553,0
872,-2770,553,0
873,-2770,553,0
874,-2770,553,0
875,-2770,553,0
876,-2770,553,0
877,-2770,553,0
878,-2770,553,0
879,-2770,553,0
880,-2770,553,0
881,-2770,553,0
882,-2770,553,0
883,-2770,553,0
884,-2770,553,0
885,-2770,553,0
886,-2770,553,0
887,-2770,553,0
888,-2770,553,0
889,-2770,553,0
890,-2770,553,0
891,-2770,553,0
892,-2770,553,0
893,-2770,553,0
894,-2770,553,0
895,-2770,553,0
896,-2770,553,0
897,-2770,553,0
898,-2770,553,0
899,-2770,553,0
900,-2770,553,0
901,-2770,553,0
902,-2770,553,0
903,-2770,553,0
904,-2770,553,0
905,-2770,553,0
906,-2770,553,0
907,-2770,553,0
908,-2770,553,0
909,-2770,553,0
910,-2770,553,0
911,-2770,553,0
912,-2770,553,0
913,-2770,553,0
914,-2770,553,0
915,-2770,553,0
916,-2770,553,0
917,-2770,553,0
918,-2770,553,0
919,-2770,553,0
920,-2770,553,0
921,-2770,553,0
922,-2770,553,0
923,-2770,553,0
924,-2770,553,0
925,-2770,553,0
926,-2770,553,0
927,-2770,553,0
928,-2770,553,0
929,-2770,553,0
930,-2770,553,0
931,-2770,553,0
932,-2770,553,0
933,-2770,553,0
934,-2770,553,0
935,-2770,553,0
936,-2770,553,0
937,-2770,553,0
938,-2770,553,0
939,-2770,553,0
940,-2770,553,0
941,-2770,553,0
942,-2770,553,0
943,-2770,553,0
944,-2770,553,0
945,-2770,553,0
946,-2770,553,0
947,-2770,553,0
948,-2770,553,0
949,-2770,553,0
950,-2770,553,0
951,-2770,553,0
952,-2770,553,0
953,-2770,553,0
954,-2770,553,0
955,-2770,553,0
956,-2770,553,0
957,-2770,553,0
958,-2770,553,0
959,-2770,553,0
960,-2770,553,0
961,-2770,553,0
962,-2770,553,0
963,-2770,553,0
964,-2770,553,0
965,-2770,553,0
966,-2770,553,0
967,-2770,553,0
968,-2770,553,0
969,-2770,553,0
970,-2770,553,0
971,-2770,553,0
972,-2770,553,0
973,-2770,553,0
974,-2770,553,0
975,-2770,553,0
976,-2770,553,0
977,-2770,553,0
978,-2770,553,0
979,-2770,553,0
980,-2770,553,0
981,-2770,553,0
982,-2770,553,0
983,-2770,553,0
984,-2770,553,0
985,-2770,553,0
986,-2770,553,0
987,-2770,553,0
988,-2770,553,0
989,-2770,553,0
990,-2770,553,0
991,-2770,553,0
992,-2770,553,0
993,-2770,553,0
994,-2770,553,0
995,-2770,553,0
996,-2770,553,0
997,-2770,553,0
998,-2770,553,0
999,-2770,553,0
