episode,reward,step,sensitive
0,-790,210,0
1,-750,210,1
2,-615,210,1
3,-850,210,0
4,-770,210,1
5,-655,210,1
6,-60,121,2
7,-165,167,2
8,-570,210,1
9,-720,210,0
10,-665,210,1
11,-805,210,1
12,-1030,210,0
13,-565,210,1
14,-735,210,1
15,-615,210,0
16,-590,210,1
17,-670,210,1
18,-535,210,1
19,-575,210,1
20,-820,210,0
21,-580,210,1
22,-555,210,1
23,-815,210,0
24,-170,145,2
25,-380,176,2
26,-420,199,2
27,-320,142,2
28,-745,210,0
29,-315,167,2
30,-520,210,1
31,-805,210,0
32,-615,210,1
33,-675,210,1
34,-510,208,2
35,-695,210,1
36,-555,210,1
37,-490,210,1
38,-465,210,2
39,-700,210,1
40,-645,210,1
41,-600,210,1
42,-55,102,2
43,-630,210,1
44,-780,210,0
45,-855,210,0
46,-160,126,2
47,-530,203,2
48,-715,210,0
49,-195,164,2
50,-830,210,0
51,-485,210,1
52,-220,138,2
53,-255,152,2
54,-595,210,1
55,-855,210,0
56,-500,210,1
57,-570,210,1
58,-360,174,2
59,-245,176,2
60,-500,210,1
61,-495,210,1
62,-545,210,1
63,-420,206,2
64,-495,210,1
65,-500,210,1
66,-255,163,2
67,-120,136,2
68,-465,210,1
69,-195,158,2
70,-505,210,1
71,-325,200,2
72,-560,210,1
73,-490,210,1
74,-510,210,1
75,-10,88,2
76,-415,210,1
77,-530,210,1
78,-500,210,1
79,-545,210,1
80,-520,210,1
81,-485,210,1
82,-170,137,2
83,-445,210,1
84,-565,210,1
85,-220,161,2
86,-190,172,2
87,-415,210,1
88,-465,210,2
89,-50,132,2
90,-535,210,1
91,-255,173,2
92,-225,180,2
93,-560,210,1
94,-520,210,1
95,-485,210,1
96,175,62,2
97,5,97,2
98,10,122,2
99,-605,210,1
100,-210,143,2
101,-290,180,2
102,-690,210,0
103,-605,210,1
104,-100,120,2
105,-520,210,1
106,-140,170,2
107,-385,192,2
108,-170,153,2
109,-45,140,2
110,-225,169,2
111,-515,210,1
112,-560,210,1
113,80,93,2
114,-250,166,2
115,-510,210,1
116,-25,124,2
117,-130,130,2
118,-110,146,2
119,-125,148,2
120,-430,210,1
121,-150,138,2
122,-170,152,2
123,-500,210,1
124,-540,210,1
125,-455,210,1
126,210,52,2
127,-485,210,1
128,20,107,2
129,-45,121,2
130,-545,210,1
131,-500,210,1
132,-55,129,2
133,-150,132,2
134,-490,210,1
135,-225,162,2
136,-350,197,2
137,195,51,2
138,-125,147,2
139,-205,149,2
140,-455,210,1
141,-140,159,2
142,-435,209,2
143,-520,210,1
144,-615,210,1
145,-470,210,1
146,-515,210,1
147,-180,168,2
148,-265,182,2
149,-90,132,2
150,-260,168,2
151,-80,145,2
152,-400,210,1
153,-440,192,2
154,-535,210,1
155,-525,210,1
156,140,54,2
157,-630,210,1
158,170,86,2
159,75,96,2
160,-460,210,1
161,-225,179,2
162,-265,156,2
163,135,70,2
164,-45,136,2
165,-175,171,2
166,-210,177,2
167,-490,210,1
168,-5,143,2
169,-55,106,2
170,-90,149,2
171,130,81,2
172,-495,210,1
173,-355,202,2
174,-520,210,1
175,-480,210,1
176,-100,161,2
177,-385,209,2
178,30,90,2
179,-550,210,1
180,-120,162,2
181,25,99,2
182,-215,180,2
183,-465,210,1
184,-215,177,2
185,-495,210,1
186,-470,210,1
187,-440,210,1
188,-60,103,2
189,-535,210,1
190,-435,210,1
191,-205,152,2
192,-240,167,2
193,-295,198,2
194,-80,132,2
195,-210,188,2
196,195,47,2
197,-465,210,1
198,-20,123,2
199,50,92,2
200,75,90,2
201,-10,115,2
202,-550,210,1
203,-75,122,2
204,-250,173,2
205,20,104,2
206,-455,210,1
207,-490,210,1
208,-435,210,1
209,-635,210,1
210,130,74,2
211,-275,189,2
212,-465,210,1
213,175,59,2
214,-470,210,1
215,130,70,2
216,-140,152,2
217,115,89,2
218,-180,170,2
219,-455,210,1
220,-280,180,2
221,-245,164,2
222,-500,210,1
223,70,89,2
224,-470,210,1
225,-190,169,2
226,-235,192,2
227,-25,124,2
228,-215,186,2
229,-430,210,1
230,-245,189,2
231,-170,170,2
232,-460,210,1
233,-185,155,2
234,-20,117,2
235,-145,147,2
236,45,113,2
237,-350,208,2
238,-260,153,2
239,80,92,2
240,-470,210,1
241,-170,152,2
242,-410,210,1
243,-25,132,2
244,45,108,2
245,-230,178,2
246,-180,183,2
247,15,106,2
248,115,79,2
249,80,86,2
250,5,110,2
251,-325,195,2
252,-500,210,1
253,-40,122,2
254,-280,195,2
255,90,96,2
256,-560,210,1
257,-75,108,2
258,25,138,2
259,220,35,2
260,-125,136,2
261,120,65,2
262,-440,210,1
263,-330,186,2
264,-300,172,2
265,120,79,2
266,120,58,2
267,5,103,2
268,-40,117,2
269,-80,130,2
270,-265,193,2
271,-25,103,2
272,-545,210,1
273,-120,119,2
274,-465,210,1
275,125,73,2
276,-135,157,2
277,-5,109,2
278,205,41,2
279,65,97,2
280,-375,205,2
281,-495,210,1
282,-185,178,2
283,10,108,2
284,-465,210,1
285,-475,210,1
286,120,60,2
287,-415,210,1
288,220,54,2
289,-390,210,1
290,-520,210,1
291,-450,210,1
292,-175,159,2
293,-440,210,1
294,-515,210,1
295,-260,184,2
296,-535,210,1
297,-270,155,2
298,-525,210,1
299,-440,210,1
300,-65,139,2
301,125,52,2
302,-450,210,1
303,-135,147,2
304,-15,101,2
305,-465,210,1
306,-275,192,2
307,-60,109,2
308,-220,177,2
309,-525,210,1
310,-490,210,1
311,-485,210,1
312,-530,210,1
313,-505,210,1
314,-20,148,2
315,-270,195,2
316,-225,178,2
317,-155,156,2
318,-535,210,1
319,-505,210,1
320,-500,210,1
321,90,80,2
322,60,75,2
323,-25,130,2
324,-455,210,1
325,-110,128,2
326,115,106,2
327,-270,175,2
328,-225,183,2
329,-55,133,2
330,-390,196,2
331,200,30,2
332,15,122,2
333,150,76,2
334,-65,126,2
335,100,109,2
336,-465,210,1
337,-470,210,1
338,-210,164,2
339,60,94,2
340,-160,164,2
341,0,133,2
342,-515,210,1
343,-160,128,2
344,-485,210,1
345,-465,210,1
346,-570,210,1
347,-95,120,2
348,-255,205,2
349,-210,165,2
350,-185,165,2
351,45,119,2
352,80,112,2
353,175,61,2
354,-285,198,2
355,-410,210,1
356,-520,210,1
357,-105,126,2
358,-70,142,2
359,-100,138,2
360,-250,168,2
361,-135,166,2
362,-225,173,2
363,-485,210,1
364,-135,149,2
365,-225,175,2
366,-330,202,2
367,-480,210,1
368,275,26,2
369,-430,210,1
370,60,105,2
371,-445,210,1
372,-70,133,2
373,-340,184,2
374,-590,210,1
375,-515,210,1
376,90,92,2
377,-475,210,1
378,-95,139,2
379,-445,210,1
380,-120,138,2
381,-455,210,1
382,-440,210,1
383,-270,195,2
384,-470,210,1
385,-440,210,1
386,-345,204,2
387,-445,210,1
388,75,75,2
389,-615,210,1
390,135,84,2
391,-470,210,1
392,-520,210,1
393,-485,210,1
394,-520,210,1
395,-50,125,2
396,-460,210,1
397,-480,210,1
398,-135,142,2
399,-450,210,1
400,-295,198,2
401,-420,210,1
402,-260,154,2
403,-255,187,2
404,-155,145,2
405,-335,195,2
406,100,95,2
407,-560,210,1
408,215,34,2
409,-495,210,1
410,120,67,2
411,-165,154,2
412,-470,210,1
413,-620,210,1
414,-540,210,1
415,-570,210,1
416,-85,144,2
417,-545,210,1
418,-535,210,1
419,-525,210,1
420,-160,159,2
421,-565,210,1
422,-490,210,1
423,-55,140,2
424,-95,150,2
425,150,64,2
426,215,50,2
427,-565,210,1
428,-180,171,2
429,-540,210,1
430,-520,210,1
431,-285,193,2
432,-475,210,1
433,-10,125,2
434,-460,210,1
435,-510,210,1
436,-155,160,2
437,-495,210,1
438,-5,142,2
439,-220,172,2
440,-210,158,2
441,-495,210,1
442,-525,210,1
443,-460,210,1
444,-215,175,2
445,-85,132,2
446,-100,147,2
447,-70,128,2
448,-150,168,2
449,-170,161,2
450,-550,210,1
451,-60,125,2
452,-20,118,2
453,-500,210,1
454,125,96,2
455,150,59,2
456,-615,210,1
457,-145,150,2
458,-570,210,1
459,-480,210,1
460,70,81,2
461,50,86,2
462,-675,210,1
463,-45,125,2
464,-260,176,2
465,-450,210,1
466,-480,210,1
467,-70,118,2
468,-240,188,2
469,-440,210,1
470,-340,196,2
471,-510,210,1
472,-445,210,1
473,90,72,2
474,-55,141,2
475,-455,210,1
476,-355,208,2
477,-520,210,1
478,-325,186,2
479,-495,210,1
480,-10,120,2
481,170,51,2
482,-45,125,2
483,-285,177,2
484,90,100,2
485,-485,210,1
486,-125,147,2
487,35,94,2
488,-540,210,1
489,-555,210,1
490,130,48,2
491,-465,210,1
492,185,53,2
493,-20,134,2
494,-400,199,2
495,-120,141,2
496,-90,137,2
497,-340,196,2
498,-215,157,2
499,-475,210,1
500,-530,210,1
501,-15,119,2
502,-620,210,1
503,-420,210,1
504,-280,173,2
505,-195,166,2
506,-440,210,1
507,-30,119,2
508,-450,210,1
509,60,104,2
510,-435,210,1
511,-655,210,1
512,-25,123,2
513,-340,195,2
514,-50,135,2
515,-655,210,1
516,-500,210,1
517,-15,109,2
518,-480,210,1
519,-540,210,1
520,-500,210,1
521,-610,210,1
522,-540,210,1
523,-440,210,1
524,-520,210,1
525,-490,210,1
526,-500,210,1
527,-600,210,1
528,-220,167,2
529,-555,210,1
530,-130,136,2
531,-530,210,1
532,45,100,2
533,-260,182,2
534,55,113,2
535,-475,210,1
536,-485,210,1
537,-590,210,1
538,-240,168,2
539,-505,210,1
540,-585,210,1
541,-115,155,2
542,-200,150,2
543,-455,210,1
544,-15,107,2
545,-280,178,2
546,-360,206,2
547,-495,210,1
548,-460,187,2
549,-345,189,2
550,-170,136,2
551,-390,208,2
552,35,91,2
553,-520,210,1
554,-290,178,2
555,120,80,2
556,-280,165,2
557,-355,199,2
558,-425,210,1
559,-550,210,1
560,-260,171,2
561,-465,210,1
562,-385,191,2
563,-455,210,1
564,-610,210,1
565,-485,210,1
566,-495,210,1
567,-500,210,1
568,-100,142,2
569,-260,169,2
570,-540,210,1
571,-360,203,2
572,-25,120,2
573,-60,114,2
574,-390,210,1
575,-550,210,1
576,-490,210,1
577,5,92,2
578,-390,208,2
579,-685,210,1
580,-25,122,2
581,-425,208,2
582,-365,197,2
583,-480,210,1
584,-50,121,2
585,-490,210,1
586,-440,210,1
587,-505,210,1
588,-445,210,1
589,-125,149,2
590,-470,210,1
591,150,45,2
592,-55,112,2
593,-585,210,1
594,-460,210,1
595,-485,210,1
596,40,104,2
597,-400,194,2
598,-650,210,1
599,15,101,2
600,-560,210,1
601,120,72,2
602,80,88,2
603,-580,210,1
604,-275,181,2
605,-85,153,2
606,-520,210,1
607,-575,210,1
608,-10,120,2
609,-120,142,2
610,-25,133,2
611,35,97,2
612,-570,210,1
613,-190,152,2
614,-625,210,1
615,-490,210,1
616,-480,210,1
617,-215,158,2
618,-625,210,1
619,-210,141,2
620,-540,210,1
621,-525,210,1
622,-265,182,2
623,-655,210,1
624,-640,210,1
625,-520,210,1
626,80,85,2
627,-475,210,1
628,-135,161,2
629,-480,210,1
630,-425,202,2
631,-560,210,1
632,-330,187,2
633,-300,183,2
634,-495,210,1
635,-270,194,2
636,-235,167,2
637,-505,210,1
638,-610,210,1
639,-615,210,1
640,-285,194,2
641,-315,187,2
642,-475,210,1
643,-440,210,1
644,-225,176,2
645,-370,196,2
646,-290,183,2
647,-510,210,1
648,-255,169,2
649,190,62,2
650,-45,147,2
651,-505,210,1
652,-300,184,2
653,20,111,2
654,-570,210,1
655,-495,210,1
656,-605,210,1
657,-500,210,1
658,-495,210,1
659,-20,121,2
660,-605,210,1
661,-260,169,2
662,-650,210,1
663,-525,210,1
664,115,56,2
665,-345,200,2
666,-145,112,2
667,-40,117,2
668,-210,175,2
669,-580,210,1
670,-525,210,1
671,-640,210,1
672,-510,210,1
673,-175,161,2
674,-580,210,1
675,-510,210,1
676,-510,210,1
677,-585,210,1
678,-515,210,1
679,-520,210,1
680,-480,210,1
681,180,48,2
682,-145,163,2
683,30,81,2
684,-260,177,2
685,-340,198,2
686,-660,210,1
687,-85,130,2
688,155,71,2
689,-655,210,1
690,-535,210,1
691,-510,210,1
692,-535,210,1
693,-685,210,1
694,-575,210,1
695,-545,210,1
696,-275,183,2
697,-485,210,1
698,-480,210,1
699,45,94,2
700,-350,208,2
701,-535,210,1
702,-555,210,1
703,-145,129,2
704,-325,187,2
705,-485,210,1
706,-540,210,1
707,70,85,2
708,-545,210,1
709,-210,161,2
710,-500,210,1
711,-600,210,1
712,-45,127,2
713,-260,178,2
714,-575,210,1
715,-330,179,2
716,-495,210,1
717,55,103,2
718,-560,210,1
719,40,97,2
720,-125,118,2
721,-455,210,1
722,85,91,2
723,-575,210,1
724,-575,210,1
725,-530,210,1
726,-540,210,1
727,-445,210,1
728,-515,210,1
729,-615,210,1
730,-555,210,1
731,35,83,2
732,-550,210,1
733,-665,210,1
734,-130,129,2
735,-560,210,1
736,-30,105,2
737,-65,118,2
738,-480,210,1
739,-370,178,2
740,-400,210,1
741,-95,127,2
742,-555,210,1
743,-95,122,2
744,-280,176,2
745,-535,210,1
746,-125,128,2
747,-105,119,2
748,-550,210,1
749,-315,186,2
750,-500,210,1
751,205,55,2
752,65,74,2
753,0,105,2
754,100,78,2
755,75,104,2
756,-300,173,2
757,-230,167,2
758,-120,141,2
759,-580,210,1
760,-260,197,2
761,-225,165,2
762,-670,210,1
763,-440,210,1
764,5,91,2
765,-140,141,2
766,-120,135,2
767,-620,210,1
768,-660,210,1
769,-345,209,2
770,60,72,2
771,-195,168,2
772,-535,210,1
773,-550,210,1
774,-535,210,1
775,-565,210,1
776,-595,210,1
777,-505,210,1
778,160,43,2
779,130,50,2
780,-575,210,1
781,-640,210,1
782,70,66,2
783,-340,187,2
784,-495,210,1
785,-365,206,2
786,-525,210,1
787,-490,210,1
788,0,119,2
789,-110,132,2
790,-105,132,2
791,-30,82,2
792,-500,210,1
793,-475,210,1
794,100,62,2
795,-635,210,1
796,-535,210,1
797,-550,210,1
798,-555,210,1
799,-545,210,1
800,105,58,2
801,-520,210,1
802,-650,210,1
803,-490,210,1
804,-280,178,2
805,-540,210,1
806,-470,210,1
807,-520,210,1
808,-10,126,2
809,-380,203,2
810,-415,202,2
811,-560,210,1
812,-595,210,1
813,-150,148,2
814,-615,210,1
815,-205,154,2
816,-615,210,1
817,-485,210,1
818,-455,210,1
819,-575,210,1
820,-595,210,1
821,-185,159,2
822,-215,165,2
823,0,128,2
824,80,95,2
825,-530,210,1
826,-535,210,1
827,130,60,2
828,75,56,2
829,-590,210,1
830,-495,209,2
831,-690,210,1
832,-90,117,2
833,-540,210,1
834,-285,190,2
835,-455,210,1
836,-470,210,1
837,-35,124,2
838,-540,210,1
839,-285,160,2
840,-125,137,2
841,-185,137,2
842,-615,210,1
843,95,57,2
844,-130,142,2
845,-615,210,1
846,-65,128,2
847,-190,161,2
848,-215,169,2
849,145,62,2
850,-545,210,1
851,-635,210,1
852,-540,210,1
853,-360,192,2
854,-630,210,1
855,-140,124,2
856,-305,193,2
857,-510,210,1
858,-370,168,2
859,-80,132,2
860,-570,210,1
861,-400,201,2
862,-450,210,1
863,120,54,2
864,-550,210,1
865,-135,151,2
866,-475,210,1
867,-665,210,1
868,-200,145,2
869,90,59,2
870,-345,189,2
871,35,92,2
872,-510,210,1
873,-225,162,2
874,180,57,2
875,-40,108,2
876,-305,194,2
877,-600,210,1
878,-450,210,1
879,-525,210,1
880,-135,133,2
881,-430,210,1
882,-610,210,1
883,190,58,2
884,-530,210,1
885,-500,210,1
886,-530,210,1
887,-305,192,2
888,40,107,2
889,-465,210,1
890,-175,139,2
891,-15,83,2
892,-580,210,1
893,-545,210,1
894,-395,199,2
895,-570,210,1
896,-605,210,1
897,110,88,2
898,-180,142,2
899,85,63,2
900,-470,210,1
901,50,85,2
902,-85,127,2
903,-620,210,1
904,-620,210,1
905,-490,210,1
906,-120,115,2
907,-275,194,2
908,-155,151,2
909,-680,210,1
910,-20,106,2
911,-145,131,2
912,-490,210,1
913,175,70,2
914,-520,210,1
915,-540,210,1
916,70,78,2
917,-270,145,2
918,-510,210,1
919,-25,103,2
920,-245,169,2
921,-530,210,1
922,-575,210,1
923,-535,210,1
924,-270,183,2
925,-465,204,2
926,-540,210,1
927,-540,210,1
928,-665,210,1
929,-525,210,1
930,-310,190,2
931,-480,210,1
932,-585,210,1
933,-575,210,1
934,-450,210,1
935,20,97,2
936,-335,194,2
937,-555,210,1
938,-280,151,2
939,-625,210,1
940,160,68,2
941,-595,210,1
942,-400,207,2
943,-650,210,1
944,-400,185,2
945,-510,210,1
946,-465,210,1
947,-300,178,2
948,-45,109,2
949,-525,210,1
950,-530,210,1
951,-565,210,1
952,-210,150,2
953,-560,210,1
954,-390,207,2
955,-600,210,1
956,-510,210,1
957,-575,210,1
958,-600,210,1
959,-565,210,1
960,-375,209,2
961,70,80,2
962,-190,159,2
963,-450,210,1
964,-575,210,1
965,-610,210,1
966,-550,210,1
967,-690,210,1
968,-535,210,1
969,-530,210,1
970,-405,197,2
971,-550,210,1
972,-610,210,1
973,-590,210,1
974,-550,210,1
975,-600,210,1
976,-560,210,1
977,-520,210,1
978,-530,210,1
979,-560,210,1
980,-300,173,2
981,-535,210,1
982,260,21,2
983,-635,210,1
984,145,86,2
985,-610,210,1
986,-565,210,1
987,-405,201,2
988,-660,210,1
989,-445,210,1
990,-570,210,1
991,-515,210,1
992,-535,210,1
993,-545,210,1
994,-605,210,1
995,-490,210,1
996,-535,210,1
997,-315,190,2
998,-570,210,1
999,-295,187,2
