episode,reward,step,sensitive
0,-6035,1510,5
1,-7505,1510,0
2,-5090,1510,8
3,-4650,1510,9
4,-7415,1510,0
5,-5730,1510,8
6,-6130,1510,4
7,-7380,1510,0
8,-7180,1510,1
9,-7175,1510,1
10,-4430,1510,11
11,-5455,1510,8
12,-5425,1510,7
13,-4545,1510,10
14,-4835,1510,10
15,-4010,1510,14
16,-6140,1510,5
17,-4685,1510,11
18,-5600,1510,6
19,-7460,1510,0
20,-7135,1510,1
21,-5210,1510,8
22,-5920,1510,6
23,-7155,1510,1
24,-7320,1510,0
25,-4915,1510,9
26,-6960,1510,2
27,-4475,1510,11
28,-4615,1510,13
29,-7395,1510,0
30,-3905,1510,14
31,-5245,1510,8
32,-4870,1510,11
33,-6145,1510,5
34,-7345,1510,0
35,-4100,1510,13
36,-5040,1510,9
37,-3890,1510,14
38,-5830,1510,7
39,-4550,1510,10
40,-7485,1510,0
41,-7390,1510,0
42,-4545,1510,11
43,-4215,1510,10
44,-7165,1510,2
45,-5780,1510,5
46,-4815,1510,10
47,-7365,1510,0
48,-7120,1510,1
49,-4360,1510,11
50,-4195,1510,14
51,-5505,1510,8
52,-3830,1510,14
53,-4590,1510,10
54,-4420,1510,12
55,-5550,1510,6
56,-4485,1510,13
57,-4640,1510,12
58,-4655,1510,11
59,-4230,1510,12
60,-4250,1510,11
61,-4115,1510,13
62,-4265,1510,12
63,-4605,1510,13
64,-2945,1248,15
65,-3990,1510,14
66,-4775,1510,10
67,-4790,1510,10
68,-4475,1510,12
69,-4165,1510,14
70,-4220,1510,13
71,-4720,1510,11
72,-6190,1510,5
73,-3045,1304,15
74,-4120,1510,13
75,-4005,1510,13
76,-4485,1510,12
77,-6090,1510,5
78,-4295,1510,11
79,-4055,1510,14
80,-4210,1510,13
81,-7300,1510,0
82,-3820,1510,14
83,-3920,1510,13
84,-4090,1510,13
85,-4875,1510,11
86,-4175,1510,12
87,-4010,1510,13
88,-3920,1510,13
89,-3745,1510,14
90,-3910,1510,14
91,-3870,1510,14
92,-4400,1510,13
93,-5235,1510,7
94,-1640,994,15
95,-4385,1510,13
96,-4075,1510,13
97,-3870,1510,14
98,-4055,1510,13
99,-3790,1510,14
100,-3990,1510,14
101,-4680,1510,11
102,-4035,1510,12
103,-2780,1315,15
104,-3980,1510,14
105,-3955,1510,14
106,-3550,1414,15
107,-4150,1510,12
108,-4910,1510,12
109,-6550,1510,4
110,-4145,1510,14
111,-4845,1510,9
112,-3845,1510,14
113,-4020,1510,13
114,-3860,1510,14
115,-4035,1510,14
116,-4180,1510,13
117,-4225,1510,13
118,-3945,1510,14
119,-4640,1510,11
120,-3935,1510,14
121,-5560,1510,9
122,-4530,1510,13
123,-3945,1510,14
124,-5170,1510,7
125,-3955,1510,14
126,-4290,1510,11
127,-4885,1510,10
128,-4475,1510,10
129,-4520,1510,11
130,-5555,1510,9
131,-3880,1510,13
132,-1650,1036,15
133,-5005,1510,11
134,-4120,1510,14
135,-3675,1470,15
136,-4120,1510,13
137,-4310,1510,12
138,-3860,1510,14
139,-4510,1510,13
140,-4035,1510,13
141,-4020,1510,12
142,-4520,1510,11
143,-4905,1510,11
144,-4610,1510,10
145,-3935,1510,14
146,-4135,1510,12
147,-4080,1510,13
148,-2390,1227,15
149,-4040,1510,14
150,-3785,1510,14
151,-4085,1510,14
152,-4180,1510,12
153,-4410,1510,13
154,-2850,1319,15
155,-4595,1510,11
156,-4325,1510,12
157,-4340,1510,13
158,-5380,1510,7
159,-4370,1510,12
160,-4235,1510,13
161,-1870,1080,15
162,-3895,1510,14
163,-3210,1378,15
164,-3670,1394,15
165,-4440,1510,12
166,-4235,1510,13
167,-4140,1510,12
168,-4040,1510,13
169,-6130,1510,6
170,-5515,1510,8
171,-4105,1510,13
172,-4610,1510,11
173,-4200,1510,13
174,-4575,1510,10
175,-6110,1510,5
176,-2385,1149,15
177,-4750,1510,11
178,-4185,1510,12
179,-4135,1510,13
180,-3935,1510,14
181,-4105,1510,13
182,-5700,1510,7
183,-5510,1510,7
184,-4335,1510,12
185,-4350,1510,12
186,-4175,1510,14
187,-4065,1510,12
188,-4615,1510,11
189,-4535,1510,13
190,-3950,1510,14
191,-3830,1510,14
192,-4590,1510,11
193,-3865,1472,15
194,-3220,1351,15
195,-4140,1510,13
196,-4035,1510,14
197,-4180,1510,13
198,-4120,1510,14
199,-4040,1510,14
200,-4055,1510,14
201,-5360,1510,7
202,-4310,1510,13
203,-5865,1510,4
204,-4725,1510,9
205,-5220,1510,8
206,-4775,1510,12
207,-3920,1492,15
208,-4165,1510,14
209,-7160,1510,1
210,-7375,1510,0
211,-3975,1510,13
212,-4835,1510,9
213,-4270,1510,14
214,-4020,1510,13
215,-4345,1510,12
216,-5030,1510,8
217,-4305,1510,14
218,-4255,1510,12
219,-7555,1510,0
220,-4225,1510,12
221,-5625,1510,8
222,-5260,1510,10
223,-4350,1510,13
224,-3935,1510,14
225,-5480,1510,6
226,-4565,1510,10
227,-5830,1510,6
228,-4360,1510,13
229,-4525,1510,12
230,-5770,1510,4
231,-4395,1510,11
232,-6980,1510,1
233,-5300,1510,6
234,-5205,1510,8
235,-5725,1510,6
236,-4200,1510,14
237,-4610,1510,12
238,-5285,1510,11
239,-5500,1510,6
240,-5000,1510,10
241,-4540,1510,12
242,-4655,1510,12
243,-4255,1510,11
244,-4960,1510,10
245,-4555,1510,10
246,-3270,1346,15
247,-3985,1510,14
248,-4770,1510,9
249,-4165,1510,12
250,-5380,1510,7
251,-5045,1510,9
252,-5550,1510,8
253,-4120,1510,14
254,-1690,1023,15
255,-4445,1510,13
256,-3800,1489,15
257,-2475,1165,15
258,-2920,1261,15
259,-5575,1510,8
260,-4910,1510,9
261,-4830,1510,11
262,-3990,1510,14
263,-4815,1510,9
264,-4750,1510,11
265,-2775,1288,15
266,-3020,1346,15
267,-3945,1510,14
268,-4245,1510,13
269,-4370,1510,13
270,-5310,1510,9
271,-5280,1510,7
272,-4295,1510,13
273,-4975,1510,9
274,-4205,1510,12
275,-4860,1510,10
276,-4525,1510,12
277,-5730,1510,7
278,-3980,1510,14
279,-4145,1510,13
280,-4730,1510,12
281,-3990,1491,15
282,-3325,1330,15
283,-4435,1510,11
284,-4555,1510,12
285,-4300,1510,12
286,-5345,1510,8
287,-4320,1510,11
288,-4935,1510,8
289,-2240,1142,15
290,-2100,1089,15
291,-4665,1510,12
292,-4355,1510,12
293,-4095,1510,14
294,-5225,1510,9
295,-3085,1264,15
296,-4285,1510,14
297,-4185,1510,13
298,-5005,1510,10
299,-5860,1510,4
300,-4140,1510,14
301,-4170,1510,13
302,-4615,1510,13
303,-4410,1510,11
304,-1725,1026,15
305,-4195,1510,13
306,-4445,1510,12
307,-4075,1510,14
308,-4415,1510,12
309,-5620,1510,5
310,-4530,1510,12
311,-4615,1510,11
312,-4345,1510,11
313,-4170,1510,14
314,-4820,1510,12
315,-4165,1510,12
316,-4500,1510,12
317,-5185,1510,7
318,-3355,1341,15
319,-4660,1510,11
320,-4310,1510,12
321,-4445,1510,13
322,-5390,1510,8
323,-4115,1510,14
324,-5150,1510,9
325,-4445,1510,12
326,-4145,1510,14
327,-3600,1426,15
328,-5175,1510,7
329,-4480,1510,12
330,-4375,1510,14
331,-5155,1510,9
332,-4000,1509,15
333,-4510,1510,11
334,-4220,1510,12
335,-4485,1510,13
336,-5125,1510,10
337,-5400,1510,8
338,-5285,1510,7
339,-4055,1510,13
340,-4735,1510,11
341,-4725,1510,10
342,-4300,1510,12
343,-4945,1510,9
344,-4080,1510,14
345,-5680,1510,8
346,-4130,1510,14
347,-4680,1510,11
348,-5230,1510,8
349,-4345,1510,13
350,-4380,1510,13
351,-4205,1510,13
352,-4040,1510,13
353,-5620,1510,8
354,-4745,1510,11
355,-4195,1510,14
356,-3520,1394,15
357,-4245,1510,12
358,-5680,1510,7
359,-4860,1510,9
360,-4145,1510,13
361,-5455,1510,7
362,-4435,1510,11
363,-4330,1510,10
364,-5840,1510,5
365,-4310,1510,12
366,-5540,1510,5
367,-4155,1510,14
368,-5460,1510,8
369,-5550,1510,8
370,-4540,1510,12
371,-5080,1510,9
372,-5310,1510,9
373,-5545,1510,7
374,-5230,1510,9
375,-5155,1510,10
376,-4420,1510,13
377,-5375,1510,9
378,-4615,1510,10
379,-3790,1385,15
380,-4310,1510,12
381,-4135,1510,14
382,-5120,1510,10
383,-5130,1510,10
384,-5990,1510,4
385,-4190,1510,14
386,-5295,1510,10
387,-5380,1510,8
388,-5645,1510,6
389,-5290,1510,7
390,-5550,1510,8
391,-4220,1510,13
392,-5130,1510,8
393,-4150,1510,13
394,-4510,1510,11
395,-4205,1510,14
396,-5405,1510,9
397,-5285,1510,10
398,-5375,1510,8
399,-4455,1510,12
400,-4290,1510,14
401,-4410,1510,13
402,-5355,1510,7
403,-4245,1510,14
404,-5405,1510,10
405,-3930,1480,15
406,-5000,1510,11
407,-4410,1510,13
408,-5125,1510,11
409,-4565,1510,11
410,-5095,1510,9
411,-5310,1510,9
412,-5680,1510,6
413,-5600,1510,8
414,-4500,1510,11
415,-6365,1510,3
416,-5705,1510,7
417,-5555,1510,8
418,-4470,1510,12
419,-4970,1510,12
420,-4575,1510,12
421,-5650,1510,7
422,-5300,1510,9
423,-4595,1510,11
424,-5085,1510,9
425,-5360,1510,9
426,-4320,1510,13
427,-5125,1510,9
428,-4875,1510,12
429,-5165,1510,10
430,-4170,1510,14
431,-5455,1510,7
432,-4510,1510,12
433,-4970,1510,10
434,-7470,1510,0
435,-4420,1510,13
436,-4085,1510,14
437,-5110,1510,9
438,-5280,1510,7
439,-5605,1510,7
440,-4630,1510,13
441,-5980,1510,5
442,-4985,1510,10
443,-5440,1510,9
444,-5300,1510,11
445,-4580,1510,13
446,-4545,1510,12
447,-5330,1510,9
448,-4135,1510,14
449,-4625,1510,13
450,-5130,1510,9
451,-4760,1510,11
452,-5545,1510,7
453,-5485,1510,7
454,-5050,1510,8
455,-4415,1510,12
456,-4715,1510,11
457,-4740,1510,10
458,-5525,1510,7
459,-4385,1510,13
460,-5480,1510,6
461,-5690,1510,7
462,-5395,1510,6
463,-5200,1510,9
464,-6055,1510,5
465,-5530,1510,7
466,-5360,1510,7
467,-4615,1510,11
468,-5510,1510,6
469,-5580,1510,8
470,-5200,1510,10
471,-7255,1510,0
472,-4810,1510,10
473,-3365,1315,15
474,-5305,1510,7
475,-5105,1510,9
476,-3205,1265,15
477,-4415,1510,12
478,-5190,1510,7
479,-4695,1510,11
480,-5965,1510,6
481,-5320,1510,7
482,-4525,1510,13
483,-3585,1393,15
484,-3305,1301,15
485,-4485,1510,12
486,-5030,1510,10
487,-5250,1510,8
488,-4790,1510,10
489,-5610,1510,5
490,-4580,1510,13
491,-4930,1510,11
492,-4235,1510,13
493,-6290,1510,4
494,-5070,1510,11
495,-4345,1510,14
496,-5410,1510,7
497,-6205,1510,5
498,-5230,1510,8
499,-5145,1510,11
500,-4920,1510,11
501,-4845,1510,11
502,-4670,1510,12
503,-5000,1510,12
504,-3100,1300,15
505,-4440,1510,12
506,-4545,1510,13
507,-4250,1510,12
508,-4230,1510,14
509,-5710,1510,6
510,-4285,1510,14
511,-5600,1510,8
512,-4765,1510,10
513,-5010,1510,11
514,-4770,1510,11
515,-4760,1510,11
516,-4705,1510,11
517,-5765,1510,8
518,-5515,1510,7
519,-4195,1510,13
520,-4565,1510,11
521,-5150,1510,9
522,-5250,1510,9
523,-4410,1510,12
524,-5565,1510,7
525,-5610,1510,7
526,-5215,1510,8
527,-5475,1510,8
528,-4580,1510,11
529,-4495,1510,13
530,-4910,1510,9
531,-4430,1510,13
532,-4905,1510,10
533,-4405,1510,14
534,-5325,1510,9
535,-4755,1510,11
536,-3255,1327,15
537,-4550,1510,13
538,-4690,1510,14
539,-4245,1510,13
540,-4560,1510,11
541,-6005,1510,6
542,-3810,1468,15
543,-4830,1510,11
544,-5310,1510,7
545,-5090,1510,10
546,-4505,1510,13
547,-4250,1510,14
548,-4640,1510,12
549,-5065,1510,9
550,-4460,1510,13
551,-4745,1510,9
552,-4415,1510,12
553,-4405,1510,13
554,-5180,1510,10
555,-5195,1510,9
556,-4870,1510,12
557,-4750,1510,12
558,-5745,1510,7
559,-5235,1510,9
560,-4745,1510,12
561,-6860,1510,3
562,-5220,1510,8
563,-4715,1510,12
564,-5785,1510,7
565,-5845,1510,6
566,-6165,1510,6
567,-4810,1510,11
568,-5370,1510,7
569,-4755,1510,11
570,-4965,1510,12
571,-5695,1510,8
572,-4405,1510,12
573,-6420,1510,5
574,-5760,1510,9
575,-4565,1510,14
576,-5990,1510,5
577,-5320,1510,8
578,-4900,1510,11
579,-4685,1510,12
580,-4695,1510,12
581,-5230,1510,8
582,-4870,1510,11
583,-4685,1510,12
584,-3655,1410,15
585,-4935,1510,9
586,-5190,1510,8
587,-4325,1510,14
588,-5745,1510,6
589,-4305,1510,13
590,-6450,1510,4
591,-5545,1510,6
592,-5955,1510,7
593,-5840,1510,7
594,-5075,1510,11
595,-7290,1510,1
596,-4560,1510,11
597,-5515,1510,9
598,-5250,1510,9
599,-6180,1510,4
600,-5145,1510,11
601,-4450,1510,13
602,-4380,1510,13
603,-4355,1510,14
604,-4780,1510,13
605,-5565,1510,7
606,-4910,1510,12
607,-5695,1510,8
608,-4795,1510,11
609,-6120,1510,5
610,-5545,1510,8
611,-5715,1510,8
612,-4695,1510,11
613,-5320,1510,9
614,-5820,1510,6
615,-5780,1510,6
616,-6055,1510,5
617,-5440,1510,8
618,-5170,1510,10
619,-2765,1135,15
620,-4625,1510,13
621,-5320,1510,8
622,-4465,1510,13
623,-6445,1510,3
624,-5155,1510,11
625,-5485,1510,7
626,-5630,1510,8
627,-4660,1510,13
628,-5075,1510,11
629,-5970,1510,5
630,-5880,1510,7
631,-6060,1510,4
632,-5280,1510,9
633,-5685,1510,6
634,-5400,1510,9
635,-4625,1510,13
636,-6130,1510,4
637,-4610,1510,13
638,-5385,1510,8
639,-5375,1510,8
640,-5575,1510,6
641,-5365,1510,9
642,-4770,1510,11
643,-5860,1510,7
644,-5540,1510,8
645,-6555,1510,2
646,-5060,1510,9
647,-5800,1510,7
648,-5580,1510,8
649,-4925,1510,11
650,-4820,1510,11
651,-5170,1510,10
652,-5200,1510,8
653,-5665,1510,4
654,-5690,1510,7
655,-5840,1510,6
656,-5550,1510,6
657,-5830,1510,7
658,-5295,1510,9
659,-5630,1510,6
660,-4630,1510,12
661,-6680,1510,2
662,-4710,1510,13
663,-4345,1498,15
664,-6505,1510,4
665,-5440,1510,9
666,-5480,1510,6
667,-5865,1510,6
668,-6420,1510,4
669,-4955,1510,12
670,-4680,1510,12
671,-5625,1510,6
672,-5510,1510,7
673,-5490,1510,6
674,-5390,1510,8
675,-5955,1510,6
676,-5995,1510,5
677,-5185,1510,8
678,-5735,1510,8
679,-5515,1510,7
680,-6245,1510,7
681,-4855,1510,12
682,-6490,1510,2
683,-5960,1510,6
684,-5315,1510,8
685,-6305,1510,5
686,-5990,1510,5
687,-4970,1510,12
688,-4805,1510,11
689,-5500,1510,8
690,-4895,1510,11
691,-5845,1510,7
692,-5640,1510,6
693,-5535,1510,7
694,-5020,1510,12
695,-4560,1510,14
696,-6200,1510,5
697,-4955,1510,10
698,-5780,1510,7
699,-5250,1510,9
700,-5605,1510,7
701,-5560,1510,9
702,-5895,1510,6
703,-5570,1510,7
704,-5820,1510,6
705,-5895,1510,6
706,-5770,1510,7
707,-4565,1510,14
708,-5040,1510,13
709,-5290,1510,9
710,-4700,1510,12
711,-6050,1510,4
712,-6260,1510,4
713,-5615,1510,8
714,-5345,1510,9
715,-5405,1510,8
716,-5730,1510,6
717,-5425,1510,7
718,-5505,1510,7
719,-5195,1510,10
720,-5690,1510,7
721,-5815,1510,7
722,-5685,1510,8
723,-4740,1510,14
724,-6590,1510,2
725,-5390,1510,9
726,-5810,1510,6
727,-5835,1510,7
728,-5620,1510,7
729,-5595,1510,7
730,-5565,1510,8
731,-6915,1510,2
732,-5605,1510,7
733,-5555,1510,8
734,-5135,1510,10
735,-5340,1510,9
736,-6190,1510,6
737,-5565,1510,9
738,-5040,1510,10
739,-5530,1510,8
740,-5690,1510,7
741,-5630,1510,6
742,-5345,1510,10
743,-7025,1510,2
744,-5785,1510,9
745,-4835,1510,11
746,-5670,1510,8
747,-6185,1510,3
748,-5145,1510,11
749,-5250,1510,12
750,-5110,1510,11
751,-6645,1510,3
752,-5905,1510,6
753,-4840,1510,13
754,-5705,1510,6
755,-6075,1510,3
756,-6010,1510,7
757,-5585,1510,7
758,-5825,1510,7
759,-6940,1510,1
760,-5630,1510,7
761,-5550,1510,7
762,-5620,1510,8
763,-5845,1510,7
764,-4605,1510,14
765,-5890,1510,5
766,-5235,1510,10
767,-5985,1510,7
768,-6030,1510,5
769,-7215,1510,1
770,-6855,1510,4
771,-4825,1510,14
772,-5320,1510,9
773,-5975,1510,5
774,-5980,1510,6
775,-5865,1510,6
776,-5505,1510,8
777,-5330,1510,10
778,-6360,1510,5
779,-6225,1510,5
780,-5785,1510,7
781,-5865,1510,7
782,-6145,1510,7
783,-5865,1510,6
784,-5980,1510,7
785,-5415,1510,9
786,-6935,1510,2
787,-6500,1510,3
788,-5755,1510,6
789,-4720,1510,13
790,-6345,1510,6
791,-5915,1510,6
792,-6140,1510,6
793,-6565,1510,5
794,-5365,1510,9
795,-5860,1510,5
796,-5375,1510,9
797,-6265,1510,3
798,-5825,1510,8
799,-5220,1510,11
800,-6815,1510,2
801,-5820,1510,6
802,-6640,1510,3
803,-5665,1510,8
804,-5355,1510,9
805,-5310,1510,10
806,-5865,1510,7
807,-6510,1510,3
808,-6120,1510,6
809,-6485,1510,4
810,-5780,1510,8
811,-6280,1510,5
812,-5325,1510,8
813,-7460,1510,0
814,-6420,1510,5
815,-5575,1510,8
816,-6375,1510,5
817,-6445,1510,4
818,-5880,1510,6
819,-7465,1510,0
820,-5600,1510,8
821,-5685,1510,8
822,-5395,1510,9
823,-5765,1510,6
824,-5550,1510,9
825,-6390,1510,6
826,-5705,1510,8
827,-5125,1510,11
828,-6590,1510,4
829,-6040,1510,6
830,-6100,1510,7
831,-6605,1510,3
832,-5790,1510,8
833,-5605,1510,8
834,-5985,1510,7
835,-5290,1510,10
836,-6330,1510,4
837,-6680,1510,5
838,-7225,1510,0
839,-7555,1510,0
840,-6520,1510,4
841,-6655,1510,3
842,-6185,1510,6
843,-7090,1510,1
844,-6970,1510,2
845,-5890,1510,7
846,-6370,1510,5
847,-6780,1510,2
848,-5415,1510,9
849,-6950,1510,2
850,-6340,1510,5
851,-6675,1510,2
852,-5905,1510,7
853,-6205,1510,7
854,-6040,1510,7
855,-6035,1510,6
856,-5205,1510,11
857,-7290,1510,0
858,-6400,1510,4
859,-6420,1510,5
860,-7465,1510,0
861,-6670,1510,4
862,-6630,1510,6
863,-7095,1510,1
864,-6765,1510,3
865,-6010,1510,7
866,-5730,1510,6
867,-6825,1510,2
868,-5960,1510,7
869,-6170,1510,6
870,-6685,1510,3
871,-6635,1510,3
872,-6340,1510,4
873,-6865,1510,2
874,-6790,1510,3
875,-5860,1510,8
876,-5665,1510,9
877,-6890,1510,2
878,-6015,1510,9
879,-5915,1510,8
880,-6120,1510,9
881,-6460,1510,5
882,-6260,1510,6
883,-6065,1510,8
884,-7555,1510,0
885,-7210,1510,1
886,-6550,1510,5
887,-7185,1510,0
888,-5965,1510,6
889,-6560,1510,3
890,-6655,1510,4
891,-6875,1510,1
892,-6770,1510,2
893,-5710,1510,8
894,-6015,1510,7
895,-7350,1510,0
896,-6155,1510,6
897,-6045,1510,6
898,-6640,1510,4
899,-6120,1510,7
900,-6165,1510,5
901,-6610,1510,4
902,-6440,1510,4
903,-6490,1510,5
904,-6460,1510,5
905,-5450,1510,10
906,-6815,1510,3
907,-5670,1510,9
908,-6770,1510,3
909,-6800,1510,3
910,-7055,1510,2
911,-7040,1510,2
912,-5705,1510,9
913,-6725,1510,4
914,-6025,1510,6
915,-5790,1510,7
916,-6585,1510,5
917,-6995,1510,2
918,-7055,1510,2
919,-5600,1510,9
920,-6895,1510,2
921,-6190,1510,5
922,-6765,1510,3
923,-7245,1510,1
924,-7270,1510,1
925,-6020,1510,8
926,-6815,1510,3
927,-7065,1510,1
928,-6545,1510,5
929,-6445,1510,4
930,-7230,1510,1
931,-6635,1510,4
932,-6040,1510,7
933,-6480,1510,4
934,-6725,1510,3
935,-6005,1510,6
936,-6490,1510,4
937,-6760,1510,4
938,-6330,1510,6
939,-6495,1510,6
940,-6315,1510,6
941,-6120,1510,6
942,-7135,1510,1
943,-6500,1510,4
944,-6290,1510,4
945,-5985,1510,8
946,-7280,1510,1
947,-6115,1510,7
948,-6655,1510,3
949,-6755,1510,4
950,-6425,1510,5
951,-6870,1510,4
952,-6660,1510,4
953,-7035,1510,1
954,-7500,1510,0
955,-6800,1510,3
956,-7310,1510,1
957,-5845,1510,8
958,-7020,1510,1
959,-6270,1510,7
960,-6645,1510,4
961,-5885,1510,8
962,-6240,1510,6
963,-7555,1510,0
964,-6765,1510,4
965,-7555,1510,0
966,-5595,1510,12
967,-5615,1510,10
968,-7005,1510,3
969,-6225,1510,6
970,-5955,1510,7
971,-7165,1510,1
972,-6665,1510,3
973,-6440,1510,5
974,-6335,1510,6
975,-6605,1510,3
976,-6605,1510,4
977,-7185,1510,1
978,-7350,1510,1
979,-6895,1510,3
980,-6070,1510,7
981,-5815,1510,9
982,-6600,1510,4
983,-6730,1510,4
984,-6840,1510,3
985,-6765,1510,4
986,-7185,1510,1
987,-6365,1510,6
988,-6345,1510,6
989,-6940,1510,2
990,-6115,1510,8
991,-6155,1510,6
992,-6745,1510,4
993,-5760,1510,9
994,-7015,1510,2
995,-6730,1510,4
996,-7265,1510,1
997,-6000,1510,9
998,-6845,1510,2
999,-6650,1510,4
