episode,reward,step,sensitive
0,-360,169,2
1,145,169,7
2,195,169,7
3,195,169,7
4,-55,169,5
5,125,169,6
6,375,163,8
7,235,169,7
8,-155,169,4
9,120,169,6
10,105,169,6
11,-850,169,0
12,-850,169,0
13,-235,169,4
14,255,169,7
15,-430,169,2
16,-45,169,5
17,-165,169,4
18,230,169,7
19,185,169,7
20,0,169,5
21,220,169,7
22,210,169,7
23,220,169,7
24,70,169,6
25,-405,169,2
26,230,169,7
27,50,169,6
28,245,169,7
29,80,169,6
30,170,169,7
31,50,169,6
32,655,104,8
33,210,169,7
34,725,92,8
35,145,169,7
36,225,169,7
37,135,169,7
38,195,169,7
39,65,169,6
40,260,169,7
41,375,161,8
42,-55,169,5
43,230,169,7
44,170,169,7
45,575,112,8
46,40,169,6
47,175,169,7
48,145,169,7
49,425,151,8
50,155,169,7
51,390,156,8
52,235,169,7
53,670,107,8
54,555,127,8
55,680,94,8
56,395,156,8
57,140,169,7
58,210,169,7
59,145,169,7
60,715,89,8
61,720,86,8
62,640,97,8
63,220,169,7
64,555,119,8
65,175,169,7
66,470,142,8
67,170,169,7
68,195,169,7
69,155,169,7
70,60,169,6
71,145,169,7
72,225,169,7
73,135,169,7
74,655,96,8
75,460,148,8
76,135,169,7
77,230,169,7
78,440,140,8
79,190,169,7
80,240,169,7
81,235,169,7
82,420,149,8
83,200,169,7
84,200,169,7
85,335,157,8
86,355,159,8
87,170,169,7
88,635,98,8
89,555,123,8
90,200,169,7
91,90,169,6
92,155,169,7
93,110,169,6
94,750,70,8
95,180,169,7
96,190,169,7
97,225,169,7
98,330,165,8
99,105,169,6
100,225,169,7
101,90,169,6
102,495,124,8
103,575,117,8
104,475,133,8
105,510,123,8
106,590,100,8
107,635,91,8
108,195,169,7
109,95,169,6
110,475,132,8
111,190,169,7
112,195,169,7
113,185,169,7
114,165,169,7
115,335,157,8
116,525,118,8
117,480,144,8
118,600,102,8
119,500,134,8
120,205,169,7
121,295,169,8
122,670,84,8
123,335,154,8
124,320,157,8
125,555,119,8
126,185,169,7
127,410,146,8
128,170,169,7
129,535,120,8
130,295,167,8
131,470,131,8
132,180,169,7
133,710,78,8
134,175,169,7
135,175,169,7
136,535,113,8
137,85,169,6
138,295,169,8
139,415,145,8
140,745,75,8
141,300,164,8
142,615,92,8
143,110,169,6
144,695,76,8
145,290,169,8
146,550,110,8
147,670,90,8
148,190,169,7
149,365,152,8
150,570,105,8
151,525,120,8
152,655,90,8
153,200,169,7
154,500,123,8
155,705,87,8
156,490,125,8
157,710,77,8
158,25,169,6
159,225,169,7
160,340,153,8
161,850,48,8
162,205,169,7
163,200,169,7
164,300,167,8
165,160,169,7
166,155,169,7
167,150,169,7
168,165,169,7
169,60,169,6
170,340,160,8
171,465,135,8
172,165,169,7
173,230,169,7
174,60,169,6
175,140,169,7
176,-70,169,5
177,85,169,6
178,80,169,6
179,150,169,7
180,40,169,6
181,185,169,7
182,185,169,7
183,445,147,8
184,-35,169,5
185,175,169,7
186,630,97,8
187,185,169,7
188,155,169,7
189,90,169,6
190,195,169,7
191,180,169,7
192,190,169,7
193,210,169,7
194,215,169,7
195,730,74,8
196,425,139,8
197,215,169,7
198,205,169,7
199,650,87,8
200,150,169,7
201,750,73,8
202,335,167,8
203,385,151,8
204,705,81,8
205,670,92,8
206,180,169,7
207,580,106,8
208,505,127,8
209,190,169,7
210,610,106,8
211,195,169,7
212,440,142,8
213,180,169,7
214,820,55,8
215,685,82,8
216,365,159,8
217,180,169,7
218,540,122,8
219,410,146,8
220,420,152,8
221,685,86,8
222,500,135,8
223,360,154,8
224,705,86,8
225,800,57,8
226,510,123,8
227,620,105,8
228,835,58,8
229,490,137,8
230,215,169,7
231,430,137,8
232,640,100,8
233,790,64,8
234,570,117,8
235,450,144,8
236,490,130,8
237,745,77,8
238,210,169,7
239,190,169,7
240,695,82,8
241,375,148,8
242,670,95,8
243,540,122,8
244,480,139,8
245,645,99,8
246,475,131,8
247,375,159,8
248,340,159,8
249,510,131,8
250,785,72,8
251,515,128,8
252,670,105,8
253,645,96,8
254,835,62,8
255,190,169,7
256,180,169,7
257,765,67,8
258,620,108,8
259,705,83,8
260,525,127,8
261,680,85,8
262,695,86,8
263,625,105,8
264,430,141,8
265,555,118,8
266,765,74,8
267,690,87,8
268,625,105,8
269,200,169,7
270,90,169,6
271,320,166,8
272,230,169,7
273,180,169,7
274,535,121,8
275,460,133,8
276,435,143,8
277,155,169,7
278,210,169,7
279,565,111,8
280,200,169,7
281,225,169,7
282,50,169,6
283,170,169,7
284,715,87,8
285,165,169,7
286,170,169,7
287,170,169,7
288,105,169,6
289,90,169,6
290,365,153,8
291,160,169,7
292,315,163,8
293,190,169,7
294,190,169,7
295,180,169,7
296,55,169,6
297,165,169,7
298,-50,169,5
299,-70,169,5
300,150,169,7
301,-35,169,5
302,45,169,6
303,-155,169,4
304,-150,169,4
305,10,169,6
306,-50,169,5
307,-155,169,4
308,150,169,7
309,-50,169,5
310,55,169,6
311,-50,169,5
312,-90,169,5
313,25,169,6
314,-85,169,5
315,-150,169,4
316,50,169,6
317,-255,169,3
318,-265,169,3
319,30,169,6
320,-185,169,4
321,70,169,6
322,-35,169,5
323,-45,169,5
324,40,169,6
325,-190,169,4
326,-75,169,5
327,85,169,6
328,30,169,6
329,40,169,6
330,65,169,6
331,-15,169,5
332,85,169,6
333,55,169,6
334,-50,169,5
335,155,169,7
336,-40,169,5
337,55,169,6
338,195,169,7
339,155,169,7
340,-165,169,4
341,25,169,6
342,165,169,7
343,-85,169,5
344,-55,169,5
345,75,169,6
346,45,169,6
347,-170,169,4
348,-190,169,4
349,-270,169,3
350,-170,169,4
351,-75,169,5
352,-105,169,5
353,-300,169,3
354,-185,169,4
355,-420,169,2
356,-235,169,4
357,-360,169,2
358,-305,169,3
359,-425,169,2
360,-295,169,3
361,-350,169,3
362,-300,169,3
363,-190,169,4
364,-450,169,2
365,-465,169,2
366,-650,169,0
367,-110,169,5
368,-555,169,1
369,-415,169,2
370,-375,169,3
371,-380,169,3
372,-560,169,1
373,-325,169,3
374,-375,169,3
375,-580,169,1
376,-605,169,1
377,-505,169,2
378,-375,169,3
379,-460,169,2
380,-415,169,3
381,-505,169,2
382,-610,169,1
383,-620,169,1
384,-625,169,1
385,-720,169,0
386,-750,169,0
387,-725,169,0
388,-765,169,0
389,-765,169,0
390,-760,169,0
391,-775,169,0
392,-780,169,0
393,-805,169,0
394,-790,169,0
395,-775,169,0
396,-800,169,0
397,-790,169,0
398,-790,169,0
399,-815,169,0
400,-815,169,0
401,-815,169,0
402,-815,169,0
403,-815,169,0
404,-815,169,0
405,-815,169,0
406,-800,169,0
407,-815,169,0
408,-815,169,0
409,-815,169,0
410,-815,169,0
411,-815,169,0
412,-815,169,0
413,-815,169,0
414,-815,169,0
415,-815,169,0
416,-815,169,0
417,-815,169,0
418,-815,169,0
419,-815,169,0
420,-815,169,0
421,-815,169,0
422,-815,169,0
423,-815,169,0
424,-815,169,0
425,-815,169,0
426,-815,169,0
427,-815,169,0
428,-815,169,0
429,-815,169,0
430,-815,169,0
431,-815,169,0
432,-815,169,0
433,-815,169,0
434,-815,169,0
435,-815,169,0
436,-815,169,0
437,-815,169,0
438,-815,169,0
439,-815,169,0
440,-815,169,0
441,-815,169,0
442,-815,169,0
443,-815,169,0
444,-815,169,0
445,-815,169,0
446,-815,169,0
447,-815,169,0
448,-815,169,0
449,-815,169,0
450,-815,169,0
451,-815,169,0
452,-815,169,0
453,-815,169,0
454,-815,169,0
455,-815,169,0
456,-815,169,0
457,-815,169,0
458,-815,169,0
459,-815,169,0
460,-815,169,0
461,-815,169,0
462,-815,169,0
463,-815,169,0
464,-815,169,0
465,-815,169,0
466,-805,169,0
467,-805,169,0
468,-815,169,0
469,-815,169,0
470,-805,169,0
471,-815,169,0
472,-815,169,0
473,-815,169,0
474,-815,169,0
475,-815,169,0
476,-815,169,0
477,-815,169,0
478,-815,169,0
479,-815,169,0
480,-805,169,0
481,-815,169,0
482,-815,169,0
483,-815,169,0
484,-815,169,0
485,-815,169,0
486,-815,169,0
487,-815,169,0
488,-815,169,0
489,-815,169,0
490,-815,169,0
491,-815,169,0
492,-815,169,0
493,-815,169,0
494,-815,169,0
495,-815,169,0
496,-815,169,0
497,-815,169,0
498,-815,169,0
499,-815,169,0
500,-815,169,0
501,-815,169,0
502,-815,169,0
503,-815,169,0
504,-815,169,0
505,-815,169,0
506,-815,169,0
507,-815,169,0
508,-815,169,0
509,-815,169,0
510,-815,169,0
511,-815,169,0
512,-815,169,0
513,-815,169,0
514,-815,169,0
515,-815,169,0
516,-815,169,0
517,-815,169,0
518,-815,169,0
519,-815,169,0
520,-815,169,0
521,-815,169,0
522,-815,169,0
523,-815,169,0
524,-815,169,0
525,-815,169,0
526,-815,169,0
527,-815,169,0
528,-815,169,0
529,-815,169,0
530,-815,169,0
531,-815,169,0
532,-815,169,0
533,-815,169,0
534,-815,169,0
535,-805,169,0
536,-815,169,0
537,-815,169,0
538,-815,169,0
539,-815,169,0
540,-815,169,0
541,-815,169,0
542,-815,169,0
543,-815,169,0
544,-815,169,0
545,-815,169,0
546,-815,169,0
547,-815,169,0
548,-805,169,0
549,-815,169,0
550,-815,169,0
551,-815,169,0
552,-815,169,0
553,-815,169,0
554,-815,169,0
555,-815,169,0
556,-815,169,0
557,-815,169,0
558,-815,169,0
559,-815,169,0
560,-815,169,0
561,-815,169,0
562,-815,169,0
563,-815,169,0
564,-815,169,0
565,-815,169,0
566,-815,169,0
567,-805,169,0
568,-815,169,0
569,-815,169,0
570,-815,169,0
571,-815,169,0
572,-815,169,0
573,-815,169,0
574,-815,169,0
575,-815,169,0
576,-815,169,0
577,-815,169,0
578,-815,169,0
579,-815,169,0
580,-815,169,0
581,-815,169,0
582,-815,169,0
583,-815,169,0
584,-815,169,0
585,-815,169,0
586,-815,169,0
587,-815,169,0
588,-815,169,0
589,-815,169,0
590,-815,169,0
591,-815,169,0
592,-815,169,0
593,-815,169,0
594,-815,169,0
595,-815,169,0
596,-815,169,0
597,-815,169,0
598,-815,169,0
599,-815,169,0
600,-815,169,0
601,-815,169,0
602,-815,169,0
603,-815,169,0
604,-815,169,0
605,-815,169,0
606,-790,169,0
607,-815,169,0
608,-815,169,0
609,-815,169,0
610,-815,169,0
611,-815,169,0
612,-815,169,0
613,-815,169,0
614,-815,169,0
615,-815,169,0
616,-815,169,0
617,-815,169,0
618,-815,169,0
619,-815,169,0
620,-815,169,0
621,-805,169,0
622,-815,169,0
623,-815,169,0
624,-815,169,0
625,-815,169,0
626,-815,169,0
627,-815,169,0
628,-815,169,0
629,-815,169,0
630,-815,169,0
631,-815,169,0
632,-815,169,0
633,-815,169,0
634,-815,169,0
635,-815,169,0
636,-815,169,0
637,-815,169,0
638,-815,169,0
639,-815,169,0
640,-815,169,0
641,-815,169,0
642,-815,169,0
643,-815,169,0
644,-815,169,0
645,-815,169,0
646,-815,169,0
647,-815,169,0
648,-815,169,0
649,-815,169,0
650,-815,169,0
651,-815,169,0
652,-815,169,0
653,-805,169,0
654,-815,169,0
655,-805,169,0
656,-815,169,0
657,-815,169,0
658,-815,169,0
659,-815,169,0
660,-815,169,0
661,-815,169,0
662,-815,169,0
663,-815,169,0
664,-815,169,0
665,-815,169,0
666,-815,169,0
667,-815,169,0
668,-815,169,0
669,-815,169,0
670,-815,169,0
671,-815,169,0
672,-815,169,0
673,-815,169,0
674,-815,169,0
675,-815,169,0
676,-815,169,0
677,-815,169,0
678,-815,169,0
679,-815,169,0
680,-815,169,0
681,-815,169,0
682,-815,169,0
683,-815,169,0
684,-815,169,0
685,-815,169,0
686,-815,169,0
687,-815,169,0
688,-815,169,0
689,-815,169,0
690,-815,169,0
691,-815,169,0
692,-815,169,0
693,-815,169,0
694,-815,169,0
695,-815,169,0
696,-815,169,0
697,-815,169,0
698,-815,169,0
699,-815,169,0
700,-815,169,0
701,-815,169,0
702,-815,169,0
703,-815,169,0
704,-815,169,0
705,-815,169,0
706,-815,169,0
707,-815,169,0
708,-815,169,0
709,-815,169,0
710,-815,169,0
711,-815,169,0
712,-815,169,0
713,-815,169,0
714,-815,169,0
715,-815,169,0
716,-815,169,0
717,-815,169,0
718,-815,169,0
719,-815,169,0
720,-815,169,0
721,-815,169,0
722,-815,169,0
723,-815,169,0
724,-815,169,0
725,-815,169,0
726,-815,169,0
727,-815,169,0
728,-815,169,0
729,-815,169,0
730,-815,169,0
731,-815,169,0
732,-815,169,0
733,-815,169,0
734,-815,169,0
735,-815,169,0
736,-815,169,0
737,-815,169,0
738,-815,169,0
739,-815,169,0
740,-815,169,0
741,-815,169,0
742,-815,169,0
743,-815,169,0
744,-815,169,0
745,-815,169,0
746,-815,169,0
747,-815,169,0
748,-815,169,0
749,-815,169,0
750,-815,169,0
751,-815,169,0
752,-815,169,0
753,-815,169,0
754,-815,169,0
755,-815,169,0
756,-815,169,0
757,-815,169,0
758,-815,169,0
759,-815,169,0
760,-815,169,0
761,-815,169,0
762,-815,169,0
763,-815,169,0
764,-815,169,0
765,-815,169,0
766,-815,169,0
767,-815,169,0
768,-815,169,0
769,-815,169,0
770,-815,169,0
771,-815,169,0
772,-815,169,0
773,-815,169,0
774,-815,169,0
775,-815,169,0
776,-815,169,0
777,-815,169,0
778,-815,169,0
779,-815,169,0
780,-815,169,0
781,-815,169,0
782,-815,169,0
783,-815,169,0
784,-815,169,0
785,-815,169,0
786,-815,169,0
787,-815,169,0
788,-815,169,0
789,-815,169,0
790,-815,169,0
791,-815,169,0
792,-815,169,0
793,-815,169,0
794,-815,169,0
795,-815,169,0
796,-815,169,0
797,-815,169,0
798,-815,169,0
799,-815,169,0
800,-815,169,0
801,-815,169,0
802,-815,169,0
803,-815,169,0
804,-815,169,0
805,-815,169,0
806,-815,169,0
807,-815,169,0
808,-815,169,0
809,-815,169,0
810,-815,169,0
811,-815,169,0
812,-815,169,0
813,-815,169,0
814,-815,169,0
815,-815,169,0
816,-815,169,0
817,-815,169,0
818,-815,169,0
819,-815,169,0
820,-815,169,0
821,-815,169,0
822,-815,169,0
823,-815,169,0
824,-805,169,0
825,-815,169,0
826,-815,169,0
827,-815,169,0
828,-815,169,0
829,-815,169,0
830,-815,169,0
831,-815,169,0
832,-815,169,0
833,-815,169,0
834,-815,169,0
835,-815,169,0
836,-815,169,0
837,-815,169,0
838,-815,169,0
839,-815,169,0
840,-815,169,0
841,-815,169,0
842,-815,169,0
843,-815,169,0
844,-815,169,0
845,-815,169,0
846,-815,169,0
847,-815,169,0
848,-815,169,0
849,-815,169,0
850,-815,169,0
851,-815,169,0
852,-815,169,0
853,-815,169,0
854,-815,169,0
855,-815,169,0
856,-815,169,0
857,-815,169,0
858,-815,169,0
859,-815,169,0
860,-815,169,0
861,-815,169,0
862,-815,169,0
863,-815,169,0
864,-815,169,0
865,-815,169,0
866,-815,169,0
867,-815,169,0
868,-815,169,0
869,-815,169,0
870,-815,169,0
871,-815,169,0
872,-815,169,0
873,-815,169,0
874,-815,169,0
875,-815,169,0
876,-815,169,0
877,-815,169,0
878,-815,169,0
879,-815,169,0
880,-815,169,0
881,-815,169,0
882,-815,169,0
883,-815,169,0
884,-815,169,0
885,-815,169,0
886,-815,169,0
887,-815,169,0
888,-805,169,0
889,-815,169,0
890,-815,169,0
891,-815,169,0
892,-815,169,0
893,-815,169,0
894,-815,169,0
895,-815,169,0
896,-815,169,0
897,-815,169,0
898,-815,169,0
899,-815,169,0
900,-815,169,0
901,-815,169,0
902,-815,169,0
903,-815,169,0
904,-815,169,0
905,-815,169,0
906,-815,169,0
907,-815,169,0
908,-815,169,0
909,-815,169,0
910,-815,169,0
911,-815,169,0
912,-815,169,0
913,-815,169,0
914,-815,169,0
915,-815,169,0
916,-815,169,0
917,-815,169,0
918,-815,169,0
919,-815,169,0
920,-815,169,0
921,-815,169,0
922,-815,169,0
923,-815,169,0
924,-815,169,0
925,-815,169,0
926,-815,169,0
927,-815,169,0
928,-815,169,0
929,-815,169,0
930,-815,169,0
931,-815,169,0
932,-815,169,0
933,-815,169,0
934,-815,169,0
935,-815,169,0
936,-815,169,0
937,-815,169,0
938,-815,169,0
939,-815,169,0
940,-815,169,0
941,-815,169,0
942,-815,169,0
943,-815,169,0
944,-815,169,0
945,-815,169,0
946,-815,169,0
947,-815,169,0
948,-815,169,0
949,-815,169,0
950,-815,169,0
951,-815,169,0
952,-815,169,0
953,-815,169,0
954,-815,169,0
955,-815,169,0
956,-815,169,0
957,-815,169,0
958,-815,169,0
959,-815,169,0
960,-815,169,0
961,-815,169,0
962,-815,169,0
963,-815,169,0
964,-815,169,0
965,-815,169,0
966,-815,169,0
967,-815,169,0
968,-815,169,0
969,-815,169,0
970,-815,169,0
971,-815,169,0
972,-815,169,0
973,-815,169,0
974,-815,169,0
975,-815,169,0
976,-815,169,0
977,-815,169,0
978,-815,169,0
979,-815,169,0
980,-815,169,0
981,-815,169,0
982,-815,169,0
983,-815,169,0
984,-815,169,0
985,-815,169,0
986,-815,169,0
987,-815,169,0
988,-815,169,0
989,-815,169,0
990,-815,169,0
991,-815,169,0
992,-815,169,0
993,-815,169,0
994,-815,169,0
995,-815,169,0
996,-815,169,0
997,-815,169,0
998,-815,169,0
999,-815,169,0
