episode,reward,step,sensitive
0,-1635,410,0
1,-1890,410,0
2,-1345,410,0
3,-1335,410,1
4,-1845,410,0
5,-1800,410,1
6,-1950,410,0
7,-1825,410,1
8,-1150,410,2
9,-1840,410,0
10,-930,410,2
11,-1245,410,1
12,-1435,410,0
13,-1660,410,0
14,-1975,410,0
15,-1740,410,0
16,-1155,410,1
17,-1880,410,0
18,-1955,410,0
19,-1305,410,0
20,-1790,410,0
21,-2055,410,0
22,-1155,410,1
23,-1995,410,0
24,-1505,410,1
25,-1295,410,1
26,-1720,410,0
27,-1065,410,3
28,-1300,410,1
29,-1330,410,0
30,-1140,410,2
31,-1140,410,1
32,-1710,410,0
33,-1890,410,0
34,-1215,410,0
35,-1165,410,1
36,-1015,410,0
37,-1365,410,0
38,-1025,410,1
39,-1135,410,1
40,-1210,410,2
41,-1615,410,0
42,-1120,410,2
43,-1270,410,0
44,-640,410,2
45,-700,410,3
46,-810,410,1
47,-855,410,2
48,-975,410,2
49,-1080,410,0
50,-1060,410,1
51,-955,410,1
52,-1340,410,1
53,-805,410,1
54,-875,410,1
55,-1360,410,2
56,-1690,410,0
57,-1470,410,0
58,-1125,410,0
59,-1315,410,1
60,-1010,410,1
61,-655,410,3
62,-920,410,2
63,-835,410,2
64,-935,410,1
65,-1020,410,0
66,-980,410,2
67,-1140,410,1
68,-945,410,3
69,-890,410,1
70,-1275,410,1
71,-1055,410,1
72,-950,410,2
73,-1040,410,0
74,-1005,410,1
75,-660,410,3
76,-825,410,1
77,-925,410,1
78,-875,410,2
79,-1095,410,1
80,-945,410,2
81,-1060,410,1
82,-1140,410,0
83,-1015,410,2
84,-235,290,4
85,-1135,410,0
86,-1035,410,1
87,-980,410,1
88,-925,410,1
89,-780,410,2
90,-830,410,2
91,-915,410,2
92,-720,410,3
93,-785,410,1
94,-800,410,2
95,-1140,410,1
96,-880,410,2
97,-985,410,2
98,-665,410,3
99,-800,410,1
100,-945,410,2
101,-780,410,2
102,-880,410,3
103,-1250,410,1
104,-1660,410,0
105,-1060,410,2
106,-795,410,2
107,-1345,410,0
108,-810,410,3
109,-1095,410,1
110,-1535,410,0
111,-920,410,2
112,-1375,410,1
113,-885,410,3
114,-1535,410,1
115,-695,410,3
116,-680,410,3
117,-875,410,2
118,-890,410,2
119,-925,410,1
120,-1670,410,0
121,-930,410,2
122,-1020,410,1
123,-850,410,2
124,-1115,410,1
125,-1010,410,1
126,-955,410,2
127,-915,410,2
128,-870,410,2
129,-1225,410,0
130,-810,410,2
131,-590,410,2
132,-805,410,2
133,-1555,410,0
134,-640,410,3
135,-765,410,2
136,-715,399,4
137,-820,410,2
138,-845,410,3
139,-1415,410,0
140,-1115,410,1
141,-1145,410,1
142,-1060,410,1
143,-840,410,3
144,-780,410,3
145,-1075,410,1
146,-945,410,2
147,-910,410,3
148,-825,410,3
149,-1015,410,1
150,-1180,410,1
151,-815,410,2
152,-725,410,2
153,-790,410,3
154,-695,410,3
155,-1205,410,0
156,-565,405,4
157,-965,410,2
158,-870,410,2
159,-560,410,4
160,-880,410,1
161,-1140,410,0
162,-1095,410,2
163,-1140,410,2
164,-1170,410,0
165,-20,278,4
166,-880,410,2
167,-1030,410,1
168,-1220,410,1
169,-1055,410,1
170,-910,410,1
171,-770,410,2
172,-880,410,2
173,-820,410,2
174,-1200,410,1
175,-680,410,3
176,-1295,410,1
177,-1055,410,1
178,-1125,410,0
179,-990,410,1
180,-905,410,1
181,-1040,410,0
182,-1360,410,1
183,-1080,410,0
184,-940,410,2
185,-655,410,3
186,-1160,410,1
187,-1460,410,1
188,-1010,410,1
189,-1065,410,2
190,-715,410,3
191,-740,410,2
192,-1090,410,1
193,-900,410,1
194,-1095,410,0
195,-1015,410,1
196,-875,410,2
197,-600,410,3
198,-880,410,1
199,-905,410,2
200,-900,410,2
201,-1115,410,1
202,-1060,410,1
203,-930,410,1
204,-1020,410,0
205,-1425,410,1
206,-785,410,3
207,-1415,410,1
208,-1390,410,1
209,-1495,410,0
210,-1375,410,0
211,-1370,410,0
212,-885,410,2
213,-1415,410,1
214,-750,410,2
215,-1415,410,1
216,-1065,410,1
217,-1450,410,1
218,-1615,410,0
219,-1470,410,0
220,-1055,410,2
221,-1345,410,1
222,-880,410,2
223,-1425,410,1
224,-1290,410,0
225,-1040,410,2
226,-585,410,3
227,-1290,410,0
228,-740,410,2
229,-880,410,3
230,-790,410,2
231,-1370,410,1
232,-920,410,3
233,-690,410,3
234,-1410,410,1
235,-1550,410,1
236,-1600,410,0
237,-1475,410,0
238,-775,410,2
239,-1185,410,1
240,-1210,410,1
241,-1380,410,1
242,-1365,410,1
243,-1505,410,0
244,-1000,410,2
245,-860,410,2
246,-640,410,3
247,-670,410,3
248,-955,410,2
249,-900,410,2
250,-1480,410,1
251,-900,410,2
252,-755,410,3
253,-640,410,3
254,-645,410,3
255,-1060,410,0
256,-755,410,3
257,-1310,410,0
258,-1630,410,0
259,-810,410,2
260,-705,410,3
261,-850,410,2
262,-620,410,3
263,-825,410,2
264,-795,410,3
265,-980,410,1
266,-945,410,2
267,-775,410,3
268,-560,410,3
269,-930,410,2
270,-1060,410,1
271,-1100,410,1
272,-635,410,3
273,-900,410,2
274,-975,410,1
275,-790,410,2
276,-1010,410,1
277,-920,410,2
278,-570,410,3
279,-730,410,2
280,-805,410,3
281,-1050,410,1
282,-795,410,1
283,-900,410,3
284,-935,410,1
285,-820,410,3
286,-870,410,2
287,-945,410,2
288,-1165,410,2
289,-965,410,1
290,-805,410,2
291,-890,410,1
292,-670,410,3
293,-805,410,3
294,-910,410,1
295,-965,410,1
296,-865,410,2
297,-835,410,2
298,-960,410,2
299,-870,410,1
300,-730,410,2
301,-1070,410,1
302,-1050,410,1
303,-580,369,4
304,-700,410,3
305,-805,410,2
306,-1165,410,1
307,-825,410,3
308,-930,410,2
309,-1065,410,1
310,-665,410,3
311,-1050,410,2
312,-765,410,3
313,-880,410,1
314,-1480,410,1
315,-1075,410,1
316,-1145,410,2
317,-875,410,3
318,-760,410,2
319,-1110,410,1
320,-1405,410,0
321,-555,410,3
322,-915,410,2
323,-765,410,2
324,-1090,410,2
325,-875,410,2
326,-1100,410,1
327,-660,410,3
328,-1205,410,1
329,-925,410,1
330,-770,410,2
331,-1055,410,2
332,-1040,410,2
333,-1335,410,1
334,-835,410,2
335,-1405,410,1
336,-570,375,4
337,-360,336,4
338,-950,410,2
339,-855,410,2
340,-785,410,2
341,-935,410,3
342,-435,373,4
343,-905,410,2
344,-915,410,3
345,-1225,410,0
346,-545,328,4
347,-735,410,2
348,-1085,410,1
349,-970,410,1
350,-665,410,3
351,-1115,410,2
352,-975,410,1
353,-1215,410,1
354,-1620,410,0
355,-1155,410,1
356,-1710,410,1
357,-825,410,2
358,-1435,410,1
359,-975,410,2
360,-1100,410,1
361,-1145,410,1
362,-965,410,2
363,-1120,410,0
364,-905,410,2
365,-920,410,1
366,-1200,410,0
367,-1065,410,1
368,-1170,410,1
369,-865,410,2
370,-500,410,3
371,-1280,410,1
372,-935,410,2
373,-1205,410,1
374,-1530,410,0
375,-905,410,2
376,-385,294,4
377,-870,410,3
378,-795,410,3
379,-915,410,2
380,-1505,410,1
381,-935,410,1
382,-1345,410,1
383,-950,410,2
384,-905,410,3
385,-1350,410,1
386,-1495,410,0
387,-665,410,3
388,-1280,410,1
389,-450,398,4
390,-985,410,3
391,-1515,410,1
392,-1060,410,0
393,-960,410,2
394,-990,410,1
395,-1170,410,1
396,-1045,410,2
397,-665,410,3
398,-980,410,2
399,-1440,410,1
400,-1120,410,1
401,-1215,410,1
402,-1360,410,1
403,-1085,410,0
404,-1065,410,2
405,-1440,410,0
406,-1360,410,1
407,-1190,410,1
408,-1425,410,1
409,-855,410,2
410,-1420,410,0
411,-1170,410,1
412,-1145,410,1
413,-1090,410,1
414,-935,410,2
415,-1035,410,2
416,-1235,410,1
417,-1035,410,1
418,-1055,410,1
419,-925,410,3
420,-825,410,3
421,-980,410,3
422,-1500,410,0
423,-1010,410,1
424,-1065,410,1
425,-995,410,1
426,-960,410,2
427,-1405,410,1
428,-920,410,2
429,-1095,410,2
430,-1150,410,1
431,-1500,410,1
432,-1395,410,1
433,-1200,410,1
434,-890,410,3
435,-1020,410,2
436,-1170,410,2
437,-1075,410,1
438,-925,410,1
439,-990,410,2
440,-705,410,3
441,-1175,410,1
442,-945,410,1
443,-1320,410,1
444,-1525,410,1
445,-1390,410,1
446,-1030,410,0
447,-1080,410,2
448,-1185,410,0
449,-1085,410,2
450,-1115,410,2
451,-910,410,2
452,-1130,410,1
453,-965,410,2
454,-1105,410,1
455,-885,410,2
456,-795,410,3
457,-1260,410,0
458,-1200,410,1
459,-1050,410,1
460,-950,410,1
461,-1000,410,1
462,-800,410,3
463,-985,410,2
464,-1195,410,2
465,-1025,410,2
466,-740,410,2
467,-1040,410,2
468,-1260,410,0
469,-950,410,1
470,-1105,410,2
471,-1040,410,3
472,-1135,410,0
473,-1295,410,1
474,-1125,410,0
475,-1250,410,1
476,-955,410,1
477,-1330,410,1
478,-1220,410,1
479,-875,410,2
480,-975,410,2
481,-1310,410,0
482,-1455,410,1
483,-1245,410,1
484,-750,410,2
485,-955,410,2
486,-1190,410,1
487,-920,410,2
488,-815,410,3
489,-1145,410,0
490,-780,410,2
491,-950,410,3
492,-1180,410,2
493,-455,342,4
494,-1000,410,2
495,-1505,410,1
496,-860,410,3
497,-1115,410,1
498,-1230,410,2
499,-885,410,2
500,-785,410,3
501,-960,410,2
502,-1075,410,2
503,-775,410,3
504,-1035,410,3
505,-1150,410,1
506,-935,410,2
507,-1100,410,1
508,-870,410,3
509,-1255,410,1
510,-1230,410,0
511,-1010,410,3
512,-1080,410,2
513,-1245,410,0
514,-1140,410,2
515,-830,409,4
516,-1110,410,0
517,-990,410,1
518,-980,410,2
519,-1250,410,1
520,-800,410,3
521,-820,410,2
522,-680,410,3
523,-765,410,3
524,-745,410,2
525,-990,410,2
526,-935,410,2
527,-1340,410,0
528,-1040,410,2
529,-905,410,2
530,-850,410,3
531,-1305,410,0
532,-1050,410,1
533,-1065,410,2
534,-1040,410,1
535,-925,410,2
536,-925,410,3
537,-875,410,3
538,-410,337,4
539,-975,410,0
540,-1050,410,1
541,-835,410,3
542,-955,410,2
543,-920,410,1
544,-1040,410,2
545,-1065,410,2
546,-925,410,3
547,-1125,410,1
548,-730,410,3
549,-945,410,2
550,-1010,410,2
551,-1200,410,1
552,-830,410,3
553,-1160,410,0
554,-875,410,2
555,-1180,410,1
556,-450,319,4
557,-1125,410,2
558,-895,410,2
559,-990,410,2
560,-1045,410,3
561,-1295,410,0
562,-1050,410,2
563,-1445,410,1
564,-1010,410,2
565,-1050,410,2
566,-1125,410,1
567,-350,292,4
568,-795,410,3
569,-1000,410,1
570,-475,384,4
571,-1015,410,1
572,-1000,410,2
573,-1140,410,2
574,-1040,410,2
575,-1485,410,0
576,-1270,410,1
577,-730,400,4
578,-1080,410,0
579,-965,410,2
580,-1010,410,3
581,-1135,410,0
582,-1115,410,2
583,-665,385,4
584,-1285,410,1
585,-1080,410,1
586,-1100,410,0
587,-920,410,2
588,-1070,410,1
589,-1015,410,2
590,-995,410,3
591,-1000,410,2
592,-730,410,3
593,-860,410,2
594,-885,410,3
595,-1000,410,1
596,-1115,410,1
597,-985,410,3
598,-955,410,2
599,-1525,410,0
600,-515,284,4
601,-910,410,3
602,-960,410,3
603,-920,410,1
604,-1035,410,2
605,-1280,410,2
606,-920,410,2
607,-1180,410,1
608,-750,410,3
609,-1090,410,2
610,-1000,410,2
611,-805,410,3
612,-860,410,3
613,-1430,410,0
614,-1015,410,1
615,-1115,410,1
616,-1080,410,1
617,-1360,410,0
618,-1180,410,1
619,-1085,410,2
620,-920,410,3
621,-855,410,3
622,-870,410,3
623,-925,410,3
624,-1245,410,1
625,-995,410,1
626,-1040,410,1
627,-1135,410,1
628,-1285,410,0
629,-1175,410,1
630,-1165,410,1
631,-1000,410,3
632,-1005,410,2
633,-1115,410,2
634,-860,410,3
635,-895,410,3
636,-950,410,3
637,-1100,410,1
638,-1065,410,1
639,-925,410,3
640,-1060,410,3
641,-1050,410,1
642,-1015,410,1
643,-950,410,3
644,-1270,410,1
645,-1545,410,0
646,-830,410,3
647,-1185,410,2
648,-1110,410,1
649,-1090,410,2
650,-990,410,3
651,-925,410,2
652,-1170,410,1
653,-865,410,3
654,-965,410,2
655,-950,410,3
656,-920,410,2
657,-1145,410,1
658,-1150,410,0
659,-1010,410,2
660,-1140,410,1
661,-820,410,2
662,-1160,410,1
663,-1205,410,1
664,-1060,410,2
665,-1120,410,2
666,-1280,410,1
667,-630,371,4
668,-865,410,3
669,-800,410,3
670,-880,410,2
671,-945,410,3
672,-1065,410,1
673,-685,377,4
674,-860,410,3
675,-1140,410,2
676,-1090,410,2
677,-1090,410,3
678,-1265,410,2
679,-1065,410,1
680,-1120,410,1
681,-975,410,2
682,-1045,410,2
683,-1130,410,1
684,-1010,410,2
685,-1080,410,2
686,-985,410,2
687,-1030,410,2
688,-1100,410,1
689,-935,410,2
690,-1150,410,1
691,-940,410,3
692,-70,194,4
693,-1300,410,1
694,-1165,410,2
695,-1335,410,0
696,-885,410,3
697,-910,410,3
698,-830,410,3
699,-1100,410,2
700,-1080,410,2
701,-1085,410,2
702,-1175,410,1
703,-1100,410,1
704,-1315,410,0
705,-1135,410,1
706,-360,283,4
707,-1025,410,2
708,-1110,410,1
709,-1210,410,1
710,-1205,410,2
711,-1155,410,2
712,-1170,410,1
713,-1140,410,1
714,-1340,410,1
715,-1160,410,3
716,-995,410,3
717,-1295,410,1
718,-1130,410,3
719,-1340,410,1
720,-1180,410,2
721,-960,410,2
722,-1350,410,1
723,-965,410,3
724,-1210,410,1
725,-800,410,3
726,-855,410,3
727,-965,410,2
728,-970,410,2
729,-1120,410,1
730,-1215,410,1
731,-1225,410,1
732,-1120,410,1
733,-1160,410,1
734,-950,410,3
735,-1075,410,2
736,-1075,410,1
737,-1070,410,1
738,-820,410,3
739,-1460,410,1
740,-1130,410,1
741,-1305,410,0
742,-1135,410,1
743,-1060,410,2
744,-1255,410,1
745,-1295,410,0
746,-1065,410,2
747,-945,410,2
748,-1220,410,1
749,-1050,410,2
750,-1105,410,2
751,-925,410,3
752,-1055,410,1
753,-1130,410,2
754,-1050,410,1
755,-1045,410,2
756,-905,410,3
757,-915,410,3
758,-1285,410,2
759,-1340,410,1
760,-1055,410,2
761,-1185,410,1
762,-955,410,2
763,-1445,410,1
764,-1060,410,2
765,-1450,410,0
766,-1060,410,1
767,-940,410,2
768,-965,410,2
769,-1140,410,1
770,-1075,410,2
771,-895,410,3
772,-1055,410,2
773,-1105,410,2
774,-1055,410,2
775,-1365,410,1
776,-1100,410,2
777,-985,410,3
778,-1225,410,1
779,-1175,410,0
780,-1230,410,1
781,-1010,410,2
782,-1005,410,2
783,-1085,410,2
784,-990,410,3
785,-1240,410,1
786,-990,410,3
787,-1120,410,2
788,-1045,410,2
789,-1085,410,3
790,-1130,410,1
791,-1175,410,2
792,-1280,410,0
793,-1125,410,2
794,-1220,410,1
795,-1155,410,2
796,-980,410,3
797,-845,410,2
798,-1180,410,2
799,-1090,410,2
800,-1285,410,2
801,-1160,410,2
802,-1065,410,2
803,-1365,410,1
804,-525,271,4
805,-1055,410,2
806,-1390,410,1
807,-1130,410,2
808,-1195,410,1
809,-1270,410,1
810,-1200,410,2
811,-975,410,2
812,-1145,410,2
813,-1410,410,2
814,-1310,410,1
815,-1375,410,1
816,-1180,410,2
817,-1360,410,1
818,-1330,410,1
819,-1395,410,1
820,-1225,410,1
821,-1115,410,1
822,-1230,410,1
823,-1035,410,3
824,-1660,410,0
825,-1520,410,0
826,-1665,410,0
827,-1035,410,1
828,-1115,410,2
829,-1160,410,2
830,-1125,410,2
831,-1260,410,0
832,-1540,410,0
833,-1045,410,1
834,-1215,410,2
835,-1320,410,1
836,-1470,410,0
837,-1365,410,1
838,-1015,410,3
839,-1095,410,2
840,-1030,410,3
841,-1265,410,1
842,-1180,410,2
843,-885,410,3
844,-1240,410,1
845,-1180,410,1
846,-1030,410,2
847,-1230,410,2
848,-1440,410,0
849,-1695,410,0
850,-1310,410,1
851,-1170,410,2
852,-1605,410,0
853,-1695,410,1
854,-1625,410,0
855,-1420,410,0
856,-1220,410,3
857,-1150,410,2
858,-1140,410,2
859,-1395,410,0
860,-1655,410,0
861,-1155,410,2
862,-1640,410,1
863,-1380,410,1
864,-1460,410,1
865,-1265,410,2
866,-1260,410,1
867,-1040,410,2
868,-865,410,3
869,-1110,410,1
870,-1440,410,1
871,-1445,410,1
872,-1275,410,1
873,-1420,410,0
874,-1055,410,1
875,-1190,410,2
876,-1620,410,0
877,-1260,410,1
878,-1240,410,2
879,-1555,410,0
880,-1320,410,1
881,-1410,410,1
882,-1320,410,1
883,-1245,410,2
884,-1470,410,1
885,-1190,410,2
886,-1580,410,0
887,-1595,410,0
888,-1510,410,1
889,-1515,410,0
890,-1330,410,1
891,-1450,410,1
892,-1290,410,2
893,-1170,410,2
894,-1275,410,1
895,-1140,410,2
896,-1270,410,1
897,-1210,410,1
898,-1355,410,1
899,-1360,410,1
900,-1355,410,1
901,-1315,410,1
902,-1370,410,1
903,-1350,410,1
904,-1410,410,0
905,-1200,410,2
906,-1195,410,2
907,-1235,410,1
908,-1330,410,1
909,-1395,410,1
910,-1410,410,0
911,-1435,410,1
912,-1510,410,0
913,-1390,410,1
914,-1450,410,0
915,-1330,410,1
916,-1385,410,1
917,-1430,410,1
918,-1200,410,2
919,-1495,410,0
920,-1155,410,2
921,-1190,410,2
922,-1185,410,2
923,-1050,410,2
924,-1155,410,2
925,-1405,410,1
926,-1185,410,2
927,-1285,410,1
928,-1250,410,1
929,-1255,410,1
930,-1305,410,1
931,-1350,410,1
932,-1370,410,1
933,-1140,410,2
934,-1555,410,0
935,-1380,410,1
936,-1385,410,1
937,-1255,410,1
938,-1265,410,1
939,-1255,410,2
940,-1250,410,1
941,-1240,410,1
942,-1120,410,3
943,-1365,410,0
944,-1415,410,1
945,-1225,410,1
946,-1505,410,0
947,-1300,410,1
948,-1220,410,2
949,-1160,410,3
950,-1320,410,1
951,-1315,410,0
952,-1295,410,1
953,-1350,410,1
954,-1490,410,1
955,-1495,410,1
956,-1660,410,0
957,-1315,410,1
958,-1325,410,1
959,-1110,410,3
960,-1420,410,0
961,-1265,410,2
962,-1615,410,1
963,-1125,410,2
964,-1255,410,1
965,-1255,410,1
966,-1330,410,1
967,-1300,410,1
968,-1660,410,0
969,-1415,410,1
970,-1330,410,1
971,-1320,410,2
972,-1355,410,1
973,-1380,410,1
974,-1405,410,1
975,-1280,410,1
976,-1340,410,1
977,-1575,410,1
978,-1450,410,1
979,-1670,410,0
980,-1630,410,0
981,-1450,410,0
982,-1620,410,0
983,-1520,410,0
984,-1080,410,3
985,-1650,410,0
986,-1335,410,1
987,-1285,410,1
988,-1295,410,1
989,-1465,410,1
990,-1315,410,1
991,-1365,410,0
992,-1475,410,1
993,-1580,410,0
994,-1345,410,1
995,-1105,410,2
996,-1265,410,1
997,-1535,410,1
998,-1360,410,1
999,-1075,410,3
