episode,reward,step,sensitive
0,550,16,4
1,555,77,4
2,470,83,4
3,560,50,4
4,490,73,4
5,485,82,4
6,550,76,4
7,585,21,4
8,395,110,4
9,600,30,4
10,590,56,4
11,500,27,4
12,630,42,4
13,560,36,4
14,540,36,4
15,570,44,4
16,485,74,4
17,540,19,4
18,585,26,4
19,515,33,4
20,550,17,4
21,515,26,4
22,615,70,4
23,590,38,4
24,550,40,4
25,650,52,4
26,580,39,4
27,630,41,4
28,510,14,4
29,595,24,4
30,455,22,4
31,645,26,4
32,575,21,4
33,620,35,4
34,500,36,4
35,535,23,4
36,590,28,4
37,530,76,4
38,540,22,4
39,545,21,4
40,440,19,4
41,455,7,4
42,585,33,4
43,535,17,4
44,430,89,4
45,565,38,4
46,590,48,4
47,550,27,4
48,585,27,4
49,510,9,4
50,500,26,4
51,540,50,4
52,560,21,4
53,450,11,4
54,460,9,4
55,530,15,4
56,495,14,4
57,500,12,4
58,490,11,4
59,540,23,4
60,535,31,4
61,580,31,4
62,570,24,4
63,525,15,4
64,555,24,4
65,465,16,4
66,550,21,4
67,550,39,4
68,540,32,4
69,475,14,4
70,580,22,4
71,595,31,4
72,540,24,4
73,490,12,4
74,555,22,4
75,550,20,4
76,535,16,4
77,560,24,4
78,540,18,4
79,555,56,4
80,545,27,4
81,500,15,4
82,575,20,4
83,580,25,4
84,610,29,4
85,555,26,4
86,550,28,4
87,485,16,4
88,565,29,4
89,555,24,4
90,565,33,4
91,590,22,4
92,555,21,4
93,550,22,4
94,565,27,4
95,545,21,4
96,555,21,4
97,505,52,4
98,530,29,4
99,550,26,4
100,515,58,4
101,550,22,4
102,575,56,4
103,495,20,4
104,535,66,4
105,530,18,4
106,550,30,4
107,560,41,4
108,515,14,4
109,565,28,4
110,600,21,4
111,485,14,4
112,570,51,4
113,530,15,4
114,535,21,4
115,555,30,4
116,530,29,4
117,535,25,4
118,520,46,4
119,500,14,4
120,530,20,4
121,520,26,4
122,525,48,4
123,485,15,4
124,495,19,4
125,520,16,4
126,525,27,4
127,575,28,4
128,495,21,4
129,635,35,4
130,530,14,4
131,535,72,4
132,600,55,4
133,540,19,4
134,495,22,4
135,590,25,4
136,625,41,4
137,510,15,4
138,545,21,4
139,525,13,4
140,550,36,4
141,535,19,4
142,325,103,4
143,615,30,4
144,505,17,4
145,540,21,4
146,590,34,4
147,505,16,4
148,595,56,4
149,525,12,4
150,570,35,4
151,610,30,4
152,550,16,4
153,580,19,4
154,535,16,4
155,585,23,4
156,535,23,4
157,520,15,4
158,515,15,4
159,540,15,4
160,505,33,4
161,515,13,4
162,565,16,4
163,550,19,4
164,550,22,4
165,580,24,4
166,510,11,4
167,555,21,4
168,610,27,4
169,610,26,4
170,585,34,4
171,575,35,4
172,565,35,4
173,530,14,4
174,565,30,4
175,600,37,4
176,520,70,4
177,505,14,4
178,545,32,4
179,495,16,4
180,510,16,4
181,575,25,4
182,545,23,4
183,555,22,4
184,585,25,4
185,480,10,4
186,555,18,4
187,500,14,4
188,490,14,4
189,525,20,4
190,565,36,4
191,560,37,4
192,625,25,4
193,560,46,4
194,560,20,4
195,595,29,4
196,525,14,4
197,465,14,4
198,550,17,4
199,530,22,4
200,565,34,4
201,580,23,4
202,520,10,4
203,585,31,4
204,535,14,4
205,535,27,4
206,485,9,4
207,520,25,4
208,465,14,4
209,495,16,4
210,510,13,4
211,525,15,4
212,480,19,4
213,510,12,4
214,590,38,4
215,580,28,4
216,450,8,4
217,555,26,4
218,515,15,4
219,520,14,4
220,585,27,4
221,535,16,4
222,485,23,4
223,495,13,4
224,590,28,4
225,480,13,4
226,465,19,4
227,495,13,4
228,585,24,4
229,545,47,4
230,485,21,4
231,540,16,4
232,555,24,4
233,540,29,4
234,575,25,4
235,495,18,4
236,560,22,4
237,530,23,4
238,600,36,4
239,460,9,4
240,525,21,4
241,550,22,4
242,500,9,4
243,475,10,4
244,500,12,4
245,510,13,4
246,475,8,4
247,470,15,4
248,525,16,4
249,530,27,4
250,530,23,4
251,465,8,4
252,530,25,4
253,455,10,4
254,470,30,4
255,520,17,4
256,550,16,4
257,490,11,4
258,485,15,4
259,535,22,4
260,475,11,4
261,505,37,4
262,475,14,4
263,470,7,4
264,515,15,4
265,545,20,4
266,555,21,4
267,495,19,4
268,565,20,4
269,510,10,4
270,560,34,4
271,495,13,4
272,525,18,4
273,490,10,4
274,555,27,4
275,520,20,4
276,530,15,4
277,475,15,4
278,450,11,4
279,480,10,4
280,500,15,4
281,510,23,4
282,490,32,4
283,540,13,4
284,560,19,4
285,535,25,4
286,595,30,4
287,500,12,4
288,485,15,4
289,535,13,4
290,520,60,4
291,510,16,4
292,505,16,4
293,465,13,4
294,540,33,4
295,535,19,4
296,490,14,4
297,605,26,4
298,555,27,4
299,550,26,4
300,550,49,4
301,560,30,4
302,485,33,4
303,555,23,4
304,550,28,4
305,540,16,4
306,495,16,4
307,485,20,4
308,555,29,4
309,530,17,4
310,590,37,4
311,545,31,4
312,490,16,4
313,515,18,4
314,525,13,4
315,490,58,4
316,520,19,4
317,530,23,4
318,550,34,4
319,505,20,4
320,495,13,4
321,545,23,4
322,460,35,4
323,545,23,4
324,450,74,4
325,520,60,4
326,465,41,4
327,460,59,4
328,435,49,4
329,270,73,4
330,545,32,4
331,340,75,4
332,430,44,4
333,330,55,4
334,295,80,4
335,460,25,4
336,465,25,4
337,485,18,4
338,500,20,4
339,455,29,4
340,470,15,4
341,530,38,4
342,470,18,4
343,370,46,4
344,485,19,4
345,535,34,4
346,435,38,4
347,490,23,4
348,490,43,4
349,525,42,4
350,545,34,4
351,410,32,4
352,560,39,4
353,495,53,4
354,500,26,4
355,525,39,4
356,420,28,4
357,495,31,4
358,475,17,4
359,520,17,4
360,505,28,4
361,500,14,4
362,450,19,4
363,550,39,4
364,455,40,4
365,530,34,4
366,500,24,4
367,530,23,4
368,485,45,4
369,555,32,4
370,590,39,4
371,540,24,4
372,530,17,4
373,470,35,4
374,530,23,4
375,510,56,4
376,495,18,4
377,505,22,4
378,565,31,4
379,555,32,4
380,495,9,4
381,410,77,4
382,500,15,4
383,525,42,4
384,445,74,4
385,510,13,4
386,515,12,4
387,535,30,4
388,490,13,4
389,505,22,4
390,555,37,4
391,535,22,4
392,470,21,4
393,490,16,4
394,390,45,4
395,325,107,4
396,530,14,4
397,545,30,4
398,515,14,4
399,515,26,4
400,525,33,4
401,490,11,4
402,485,42,4
403,510,35,4
404,490,16,4
405,475,22,4
406,495,21,4
407,520,10,4
408,500,14,4
409,510,12,4
410,460,36,4
411,450,19,4
412,460,11,4
413,475,31,4
414,470,32,4
415,540,21,4
416,510,9,4
417,505,22,4
418,495,21,4
419,460,22,4
420,490,19,4
421,485,23,4
422,480,10,4
423,470,9,4
424,470,15,4
425,535,16,4
426,495,21,4
427,530,14,4
428,435,30,4
429,495,18,4
430,485,26,4
431,535,13,4
432,490,31,4
433,520,19,4
434,440,44,4
435,495,16,4
436,465,52,4
437,520,15,4
438,535,25,4
439,495,15,4
440,510,12,4
441,500,14,4
442,510,12,4
443,485,14,4
444,455,21,4
445,535,16,4
446,515,17,4
447,415,71,4
448,470,35,4
449,530,17,4
450,435,60,4
451,535,23,4
452,525,35,4
453,120,146,4
454,550,33,4
455,525,32,4
456,280,107,4
457,180,135,4
458,475,43,4
459,395,73,4
460,535,31,4
461,505,42,4
462,505,39,4
463,325,115,4
464,480,36,4
465,510,27,4
466,535,22,4
467,475,46,4
468,530,11,4
469,540,18,4
470,515,52,4
471,525,30,4
472,475,53,4
473,540,27,4
474,535,19,4
475,485,41,4
476,525,44,4
477,560,42,4
478,535,27,4
479,485,23,4
480,530,14,4
481,465,19,4
482,505,17,4
483,480,9,4
484,460,22,4
485,495,33,4
486,535,48,4
487,475,31,4
488,500,46,4
489,485,23,4
490,480,24,4
491,465,13,4
492,440,21,4
493,485,13,4
494,505,17,4
495,495,12,4
496,505,20,4
497,480,16,4
498,510,18,4
499,450,11,4
500,475,23,4
501,475,70,4
502,500,23,4
503,490,20,4
504,500,32,4
505,480,13,4
506,475,19,4
507,520,21,4
508,460,12,4
509,500,17,4
510,475,15,4
511,460,46,4
512,495,33,4
513,455,12,4
514,505,32,4
515,495,19,4
516,515,21,4
517,560,49,4
518,465,37,4
519,535,25,4
520,460,15,4
521,495,35,4
522,460,21,4
523,460,17,4
524,485,15,4
525,510,55,4
526,570,39,4
527,450,63,4
528,500,15,4
529,470,33,4
530,430,66,4
531,475,17,4
532,475,8,4
533,435,40,4
534,460,22,4
535,475,20,4
536,420,48,4
537,510,35,4
538,425,13,4
539,440,16,4
540,485,12,4
541,410,36,4
542,485,12,4
543,495,58,4
544,485,18,4
545,480,13,4
546,460,19,4
547,495,21,4
548,460,18,4
549,470,53,4
550,435,14,4
551,475,11,4
552,535,23,4
553,470,12,4
554,515,17,4
555,520,13,4
556,520,16,4
557,445,27,4
558,395,79,4
559,485,35,4
560,435,14,4
561,480,26,4
562,460,41,4
563,470,10,4
564,420,36,4
565,465,25,4
566,485,14,4
567,450,22,4
568,490,11,4
569,510,15,4
570,505,16,4
571,545,58,4
572,500,26,4
573,475,31,4
574,475,17,4
575,475,17,4
576,480,19,4
577,535,13,4
578,500,31,4
579,490,19,4
580,455,15,4
581,495,18,4
582,470,32,4
583,505,22,4
584,485,46,4
585,485,17,4
586,490,14,4
587,530,16,4
588,540,20,4
589,480,16,4
590,505,14,4
591,500,42,4
592,480,27,4
593,515,14,4
594,485,20,4
595,465,12,4
596,520,19,4
597,535,26,4
598,505,32,4
599,485,20,4
600,515,17,4
601,490,30,4
602,515,12,4
603,545,14,4
604,505,28,4
605,500,11,4
606,550,16,4
607,530,34,4
608,505,13,4
609,490,13,4
610,490,16,4
611,525,16,4
612,505,11,4
613,540,40,4
614,470,12,4
615,455,52,4
616,500,9,4
617,490,24,4
618,490,25,4
619,495,22,4
620,545,14,4
621,490,17,4
622,540,21,4
623,525,27,4
624,485,19,4
625,495,15,4
626,510,21,4
627,475,19,4
628,500,35,4
629,540,26,4
630,515,14,4
631,510,30,4
632,505,19,4
633,505,18,4
634,490,8,4
635,485,31,4
636,525,12,4
637,500,19,4
638,470,20,4
639,510,41,4
640,455,20,4
641,445,14,4
642,500,22,4
643,510,38,4
644,445,20,4
645,495,15,4
646,510,16,4
647,490,40,4
648,510,13,4
649,495,25,4
650,465,24,4
651,500,17,4
652,505,34,4
653,500,19,4
654,500,22,4
655,475,16,4
656,520,29,4
657,525,21,4
658,480,30,4
659,505,28,4
660,485,23,4
661,455,43,4
662,515,19,4
663,540,21,4
664,475,11,4
665,475,42,4
666,555,29,4
667,485,26,4
668,500,25,4
669,500,28,4
670,520,21,4
671,495,18,4
672,485,14,4
673,465,33,4
674,480,13,4
675,460,11,4
676,510,18,4
677,495,42,4
678,505,21,4
679,505,20,4
680,500,14,4
681,510,13,4
682,530,26,4
683,525,12,4
684,555,52,4
685,540,33,4
686,540,21,4
687,500,11,4
688,425,65,4
689,525,13,4
690,520,34,4
691,510,17,4
692,440,38,4
693,530,18,4
694,485,67,4
695,545,42,4
696,535,33,4
697,540,20,4
698,465,25,4
699,545,44,4
700,555,48,4
701,490,69,4
702,495,41,4
703,560,30,4
704,520,29,4
705,535,44,4
706,450,19,4
707,530,20,4
708,500,12,4
709,550,30,4
710,570,35,4
711,550,43,4
712,535,28,4
713,480,28,4
714,525,17,4
715,485,29,4
716,490,13,4
717,520,11,4
718,565,47,4
719,485,15,4
720,560,21,4
721,535,23,4
722,545,32,4
723,505,22,4
724,530,25,4
725,520,35,4
726,475,31,4
727,510,18,4
728,475,26,4
729,505,13,4
730,475,31,4
731,530,37,4
732,475,8,4
733,465,16,4
734,500,12,4
735,485,12,4
736,555,37,4
737,490,19,4
738,490,13,4
739,480,46,4
740,530,36,4
741,535,29,4
742,485,18,4
743,495,19,4
744,515,14,4
745,475,39,4
746,500,37,4
747,485,24,4
748,480,7,4
749,540,35,4
750,470,12,4
751,480,12,4
752,500,23,4
753,515,14,4
754,455,17,4
755,440,38,4
756,490,34,4
757,515,14,4
758,425,16,4
759,495,11,4
760,505,16,4
761,440,27,4
762,540,26,4
763,495,12,4
764,455,22,4
765,475,19,4
766,460,8,4
767,470,20,4
768,510,29,4
769,475,46,4
770,455,9,4
771,510,20,4
772,485,43,4
773,540,30,4
774,510,29,4
775,490,20,4
776,490,21,4
777,450,13,4
778,495,18,4
779,555,19,4
780,475,31,4
781,460,19,4
782,480,18,4
783,525,15,4
784,460,18,4
785,465,18,4
786,510,20,4
787,495,16,4
788,460,16,4
789,480,13,4
790,440,13,4
791,420,33,4
792,505,17,4
793,475,11,4
794,450,8,4
795,500,16,4
796,445,32,4
797,465,13,4
798,460,20,4
799,455,10,4
800,475,21,4
801,465,15,4
802,445,9,4
803,445,26,4
804,445,30,4
805,450,27,4
806,405,27,4
807,485,10,4
808,410,23,4
809,395,33,4
810,465,8,4
811,450,30,4
812,450,11,4
813,435,11,4
814,495,17,4
815,465,8,4
816,480,9,4
817,450,17,4
818,450,23,4
819,450,13,4
820,470,28,4
821,425,29,4
822,425,24,4
823,440,10,4
824,425,36,4
825,435,25,4
826,450,14,4
827,490,41,4
828,445,26,4
829,475,10,4
830,480,23,4
831,455,35,4
832,450,16,4
833,475,8,4
834,500,19,4
835,425,31,4
836,460,6,4
837,435,54,4
838,480,18,4
839,460,20,4
840,485,12,4
841,500,25,4
842,455,19,4
843,475,24,4
844,465,17,4
845,520,15,4
846,435,17,4
847,490,8,4
848,475,22,4
849,480,11,4
850,450,8,4
851,515,31,4
852,510,27,4
853,485,18,4
854,485,15,4
855,495,16,4
856,500,14,4
857,505,14,4
858,460,6,4
859,505,23,4
860,495,19,4
861,520,16,4
862,435,49,4
863,505,16,4
864,485,20,4
865,460,12,4
866,470,7,4
867,490,12,4
868,505,25,4
869,495,45,4
870,430,27,4
871,480,7,4
872,490,12,4
873,450,19,4
874,465,10,4
875,445,20,4
876,510,13,4
877,470,7,4
878,500,24,4
879,475,17,4
880,455,7,4
881,490,21,4
882,450,21,4
883,480,21,4
884,470,15,4
885,470,13,4
886,500,20,4
887,440,18,4
888,445,24,4
889,490,11,4
890,450,29,4
891,455,16,4
892,405,31,4
893,500,38,4
894,450,33,4
895,525,18,4
896,490,8,4
897,470,12,4
898,465,23,4
899,450,8,4
900,495,35,4
901,505,19,4
902,460,14,4
903,475,12,4
904,485,13,4
905,495,13,4
906,475,14,4
907,490,16,4
908,495,21,4
909,490,23,4
910,475,28,4
911,490,10,4
912,490,34,4
913,460,25,4
914,490,16,4
915,545,26,4
916,505,17,4
917,495,13,4
918,530,20,4
919,520,13,4
920,495,18,4
921,440,36,4
922,465,22,4
923,475,11,4
924,495,10,4
925,515,15,4
926,535,22,4
927,515,24,4
928,450,30,4
929,455,10,4
930,475,14,4
931,420,56,4
932,490,14,4
933,415,48,4
934,540,23,4
935,470,56,4
936,505,11,4
937,480,16,4
938,430,33,4
939,475,29,4
940,485,12,4
941,475,17,4
942,465,25,4
943,480,22,4
944,455,36,4
945,475,11,4
946,480,19,4
947,495,13,4
948,405,43,4
949,425,24,4
950,520,24,4
951,450,37,4
952,485,26,4
953,515,18,4
954,485,14,4
955,495,24,4
956,450,18,4
957,490,23,4
958,440,41,4
959,470,17,4
960,415,58,4
961,505,25,4
962,495,13,4
963,425,24,4
964,480,7,4
965,485,17,4
966,445,38,4
967,470,7,4
968,495,24,4
969,475,28,4
970,440,35,4
971,490,8,4
972,520,21,4
973,435,20,4
974,485,13,4
975,480,10,4
976,490,10,4
977,505,11,4
978,470,7,4
979,455,12,4
980,435,16,4
981,475,15,4
982,480,13,4
983,475,8,4
984,455,10,4
985,505,24,4
986,470,9,4
987,520,16,4
988,410,19,4
989,440,16,4
990,420,30,4
991,510,16,4
992,380,39,4
993,480,19,4
994,445,15,4
995,520,20,4
996,425,33,4
997,430,26,4
998,470,9,4
999,490,10,4
