episode,reward,step,sensitive
0,-725,169,0
1,-850,169,0
2,-850,169,0
3,-635,169,0
4,-505,169,1
5,-95,169,2
6,-220,169,1
7,-560,169,1
8,-125,169,1
9,-630,169,0
10,-630,169,0
11,-245,169,1
12,-385,169,0
13,-395,169,1
14,-110,169,2
15,-320,169,1
16,-755,169,0
17,-85,169,2
18,-635,169,0
19,-430,169,2
20,-140,169,2
21,-75,169,2
22,-195,169,2
23,-635,169,0
24,-365,169,1
25,-780,169,0
26,-220,169,1
27,-285,169,2
28,-410,169,0
29,-480,169,0
30,-660,169,0
31,-100,169,1
32,-450,169,1
33,-360,169,0
34,-445,169,1
35,-515,169,0
36,-580,169,0
37,-130,169,2
38,-160,169,2
39,-60,169,2
40,45,169,3
41,-305,169,1
42,-310,169,1
43,40,169,3
44,-345,169,1
45,-70,169,2
46,-705,169,0
47,-50,169,2
48,-460,169,0
49,-115,169,2
50,-80,169,1
51,-190,169,2
52,-550,169,0
53,-65,169,2
54,-100,169,2
55,-185,169,2
56,-235,169,1
57,20,169,2
58,-80,169,3
59,-195,169,2
60,-125,169,2
61,-200,169,1
62,5,169,3
63,85,169,3
64,-510,169,0
65,-180,169,1
66,-120,169,2
67,85,169,2
68,-25,169,2
69,-60,169,2
70,-95,169,2
71,-225,169,1
72,80,169,3
73,-400,169,0
74,-120,169,2
75,-175,169,1
76,-50,169,2
77,-220,169,1
78,-120,169,2
79,-250,169,1
80,-95,169,2
81,-250,169,2
82,-95,169,2
83,-15,169,3
84,-255,169,1
85,-100,169,2
86,-25,169,3
87,-145,169,2
88,-210,169,1
89,-200,169,2
90,-295,169,2
91,-230,169,2
92,-225,169,2
93,-360,169,1
94,-390,169,1
95,-430,169,1
96,-475,169,1
97,-315,169,2
98,-335,169,2
99,-510,169,1
100,-660,169,0
101,-545,169,1
102,-680,169,0
103,-530,169,1
104,-565,169,1
105,-660,169,0
106,-450,169,2
107,-520,169,1
108,-580,169,1
109,-680,169,0
110,-670,169,0
111,-700,169,0
112,-680,169,0
113,-680,169,0
114,-665,169,0
115,-700,169,0
116,-680,169,0
117,-660,169,0
118,-680,169,0
119,-635,169,0
120,-665,169,0
121,-645,169,0
122,-625,169,0
123,-625,169,0
124,-635,169,0
125,-635,169,0
126,-695,169,0
127,-680,169,0
128,-695,169,0
129,-715,169,0
130,-770,169,0
131,-735,169,0
132,-680,169,0
133,-680,169,0
134,-665,169,0
135,-680,169,0
136,-690,169,0
137,-690,169,0
138,-725,169,0
139,-690,169,0
140,-700,169,0
141,-670,169,0
142,-660,169,0
143,-660,169,0
144,-660,169,0
145,-660,169,0
146,-660,169,0
147,-660,169,0
148,-670,169,0
149,-685,169,0
150,-695,169,0
151,-705,169,0
152,-705,169,0
153,-685,169,0
154,-705,169,0
155,-705,169,0
156,-705,169,0
157,-705,169,0
158,-675,169,0
159,-690,169,0
160,-670,169,0
161,-595,169,1
162,-685,169,0
163,-610,169,1
164,-565,169,1
165,-685,169,0
166,-705,169,0
167,-660,169,0
168,-685,169,0
169,-670,169,0
170,-655,169,0
171,-715,169,0
172,-705,169,0
173,-705,169,0
174,-685,169,0
175,-670,169,0
176,-670,169,0
177,-660,169,0
178,-670,169,0
179,-690,169,0
180,-725,169,0
181,-725,169,0
182,-660,169,0
183,-690,169,0
184,-735,169,0
185,-725,169,0
186,-700,169,0
187,-715,169,0
188,-695,169,0
189,-680,169,0
190,-670,169,0
191,-680,169,0
192,-635,169,0
193,-660,169,0
194,-685,169,0
195,-670,169,0
196,-660,169,0
197,-565,169,1
198,-690,169,0
199,-660,169,0
200,-690,169,0
201,-685,169,0
202,-670,169,0
203,-585,169,1
204,-850,169,0
205,-705,169,0
206,-670,169,0
207,-705,169,0
208,-635,169,0
209,-670,169,0
210,-670,169,0
211,-705,169,0
212,-705,169,0
213,-705,169,0
214,-750,169,0
215,-680,169,0
216,-770,169,0
217,-715,169,0
218,-805,169,0
219,-825,169,0
220,-715,169,0
221,-705,169,0
222,-705,169,0
223,-705,169,0
224,-705,169,0
225,-705,169,0
226,-715,169,0
227,-670,169,0
228,-660,169,0
229,-705,169,0
230,-675,169,0
231,-715,169,0
232,-715,169,0
233,-715,169,0
234,-715,169,0
235,-715,169,0
236,-715,169,0
237,-670,169,0
238,-670,169,0
239,-695,169,0
240,-670,169,0
241,-705,169,0
242,-670,169,0
243,-675,169,0
244,-680,169,0
245,-670,169,0
246,-650,169,0
247,-660,169,0
248,-660,169,0
249,-680,169,0
250,-650,169,0
251,-660,169,0
252,-680,169,0
253,-635,169,0
254,-635,169,0
255,-625,169,0
256,-635,169,0
257,-625,169,0
258,-625,169,0
259,-640,169,0
260,-650,169,0
261,-635,169,0
262,-625,169,0
263,-635,169,0
264,-635,169,0
265,-670,169,0
266,-635,169,0
267,-625,169,0
268,-635,169,0
269,-635,169,0
270,-635,169,0
271,-640,169,0
272,-635,169,0
273,-635,169,0
274,-635,169,0
275,-655,169,0
276,-635,169,0
277,-635,169,0
278,-635,169,0
279,-635,169,0
280,-635,169,0
281,-670,169,0
282,-635,169,0
283,-635,169,0
284,-670,169,0
285,-660,169,0
286,-650,169,0
287,-660,169,0
288,-670,169,0
289,-650,169,0
290,-650,169,0
291,-650,169,0
292,-650,169,0
293,-660,169,0
294,-660,169,0
295,-660,169,0
296,-660,169,0
297,-660,169,0
298,-625,169,0
299,-660,169,0
300,-635,169,0
301,-670,169,0
302,-660,169,0
303,-650,169,0
304,-635,169,0
305,-635,169,0
306,-670,169,0
307,-655,169,0
308,-660,169,0
309,-635,169,0
310,-660,169,0
311,-655,169,0
312,-645,169,0
313,-660,169,0
314,-660,169,0
315,-660,169,0
316,-670,169,0
317,-635,169,0
318,-555,169,1
319,-650,169,0
320,-650,169,0
321,-660,169,0
322,-670,169,0
323,-660,169,0
324,-660,169,0
325,-680,169,0
326,-655,169,0
327,-670,169,0
328,-670,169,0
329,-640,169,0
330,-680,169,0
331,-660,169,0
332,-645,169,0
333,-640,169,0
334,-650,169,0
335,-635,169,0
336,-655,169,0
337,-660,169,0
338,-650,169,0
339,-655,169,0
340,-640,169,0
341,-655,169,0
342,-665,169,0
343,-670,169,0
344,-660,169,0
345,-545,169,1
346,-625,169,0
347,-625,169,0
348,-545,169,1
349,-650,169,0
350,-555,169,1
351,-635,169,0
352,-670,169,0
353,-650,169,0
354,-650,169,0
355,-615,169,0
356,-660,169,0
357,-645,169,0
358,-645,169,0
359,-625,169,0
360,-645,169,0
361,-655,169,0
362,-560,169,1
363,-665,169,0
364,-655,169,0
365,-655,169,0
366,-660,169,0
367,-645,169,0
368,-655,169,0
369,-670,169,0
370,-665,169,0
371,-675,169,0
372,-665,169,0
373,-660,169,0
374,-665,169,0
375,-660,169,0
376,-660,169,0
377,-640,169,0
378,-690,169,0
379,-650,169,0
380,-690,169,0
381,-635,169,0
382,-665,169,0
383,-655,169,0
384,-635,169,0
385,-655,169,0
386,-655,169,0
387,-670,169,0
388,-670,169,0
389,-655,169,0
390,-670,169,0
391,-645,169,0
392,-670,169,0
393,-645,169,0
394,-665,169,0
395,-670,169,0
396,-655,169,0
397,-665,169,0
398,-660,169,0
399,-670,169,0
400,-680,169,0
401,-655,169,0
402,-660,169,0
403,-670,169,0
404,-655,169,0
405,-655,169,0
406,-690,169,0
407,-660,169,0
408,-655,169,0
409,-665,169,0
410,-680,169,0
411,-685,169,0
412,-675,169,0
413,-625,169,0
414,-655,169,0
415,-665,169,0
416,-660,169,0
417,-655,169,0
418,-625,169,0
419,-645,169,0
420,-635,169,0
421,-675,169,0
422,-645,169,0
423,-675,169,0
424,-680,169,0
425,-665,169,0
426,-620,169,0
427,-685,169,0
428,-655,169,0
429,-670,169,0
430,-650,169,0
431,-645,169,0
432,-660,169,0
433,-670,169,0
434,-665,169,0
435,-665,169,0
436,-650,169,0
437,-680,169,0
438,-690,169,0
439,-655,169,0
440,-635,169,0
441,-645,169,0
442,-655,169,0
443,-670,169,0
444,-665,169,0
445,-660,169,0
446,-685,169,0
447,-670,169,0
448,-670,169,0
449,-655,169,0
450,-635,169,0
451,-675,169,0
452,-655,169,0
453,-680,169,0
454,-685,169,0
455,-700,169,0
456,-670,169,0
457,-650,169,0
458,-670,169,0
459,-680,169,0
460,-665,169,0
461,-645,169,0
462,-670,169,0
463,-660,169,0
464,-680,169,0
465,-670,169,0
466,-670,169,0
467,-715,169,0
468,-675,169,0
469,-750,169,0
470,-690,169,0
471,-690,169,0
472,-660,169,0
473,-685,169,0
474,-715,169,0
475,-680,169,0
476,-660,169,0
477,-650,169,0
478,-670,169,0
479,-645,169,0
480,-655,169,0
481,-685,169,0
482,-635,169,0
483,-660,169,0
484,-705,169,0
485,-740,169,0
486,-690,169,0
487,-685,169,0
488,-750,169,0
489,-750,169,0
490,-730,169,0
491,-770,169,0
492,-760,169,0
493,-750,169,0
494,-760,169,0
495,-750,169,0
496,-750,169,0
497,-760,169,0
498,-750,169,0
499,-705,169,0
500,-750,169,0
501,-770,169,0
502,-730,169,0
503,-760,169,0
504,-770,169,0
505,-760,169,0
506,-730,169,0
507,-770,169,0
508,-750,169,0
509,-770,169,0
510,-770,169,0
511,-850,169,0
512,-850,169,0
513,-850,169,0
514,-750,169,0
515,-750,169,0
516,-850,169,0
517,-850,169,0
518,-850,169,0
519,-850,169,0
520,-850,169,0
521,-850,169,0
522,-850,169,0
523,-850,169,0
524,-850,169,0
525,-850,169,0
526,-850,169,0
527,-850,169,0
528,-850,169,0
529,-850,169,0
530,-850,169,0
531,-850,169,0
532,-850,169,0
533,-850,169,0
534,-850,169,0
535,-850,169,0
536,-850,169,0
537,-850,169,0
538,-850,169,0
539,-850,169,0
540,-850,169,0
541,-850,169,0
542,-850,169,0
543,-850,169,0
544,-850,169,0
545,-850,169,0
546,-850,169,0
547,-850,169,0
548,-850,169,0
549,-850,169,0
550,-850,169,0
551,-850,169,0
552,-850,169,0
553,-850,169,0
554,-850,169,0
555,-850,169,0
556,-850,169,0
557,-850,169,0
558,-850,169,0
559,-850,169,0
560,-850,169,0
561,-850,169,0
562,-850,169,0
563,-850,169,0
564,-850,169,0
565,-850,169,0
566,-850,169,0
567,-850,169,0
568,-850,169,0
569,-850,169,0
570,-850,169,0
571,-850,169,0
572,-850,169,0
573,-850,169,0
574,-850,169,0
575,-850,169,0
576,-850,169,0
577,-850,169,0
578,-850,169,0
579,-850,169,0
580,-850,169,0
581,-850,169,0
582,-850,169,0
583,-850,169,0
584,-850,169,0
585,-850,169,0
586,-850,169,0
587,-850,169,0
588,-850,169,0
589,-850,169,0
590,-850,169,0
591,-850,169,0
592,-850,169,0
593,-850,169,0
594,-850,169,0
595,-850,169,0
596,-850,169,0
597,-850,169,0
598,-850,169,0
599,-850,169,0
600,-850,169,0
601,-850,169,0
602,-850,169,0
603,-850,169,0
604,-850,169,0
605,-850,169,0
606,-850,169,0
607,-850,169,0
608,-850,169,0
609,-850,169,0
610,-850,169,0
611,-850,169,0
612,-850,169,0
613,-850,169,0
614,-850,169,0
615,-850,169,0
616,-850,169,0
617,-850,169,0
618,-850,169,0
619,-850,169,0
620,-850,169,0
621,-850,169,0
622,-850,169,0
623,-850,169,0
624,-850,169,0
625,-850,169,0
626,-850,169,0
627,-850,169,0
628,-850,169,0
629,-850,169,0
630,-850,169,0
631,-850,169,0
632,-850,169,0
633,-850,169,0
634,-850,169,0
635,-850,169,0
636,-850,169,0
637,-850,169,0
638,-850,169,0
639,-850,169,0
640,-850,169,0
641,-850,169,0
642,-850,169,0
643,-850,169,0
644,-850,169,0
645,-850,169,0
646,-850,169,0
647,-850,169,0
648,-850,169,0
649,-850,169,0
650,-850,169,0
651,-850,169,0
652,-850,169,0
653,-850,169,0
654,-850,169,0
655,-850,169,0
656,-850,169,0
657,-850,169,0
658,-850,169,0
659,-850,169,0
660,-850,169,0
661,-850,169,0
662,-850,169,0
663,-850,169,0
664,-850,169,0
665,-850,169,0
666,-850,169,0
667,-850,169,0
668,-850,169,0
669,-850,169,0
670,-850,169,0
671,-850,169,0
672,-850,169,0
673,-850,169,0
674,-850,169,0
675,-850,169,0
676,-850,169,0
677,-850,169,0
678,-850,169,0
679,-850,169,0
680,-850,169,0
681,-850,169,0
682,-850,169,0
683,-850,169,0
684,-850,169,0
685,-850,169,0
686,-850,169,0
687,-850,169,0
688,-850,169,0
689,-850,169,0
690,-850,169,0
691,-850,169,0
692,-850,169,0
693,-850,169,0
694,-850,169,0
695,-850,169,0
696,-850,169,0
697,-850,169,0
698,-850,169,0
699,-850,169,0
700,-850,169,0
701,-850,169,0
702,-850,169,0
703,-850,169,0
704,-850,169,0
705,-850,169,0
706,-850,169,0
707,-850,169,0
708,-850,169,0
709,-850,169,0
710,-850,169,0
711,-850,169,0
712,-850,169,0
713,-850,169,0
714,-850,169,0
715,-850,169,0
716,-850,169,0
717,-850,169,0
718,-850,169,0
719,-850,169,0
720,-850,169,0
721,-850,169,0
722,-850,169,0
723,-850,169,0
724,-850,169,0
725,-850,169,0
726,-850,169,0
727,-850,169,0
728,-850,169,0
729,-850,169,0
730,-850,169,0
731,-850,169,0
732,-850,169,0
733,-850,169,0
734,-850,169,0
735,-850,169,0
736,-850,169,0
737,-850,169,0
738,-850,169,0
739,-850,169,0
740,-850,169,0
741,-850,169,0
742,-850,169,0
743,-850,169,0
744,-850,169,0
745,-850,169,0
746,-850,169,0
747,-850,169,0
748,-850,169,0
749,-850,169,0
750,-850,169,0
751,-850,169,0
752,-850,169,0
753,-850,169,0
754,-850,169,0
755,-850,169,0
756,-850,169,0
757,-850,169,0
758,-850,169,0
759,-850,169,0
760,-850,169,0
761,-850,169,0
762,-850,169,0
763,-850,169,0
764,-850,169,0
765,-850,169,0
766,-850,169,0
767,-850,169,0
768,-850,169,0
769,-850,169,0
770,-850,169,0
771,-850,169,0
772,-850,169,0
773,-850,169,0
774,-850,169,0
775,-850,169,0
776,-850,169,0
777,-850,169,0
778,-850,169,0
779,-850,169,0
780,-850,169,0
781,-850,169,0
782,-850,169,0
783,-850,169,0
784,-850,169,0
785,-850,169,0
786,-850,169,0
787,-850,169,0
788,-850,169,0
789,-850,169,0
790,-850,169,0
791,-850,169,0
792,-850,169,0
793,-850,169,0
794,-850,169,0
795,-850,169,0
796,-850,169,0
797,-850,169,0
798,-850,169,0
799,-850,169,0
800,-850,169,0
801,-850,169,0
802,-850,169,0
803,-850,169,0
804,-850,169,0
805,-850,169,0
806,-850,169,0
807,-850,169,0
808,-850,169,0
809,-850,169,0
810,-850,169,0
811,-850,169,0
812,-850,169,0
813,-850,169,0
814,-850,169,0
815,-850,169,0
816,-850,169,0
817,-850,169,0
818,-850,169,0
819,-850,169,0
820,-850,169,0
821,-850,169,0
822,-850,169,0
823,-850,169,0
824,-850,169,0
825,-850,169,0
826,-850,169,0
827,-850,169,0
828,-850,169,0
829,-850,169,0
830,-850,169,0
831,-850,169,0
832,-850,169,0
833,-850,169,0
834,-850,169,0
835,-850,169,0
836,-850,169,0
837,-850,169,0
838,-850,169,0
839,-850,169,0
840,-850,169,0
841,-850,169,0
842,-850,169,0
843,-850,169,0
844,-850,169,0
845,-850,169,0
846,-850,169,0
847,-850,169,0
848,-850,169,0
849,-850,169,0
850,-850,169,0
851,-850,169,0
852,-850,169,0
853,-850,169,0
854,-850,169,0
855,-850,169,0
856,-850,169,0
857,-850,169,0
858,-850,169,0
859,-850,169,0
860,-850,169,0
861,-850,169,0
862,-850,169,0
863,-850,169,0
864,-850,169,0
865,-850,169,0
866,-850,169,0
867,-850,169,0
868,-850,169,0
869,-850,169,0
870,-850,169,0
871,-850,169,0
872,-850,169,0
873,-850,169,0
874,-850,169,0
875,-850,169,0
876,-850,169,0
877,-850,169,0
878,-850,169,0
879,-850,169,0
880,-850,169,0
881,-850,169,0
882,-850,169,0
883,-850,169,0
884,-850,169,0
885,-850,169,0
886,-850,169,0
887,-850,169,0
888,-850,169,0
889,-850,169,0
890,-850,169,0
891,-850,169,0
892,-850,169,0
893,-850,169,0
894,-850,169,0
895,-850,169,0
896,-850,169,0
897,-850,169,0
898,-850,169,0
899,-850,169,0
900,-850,169,0
901,-850,169,0
902,-850,169,0
903,-850,169,0
904,-850,169,0
905,-850,169,0
906,-850,169,0
907,-850,169,0
908,-850,169,0
909,-850,169,0
910,-850,169,0
911,-850,169,0
912,-850,169,0
913,-850,169,0
914,-850,169,0
915,-850,169,0
916,-850,169,0
917,-850,169,0
918,-850,169,0
919,-850,169,0
920,-850,169,0
921,-850,169,0
922,-850,169,0
923,-850,169,0
924,-850,169,0
925,-850,169,0
926,-850,169,0
927,-850,169,0
928,-850,169,0
929,-850,169,0
930,-850,169,0
931,-850,169,0
932,-850,169,0
933,-850,169,0
934,-850,169,0
935,-850,169,0
936,-850,169,0
937,-850,169,0
938,-850,169,0
939,-850,169,0
940,-850,169,0
941,-850,169,0
942,-850,169,0
943,-850,169,0
944,-850,169,0
945,-850,169,0
946,-850,169,0
947,-850,169,0
948,-850,169,0
949,-850,169,0
950,-850,169,0
951,-850,169,0
952,-850,169,0
953,-850,169,0
954,-850,169,0
955,-850,169,0
956,-850,169,0
957,-850,169,0
958,-850,169,0
959,-850,169,0
960,-850,169,0
961,-850,169,0
962,-850,169,0
963,-850,169,0
964,-850,169,0
965,-850,169,0
966,-850,169,0
967,-850,169,0
968,-850,169,0
969,-850,169,0
970,-850,169,0
971,-850,169,0
972,-850,169,0
973,-850,169,0
974,-850,169,0
975,-850,169,0
976,-850,169,0
977,-850,169,0
978,-850,169,0
979,-850,169,0
980,-850,169,0
981,-850,169,0
982,-850,169,0
983,-850,169,0
984,-850,169,0
985,-850,169,0
986,-850,169,0
987,-850,169,0
988,-850,169,0
989,-850,169,0
990,-850,169,0
991,-850,169,0
992,-850,169,0
993,-850,169,0
994,-850,169,0
995,-850,169,0
996,-850,169,0
997,-850,169,0
998,-850,169,0
999,-850,169,0
