episode,reward,step,sensitive
0,-700,170,0
1,-565,170,1
2,-750,170,0
3,-785,170,0
4,-495,170,1
5,-635,170,1
6,-570,170,1
7,-635,170,1
8,-805,170,0
9,-500,170,1
10,-630,170,1
11,-645,170,0
12,-785,170,0
13,-855,170,0
14,-580,170,1
15,-345,156,2
16,-445,170,1
17,-65,106,2
18,-535,170,1
19,-465,170,1
20,-390,170,1
21,-605,170,1
22,-720,170,0
23,-735,170,0
24,-495,170,1
25,-680,170,0
26,-345,164,2
27,-685,170,0
28,-550,170,1
29,-500,170,1
30,-495,170,1
31,-630,170,0
32,-425,170,1
33,-760,170,0
34,-240,131,2
35,-490,170,1
36,-620,170,1
37,-265,147,2
38,-455,170,1
39,70,80,2
40,0,88,2
41,-590,170,0
42,-245,134,2
43,-240,140,2
44,-205,139,2
45,0,80,2
46,145,63,2
47,-215,125,2
48,-525,170,1
49,-175,117,2
50,-385,170,1
51,60,63,2
52,-25,97,2
53,-90,100,2
54,-95,115,2
55,-80,112,2
56,-100,123,2
57,-475,170,1
58,-465,170,1
59,-230,122,2
60,-160,115,2
61,-480,170,1
62,-35,111,2
63,-185,124,2
64,-230,145,2
65,-475,170,1
66,10,92,2
67,-430,170,1
68,-585,170,1
69,-245,162,2
70,-445,170,1
71,-470,170,1
72,-385,170,1
73,75,82,2
74,-390,170,1
75,65,87,2
76,-245,151,2
77,-135,99,2
78,-410,166,2
79,-165,123,2
80,-460,170,1
81,70,88,2
82,-470,170,1
83,-135,109,2
84,-190,142,2
85,-435,170,1
86,-365,165,2
87,115,64,2
88,5,93,2
89,-85,109,2
90,175,44,2
91,-470,170,1
92,-10,92,2
93,-465,170,1
94,-515,170,1
95,155,47,2
96,45,67,2
97,-55,96,2
98,-435,170,1
99,-260,151,2
100,-10,96,2
101,-455,170,1
102,-210,130,2
103,-230,153,2
104,180,40,2
105,80,72,2
106,-35,106,2
107,-25,101,2
108,-465,170,1
109,-465,170,1
110,185,40,2
111,15,81,2
112,-70,113,2
113,-70,120,2
114,-415,170,1
115,155,52,2
116,-175,136,2
117,-415,170,1
118,95,80,2
119,-430,170,1
120,170,46,2
121,125,71,2
122,-475,170,1
123,-445,170,1
124,245,37,2
125,-390,170,1
126,-405,170,1
127,-135,132,2
128,115,62,2
129,150,72,2
130,-415,170,1
131,75,82,2
132,150,65,2
133,-5,93,2
134,-435,170,1
135,35,95,2
136,-175,137,2
137,80,71,2
138,-65,114,2
139,-130,136,2
140,-475,170,1
141,-420,170,1
142,55,87,2
143,270,42,2
144,-115,127,2
145,60,90,2
146,200,56,2
147,120,69,2
148,-110,114,2
149,-425,170,1
150,-460,170,1
151,-215,140,2
152,245,32,2
153,40,78,2
154,200,57,2
155,-440,170,1
156,15,95,2
157,-130,133,2
158,-405,170,1
159,-245,159,2
160,80,75,2
161,35,88,2
162,180,47,2
163,80,68,2
164,-395,170,1
165,-200,139,2
166,-290,165,2
167,145,56,2
168,170,51,2
169,15,86,2
170,250,28,2
171,-180,136,2
172,-100,135,2
173,65,78,2
174,45,77,2
175,-15,92,2
176,-20,114,2
177,-50,89,2
178,155,65,2
179,80,72,2
180,30,92,2
181,170,38,2
182,230,30,2
183,-35,115,2
184,15,73,2
185,150,50,2
186,-20,101,2
187,110,66,2
188,35,67,2
189,45,92,2
190,-45,93,2
191,130,73,2
192,-300,164,2
193,-225,147,2
194,-235,150,2
195,160,67,2
196,175,59,2
197,125,61,2
198,100,60,2
199,210,45,2
200,-265,161,2
201,25,99,2
202,-120,103,2
203,-15,94,2
204,-215,141,2
205,105,57,2
206,150,42,2
207,110,57,2
208,-175,131,2
209,40,70,2
210,-215,138,2
211,-110,105,2
212,140,44,2
213,130,56,2
214,30,89,2
215,-130,130,2
216,-475,170,1
217,-25,91,2
218,90,77,2
219,50,76,2
220,-5,90,2
221,-485,170,1
222,245,34,2
223,110,56,2
224,-280,154,2
225,190,32,2
226,-85,114,2
227,60,85,2
228,-10,89,2
229,195,46,2
230,-110,102,2
231,-25,94,2
232,135,57,2
233,-280,139,2
234,-335,150,2
235,-15,89,2
236,65,73,2
237,155,53,2
238,-115,119,2
239,-25,101,2
240,215,21,2
241,10,95,2
242,-170,133,2
243,-80,102,2
244,-285,148,2
245,5,95,2
246,25,87,2
247,-15,92,2
248,-65,101,2
249,60,79,2
250,-175,125,2
251,-55,100,2
252,-420,170,1
253,15,91,2
254,-480,170,1
255,-60,115,2
256,55,53,2
257,-115,114,2
258,120,65,2
259,75,52,2
260,-75,116,2
261,-145,135,2
262,-205,120,2
263,-125,128,2
264,-5,95,2
265,-240,143,2
266,200,40,2
267,100,73,2
268,125,55,2
269,130,50,2
270,175,48,2
271,165,45,2
272,0,92,2
273,-245,143,2
274,15,85,2
275,-210,147,2
276,55,82,2
277,265,31,2
278,175,46,2
279,-450,170,1
280,50,81,2
281,200,37,2
282,160,58,2
283,230,20,2
284,20,79,2
285,210,50,2
286,230,26,2
287,125,61,2
288,-135,128,2
289,-145,116,2
290,55,77,2
291,-235,137,2
292,160,46,2
293,80,65,2
294,0,98,2
295,180,47,2
296,140,70,2
297,25,95,2
298,75,80,2
299,50,71,2
300,-230,159,2
301,95,75,2
302,-420,170,1
303,125,53,2
304,-50,99,2
305,-75,106,2
306,-90,115,2
307,-235,146,2
308,135,46,2
309,270,19,2
310,70,82,2
311,-40,95,2
312,180,34,2
313,-115,121,2
314,195,53,2
315,-10,90,2
316,85,56,2
317,175,42,2
318,-230,153,2
319,-130,121,2
320,135,51,2
321,25,67,2
322,185,38,2
323,-205,123,2
324,105,63,2
325,235,49,2
326,-435,170,1
327,-210,138,2
328,130,51,2
329,20,76,2
330,-445,170,1
331,60,65,2
332,115,53,2
333,135,46,2
334,150,54,2
335,-30,98,2
336,40,73,2
337,10,87,2
338,120,75,2
339,15,86,2
340,-155,113,2
341,-5,89,2
342,-210,140,2
343,190,51,2
344,0,90,2
345,-265,141,2
346,65,67,2
347,-340,153,2
348,-410,170,1
349,130,67,2
350,-500,170,1
351,205,55,2
352,-30,81,2
353,40,90,2
354,-485,170,1
355,-305,167,2
356,10,80,2
357,-305,156,2
358,-15,92,2
359,195,36,2
360,200,36,2
361,140,55,2
362,25,70,2
363,-65,106,2
364,160,57,2
365,40,91,2
366,-110,108,2
367,-435,170,1
368,-450,170,1
369,-160,133,2
370,-10,98,2
371,50,84,2
372,135,55,2
373,20,78,2
374,5,83,2
375,225,22,2
376,35,70,2
377,65,74,2
378,-65,102,2
379,0,78,2
380,100,58,2
381,135,59,2
382,145,49,2
383,60,87,2
384,-30,101,2
385,135,61,2
386,15,87,2
387,155,52,2
388,-20,104,2
389,-30,81,2
390,90,65,2
391,-400,170,1
392,-230,153,2
393,220,22,2
394,-20,97,2
395,85,85,2
396,115,44,2
397,-120,102,2
398,15,86,2
399,110,68,2
400,-495,170,1
401,105,57,2
402,160,42,2
403,65,66,2
404,-165,131,2
405,110,83,2
406,170,39,2
407,-235,145,2
408,-105,111,2
409,-150,131,2
410,-85,94,2
411,10,92,2
412,-55,118,2
413,45,72,2
414,-460,170,1
415,150,43,2
416,170,50,2
417,5,80,2
418,105,63,2
419,-15,87,2
420,-95,117,2
421,5,89,2
422,-35,111,2
423,-190,146,2
424,210,37,2
425,5,75,2
426,190,34,2
427,145,58,2
428,250,36,2
429,110,69,2
430,-550,170,1
431,-150,128,2
432,55,84,2
433,-85,121,2
434,60,61,2
435,90,59,2
436,-150,142,2
437,0,107,2
438,235,20,2
439,85,49,2
440,-210,147,2
441,225,36,2
442,-170,126,2
443,-445,170,1
444,115,56,2
445,20,66,2
446,190,51,2
447,-125,119,2
448,-425,170,1
449,-480,170,1
450,215,27,2
451,65,68,2
452,-300,159,2
453,110,70,2
454,145,49,2
455,-65,113,2
456,-55,99,2
457,135,61,2
458,165,39,2
459,-205,125,2
460,-30,89,2
461,35,91,2
462,-190,140,2
463,105,57,2
464,220,49,2
465,-80,119,2
466,-50,99,2
467,140,58,2
468,-240,157,2
469,-420,170,1
470,95,58,2
471,-70,118,2
472,205,47,2
473,15,102,2
474,-55,107,2
475,275,14,2
476,45,73,2
477,180,51,2
478,-175,134,2
479,190,39,2
480,180,46,2
481,140,65,2
482,-430,170,1
483,-15,84,2
484,140,39,2
485,30,80,2
486,75,78,2
487,-440,170,1
488,-40,95,2
489,-485,170,1
490,-280,157,2
491,-65,111,2
492,170,41,2
493,125,61,2
494,-30,109,2
495,-5,96,2
496,150,39,2
497,195,54,2
498,-340,161,2
499,185,60,2
500,-450,170,1
501,0,87,2
502,65,66,2
503,50,65,2
504,-485,170,1
505,-135,135,2
506,15,86,2
507,5,95,2
508,165,53,2
509,-30,100,2
510,-525,170,1
511,45,80,2
512,15,92,2
513,195,54,2
514,190,39,2
515,20,75,2
516,-15,84,2
517,55,72,2
518,120,58,2
519,-710,170,0
520,-490,170,1
521,-90,114,2
522,-180,123,2
523,-70,106,2
524,125,41,2
525,-490,170,1
526,-10,97,2
527,-80,94,2
528,95,59,2
529,5,79,2
530,-60,100,2
531,150,40,2
532,-80,91,2
533,75,72,2
534,-170,130,2
535,-260,134,2
536,-170,136,2
537,-50,102,2
538,-15,90,2
539,175,60,2
540,235,38,2
541,20,74,2
542,-375,162,2
543,105,46,2
544,-170,109,2
545,220,45,2
546,-185,138,2
547,-365,170,2
548,195,28,2
549,-35,110,2
550,-295,156,2
551,70,74,2
552,140,53,2
553,70,64,2
554,-80,116,2
555,-455,170,1
556,90,72,2
557,-435,170,1
558,-140,137,2
559,15,105,2
560,-295,169,2
561,-55,103,2
562,-115,118,2
563,-15,92,2
564,20,74,2
565,-90,94,2
566,35,76,2
567,295,22,2
568,-10,96,2
569,-60,105,2
570,-35,106,2
571,195,43,2
572,125,58,2
573,10,71,2
574,-205,131,2
575,45,83,2
576,25,70,2
577,-20,86,2
578,-425,170,1
579,225,38,2
580,-165,117,2
581,-140,124,2
582,210,37,2
583,125,60,2
584,240,19,2
585,-90,116,2
586,-310,152,2
587,185,33,2
588,215,35,2
589,-55,101,2
590,-170,139,2
591,5,95,2
592,140,56,2
593,145,44,2
594,30,83,2
595,85,53,2
596,-225,155,2
597,-480,170,1
598,140,54,2
599,-20,99,2
600,225,30,2
601,175,63,2
602,115,50,2
603,50,74,2
604,-150,114,2
605,-450,170,1
606,-470,170,1
607,115,80,2
608,-410,170,1
609,-80,101,2
610,-85,104,2
611,-515,170,1
612,-80,120,2
613,135,54,2
614,110,59,2
615,70,87,2
616,105,52,2
617,50,67,2
618,210,31,2
619,-25,82,2
620,120,53,2
621,40,75,2
622,-230,154,2
623,90,69,2
624,-235,135,2
625,165,43,2
626,-325,156,2
627,240,44,2
628,265,13,2
629,-370,160,2
630,-105,113,2
631,-70,88,2
632,165,43,2
633,120,74,2
634,150,60,2
635,55,87,2
636,-10,99,2
637,95,56,2
638,-410,170,1
639,135,34,2
640,45,78,2
641,-545,170,1
642,115,56,2
643,-305,146,2
644,160,52,2
645,160,51,2
646,10,79,2
647,115,55,2
648,155,33,2
649,-385,170,1
650,250,21,2
651,80,68,2
652,-450,170,1
653,-85,108,2
654,160,35,2
655,-300,165,2
656,65,72,2
657,-85,109,2
658,190,50,2
659,-175,123,2
660,50,76,2
661,15,84,2
662,-30,97,2
663,220,26,2
664,190,45,2
665,-155,119,2
666,145,57,2
667,200,30,2
668,45,81,2
669,65,75,2
670,190,40,2
671,160,40,2
672,-75,101,2
673,105,74,2
674,45,84,2
675,260,25,2
676,140,56,2
677,-475,170,1
678,35,70,2
679,-20,100,2
680,-80,118,2
681,225,33,2
682,145,47,2
683,-110,125,2
684,150,46,2
685,170,56,2
686,-110,112,2
687,190,42,2
688,145,58,2
689,145,44,2
690,-85,113,2
691,185,33,2
692,-5,91,2
693,30,87,2
694,50,73,2
695,-85,111,2
696,-100,119,2
697,120,67,2
698,205,34,2
699,100,82,2
700,-30,90,2
701,140,56,2
702,-200,139,2
703,-100,120,2
704,-255,138,2
705,-275,160,2
706,-20,85,2
707,-65,114,2
708,-195,134,2
709,130,59,2
710,-30,96,2
711,-190,140,2
712,85,73,2
713,110,53,2
714,-150,129,2
715,95,67,2
716,-170,116,2
717,115,72,2
718,-65,97,2
719,-35,99,2
720,205,31,2
721,200,50,2
722,120,56,2
723,-90,115,2
724,-35,107,2
725,185,36,2
726,190,37,2
727,110,70,2
728,30,77,2
729,-30,99,2
730,185,56,2
731,70,78,2
732,-115,109,2
733,45,58,2
734,-15,101,2
735,-215,139,2
736,30,81,2
737,230,33,2
738,-30,103,2
739,-95,105,2
740,75,68,2
741,150,61,2
742,285,15,2
743,35,90,2
744,25,96,2
745,105,55,2
746,45,76,2
747,220,32,2
748,-485,170,1
749,40,81,2
750,10,81,2
751,235,26,2
752,-15,75,2
753,-515,170,1
754,45,75,2
755,-240,153,2
756,140,61,2
757,220,40,2
758,-25,85,2
759,-130,109,2
760,-5,85,2
761,-300,169,2
762,105,82,2
763,-70,121,2
764,-70,99,2
765,55,77,2
766,-215,151,2
767,-45,105,2
768,20,74,2
769,-170,136,2
770,-105,124,2
771,35,86,2
772,-30,91,2
773,-400,170,1
774,-235,151,2
775,-20,82,2
776,195,22,2
777,-515,170,1
778,195,31,2
779,120,60,2
780,-55,105,2
781,130,49,2
782,190,44,2
783,130,62,2
784,195,37,2
785,-115,113,2
786,110,70,2
787,120,57,2
788,240,16,2
789,220,58,2
790,95,58,2
791,145,55,2
792,40,88,2
793,-230,138,2
794,130,70,2
795,-145,102,2
796,100,58,2
797,215,36,2
798,40,81,2
799,-20,89,2
800,165,60,2
801,255,33,2
802,-525,170,1
803,-320,152,2
804,95,77,2
805,-70,118,2
806,20,74,2
807,-175,141,2
808,30,79,2
809,-95,109,2
810,-175,121,2
811,-480,170,1
812,-490,170,1
813,-535,170,1
814,-5,80,2
815,50,81,2
816,75,82,2
817,50,85,2
818,55,78,2
819,-20,94,2
820,-160,132,2
821,105,54,2
822,175,40,2
823,70,56,2
824,230,29,2
825,20,97,2
826,-280,155,2
827,-80,106,2
828,-80,112,2
829,65,72,2
830,-120,113,2
831,80,62,2
832,-320,160,2
833,-510,170,1
834,-510,170,1
835,-160,121,2
836,135,48,2
837,-90,94,2
838,-235,156,2
839,-410,170,1
840,-495,170,1
841,-205,134,2
842,-500,170,1
843,-125,110,2
844,-375,166,2
845,-120,114,2
846,-380,170,2
847,-45,99,2
848,-420,170,1
849,-555,170,1
850,-15,73,2
851,-175,132,2
852,-280,166,2
853,-560,170,1
854,-5,93,2
855,-440,170,1
856,-170,137,2
857,30,98,2
858,-245,145,2
859,-145,110,2
860,-145,120,2
861,190,35,2
862,-190,122,2
863,-355,169,2
864,55,79,2
865,110,48,2
866,-25,108,2
867,190,31,2
868,225,27,2
869,-30,95,2
870,-540,170,1
871,-15,101,2
872,160,71,2
873,-125,123,2
874,-515,170,1
875,170,46,2
876,-535,170,1
877,-465,170,1
878,-225,144,2
879,85,74,2
880,-65,117,2
881,180,47,2
882,150,42,2
883,175,50,2
884,165,40,2
885,-355,160,2
886,235,49,2
887,45,76,2
888,225,43,2
889,95,63,2
890,-60,100,2
891,150,56,2
892,135,58,2
893,-145,108,2
894,-360,166,2
895,155,53,2
896,-225,130,2
897,-260,145,2
898,225,18,2
899,-155,113,2
900,-160,123,2
901,80,74,2
902,90,66,2
903,75,73,2
904,-80,116,2
905,225,38,2
906,95,70,2
907,-65,102,2
908,-195,136,2
909,125,56,2
910,-270,152,2
911,-65,110,2
912,-455,170,1
913,250,31,2
914,-15,94,2
915,-145,125,2
916,175,45,2
917,-485,170,1
918,-465,170,1
919,40,81,2
920,-255,147,2
921,-105,115,2
922,-420,170,1
923,135,68,2
924,-425,170,1
925,-310,165,2
926,265,22,2
927,275,11,2
928,60,74,2
929,135,62,2
930,-50,105,2
931,260,22,2
932,235,23,2
933,85,70,2
934,-460,170,1
935,170,47,2
936,-20,91,2
937,-285,154,2
938,80,68,2
939,-490,170,1
940,45,91,2
941,215,34,2
942,-115,120,2
943,-15,96,2
944,-5,104,2
945,-525,170,1
946,180,62,2
947,-165,117,2
948,-525,170,1
949,145,58,2
950,-105,110,2
951,45,90,2
952,170,40,2
953,165,40,2
954,80,54,2
955,95,51,2
956,-520,170,1
957,-495,170,1
958,-140,118,2
959,45,81,2
960,160,73,2
961,160,54,2
962,-315,153,2
963,-535,170,1
964,125,55,2
965,40,79,2
966,-115,111,2
967,260,20,2
968,85,50,2
969,-180,138,2
970,-25,81,2
971,-150,108,2
972,-355,165,2
973,-45,108,2
974,-210,114,2
975,135,60,2
976,260,26,2
977,-360,159,2
978,-10,88,2
979,-110,103,2
980,-505,170,1
981,-495,170,1
982,-270,155,2
983,150,50,2
984,225,38,2
985,185,44,2
986,-35,85,2
987,-25,78,2
988,-40,101,2
989,-50,102,2
990,140,52,2
991,-40,116,2
992,105,65,2
993,195,45,2
994,130,38,2
995,-185,126,2
996,205,26,2
997,15,101,2
998,100,53,2
999,110,48,2
