episode,reward,step,sensitive
0,-620,170,0
1,-330,170,2
2,-455,170,2
3,-425,170,2
4,-785,170,0
5,-455,170,1
6,-465,170,1
7,-245,170,2
8,-580,170,0
9,-710,170,0
10,-445,170,0
11,-450,170,1
12,-405,170,1
13,-575,170,0
14,-15,170,3
15,-460,170,1
16,-555,170,1
17,-770,170,0
18,-495,170,1
19,-350,170,1
20,-105,170,3
21,-140,170,4
22,-425,170,1
23,-355,170,1
24,-290,170,1
25,-25,170,3
26,-115,170,3
27,-315,170,1
28,-545,170,1
29,-415,170,1
30,-265,170,1
31,-400,170,1
32,-510,170,1
33,-240,170,1
34,-110,170,4
35,-360,170,1
36,-255,170,2
37,-565,170,1
38,-565,170,1
39,-350,170,1
40,-85,170,3
41,150,170,5
42,15,170,4
43,-425,170,1
44,-265,170,2
45,-145,170,2
46,-210,170,2
47,-335,170,1
48,-180,170,3
49,-250,170,2
50,-225,170,2
51,-365,170,1
52,-325,170,0
53,-95,170,2
54,-120,170,3
55,-505,170,0
56,-280,170,2
57,-290,170,1
58,-15,170,3
59,-245,170,2
60,-315,170,1
61,-310,170,1
62,-25,170,3
63,-215,170,3
64,-130,170,2
65,-220,170,2
66,-115,170,3
67,-50,170,3
68,-90,170,3
69,-30,170,4
70,-110,170,3
71,105,170,5
72,55,170,4
73,-275,170,1
74,45,170,4
75,-80,170,3
76,-30,170,4
77,-125,170,3
78,-55,170,4
79,200,170,5
80,-30,170,4
81,-105,170,3
82,-390,170,1
83,-180,170,2
84,-310,170,1
85,180,170,5
86,-50,170,3
87,-65,170,3
88,-80,170,3
89,-200,170,2
90,-160,170,2
91,-145,170,2
92,-105,170,2
93,-135,170,2
94,-235,170,2
95,35,170,4
96,-95,170,3
97,-115,170,2
98,-135,170,3
99,40,170,4
100,-135,170,2
101,-160,170,2
102,45,170,4
103,-120,170,3
104,-175,170,3
105,-575,170,0
106,-220,170,2
107,-395,170,0
108,30,170,3
109,-240,170,2
110,-370,170,1
111,-265,170,2
112,-265,170,2
113,-95,170,3
114,-185,170,2
115,-115,170,3
116,-190,170,2
117,-430,170,0
118,-145,170,2
119,-250,170,2
120,-130,170,3
121,-155,170,3
122,-340,170,1
123,-200,170,2
124,-385,170,0
125,-385,170,1
126,85,170,4
127,-305,170,1
128,-235,170,2
129,-330,170,2
130,-320,170,2
131,-255,170,2
132,-160,170,3
133,-350,170,2
134,-85,170,3
135,-140,170,2
136,-15,170,3
137,55,170,4
138,-155,170,2
139,-455,170,0
140,85,170,5
141,-220,170,2
142,-90,170,3
143,-205,170,2
144,-265,170,2
145,-420,170,1
146,-410,170,0
147,-320,170,1
148,5,170,4
149,-200,170,2
150,-420,170,0
151,-195,170,2
152,-145,170,2
153,-105,170,2
154,-310,170,1
155,-140,170,3
156,-265,170,1
157,-40,170,4
158,-305,170,1
159,-165,170,2
160,-105,170,3
161,-170,170,2
162,-290,170,1
163,40,170,4
164,-155,170,2
165,-70,170,3
166,-75,170,3
167,-310,170,1
168,-65,170,3
169,-290,170,2
170,-165,170,2
171,40,170,4
172,-320,170,1
173,-35,170,4
174,-405,170,0
175,-40,170,3
176,-370,170,1
177,-505,170,0
178,-130,170,3
179,-255,170,2
180,-85,170,3
181,-140,170,3
182,-190,170,2
183,-145,170,2
184,-265,170,2
185,-155,170,3
186,-10,170,3
187,-220,170,2
188,-45,170,3
189,40,170,4
190,-310,170,1
191,-215,170,2
192,155,170,5
193,-175,170,3
194,-305,170,1
195,-420,170,1
196,-430,170,0
197,-230,170,2
198,-65,170,4
199,-120,170,3
200,-30,170,4
201,-335,170,1
202,-190,170,2
203,-240,170,2
204,-70,170,3
205,-215,170,2
206,-275,170,2
207,-250,170,2
208,-205,170,2
209,-315,170,1
210,-25,170,3
211,-40,170,3
212,35,170,4
213,-225,170,2
214,-240,170,2
215,-35,170,3
216,-350,170,1
217,-270,170,2
218,-260,170,2
219,-210,170,2
220,-270,170,1
221,-310,170,1
222,-50,170,3
223,-145,170,3
224,35,170,4
225,-145,170,3
226,-390,170,0
227,-105,170,3
228,-280,170,2
229,-225,170,2
230,-105,170,3
231,-435,170,0
232,-200,170,2
233,-285,170,1
234,-215,170,2
235,-80,170,3
236,-300,170,2
237,-45,170,3
238,-355,170,1
239,-180,170,3
240,-40,170,3
241,-25,170,4
242,-290,170,2
243,-335,170,1
244,-290,170,2
245,-100,170,2
246,-140,170,2
247,-255,170,2
248,-35,170,4
249,-15,170,3
250,-470,170,0
251,-120,170,3
252,120,170,5
253,-330,170,1
254,-30,170,3
255,-305,170,1
256,125,170,5
257,-235,170,2
258,-305,170,1
259,-330,170,2
260,20,170,4
261,-5,170,3
262,50,170,4
263,-345,170,0
264,-250,170,1
265,100,170,4
266,-5,170,3
267,-115,170,3
268,100,170,4
269,10,170,4
270,-35,170,3
271,-95,170,3
272,-95,170,3
273,-175,170,2
274,-205,170,2
275,-85,170,3
276,-440,170,0
277,-5,170,3
278,-105,170,3
279,-310,170,1
280,-355,170,1
281,-45,170,4
282,-350,170,1
283,65,170,4
284,40,170,4
285,-230,170,2
286,-195,170,2
287,-110,170,3
288,-55,170,3
289,-335,170,2
290,-120,170,3
291,60,170,4
292,-130,170,2
293,-360,170,0
294,-135,170,3
295,-165,170,3
296,-240,170,2
297,-15,170,3
298,-35,170,3
299,195,170,5
300,-320,170,1
301,-115,170,3
302,-250,170,1
303,-325,170,2
304,-35,170,3
305,-325,170,1
306,75,170,4
307,-110,170,3
308,-285,170,2
309,130,170,4
310,-220,170,2
311,-280,170,1
312,-65,170,3
313,-230,170,2
314,-80,170,3
315,-85,170,3
316,-185,170,2
317,-240,170,2
318,-190,170,2
319,-180,170,2
320,-10,170,4
321,-85,170,2
322,-340,170,1
323,-35,170,3
324,195,170,6
325,-75,170,3
326,175,170,5
327,10,170,4
328,-235,170,2
329,-75,170,3
330,0,170,4
331,20,170,4
332,35,170,4
333,-245,170,2
334,-210,170,2
335,75,170,4
336,-35,170,3
337,-20,170,3
338,30,170,4
339,-125,170,3
340,-85,170,3
341,-85,170,3
342,-290,170,1
343,-175,170,2
344,-135,170,3
345,-105,170,3
346,60,170,4
347,10,170,4
348,25,170,4
349,-115,170,3
350,-160,170,2
351,-195,170,2
352,-95,170,3
353,-20,170,4
354,-225,170,2
355,-170,170,2
356,-15,170,3
357,-155,170,2
358,-95,170,3
359,-195,170,2
360,-60,170,3
361,-150,170,2
362,35,170,4
363,-350,170,1
364,-40,170,3
365,65,170,4
366,-340,170,1
367,-105,170,3
368,-135,170,2
369,-30,170,4
370,-295,170,1
371,-190,170,3
372,-150,170,2
373,-300,170,1
374,90,170,4
375,-225,170,2
376,-60,170,3
377,5,170,3
378,-375,170,1
379,-50,170,3
380,35,170,4
381,-100,170,3
382,-110,170,3
383,-110,170,3
384,-200,170,2
385,-90,170,3
386,-25,170,3
387,25,170,4
388,-85,170,3
389,-220,170,2
390,20,170,4
391,35,170,4
392,70,170,4
393,90,170,4
394,-305,170,2
395,-300,170,1
396,-130,170,3
397,-205,170,2
398,90,170,5
399,10,170,4
400,-240,170,2
401,-130,170,3
402,-135,170,2
403,-175,170,2
404,205,170,5
405,-225,170,2
406,-20,170,4
407,40,170,4
408,85,170,5
409,-160,170,3
410,100,170,4
411,-160,170,2
412,-135,170,2
413,-105,170,3
414,-245,170,2
415,-135,170,3
416,60,170,5
417,-120,170,3
418,-425,170,1
419,-110,170,3
420,-50,170,4
421,-65,170,3
422,-255,170,2
423,-165,170,3
424,-70,170,3
425,165,170,5
426,-150,170,2
427,85,170,4
428,-135,170,3
429,135,170,5
430,-45,170,3
431,-205,170,2
432,-170,170,2
433,-30,170,4
434,-115,170,2
435,160,170,5
436,-165,170,3
437,-205,170,2
438,-360,170,0
439,-390,170,1
440,-190,170,2
441,-340,170,1
442,-165,170,2
443,30,170,4
444,-370,170,1
445,55,170,4
446,-325,170,1
447,85,170,4
448,20,170,4
449,-85,170,3
450,-105,170,3
451,25,170,4
452,-55,170,4
453,-65,170,3
454,-185,170,2
455,-135,170,3
456,-10,170,4
457,-390,170,0
458,-300,170,1
459,-25,170,4
460,-190,170,2
461,-95,170,3
462,-150,170,2
463,-195,170,2
464,-145,170,2
465,245,170,6
466,-170,170,2
467,-390,170,1
468,150,170,5
469,-100,170,3
470,-250,170,2
471,-175,170,2
472,-180,170,2
473,-145,170,2
474,-175,170,3
475,-160,170,3
476,-275,170,2
477,-170,170,2
478,-200,170,2
479,-250,170,2
480,50,170,4
481,140,170,5
482,-100,170,3
483,-105,170,3
484,0,170,4
485,-105,170,3
486,-115,170,3
487,-165,170,3
488,-190,170,2
489,-225,170,2
490,145,170,5
491,-390,170,1
492,-305,170,1
493,-175,170,3
494,-110,170,2
495,-175,170,3
496,35,170,4
497,-195,170,2
498,-325,170,1
499,-215,170,2
500,-210,170,1
501,-205,170,2
502,-100,170,3
503,-25,170,4
504,-145,170,3
505,40,170,4
506,-45,170,4
507,-105,170,3
508,45,170,4
509,-65,170,3
510,-100,170,3
511,65,170,4
512,-165,170,2
513,-300,170,2
514,-75,170,3
515,-35,170,4
516,-45,170,4
517,-30,170,3
518,90,170,5
519,-375,170,1
520,0,170,4
521,-5,170,4
522,-135,170,2
523,85,170,4
524,105,170,4
525,-105,170,3
526,-335,170,1
527,-40,170,3
528,-235,170,2
529,0,170,4
530,-215,170,2
531,-55,170,4
532,-150,170,3
533,-40,170,4
534,110,170,5
535,-230,170,2
536,-140,170,3
537,25,170,4
538,-85,170,3
539,70,170,5
540,35,170,4
541,-190,170,2
542,-105,170,3
543,-270,170,3
544,-275,170,1
545,-75,170,3
546,-125,170,3
547,-175,170,2
548,-300,170,1
549,85,170,5
550,-110,170,3
551,-60,170,3
552,-180,170,2
553,-175,170,3
554,-5,170,4
555,-215,170,2
556,30,170,4
557,-320,170,2
558,-255,170,2
559,-260,170,2
560,-205,170,2
561,-160,170,3
562,-230,170,2
563,-180,170,3
564,-260,170,2
565,70,170,5
566,45,170,4
567,230,170,6
568,-80,170,3
569,-40,170,4
570,-205,170,2
571,-215,170,2
572,-35,170,4
573,-265,170,2
574,-40,170,3
575,-45,170,3
576,-135,170,3
577,5,170,4
578,25,170,4
579,-125,170,3
580,25,170,4
581,-140,170,3
582,-40,170,3
583,-310,170,1
584,-20,170,4
585,-190,170,2
586,-235,170,2
587,-200,170,2
588,60,170,5
589,-130,170,3
590,-245,170,3
591,-110,170,3
592,-345,170,1
593,-120,170,3
594,105,170,4
595,-190,170,2
596,-210,170,2
597,-150,170,2
598,185,170,5
599,-155,170,2
600,-135,170,3
601,160,170,5
602,-245,170,2
603,40,170,5
604,215,170,6
605,-265,170,2
606,-100,170,3
607,-275,170,2
608,35,170,4
609,-80,170,3
610,-285,170,1
611,-165,170,3
612,-120,170,3
613,40,170,4
614,5,170,4
615,-250,170,2
616,-90,170,3
617,-20,170,4
618,-70,170,3
619,-20,170,4
620,-5,170,4
621,90,170,5
622,-95,170,4
623,-110,170,3
624,30,170,5
625,-140,170,3
626,-330,170,1
627,-145,170,3
628,-145,170,3
629,-275,170,2
630,-330,170,1
631,-5,170,4
632,-105,170,3
633,65,170,5
634,-140,170,3
635,-145,170,2
636,-80,170,3
637,-300,170,2
638,-180,170,2
639,-225,170,2
640,-395,170,0
641,-130,170,3
642,-55,170,4
643,-80,170,3
644,-265,170,2
645,-270,170,1
646,-185,170,3
647,-65,170,3
648,-150,170,3
649,-230,170,2
650,-50,170,4
651,-345,170,1
652,-120,170,3
653,-210,170,2
654,-190,170,2
655,-45,170,3
656,-95,170,3
657,-220,170,2
658,-260,170,2
659,-25,170,3
660,-175,170,2
661,-170,170,2
662,-70,170,3
663,-160,170,3
664,-280,170,1
665,-135,170,3
666,-145,170,3
667,-255,170,2
668,-185,170,3
669,-250,170,2
670,-390,170,1
671,-285,170,2
672,-230,170,2
673,-30,170,4
674,-55,170,3
675,-380,170,1
676,-180,170,2
677,-160,170,2
678,-20,170,3
679,-130,170,3
680,-150,170,2
681,-250,170,1
682,-85,170,3
683,-135,170,3
684,100,170,4
685,-225,170,2
686,-25,170,4
687,275,170,6
688,-120,170,3
689,-90,170,4
690,-55,170,4
691,-80,170,3
692,40,170,4
693,-320,170,1
694,-255,170,1
695,-155,170,3
696,-365,170,0
697,-295,170,1
698,10,170,3
699,-305,170,2
700,-220,170,2
701,-280,170,2
702,150,170,5
703,-100,170,4
704,-175,170,2
705,-85,170,3
706,-260,170,2
707,-195,170,2
708,-340,170,1
709,-470,170,0
710,5,170,4
711,-155,170,3
712,-365,170,1
713,-115,170,3
714,-240,170,2
715,-265,170,2
716,-295,170,1
717,-165,170,2
718,60,170,5
719,-25,170,3
720,-310,170,1
721,-255,170,1
722,-420,170,0
723,-380,170,1
724,-260,170,2
725,-150,170,2
726,55,170,5
727,-95,170,3
728,-420,170,0
729,-155,170,2
730,-55,170,4
731,-395,170,1
732,85,170,5
733,-300,170,2
734,-265,170,2
735,-355,170,1
736,-140,170,3
737,-75,170,3
738,-200,170,3
739,-135,170,3
740,-230,170,2
741,-265,170,2
742,-25,170,4
743,-95,170,3
744,-75,170,3
745,-60,170,4
746,-175,170,3
747,-165,170,3
748,50,170,4
749,-210,170,3
750,-270,170,2
751,-55,170,4
752,-390,170,0
753,-120,170,4
754,-125,170,3
755,-290,170,1
756,-250,170,2
757,-335,170,1
758,-360,170,1
759,-195,170,2
760,-375,170,1
761,-410,170,0
762,-210,170,2
763,-215,170,2
764,-315,170,1
765,-175,170,3
766,-235,170,2
767,-135,170,3
768,-230,170,2
769,-300,170,2
770,-230,170,2
771,-400,170,1
772,-265,170,2
773,-385,170,1
774,-335,170,1
775,-365,170,1
776,-310,170,2
777,-375,170,1
778,-255,170,2
779,-195,170,2
780,-75,170,3
781,-295,170,2
782,-170,170,3
783,-235,170,2
784,-200,170,3
785,-40,170,4
786,-120,170,3
787,-135,170,3
788,-280,170,1
789,-225,170,2
790,60,170,4
791,-395,170,1
792,-350,170,1
793,-340,170,1
794,-260,170,2
795,-170,170,3
796,-235,170,2
797,-405,170,1
798,-220,170,2
799,-385,170,1
800,-175,170,3
801,-200,170,3
802,-105,170,3
803,-510,170,1
804,-135,170,3
805,-95,170,3
806,-310,170,2
807,-30,170,4
808,-160,170,3
809,-50,170,4
810,-295,170,2
811,-95,170,3
812,90,170,5
813,-35,170,4
814,-170,170,2
815,-190,170,3
816,-270,170,2
817,-225,170,3
818,-30,170,4
819,-150,170,3
820,-350,170,1
821,-165,170,3
822,-350,170,1
823,-160,170,3
824,-25,170,4
825,-290,170,2
826,-25,170,4
827,-275,170,2
828,-235,170,2
829,-210,170,2
830,-65,170,3
831,-295,170,1
832,-330,170,1
833,-200,170,2
834,-95,170,3
835,-165,170,2
836,-270,170,2
837,-295,170,2
838,-250,170,2
839,-320,170,1
840,-140,170,3
841,-110,170,3
842,-355,170,1
843,-140,170,3
844,-235,170,2
845,-215,170,3
846,-240,170,2
847,-390,170,1
848,-125,170,3
849,-135,170,3
850,-280,170,1
851,-250,170,2
852,-155,170,2
853,25,170,4
854,-375,170,1
855,-270,170,2
856,-285,170,2
857,-330,170,1
858,-85,170,3
859,-175,170,2
860,10,170,4
861,-135,170,3
862,-375,170,1
863,-350,170,2
864,-390,170,1
865,-95,170,3
866,-365,170,1
867,-180,170,3
868,-275,170,2
869,-445,170,1
870,-500,170,0
871,-340,170,1
872,-235,170,2
873,-305,170,1
874,-125,170,2
875,-320,170,1
876,-375,170,1
877,-340,170,1
878,-200,170,2
879,-385,170,1
880,-145,170,3
881,-435,170,0
882,-115,170,3
883,-185,170,2
884,-125,170,3
885,-295,170,2
886,-175,170,2
887,-30,170,4
888,-395,170,1
889,-110,170,3
890,-120,170,3
891,-30,170,4
892,-345,170,1
893,-210,170,2
894,-415,170,1
895,-225,170,2
896,-220,170,2
897,-235,170,3
898,-365,170,1
899,-135,170,3
900,-170,170,3
901,-235,170,2
902,-200,170,3
903,-275,170,2
904,-240,170,2
905,-230,170,2
906,30,170,4
907,-375,170,1
908,-90,170,4
909,-275,170,2
910,-510,170,0
911,-135,170,3
912,-65,170,3
913,-235,170,2
914,-20,170,4
915,-25,170,4
916,-335,170,1
917,-420,170,1
918,-180,170,3
919,-330,170,2
920,-160,170,3
921,-470,170,1
922,-260,170,2
923,-285,170,2
924,-250,170,2
925,-155,170,3
926,-140,170,3
927,-315,170,2
928,-45,170,5
929,-270,170,2
930,-290,170,2
931,-230,170,3
932,-275,170,2
933,-360,170,1
934,0,170,4
935,-335,170,1
936,-320,170,1
937,-255,170,2
938,90,170,5
939,-275,170,2
940,-380,170,1
941,-280,170,2
942,-495,170,0
943,-265,170,2
944,-305,170,2
945,-300,170,2
946,0,170,4
947,-220,170,2
948,-100,170,3
949,-85,170,4
950,-475,170,0
951,-280,170,2
952,15,170,4
953,-305,170,2
954,-205,170,2
955,-10,170,4
956,-265,170,2
957,-440,170,1
958,-455,170,0
959,-415,170,1
960,-385,170,1
961,-380,170,1
962,-360,170,1
963,-305,170,2
964,-260,170,2
965,-105,170,3
966,-430,170,1
967,-110,170,3
968,-415,170,1
969,-250,170,2
970,-455,170,0
971,-430,170,1
972,-85,170,4
973,-170,170,3
974,-230,170,2
975,-375,170,1
976,-160,170,3
977,-170,170,3
978,-350,170,1
979,-295,170,2
980,-295,170,2
981,-195,170,3
982,-175,170,3
983,-215,170,3
984,-435,170,1
985,-35,170,4
986,-455,170,0
987,-270,170,2
988,-310,170,1
989,-395,170,1
990,-410,170,1
991,-70,170,3
992,-240,170,2
993,-365,170,1
994,-275,170,2
995,-280,170,2
996,-135,170,3
997,-225,170,2
998,-200,170,3
999,-85,170,3
