episode,reward,step,sensitive
0,-485,231,3
1,-1515,309,0
2,-10,188,3
3,-230,228,3
4,-870,309,2
5,-1360,309,0
6,-550,309,2
7,-340,253,3
8,-630,309,2
9,-1380,309,0
10,-620,309,2
11,-905,309,2
12,-305,238,3
13,-1460,309,0
14,-1310,309,0
15,-1435,309,0
16,-1320,309,0
17,-1440,309,0
18,-1405,309,0
19,-1500,309,0
20,-815,309,2
21,-1115,309,1
22,-1550,309,0
23,-985,309,2
24,-980,309,1
25,-1310,309,0
26,0,143,3
27,-885,309,2
28,-1550,309,0
29,-1550,309,0
30,-740,309,2
31,-1405,309,0
32,-415,256,3
33,-405,214,3
34,-1515,309,0
35,-1415,309,0
36,-515,207,3
37,-175,183,3
38,-940,309,2
39,-370,220,3
40,-810,309,2
41,-1410,309,0
42,-310,186,3
43,-455,248,3
44,-1465,309,0
45,-505,241,3
46,-1450,309,0
47,-655,272,3
48,-105,175,3
49,-260,224,3
50,-700,268,3
51,25,135,3
52,-1490,309,0
53,-390,231,3
54,50,152,3
55,-200,173,3
56,-1125,309,1
57,-535,268,3
58,-345,214,3
59,-110,177,3
60,25,105,3
61,-150,160,3
62,-255,197,3
63,-135,170,3
64,-585,286,3
65,20,165,3
66,-310,187,3
67,-70,159,3
68,-350,230,3
69,-135,167,3
70,-90,104,3
71,-975,307,3
72,15,135,3
73,125,129,3
74,-150,111,3
75,175,85,3
76,-455,179,3
77,230,62,3
78,-90,120,3
79,-55,119,3
80,360,35,3
81,135,89,3
82,-195,179,3
83,215,67,3
84,-250,138,3
85,355,34,3
86,125,65,3
87,165,72,3
88,290,58,3
89,320,42,3
90,200,58,3
91,5,114,3
92,215,63,3
93,270,34,3
94,180,82,3
95,130,79,3
96,205,43,3
97,260,70,3
98,260,42,3
99,275,37,3
100,330,25,3
101,210,39,3
102,10,109,3
103,220,52,3
104,320,25,3
105,290,36,3
106,340,28,3
107,230,40,3
108,240,52,3
109,285,20,3
110,335,30,3
111,300,21,3
112,310,27,3
113,275,26,3
114,310,27,3
115,280,39,3
116,310,29,3
117,175,53,3
118,245,40,3
119,300,26,3
120,175,42,3
121,220,39,3
122,290,27,3
123,165,59,3
124,280,23,3
125,160,51,3
126,360,18,3
127,305,36,3
128,275,27,3
129,270,32,3
130,285,25,3
131,245,36,3
132,330,25,3
133,230,33,3
134,325,24,3
135,340,20,3
136,325,23,3
137,275,28,3
138,275,26,3
139,255,31,3
140,220,62,3
141,270,51,3
142,345,36,3
143,260,33,3
144,330,23,3
145,315,26,3
146,350,21,3
147,255,35,3
148,315,35,3
149,290,32,3
150,290,31,3
151,325,16,3
152,235,44,3
153,265,48,3
154,380,37,3
155,360,13,3
156,360,12,3
157,345,25,3
158,295,33,3
159,360,19,3
160,340,28,3
161,270,48,3
162,345,10,3
163,300,25,3
164,350,18,3
165,365,16,3
166,360,14,3
167,380,15,3
168,295,30,3
169,310,28,3
170,350,14,3
171,80,70,3
172,240,46,3
173,-240,130,3
174,140,54,3
175,260,37,3
176,220,44,3
177,100,74,3
178,145,54,3
179,215,40,3
180,295,35,3
181,310,32,3
182,235,45,3
183,280,35,3
184,255,57,3
185,-115,125,3
186,185,62,3
187,255,36,3
188,235,37,3
189,160,48,3
190,200,56,3
191,290,52,3
192,325,24,3
193,265,41,3
194,290,33,3
195,265,37,3
196,330,18,3
197,300,20,3
198,280,21,3
199,360,13,3
200,290,43,3
201,320,17,3
202,350,31,3
203,380,18,3
204,350,12,3
205,355,12,3
206,325,43,3
207,370,8,3
208,370,15,3
209,395,13,3
210,350,13,3
211,380,19,3
212,390,12,3
213,350,9,3
214,375,11,3
215,345,23,3
216,355,16,3
217,325,18,3
218,335,18,3
219,320,20,3
220,315,18,3
221,140,59,3
222,285,20,3
223,220,42,3
224,-35,93,3
225,-765,242,3
226,-120,105,3
227,-985,280,3
228,-340,152,3
229,20,90,3
230,-1515,309,0
231,-1515,309,0
232,-1550,309,0
233,-995,283,3
234,-830,254,3
235,-1550,309,0
236,-1550,309,0
237,-1550,309,0
238,-1550,309,0
239,-1515,309,0
240,-1550,309,0
241,-1550,309,0
242,-1550,309,0
243,-265,134,3
244,-1550,309,0
245,-1550,309,0
246,-1550,309,0
247,-1515,309,0
248,-1550,309,0
249,-1550,309,0
250,-1550,309,0
251,-1550,309,0
252,-1550,309,0
253,-1550,309,0
254,-1550,309,0
255,-1550,309,0
256,-1515,309,0
257,-1550,309,0
258,-1550,309,0
259,-1550,309,0
260,-1550,309,0
261,-1550,309,0
262,-1550,309,0
263,-1550,309,0
264,-1550,309,0
265,-1550,309,0
266,-1550,309,0
267,-1550,309,0
268,-1550,309,0
269,-1550,309,0
270,-1550,309,0
271,-1550,309,0
272,-1550,309,0
273,-1550,309,0
274,-1550,309,0
275,-1550,309,0
276,-1550,309,0
277,-1550,309,0
278,-1550,309,0
279,-1550,309,0
280,-1550,309,0
281,-1550,309,0
282,-1550,309,0
283,-1550,309,0
284,-1550,309,0
285,-1550,309,0
286,-1550,309,0
287,-1550,309,0
288,-1550,309,0
289,-1550,309,0
290,-1550,309,0
291,-1550,309,0
292,-1550,309,0
293,-1550,309,0
294,-1550,309,0
295,-1550,309,0
296,-1550,309,0
297,-1550,309,0
298,-1550,309,0
299,-1550,309,0
300,-1550,309,0
301,-1550,309,0
302,-1550,309,0
303,-1550,309,0
304,-1550,309,0
305,-1550,309,0
306,-1550,309,0
307,-1550,309,0
308,-1550,309,0
309,-1550,309,0
310,-1550,309,0
311,-1550,309,0
312,-1550,309,0
313,-1550,309,0
314,-1550,309,0
315,-1550,309,0
316,-1550,309,0
317,-1550,309,0
318,-1550,309,0
319,-1550,309,0
320,-1550,309,0
321,-1550,309,0
322,-1550,309,0
323,-1550,309,0
324,-1550,309,0
325,-1550,309,0
326,-1550,309,0
327,-1550,309,0
328,-1550,309,0
329,-1550,309,0
330,-1550,309,0
331,-1550,309,0
332,-1550,309,0
333,-1550,309,0
334,-1550,309,0
335,-1550,309,0
336,-1550,309,0
337,-1550,309,0
338,-1550,309,0
339,-1550,309,0
340,-1550,309,0
341,-1550,309,0
342,-1550,309,0
343,-1550,309,0
344,-1550,309,0
345,-1550,309,0
346,-1550,309,0
347,-1550,309,0
348,-1550,309,0
349,-1550,309,0
350,-1550,309,0
351,-1550,309,0
352,-1550,309,0
353,-1550,309,0
354,-1550,309,0
355,-1550,309,0
356,-1550,309,0
357,-1550,309,0
358,-1550,309,0
359,-1550,309,0
360,-1550,309,0
361,-1550,309,0
362,-1550,309,0
363,-1550,309,0
364,-1550,309,0
365,-1550,309,0
366,-1550,309,0
367,-1550,309,0
368,-1550,309,0
369,-1550,309,0
370,-1550,309,0
371,-1525,309,0
372,-1550,309,0
373,-1550,309,0
374,-1550,309,0
375,-1550,309,0
376,-1550,309,0
377,-1550,309,0
378,-1550,309,0
379,-1550,309,0
380,-1550,309,0
381,-1550,309,0
382,-1550,309,0
383,-1550,309,0
384,-1550,309,0
385,-1550,309,0
386,-1550,309,0
387,-1550,309,0
388,-1550,309,0
389,-1550,309,0
390,-1550,309,0
391,-1550,309,0
392,-1550,309,0
393,-1550,309,0
394,-1550,309,0
395,-1550,309,0
396,-1550,309,0
397,-1550,309,0
398,-1550,309,0
399,-1550,309,0
400,-1550,309,0
401,-1550,309,0
402,-1550,309,0
403,-1550,309,0
404,-1550,309,0
405,-1550,309,0
406,-1550,309,0
407,-1550,309,0
408,-1550,309,0
409,-1550,309,0
410,-1550,309,0
411,-1550,309,0
412,-1550,309,0
413,-1550,309,0
414,-1550,309,0
415,-1550,309,0
416,-1550,309,0
417,-1550,309,0
418,-1550,309,0
419,-1550,309,0
420,-1550,309,0
421,-1550,309,0
422,-1550,309,0
423,-1550,309,0
424,-1550,309,0
425,-1550,309,0
426,-1550,309,0
427,-1550,309,0
428,-1550,309,0
429,-1550,309,0
430,-1550,309,0
431,-1550,309,0
432,-1550,309,0
433,-1550,309,0
434,-1550,309,0
435,-1550,309,0
436,-1550,309,0
437,-1550,309,0
438,-1550,309,0
439,-1550,309,0
440,-1550,309,0
441,-1550,309,0
442,-1550,309,0
443,-1550,309,0
444,-1550,309,0
445,-1550,309,0
446,-1550,309,0
447,-1550,309,0
448,-1550,309,0
449,-1550,309,0
450,-1550,309,0
451,-1550,309,0
452,-1550,309,0
453,-1550,309,0
454,-1550,309,0
455,-1550,309,0
456,-1550,309,0
457,-1550,309,0
458,-1550,309,0
459,-1550,309,0
460,-1550,309,0
461,-1550,309,0
462,-1550,309,0
463,-1550,309,0
464,-1550,309,0
465,-1550,309,0
466,-1550,309,0
467,-1550,309,0
468,-1550,309,0
469,-1550,309,0
470,-1550,309,0
471,-1550,309,0
472,-1550,309,0
473,-1550,309,0
474,-1550,309,0
475,-1550,309,0
476,-1550,309,0
477,-1550,309,0
478,-1550,309,0
479,-1550,309,0
480,-1550,309,0
481,-1550,309,0
482,-1550,309,0
483,-1550,309,0
484,-1550,309,0
485,-1550,309,0
486,-1550,309,0
487,-1550,309,0
488,-1550,309,0
489,-1550,309,0
490,-1550,309,0
491,-1550,309,0
492,-1550,309,0
493,-1550,309,0
494,-1550,309,0
495,-1550,309,0
496,-1550,309,0
497,-1550,309,0
498,-1550,309,0
499,-1550,309,0
500,-1550,309,0
501,-1550,309,0
502,-1550,309,0
503,-1550,309,0
504,-1550,309,0
505,-1550,309,0
506,-1550,309,0
507,-1550,309,0
508,-1550,309,0
509,-1550,309,0
510,-1550,309,0
511,-1550,309,0
512,-1550,309,0
513,-1550,309,0
514,-1550,309,0
515,-1550,309,0
516,-1550,309,0
517,-1550,309,0
518,-1550,309,0
519,-1550,309,0
520,-1550,309,0
521,-1550,309,0
522,-1550,309,0
523,-1550,309,0
524,-1550,309,0
525,-1550,309,0
526,-1550,309,0
527,-1550,309,0
528,-1550,309,0
529,-1550,309,0
530,-1550,309,0
531,-1550,309,0
532,-1550,309,0
533,-1550,309,0
534,-1550,309,0
535,-1550,309,0
536,-1550,309,0
537,-1550,309,0
538,-1550,309,0
539,-1550,309,0
540,-1550,309,0
541,-1550,309,0
542,-1550,309,0
543,-1550,309,0
544,-1550,309,0
545,-1550,309,0
546,-1550,309,0
547,-1550,309,0
548,-1550,309,0
549,-1550,309,0
550,-1550,309,0
551,-1550,309,0
552,-1550,309,0
553,-1550,309,0
554,-1550,309,0
555,-1550,309,0
556,-1550,309,0
557,-1550,309,0
558,-1550,309,0
559,-1550,309,0
560,-1550,309,0
561,-1550,309,0
562,-1550,309,0
563,-1550,309,0
564,-1550,309,0
565,-1550,309,0
566,-1550,309,0
567,-1550,309,0
568,-1550,309,0
569,-1550,309,0
570,-1550,309,0
571,-1550,309,0
572,-1550,309,0
573,-1550,309,0
574,-1550,309,0
575,-1550,309,0
576,-1550,309,0
577,-1550,309,0
578,-1550,309,0
579,-1550,309,0
580,-1550,309,0
581,-1550,309,0
582,-1550,309,0
583,-1550,309,0
584,-1550,309,0
585,-1550,309,0
586,-1550,309,0
587,-1550,309,0
588,-1550,309,0
589,-1550,309,0
590,-1550,309,0
591,-1550,309,0
592,-1550,309,0
593,-1550,309,0
594,-1550,309,0
595,-1550,309,0
596,-1550,309,0
597,-1550,309,0
598,-1550,309,0
599,-1550,309,0
600,-1550,309,0
601,-1550,309,0
602,-1550,309,0
603,-1550,309,0
604,-1550,309,0
605,-1550,309,0
606,-1550,309,0
607,-1550,309,0
608,-1550,309,0
609,-1550,309,0
610,-1550,309,0
611,-1550,309,0
612,-1550,309,0
613,-1550,309,0
614,-1550,309,0
615,-1550,309,0
616,-1550,309,0
617,-1550,309,0
618,-1550,309,0
619,-1550,309,0
620,-1550,309,0
621,-1550,309,0
622,-1550,309,0
623,-1550,309,0
624,-1550,309,0
625,-1550,309,0
626,-1550,309,0
627,-1550,309,0
628,-1550,309,0
629,-1550,309,0
630,-1550,309,0
631,-1550,309,0
632,-1550,309,0
633,-1550,309,0
634,-1550,309,0
635,-1550,309,0
636,-1550,309,0
637,-1550,309,0
638,-1550,309,0
639,-1550,309,0
640,-1550,309,0
641,-1550,309,0
642,-1550,309,0
643,-1550,309,0
644,-1550,309,0
645,-1550,309,0
646,-1550,309,0
647,-1550,309,0
648,-1550,309,0
649,-1550,309,0
650,-1550,309,0
651,-1550,309,0
652,-1550,309,0
653,-1550,309,0
654,-1550,309,0
655,-1550,309,0
656,-1550,309,0
657,-1550,309,0
658,-1550,309,0
659,-1550,309,0
660,-1550,309,0
661,-1550,309,0
662,-1550,309,0
663,-1550,309,0
664,-1550,309,0
665,-1550,309,0
666,-1550,309,0
667,-1550,309,0
668,-1550,309,0
669,-1550,309,0
670,-1550,309,0
671,-1550,309,0
672,-1550,309,0
673,-1550,309,0
674,-1550,309,0
675,-1550,309,0
676,-1550,309,0
677,-1550,309,0
678,-1550,309,0
679,-1550,309,0
680,-1550,309,0
681,-1550,309,0
682,-1550,309,0
683,-1550,309,0
684,-1550,309,0
685,-1550,309,0
686,-1550,309,0
687,-1550,309,0
688,-1550,309,0
689,-1550,309,0
690,-1550,309,0
691,-1550,309,0
692,-1550,309,0
693,-1550,309,0
694,-1550,309,0
695,-1550,309,0
696,-1550,309,0
697,-1550,309,0
698,-1550,309,0
699,-1550,309,0
700,-1550,309,0
701,-1550,309,0
702,-1550,309,0
703,-1550,309,0
704,-1550,309,0
705,-1550,309,0
706,-1550,309,0
707,-1550,309,0
708,-1550,309,0
709,-1550,309,0
710,-1550,309,0
711,-1550,309,0
712,-1550,309,0
713,-1550,309,0
714,-1550,309,0
715,-1550,309,0
716,-1550,309,0
717,-1550,309,0
718,-1550,309,0
719,-1550,309,0
720,-1550,309,0
721,-1550,309,0
722,-1550,309,0
723,-1550,309,0
724,-1550,309,0
725,-1550,309,0
726,-1550,309,0
727,-1550,309,0
728,-1550,309,0
729,-1550,309,0
730,-1550,309,0
731,-1550,309,0
732,-1550,309,0
733,-1550,309,0
734,-1550,309,0
735,-1550,309,0
736,-1550,309,0
737,-1550,309,0
738,-1550,309,0
739,-1550,309,0
740,-1550,309,0
741,-1550,309,0
742,-1550,309,0
743,-1550,309,0
744,-1550,309,0
745,-1550,309,0
746,-1550,309,0
747,-1550,309,0
748,-1550,309,0
749,-1550,309,0
750,-1550,309,0
751,-1550,309,0
752,-1550,309,0
753,-1550,309,0
754,-1550,309,0
755,-1550,309,0
756,-1550,309,0
757,-1550,309,0
758,-1550,309,0
759,-1550,309,0
760,-1550,309,0
761,-1550,309,0
762,-1550,309,0
763,-1550,309,0
764,-1550,309,0
765,-1550,309,0
766,-1550,309,0
767,-1550,309,0
768,-1550,309,0
769,-1550,309,0
770,-1550,309,0
771,-1550,309,0
772,-1550,309,0
773,-1550,309,0
774,-1550,309,0
775,-1550,309,0
776,-1550,309,0
777,-1550,309,0
778,-1550,309,0
779,-1550,309,0
780,-1550,309,0
781,-1550,309,0
782,-1550,309,0
783,-1550,309,0
784,-1550,309,0
785,-1550,309,0
786,-1550,309,0
787,-1550,309,0
788,-1550,309,0
789,-1550,309,0
790,-1550,309,0
791,-1550,309,0
792,-1550,309,0
793,-1550,309,0
794,-1550,309,0
795,-1550,309,0
796,-1550,309,0
797,-1550,309,0
798,-1550,309,0
799,-1550,309,0
800,-1550,309,0
801,-1550,309,0
802,-1550,309,0
803,-1550,309,0
804,-1550,309,0
805,-1550,309,0
806,-1550,309,0
807,-1550,309,0
808,-1550,309,0
809,-1550,309,0
810,-1550,309,0
811,-1550,309,0
812,-1550,309,0
813,-1550,309,0
814,-1550,309,0
815,-1550,309,0
816,-1550,309,0
817,-1550,309,0
818,-1550,309,0
819,-1550,309,0
820,-1550,309,0
821,-1550,309,0
822,-1550,309,0
823,-1550,309,0
824,-1550,309,0
825,-1550,309,0
826,-1550,309,0
827,-1550,309,0
828,-1550,309,0
829,-1550,309,0
830,-1550,309,0
831,-1550,309,0
832,-1550,309,0
833,-1550,309,0
834,-1550,309,0
835,-1550,309,0
836,-1550,309,0
837,-1550,309,0
838,-1550,309,0
839,-1550,309,0
840,-1550,309,0
841,-1550,309,0
842,-1550,309,0
843,-1550,309,0
844,-1550,309,0
845,-1550,309,0
846,-1550,309,0
847,-1550,309,0
848,-1550,309,0
849,-1550,309,0
850,-1550,309,0
851,-1550,309,0
852,-1550,309,0
853,-1550,309,0
854,-1550,309,0
855,-1550,309,0
856,-1550,309,0
857,-1550,309,0
858,-1550,309,0
859,-1550,309,0
860,-1550,309,0
861,-1550,309,0
862,-1550,309,0
863,-1550,309,0
864,-1550,309,0
865,-1550,309,0
866,-1550,309,0
867,-1550,309,0
868,-1550,309,0
869,-1550,309,0
870,-1550,309,0
871,-1550,309,0
872,-1550,309,0
873,-1550,309,0
874,-1550,309,0
875,-1550,309,0
876,-1550,309,0
877,-1550,309,0
878,-1550,309,0
879,-1550,309,0
880,-1550,309,0
881,-1550,309,0
882,-1550,309,0
883,-1550,309,0
884,-1550,309,0
885,-1550,309,0
886,-1550,309,0
887,-1550,309,0
888,-1550,309,0
889,-1550,309,0
890,-1550,309,0
891,-1550,309,0
892,-1550,309,0
893,-1550,309,0
894,-1550,309,0
895,-1550,309,0
896,-1550,309,0
897,-1550,309,0
898,-1550,309,0
899,-1550,309,0
900,-1550,309,0
901,-1550,309,0
902,-1550,309,0
903,-1550,309,0
904,-1550,309,0
905,-1550,309,0
906,-1550,309,0
907,-1550,309,0
908,-1550,309,0
909,-1550,309,0
910,-1550,309,0
911,-1550,309,0
912,-1550,309,0
913,-1550,309,0
914,-1550,309,0
915,-1550,309,0
916,-1550,309,0
917,-1550,309,0
918,-1550,309,0
919,-1550,309,0
920,-1550,309,0
921,-1550,309,0
922,-1550,309,0
923,-1550,309,0
924,-1550,309,0
925,-1550,309,0
926,-1550,309,0
927,-1550,309,0
928,-1550,309,0
929,-1550,309,0
930,-1550,309,0
931,-1550,309,0
932,-1550,309,0
933,-1550,309,0
934,-1550,309,0
935,-1550,309,0
936,-1550,309,0
937,-1550,309,0
938,-1550,309,0
939,-1550,309,0
940,-1550,309,0
941,-1550,309,0
942,-1550,309,0
943,-1550,309,0
944,-1550,309,0
945,-1550,309,0
946,-1550,309,0
947,-1550,309,0
948,-1550,309,0
949,-1550,309,0
950,-1550,309,0
951,-1550,309,0
952,-1550,309,0
953,-1550,309,0
954,-1550,309,0
955,-1550,309,0
956,-1550,309,0
957,-1550,309,0
958,-1550,309,0
959,-1550,309,0
960,-1550,309,0
961,-1550,309,0
962,-1550,309,0
963,-1550,309,0
964,-1550,309,0
965,-1550,309,0
966,-1550,309,0
967,-1550,309,0
968,-1550,309,0
969,-1550,309,0
970,-1550,309,0
971,-1550,309,0
972,-1550,309,0
973,-1550,309,0
974,-1550,309,0
975,-1550,309,0
976,-1550,309,0
977,-1550,309,0
978,-1550,309,0
979,-1550,309,0
980,-1550,309,0
981,-1550,309,0
982,-1550,309,0
983,-1550,309,0
984,-1550,309,0
985,-1550,309,0
986,-1550,309,0
987,-1550,309,0
988,-1550,309,0
989,-1550,309,0
990,-1550,309,0
991,-1550,309,0
992,-1550,309,0
993,-1550,309,0
994,-1550,309,0
995,-1550,309,0
996,-1550,309,0
997,-1550,309,0
998,-1550,309,0
999,-1550,309,0
