episode,reward,step,sensitive
0,-6450,1289,0
1,-3180,1289,7
2,-3040,1289,9
3,-3915,1289,6
4,-420,1289,14
5,-1595,1289,13
6,-1630,1289,11
7,-1905,1289,13
8,-255,1289,13
9,-1320,1289,12
10,-4535,1289,4
11,-3500,1289,8
12,-2540,1289,9
13,-1740,1289,13
14,-30,1289,14
15,-3785,1289,8
16,-3180,1289,9
17,170,1289,14
18,-1825,1289,10
19,-2245,1289,11
20,-2300,1289,12
21,-1520,1289,12
22,-1775,1289,12
23,-1190,1289,11
24,-1960,1289,11
25,-555,1289,13
26,-690,1289,14
27,-550,1289,13
28,705,1256,16
29,-260,1289,14
30,-215,1289,14
31,-955,1289,14
32,-975,1289,12
33,-605,1289,11
34,180,1289,14
35,-180,1289,14
36,-75,1289,13
37,-210,1289,12
38,380,1173,16
39,-55,1289,14
40,-370,1289,13
41,-290,1289,14
42,-330,1289,13
43,-1125,1289,12
44,-725,1289,13
45,-1155,1289,13
46,-1610,1289,12
47,-840,1289,15
48,-1630,1289,12
49,-2260,1289,9
50,-2575,1289,8
51,-3035,1289,7
52,-3010,1289,9
53,-3495,1289,7
54,-3620,1289,5
55,-3420,1289,6
56,-3380,1289,6
57,-4150,1289,2
58,-4185,1289,1
59,-3110,1289,10
60,-3870,1289,4
61,-3240,1289,7
62,-3220,1289,7
63,-3865,1289,4
64,-3955,1289,2
65,-3745,1289,4
66,-4200,1289,2
67,-3535,1289,6
68,-4280,1289,4
69,-4515,1289,2
70,-4120,1289,3
71,-4495,1289,2
72,-4040,1289,4
73,-4530,1289,1
74,-4710,1289,1
75,-4690,1289,3
76,-5055,1289,2
77,-5105,1289,2
78,-5160,1289,2
79,-5265,1289,2
80,-5265,1289,2
81,-5435,1289,2
82,-5355,1289,2
83,-5465,1289,2
84,-5680,1289,1
85,-5565,1289,1
86,-5680,1289,2
87,-5720,1289,1
88,-5720,1289,1
89,-5720,1289,1
90,-5795,1289,0
91,-5840,1289,0
92,-5835,1289,0
93,-5840,1289,0
94,-5805,1289,0
95,-5845,1289,0
96,-5835,1289,0
97,-5745,1289,1
98,-5675,1289,0
99,-5665,1289,0
100,-5850,1289,0
101,-5810,1289,0
102,-5800,1289,0
103,-5965,1289,0
104,-5860,1289,1
105,-5840,1289,1
106,-5785,1289,1
107,-5825,1289,1
108,-5815,1289,1
109,-5795,1289,1
110,-5815,1289,1
111,-5775,1289,1
112,-5865,1289,1
113,-5925,1289,1
114,-5900,1289,1
115,-6005,1289,1
116,-6165,1289,0
117,-6250,1289,0
118,-6095,1289,1
119,-6020,1289,1
120,-6260,1289,0
121,-6270,1289,0
122,-6240,1289,0
123,-6060,1289,1
124,-6200,1289,0
125,-6145,1289,0
126,-6095,1289,1
127,-6085,1289,1
128,-6095,1289,1
129,-6100,1289,1
130,-6240,1289,0
131,-6285,1289,0
132,-6285,1289,0
133,-6290,1289,0
134,-6295,1289,0
135,-6295,1289,0
136,-6315,1289,0
137,-6315,1289,0
138,-6230,1289,0
139,-6240,1289,0
140,-6105,1289,1
141,-6105,1289,1
142,-6115,1289,1
143,-6105,1289,1
144,-6115,1289,1
145,-6270,1289,0
146,-6260,1289,0
147,-6250,1289,0
148,-6270,1289,0
149,-6260,1289,0
150,-6270,1289,0
151,-6270,1289,0
152,-6230,1289,0
153,-6260,1289,0
154,-6195,1289,0
155,-6170,1289,0
156,-6210,1289,0
157,-6240,1289,0
158,-6170,1289,0
159,-6160,1289,0
160,-6180,1289,0
161,-6230,1289,0
162,-6240,1289,0
163,-6200,1289,0
164,-6220,1289,0
165,-6200,1289,0
166,-6180,1289,0
167,-6110,1289,0
168,-6115,1289,0
169,-6105,1289,0
170,-6110,1289,0
171,-5985,1289,1
172,-6035,1289,0
173,-6115,1289,0
174,-6100,1289,0
175,-6095,1289,0
176,-6135,1289,0
177,-6155,1289,0
178,-6125,1289,0
179,-6215,1289,0
180,-6120,1289,0
181,-6090,1289,0
182,-6165,1289,0
183,-6155,1289,0
184,-6075,1289,0
185,-6155,1289,0
186,-6080,1289,0
187,-6055,1289,0
188,-6095,1289,0
189,-6015,1289,0
190,-6050,1289,0
191,-6030,1289,0
192,-6020,1289,0
193,-5990,1289,0
194,-6030,1289,0
195,-6050,1289,0
196,-6030,1289,0
197,-6005,1289,0
198,-6020,1289,0
199,-6010,1289,0
200,-5915,1289,1
201,-6020,1289,0
202,-5980,1289,0
203,-6010,1289,0
204,-5935,1289,0
205,-6005,1289,0
206,-5950,1289,0
207,-5925,1289,0
208,-5965,1289,0
209,-5960,1289,0
210,-5895,1289,0
211,-5860,1289,0
212,-5900,1289,0
213,-5880,1289,0
214,-5865,1289,0
215,-5855,1289,0
216,-5800,1289,0
217,-5770,1289,0
218,-5745,1289,0
219,-5780,1289,0
220,-5735,1289,0
221,-5810,1289,0
222,-5765,1289,0
223,-5800,1289,0
224,-5745,1289,0
225,-5750,1289,0
226,-5630,1289,0
227,-5555,1289,0
228,-5605,1289,0
229,-5585,1289,0
230,-5675,1289,0
231,-5590,1289,0
232,-5495,1289,0
233,-5570,1289,0
234,-5360,1289,1
235,-5315,1289,2
236,-5500,1289,0
237,-5230,1289,2
238,-5460,1289,0
239,-5420,1289,0
240,-5405,1289,0
241,-5280,1289,1
242,-5305,1289,1
243,-5355,1289,1
244,-5345,1289,1
245,-5400,1289,1
246,-5190,1289,2
247,-5230,1289,2
248,-5150,1289,2
249,-5220,1289,2
250,-5180,1289,2
251,-5290,1289,1
252,-5330,1289,1
253,-5210,1289,1
254,-5350,1289,1
255,-5235,1289,1
256,-5185,1289,2
257,-5255,1289,1
258,-5280,1289,1
259,-5265,1289,2
260,-4995,1289,3
261,-5240,1289,1
262,-5000,1289,3
263,-5310,1289,1
264,-5175,1289,2
265,-5135,1289,2
266,-5120,1289,2
267,-5175,1289,2
268,-5070,1289,2
269,-5040,1289,3
270,-4945,1289,2
271,-5045,1289,2
272,-4855,1289,4
273,-5005,1289,3
274,-4890,1289,3
275,-5105,1289,2
276,-5070,1289,2
277,-4975,1289,2
278,-4930,1289,3
279,-5030,1289,2
280,-4835,1289,3
281,-4780,1289,4
282,-4700,1289,5
283,-4635,1289,5
284,-4810,1289,3
285,-4715,1289,4
286,-4815,1289,4
287,-4675,1289,4
288,-4710,1289,4
289,-4690,1289,4
290,-4840,1289,3
291,-4685,1289,4
292,-4515,1289,5
293,-4520,1289,5
294,-4595,1289,5
295,-4480,1289,5
296,-4765,1289,3
297,-4700,1289,4
298,-4725,1289,4
299,-4695,1289,4
300,-5125,1289,3
301,-4670,1289,5
302,-4635,1289,4
303,-4600,1289,5
304,-4720,1289,4
305,-4750,1289,4
306,-4715,1289,4
307,-4550,1289,5
308,-4720,1289,4
309,-4765,1289,4
310,-4750,1289,4
311,-4800,1289,3
312,-4750,1289,4
313,-4530,1289,4
314,-4665,1289,4
315,-4580,1289,4
316,-4585,1289,4
317,-4595,1289,4
318,-4640,1289,4
319,-4580,1289,4
320,-4470,1289,5
321,-4640,1289,4
322,-4500,1289,4
323,-4585,1289,4
324,-4620,1289,4
325,-4570,1289,4
326,-4600,1289,4
327,-5215,1289,2
328,-4610,1289,4
329,-4670,1289,3
330,-4635,1289,4
331,-4610,1289,4
332,-4575,1289,4
333,-4735,1289,3
334,-4515,1289,5
335,-4495,1289,4
336,-4590,1289,4
337,-4615,1289,4
338,-4535,1289,4
339,-4785,1289,3
340,-4595,1289,4
341,-4585,1289,3
342,-4890,1289,3
343,-4575,1289,4
344,-4485,1289,5
345,-4610,1289,3
346,-4685,1289,3
347,-4690,1289,4
348,-4470,1289,4
349,-4645,1289,3
350,-4530,1289,4
351,-5055,1289,3
352,-4590,1289,3
353,-5135,1289,3
354,-4375,1289,5
355,-4640,1289,4
356,-4445,1289,4
357,-4765,1289,4
358,-5030,1289,3
359,-4550,1289,4
360,-4490,1289,4
361,-4600,1289,4
362,-4470,1289,4
363,-4515,1289,4
364,-4425,1289,5
365,-4295,1289,5
366,-4545,1289,4
367,-4445,1289,4
368,-4510,1289,4
369,-4575,1289,4
370,-4560,1289,4
371,-4390,1289,5
372,-4460,1289,5
373,-4535,1289,4
374,-4365,1289,6
375,-4535,1289,4
376,-4480,1289,5
377,-4540,1289,4
378,-4465,1289,4
379,-4620,1289,3
380,-4510,1289,4
381,-4195,1289,6
382,-4450,1289,5
383,-4495,1289,5
384,-4545,1289,4
385,-4550,1289,4
386,-4530,1289,4
387,-4550,1289,4
388,-4575,1289,4
389,-4395,1289,5
390,-4470,1289,5
391,-4450,1289,5
392,-4575,1289,4
393,-4450,1289,5
394,-4565,1289,4
395,-4515,1289,5
396,-4555,1289,4
397,-4410,1289,5
398,-4465,1289,5
399,-4450,1289,5
400,-4420,1289,5
401,-4625,1289,4
402,-4445,1289,5
403,-4625,1289,3
404,-4650,1289,3
405,-4530,1289,4
406,-4520,1289,4
407,-4670,1289,3
408,-4530,1289,4
409,-4585,1289,4
410,-4665,1289,3
411,-4565,1289,4
412,-4590,1289,4
413,-4725,1289,3
414,-4550,1289,4
415,-4875,1289,2
416,-4610,1289,4
417,-4560,1289,4
418,-4710,1289,3
419,-4540,1289,4
420,-4720,1289,3
421,-4645,1289,4
422,-4760,1289,3
423,-4635,1289,4
424,-4630,1289,4
425,-4720,1289,4
426,-4645,1289,4
427,-4680,1289,3
428,-4675,1289,4
429,-4875,1289,2
430,-4785,1289,3
431,-4675,1289,4
432,-4685,1289,4
433,-4705,1289,3
434,-4690,1289,4
435,-4530,1289,5
436,-4680,1289,3
437,-4540,1289,5
438,-4765,1289,4
439,-4760,1289,4
440,-4660,1289,4
441,-4550,1289,4
442,-4695,1289,3
443,-4595,1289,4
444,-4745,1289,4
445,-4685,1289,4
446,-4790,1289,3
447,-4685,1289,4
448,-4550,1289,5
449,-4625,1289,4
450,-4670,1289,4
451,-4745,1289,3
452,-4785,1289,4
453,-4950,1289,2
454,-4825,1289,3
455,-4670,1289,4
456,-5030,1289,2
457,-4920,1289,2
458,-4980,1289,2
459,-4915,1289,2
460,-4645,1289,4
461,-4915,1289,4
462,-4805,1289,3
463,-4900,1289,3
464,-4975,1289,2
465,-5075,1289,2
466,-4995,1289,2
467,-4910,1289,3
468,-4950,1289,3
469,-4805,1289,4
470,-4865,1289,3
471,-5165,1289,2
472,-4985,1289,3
473,-4990,1289,3
474,-5100,1289,2
475,-5045,1289,3
476,-5020,1289,3
477,-5085,1289,3
478,-4925,1289,3
479,-4925,1289,4
480,-5140,1289,2
481,-4870,1289,3
482,-5470,1289,2
483,-5155,1289,2
484,-5210,1289,2
485,-4700,1289,5
486,-5185,1289,3
487,-5310,1289,3
488,-4970,1289,4
489,-5085,1289,3
490,-5240,1289,2
491,-5080,1289,3
492,-5220,1289,3
493,-5185,1289,3
494,-5340,1289,3
495,-5505,1289,1
496,-5540,1289,2
497,-5295,1289,2
498,-5610,1289,1
499,-5405,1289,2
500,-5400,1289,2
501,-5510,1289,2
502,-5505,1289,1
503,-5705,1289,1
504,-5230,1289,2
505,-5420,1289,1
506,-5180,1289,2
507,-5470,1289,1
508,-5395,1289,1
509,-5425,1289,1
510,-5285,1289,1
511,-5490,1289,1
512,-5230,1289,3
513,-5435,1289,1
514,-5400,1289,1
515,-5270,1289,1
516,-5290,1289,1
517,-5275,1289,2
518,-5430,1289,1
519,-5285,1289,3
520,-5470,1289,1
521,-5530,1289,1
522,-5510,1289,1
523,-5510,1289,1
524,-5335,1289,2
525,-5260,1289,2
526,-5340,1289,2
527,-5445,1289,1
528,-5735,1289,1
529,-5620,1289,1
530,-5590,1289,1
531,-5890,1289,1
532,-5375,1289,2
533,-5440,1289,2
534,-5465,1289,1
535,-5415,1289,2
536,-5420,1289,2
537,-5410,1289,1
538,-5365,1289,1
539,-5255,1289,2
540,-5330,1289,2
541,-5330,1289,2
542,-5260,1289,2
543,-5270,1289,2
544,-5485,1289,2
545,-5350,1289,1
546,-5625,1289,1
547,-5550,1289,2
548,-5495,1289,1
549,-5455,1289,2
550,-5210,1289,3
551,-5555,1289,2
552,-5285,1289,2
553,-5495,1289,1
554,-5500,1289,1
555,-5495,1289,1
556,-5525,1289,1
557,-5875,1289,1
558,-5660,1289,2
559,-5705,1289,2
560,-5480,1289,2
561,-5690,1289,0
562,-5770,1289,1
563,-5865,1289,1
564,-5635,1289,2
565,-5600,1289,2
566,-5475,1289,1
567,-5245,1289,3
568,-5460,1289,1
569,-5625,1289,2
570,-5445,1289,1
571,-5500,1289,2
572,-5270,1289,3
573,-5615,1289,2
574,-5440,1289,2
575,-5500,1289,2
576,-5215,1289,3
577,-5410,1289,1
578,-5650,1289,2
579,-5315,1289,2
580,-5430,1289,2
581,-5630,1289,1
582,-5345,1289,2
583,-5235,1289,2
584,-5405,1289,2
585,-5455,1289,2
586,-5615,1289,1
587,-5240,1289,2
588,-5275,1289,3
589,-5400,1289,2
590,-5475,1289,2
591,-5265,1289,3
592,-5680,1289,2
593,-5440,1289,2
594,-5570,1289,2
595,-5600,1289,2
596,-5535,1289,2
597,-5505,1289,2
598,-5165,1289,2
599,-5670,1289,1
600,-5665,1289,2
601,-5375,1289,3
602,-5405,1289,3
603,-5445,1289,2
604,-5455,1289,2
605,-5430,1289,2
606,-5500,1289,2
607,-5545,1289,2
608,-5485,1289,2
609,-5515,1289,2
610,-5485,1289,3
611,-5410,1289,3
612,-5450,1289,3
613,-5510,1289,2
614,-5340,1289,3
615,-5545,1289,2
616,-5485,1289,2
617,-5375,1289,3
618,-5365,1289,3
619,-5590,1289,2
620,-5655,1289,1
621,-5405,1289,2
622,-5660,1289,2
623,-5345,1289,3
624,-5755,1289,1
625,-5475,1289,2
626,-5485,1289,2
627,-5620,1289,1
628,-5450,1289,3
629,-5580,1289,2
630,-5455,1289,2
631,-5480,1289,2
632,-5250,1289,3
633,-5210,1289,4
634,-5365,1289,3
635,-5405,1289,2
636,-5440,1289,3
637,-5150,1289,4
638,-5665,1289,2
639,-5400,1289,3
640,-5395,1289,3
641,-5575,1289,2
642,-5425,1289,3
643,-5415,1289,3
644,-5500,1289,2
645,-5455,1289,2
646,-5630,1289,1
647,-5450,1289,3
648,-5355,1289,3
649,-5840,1289,1
650,-5925,1289,1
651,-5450,1289,3
652,-5865,1289,1
653,-5775,1289,2
654,-5435,1289,2
655,-5295,1289,3
656,-5455,1289,2
657,-5585,1289,2
658,-5515,1289,2
659,-5350,1289,2
660,-5235,1289,3
661,-5295,1289,3
662,-5345,1289,2
663,-5405,1289,2
664,-5320,1289,3
665,-5330,1289,3
666,-5435,1289,1
667,-5490,1289,2
668,-5610,1289,1
669,-5520,1289,2
670,-5610,1289,2
671,-5600,1289,2
672,-5560,1289,1
673,-5585,1289,2
674,-5755,1289,1
675,-5750,1289,2
676,-5975,1289,0
677,-6095,1289,0
678,-5765,1289,1
679,-5685,1289,1
680,-5725,1289,1
681,-5415,1289,2
682,-5660,1289,1
683,-5640,1289,1
684,-5610,1289,1
685,-5715,1289,1
686,-5535,1289,2
687,-5630,1289,1
688,-5535,1289,1
689,-5660,1289,1
690,-5565,1289,1
691,-5665,1289,0
692,-5865,1289,0
693,-5825,1289,0
694,-5705,1289,1
695,-5715,1289,2
696,-5565,1289,2
697,-5685,1289,1
698,-5605,1289,2
699,-5680,1289,1
700,-5620,1289,1
701,-5740,1289,2
702,-5470,1289,2
703,-5585,1289,1
704,-5465,1289,3
705,-5470,1289,2
706,-5590,1289,1
707,-5680,1289,0
708,-5600,1289,1
709,-5410,1289,2
710,-5465,1289,2
711,-5435,1289,2
712,-5455,1289,2
713,-5340,1289,3
714,-5475,1289,2
715,-5345,1289,3
716,-5615,1289,1
717,-5390,1289,2
718,-5380,1289,2
719,-5635,1289,2
720,-5430,1289,3
721,-5375,1289,2
722,-5270,1289,3
723,-5435,1289,2
724,-5240,1289,3
725,-5455,1289,2
726,-5335,1289,3
727,-5480,1289,2
728,-5470,1289,2
729,-5765,1289,1
730,-5350,1289,2
731,-5460,1289,3
732,-5520,1289,2
733,-5650,1289,2
734,-5405,1289,2
735,-5345,1289,2
736,-5500,1289,2
737,-5185,1289,3
738,-5355,1289,2
739,-5470,1289,2
740,-5320,1289,3
741,-5220,1289,3
742,-5295,1289,3
743,-5525,1289,2
744,-5465,1289,2
745,-5465,1289,2
746,-5385,1289,3
747,-5410,1289,2
748,-5600,1289,2
749,-5480,1289,2
750,-5530,1289,2
751,-5605,1289,1
752,-5535,1289,2
753,-5540,1289,2
754,-5605,1289,1
755,-5480,1289,2
756,-5520,1289,2
757,-5395,1289,2
758,-5370,1289,2
759,-5530,1289,1
760,-5430,1289,1
761,-5475,1289,1
762,-5325,1289,2
763,-5385,1289,2
764,-5650,1289,0
765,-5245,1289,3
766,-5400,1289,2
767,-5450,1289,2
768,-5365,1289,2
769,-5350,1289,2
770,-5515,1289,1
771,-5560,1289,1
772,-5480,1289,1
773,-5570,1289,1
774,-5460,1289,1
775,-5355,1289,3
776,-5505,1289,1
777,-5555,1289,1
778,-5635,1289,0
779,-5710,1289,1
780,-5455,1289,1
781,-5515,1289,1
782,-5540,1289,2
783,-5420,1289,2
784,-5465,1289,2
785,-5485,1289,2
786,-5585,1289,1
787,-5555,1289,2
788,-5560,1289,1
789,-5435,1289,2
790,-5445,1289,2
791,-5560,1289,1
792,-5405,1289,2
793,-5710,1289,2
794,-5630,1289,2
795,-5665,1289,1
796,-5595,1289,2
797,-5570,1289,3
798,-5315,1289,3
799,-5655,1289,2
800,-5400,1289,3
801,-5660,1289,3
802,-5575,1289,2
803,-5590,1289,2
804,-5450,1289,3
805,-5400,1289,3
806,-5485,1289,1
807,-5440,1289,3
808,-5645,1289,2
809,-5345,1289,4
810,-5540,1289,2
811,-5685,1289,1
812,-5745,1289,0
813,-5495,1289,3
814,-5600,1289,1
815,-5685,1289,3
816,-5615,1289,1
817,-5370,1289,3
818,-5570,1289,1
819,-5640,1289,0
820,-5600,1289,2
821,-5770,1289,0
822,-5710,1289,1
823,-5360,1289,4
824,-5715,1289,0
825,-5480,1289,2
826,-5685,1289,2
827,-5595,1289,2
828,-5410,1289,2
829,-5575,1289,2
830,-5360,1289,3
831,-5705,1289,1
832,-5845,1289,2
833,-5590,1289,1
834,-5675,1289,1
835,-5795,1289,1
836,-5750,1289,1
837,-5685,1289,2
838,-5715,1289,1
839,-5760,1289,1
840,-5760,1289,2
841,-5740,1289,1
842,-5770,1289,1
843,-5755,1289,2
844,-5810,1289,1
845,-5885,1289,0
846,-5715,1289,1
847,-5795,1289,0
848,-5795,1289,1
849,-5840,1289,0
850,-5755,1289,0
851,-5955,1289,1
852,-5750,1289,2
853,-5995,1289,1
854,-5815,1289,0
855,-5695,1289,2
856,-5645,1289,1
857,-5785,1289,0
858,-5605,1289,3
859,-5815,1289,0
860,-5845,1289,0
861,-5790,1289,1
862,-5820,1289,0
863,-5780,1289,0
864,-5735,1289,0
865,-5760,1289,0
866,-5675,1289,1
867,-5750,1289,0
868,-5615,1289,1
869,-5620,1289,2
870,-5715,1289,0
871,-5805,1289,0
872,-5625,1289,1
873,-5610,1289,1
874,-5660,1289,1
875,-5755,1289,0
876,-5700,1289,0
877,-5770,1289,0
878,-5650,1289,1
879,-5470,1289,2
880,-5710,1289,0
881,-5415,1289,2
882,-5675,1289,1
883,-5715,1289,1
884,-5735,1289,1
885,-5665,1289,1
886,-5550,1289,1
887,-5655,1289,1
888,-5530,1289,2
889,-5820,1289,0
890,-5505,1289,2
891,-5675,1289,1
892,-5605,1289,2
893,-5915,1289,0
894,-5690,1289,1
895,-5675,1289,2
896,-5755,1289,1
897,-5865,1289,0
898,-5800,1289,1
899,-5680,1289,2
900,-5860,1289,1
901,-5755,1289,1
902,-5805,1289,1
903,-5790,1289,1
904,-5755,1289,1
905,-5695,1289,1
906,-5555,1289,3
907,-5920,1289,0
908,-5730,1289,2
909,-5640,1289,2
910,-5810,1289,1
911,-5730,1289,1
912,-5775,1289,1
913,-5765,1289,1
914,-5945,1289,1
915,-5645,1289,2
916,-5700,1289,1
917,-5565,1289,2
918,-5545,1289,2
919,-5440,1289,3
920,-5585,1289,2
921,-5565,1289,1
922,-5675,1289,1
923,-5620,1289,2
924,-5435,1289,4
925,-5485,1289,3
926,-5565,1289,2
927,-5715,1289,1
928,-5790,1289,1
929,-5730,1289,2
930,-5565,1289,2
931,-5585,1289,2
932,-5645,1289,2
933,-5615,1289,2
934,-5570,1289,2
935,-5495,1289,3
936,-5725,1289,2
937,-5705,1289,2
938,-5655,1289,2
939,-5565,1289,2
940,-5500,1289,3
941,-5645,1289,2
942,-5545,1289,2
943,-5875,1289,0
944,-5600,1289,2
945,-5760,1289,1
946,-5690,1289,2
947,-6015,1289,0
948,-5680,1289,2
949,-5740,1289,1
950,-5800,1289,1
951,-5725,1289,1
952,-5800,1289,0
953,-5770,1289,2
954,-5730,1289,1
955,-5690,1289,2
956,-5680,1289,2
957,-5725,1289,1
958,-5680,1289,1
959,-5580,1289,2
960,-5500,1289,2
961,-5685,1289,2
962,-5515,1289,2
963,-5540,1289,1
964,-5585,1289,2
965,-5790,1289,0
966,-5490,1289,2
967,-5685,1289,2
968,-5740,1289,2
969,-5735,1289,2
970,-5650,1289,1
971,-5365,1289,3
972,-5655,1289,1
973,-5785,1289,0
974,-5805,1289,1
975,-5795,1289,1
976,-5550,1289,2
977,-5855,1289,1
978,-5800,1289,0
979,-5700,1289,1
980,-5785,1289,1
981,-6020,1289,0
982,-5550,1289,1
983,-6045,1289,0
984,-5765,1289,1
985,-5715,1289,0
986,-5850,1289,1
987,-5685,1289,0
988,-5535,1289,1
989,-5475,1289,3
990,-5440,1289,3
991,-5450,1289,2
992,-5495,1289,2
993,-5655,1289,2
994,-5375,1289,3
995,-5680,1289,1
996,-5765,1289,1
997,-5660,1289,2
998,-5460,1289,2
999,-5630,1289,2
