episode,reward,step,sensitive
0,340,63,2
1,155,95,2
2,325,29,2
3,315,39,2
4,290,68,2
5,220,90,2
6,385,39,2
7,300,57,2
8,385,33,2
9,325,51,2
10,335,48,2
11,160,94,2
12,235,76,2
13,285,70,2
14,180,92,2
15,85,113,2
16,105,113,2
17,-85,149,2
18,190,88,2
19,390,39,2
20,60,106,2
21,180,104,2
22,-15,131,2
23,165,91,2
24,-15,131,2
25,305,64,2
26,205,88,2
27,230,80,2
28,350,54,2
29,335,49,2
30,415,40,2
31,375,38,2
32,370,31,2
33,330,49,2
34,405,40,2
35,245,74,2
36,365,40,2
37,240,80,2
38,355,32,2
39,120,102,2
40,225,79,2
41,315,64,2
42,325,64,2
43,390,38,2
44,235,75,2
45,360,43,2
46,350,27,2
47,315,50,2
48,275,66,2
49,320,27,2
50,240,80,2
51,270,40,2
52,230,68,2
53,-75,114,2
54,150,59,2
55,-175,155,2
56,65,69,2
57,-420,197,2
58,75,99,2
59,200,69,2
60,85,92,2
61,-460,203,2
62,155,50,2
63,140,56,2
64,310,41,2
65,280,20,2
66,310,19,2
67,350,26,2
68,320,41,2
69,315,51,2
70,355,27,2
71,310,10,2
72,255,59,2
73,295,16,2
74,305,18,2
75,295,35,2
76,240,68,2
77,215,35,2
78,280,61,2
79,240,30,2
80,85,56,2
81,150,76,2
82,-225,120,2
83,-2025,489,1
84,180,72,2
85,-1385,384,2
86,-1595,409,2
87,-165,125,2
88,90,81,2
89,170,77,2
90,-40,87,2
91,290,37,2
92,-130,141,2
93,100,46,2
94,175,70,2
95,240,59,2
96,290,50,2
97,160,76,2
98,315,31,2
99,360,39,2
100,305,28,2
101,340,35,2
102,235,56,2
103,335,22,2
104,180,77,2
105,165,91,2
106,270,49,2
107,25,114,2
108,235,62,2
109,300,13,2
110,370,31,2
111,310,54,2
112,245,67,2
113,350,26,2
114,355,19,2
115,280,57,2
116,340,18,2
117,395,25,2
118,390,28,2
119,325,22,2
120,335,30,2
121,385,29,2
122,360,24,2
123,410,23,2
124,350,15,2
125,265,54,2
126,365,20,2
127,260,65,2
128,350,33,2
129,295,56,2
130,360,25,2
131,405,30,2
132,335,38,2
133,-45,131,2
134,390,27,2
135,385,22,2
136,110,90,2
137,390,41,2
138,345,13,2
139,270,44,2
140,310,51,2
141,370,47,2
142,420,31,2
143,265,63,2
144,350,46,2
145,365,43,2
146,340,14,2
147,255,71,2
148,370,29,2
149,310,9,2
150,355,50,2
151,390,30,2
152,390,22,2
153,360,24,2
154,335,50,2
155,300,47,2
156,190,83,2
157,210,77,2
158,385,40,2
159,345,16,2
160,-70,136,2
161,295,65,2
162,380,20,2
163,340,45,2
164,335,30,2
165,-120,150,2
166,275,64,2
167,275,63,2
168,265,56,2
169,145,98,2
170,355,41,2
171,370,37,2
172,320,37,2
173,295,44,2
174,355,28,2
175,335,32,2
176,340,27,2
177,360,36,2
178,295,65,2
179,315,41,2
180,275,43,2
181,185,75,2
182,-110,122,2
183,195,78,2
184,190,66,2
185,45,102,2
186,275,51,2
187,-75,126,2
188,305,52,2
189,295,44,2
190,330,50,2
191,245,70,2
192,340,22,2
193,290,47,2
194,195,82,2
195,300,29,2
196,345,43,2
197,325,38,2
198,365,35,2
199,310,53,2
200,360,36,2
201,305,50,2
202,345,46,2
203,205,77,2
204,375,39,2
205,325,23,2
206,335,19,2
207,310,40,2
208,295,54,2
209,345,31,2
210,345,37,2
211,220,74,2
212,325,27,2
213,305,42,2
214,335,30,2
215,330,24,2
216,310,11,2
217,300,14,2
218,380,21,2
219,355,25,2
220,305,47,2
221,345,16,2
222,350,17,2
223,360,27,2
224,335,29,2
225,380,17,2
226,355,18,2
227,320,41,2
228,335,26,2
229,325,47,2
230,365,23,2
231,350,18,2
232,360,34,2
233,305,22,2
234,240,59,2
235,385,34,2
236,280,51,2
237,305,58,2
238,350,16,2
239,250,66,2
240,280,69,2
241,325,33,2
242,375,37,2
243,255,57,2
244,205,67,2
245,330,18,2
246,270,61,2
247,175,85,2
248,365,26,2
249,290,28,2
250,335,16,2
251,365,16,2
252,325,16,2
253,355,36,2
254,350,27,2
255,320,12,2
256,330,20,2
257,365,27,2
258,330,28,2
259,340,14,2
260,335,23,2
261,315,48,2
262,350,21,2
263,265,46,2
264,285,30,2
265,405,32,2
266,315,12,2
267,310,14,2
268,355,25,2
269,340,13,2
270,350,28,2
271,365,23,2
272,340,12,2
273,310,38,2
274,340,27,2
275,305,17,2
276,280,47,2
277,325,22,2
278,325,9,2
279,315,23,2
280,350,21,2
281,325,25,2
282,345,17,2
283,305,16,2
284,335,28,2
285,330,21,2
286,325,15,2
287,315,22,2
288,330,23,2
289,350,21,2
290,330,10,2
291,340,18,2
292,360,17,2
293,285,27,2
294,300,14,2
295,350,12,2
296,325,23,2
297,345,28,2
298,335,21,2
299,365,29,2
300,345,17,2
301,365,28,2
302,335,33,2
303,345,19,2
304,335,21,2
305,330,13,2
306,375,27,2
307,345,23,2
308,320,18,2
309,330,34,2
310,360,38,2
311,335,40,2
312,355,40,2
313,310,32,2
314,280,58,2
315,300,39,2
316,255,44,2
317,325,21,2
318,335,22,2
319,360,35,2
320,350,41,2
321,350,37,2
322,345,35,2
323,385,28,2
324,365,36,2
325,370,24,2
326,365,28,2
327,330,24,2
328,215,68,2
329,315,10,2
330,310,26,2
331,350,17,2
332,365,25,2
333,345,33,2
334,340,19,2
335,335,23,2
336,335,26,2
337,355,28,2
338,340,23,2
339,300,8,2
340,330,21,2
341,325,10,2
342,340,37,2
343,320,25,2
344,320,44,2
345,355,19,2
346,340,36,2
347,310,19,2
348,380,27,2
349,345,22,2
350,330,16,2
351,285,53,2
352,320,35,2
353,315,42,2
354,335,32,2
355,350,28,2
356,320,14,2
357,305,13,2
358,320,29,2
359,335,21,2
360,320,15,2
361,335,14,2
362,325,15,2
363,310,44,2
364,315,16,2
365,310,26,2
366,360,23,2
367,345,24,2
368,280,49,2
369,305,16,2
370,365,23,2
371,340,23,2
372,315,24,2
373,350,12,2
374,330,15,2
375,285,40,2
376,315,8,2
377,330,25,2
378,365,37,2
379,300,20,2
380,270,32,2
381,320,19,2
382,325,11,2
383,330,29,2
384,355,26,2
385,315,12,2
386,345,27,2
387,345,26,2
388,350,17,2
389,310,47,2
390,370,21,2
391,330,22,2
392,345,20,2
393,290,35,2
394,335,23,2
395,345,17,2
396,325,25,2
397,315,42,2
398,305,20,2
399,335,25,2
400,305,45,2
401,290,27,2
402,365,18,2
403,350,17,2
404,355,16,2
405,305,10,2
406,350,25,2
407,330,34,2
408,335,29,2
409,330,25,2
410,300,11,2
411,325,46,2
412,330,29,2
413,330,20,2
414,325,31,2
415,310,15,2
416,335,21,2
417,330,18,2
418,300,31,2
419,275,47,2
420,310,16,2
421,385,23,2
422,295,29,2
423,365,31,2
424,300,15,2
425,290,7,2
426,270,36,2
427,350,23,2
428,290,34,2
429,250,27,2
430,200,64,2
431,305,20,2
432,350,30,2
433,280,21,2
434,310,33,2
435,335,27,2
436,305,26,2
437,270,38,2
438,305,8,2
439,320,31,2
440,315,11,2
441,295,35,2
442,355,31,2
443,300,36,2
444,285,25,2
445,345,28,2
446,340,26,2
447,310,9,2
448,200,44,2
449,285,9,2
450,310,19,2
451,300,24,2
452,270,17,2
453,350,33,2
454,290,40,2
455,265,10,2
456,305,17,2
457,250,35,2
458,295,17,2
459,300,18,2
460,275,10,2
461,285,33,2
462,315,13,2
463,320,27,2
464,295,7,2
465,365,18,2
466,310,35,2
467,280,18,2
468,300,20,2
469,295,21,2
470,355,19,2
471,305,15,2
472,275,19,2
473,285,18,2
474,280,7,2
475,290,9,2
476,290,31,2
477,310,36,2
478,305,9,2
479,330,15,2
480,340,14,2
481,280,7,2
482,265,32,2
483,320,29,2
484,300,15,2
485,280,16,2
486,325,19,2
487,340,19,2
488,280,10,2
489,290,9,2
490,260,43,2
491,310,18,2
492,275,22,2
493,295,7,2
494,340,19,2
495,340,21,2
496,275,8,2
497,270,21,2
498,315,14,2
499,330,25,2
500,275,10,2
501,305,23,2
502,300,13,2
503,240,31,2
504,285,10,2
505,325,16,2
506,285,11,2
507,250,23,2
508,295,19,2
509,310,11,2
510,295,22,2
511,300,18,2
512,320,24,2
513,285,11,2
514,265,43,2
515,300,31,2
516,330,17,2
517,275,38,2
518,275,48,2
519,235,54,2
520,305,16,2
521,310,43,2
522,285,10,2
523,310,19,2
524,315,17,2
525,270,33,2
526,285,29,2
527,205,43,2
528,315,34,2
529,290,30,2
530,175,39,2
531,305,18,2
532,290,18,2
533,305,24,2
534,230,54,2
535,315,14,2
536,105,76,2
537,210,68,2
538,295,27,2
539,200,54,2
540,295,11,2
541,275,42,2
542,290,39,2
543,340,23,2
544,305,24,2
545,175,55,2
546,185,68,2
547,285,21,2
548,330,14,2
549,325,19,2
550,350,22,2
551,330,16,2
552,290,29,2
553,260,36,2
554,290,25,2
555,325,13,2
556,320,31,2
557,315,24,2
558,285,36,2
559,290,43,2
560,280,30,2
561,295,41,2
562,310,30,2
563,305,21,2
564,320,23,2
565,315,33,2
566,295,47,2
567,300,22,2
568,285,43,2
569,300,16,2
570,265,48,2
571,255,41,2
572,305,31,2
573,270,44,2
574,260,34,2
575,340,18,2
576,320,23,2
577,345,33,2
578,335,22,2
579,315,20,2
580,310,19,2
581,300,18,2
582,290,41,2
583,340,26,2
584,355,25,2
585,300,36,2
586,310,26,2
587,305,36,2
588,340,20,2
589,320,40,2
590,335,39,2
591,345,31,2
592,310,19,2
593,330,43,2
594,315,35,2
595,290,34,2
596,325,16,2
597,335,20,2
598,280,39,2
599,340,28,2
600,320,14,2
601,290,37,2
602,320,26,2
603,270,47,2
604,310,28,2
605,240,56,2
606,285,47,2
607,305,26,2
608,340,21,2
609,345,34,2
610,300,41,2
611,320,32,2
612,275,28,2
613,330,21,2
614,335,19,2
615,280,38,2
616,320,28,2
617,340,37,2
618,350,30,2
619,335,17,2
620,360,18,2
621,325,20,2
622,310,27,2
623,345,28,2
624,325,36,2
625,300,35,2
626,320,33,2
627,250,51,2
628,335,16,2
629,320,22,2
630,325,29,2
631,280,50,2
632,300,23,2
633,340,29,2
634,315,27,2
635,305,23,2
636,315,36,2
637,335,21,2
638,230,53,2
639,345,22,2
640,270,30,2
641,325,26,2
642,265,45,2
643,320,26,2
644,310,37,2
645,300,39,2
646,340,16,2
647,340,14,2
648,305,19,2
649,335,18,2
650,320,19,2
651,195,55,2
652,295,41,2
653,320,30,2
654,325,12,2
655,275,38,2
656,375,39,2
657,335,23,2
658,340,28,2
659,335,17,2
660,335,36,2
661,315,18,2
662,320,22,2
663,315,26,2
664,330,24,2
665,330,10,2
666,295,28,2
667,320,12,2
668,280,41,2
669,315,33,2
670,350,15,2
671,320,21,2
672,305,44,2
673,345,14,2
674,300,23,2
675,290,35,2
676,325,30,2
677,315,23,2
678,340,26,2
679,320,18,2
680,350,21,2
681,295,24,2
682,305,17,2
683,305,44,2
684,310,26,2
685,310,19,2
686,310,24,2
687,320,15,2
688,345,25,2
689,325,21,2
690,265,41,2
691,305,31,2
692,315,44,2
693,320,20,2
694,310,44,2
695,205,61,2
696,335,20,2
697,250,48,2
698,315,13,2
699,300,32,2
700,330,12,2
701,310,30,2
702,270,33,2
703,225,47,2
704,265,31,2
705,330,32,2
706,290,28,2
707,355,24,2
708,300,22,2
709,315,39,2
710,280,42,2
711,305,47,2
712,325,17,2
713,330,13,2
714,325,24,2
715,225,56,2
716,240,48,2
717,295,20,2
718,310,17,2
719,295,24,2
720,310,21,2
721,345,13,2
722,330,26,2
723,300,26,2
724,315,20,2
725,285,41,2
726,315,12,2
727,340,14,2
728,350,26,2
729,310,36,2
730,285,33,2
731,275,23,2
732,320,16,2
733,305,25,2
734,300,31,2
735,325,23,2
736,325,15,2
737,320,19,2
738,330,20,2
739,320,13,2
740,335,17,2
741,315,26,2
742,335,17,2
743,310,19,2
744,290,19,2
745,310,18,2
746,310,16,2
747,310,19,2
748,315,27,2
749,305,15,2
750,300,21,2
751,305,27,2
752,290,19,2
753,325,19,2
754,320,12,2
755,280,17,2
756,305,9,2
757,275,28,2
758,285,14,2
759,320,23,2
760,325,15,2
761,290,15,2
762,315,12,2
763,300,14,2
764,315,8,2
765,305,16,2
766,335,11,2
767,275,21,2
768,305,10,2
769,305,15,2
770,300,8,2
771,300,8,2
772,320,9,2
773,320,12,2
774,310,10,2
775,315,11,2
776,295,16,2
777,295,9,2
778,305,13,2
779,305,9,2
780,290,12,2
781,305,11,2
782,295,11,2
783,255,28,2
784,265,20,2
785,315,13,2
786,325,13,2
787,315,15,2
788,285,17,2
789,305,11,2
790,295,13,2
791,250,31,2
792,315,14,2
793,305,7,2
794,300,12,2
795,260,23,2
796,265,29,2
797,290,12,2
798,295,9,2
799,235,28,2
800,305,10,2
801,200,36,2
802,315,15,2
803,280,19,2
804,295,11,2
805,305,14,2
806,275,19,2
807,290,10,2
808,245,21,2
809,285,15,2
810,285,13,2
811,300,10,2
812,305,9,2
813,260,20,2
814,305,13,2
815,290,10,2
816,275,19,2
817,310,10,2
818,315,8,2
819,300,10,2
820,290,12,2
821,295,11,2
822,290,10,2
823,285,26,2
824,285,11,2
825,260,26,2
826,305,9,2
827,190,46,2
828,285,13,2
829,155,55,2
830,325,14,2
831,280,22,2
832,275,22,2
833,305,10,2
834,255,20,2
835,290,12,2
836,300,22,2
837,230,32,2
838,300,10,2
839,300,10,2
840,290,18,2
841,300,17,2
842,290,12,2
843,320,9,2
844,300,20,2
845,300,15,2
846,260,30,2
847,300,17,2
848,285,11,2
849,260,20,2
850,285,13,2
851,270,21,2
852,315,10,2
853,285,15,2
854,305,11,2
855,305,13,2
856,255,25,2
857,250,31,2
858,260,22,2
859,310,11,2
860,300,19,2
861,320,23,2
862,295,15,2
863,310,15,2
864,305,7,2
865,295,15,2
866,270,17,2
867,300,17,2
868,255,21,2
869,255,31,2
870,305,7,2
871,300,10,2
872,300,14,2
873,285,15,2
874,305,10,2
875,290,16,2
876,325,11,2
877,300,12,2
878,295,15,2
879,305,9,2
880,280,19,2
881,285,13,2
882,300,11,2
883,300,10,2
884,305,10,2
885,260,19,2
886,305,7,2
887,285,16,2
888,295,11,2
889,300,10,2
890,290,10,2
891,285,11,2
892,290,12,2
893,285,15,2
894,300,8,2
895,285,11,2
896,295,11,2
897,290,10,2
898,300,8,2
899,275,13,2
900,305,7,2
901,305,17,2
902,310,8,2
903,315,10,2
904,285,11,2
905,290,16,2
906,290,16,2
907,280,12,2
908,300,12,2
909,325,13,2
910,300,8,2
911,305,7,2
912,310,10,2
913,310,9,2
914,270,17,2
915,305,9,2
916,285,13,2
917,300,8,2
918,275,18,2
919,250,18,2
920,295,16,2
921,290,14,2
922,300,8,2
923,280,15,2
924,305,15,2
925,305,7,2
926,280,17,2
927,310,8,2
928,295,14,2
929,260,24,2
930,290,12,2
931,290,18,2
932,320,12,2
933,275,25,2
934,285,13,2
935,315,8,2
936,300,8,2
937,230,38,2
938,285,11,2
939,320,13,2
940,300,12,2
941,290,10,2
942,265,26,2
943,280,16,2
944,305,10,2
945,275,15,2
946,285,15,2
947,295,16,2
948,250,30,2
949,270,28,2
950,280,24,2
951,295,9,2
952,285,17,2
953,310,8,2
954,260,23,2
955,290,13,2
956,295,11,2
957,300,8,2
958,290,15,2
959,310,21,2
960,295,16,2
961,300,15,2
962,295,11,2
963,255,36,2
964,310,9,2
965,335,12,2
966,275,21,2
967,255,30,2
968,250,32,2
969,290,17,2
970,305,14,2
971,315,14,2
972,315,16,2
973,325,14,2
974,310,8,2
975,295,9,2
976,275,28,2
977,315,10,2
978,285,25,2
979,300,11,2
980,290,12,2
981,310,14,2
982,285,14,2
983,310,14,2
984,310,24,2
985,325,17,2
986,305,14,2
987,315,24,2
988,315,14,2
989,285,16,2
990,280,35,2
991,330,16,2
992,330,19,2
993,325,9,2
994,305,9,2
995,320,12,2
996,310,15,2
997,355,15,2
998,330,21,2
999,300,24,2
